0.0552353386137871               0.00198485880933474
0.116197073036553                0.0136502022367953
0.155365995461394                0.0240064765786661
0.177083789173611                0.0356380617775583
0.207513081313570                0.0485674633191840
0.229240252311501                0.0589087340039135
0.250939291452291                0.0731209482311314
0.272628953307369                0.0886234769725122
0.289958177305718                0.104122254799607
0.311647839160795                0.119624783540988
0.328977063159145                0.135123561368083
0.346306287157495                0.150622339195179
0.376613674583180                0.180325829420921
0.406911684723151                0.211319634160827
0.437219072148836                0.241023124386569
0.467526459574521                0.270726614612312
0.497824469714493                0.301720419352217
0.532473540425479                0.334008289520571
0.562771550565450                0.365002094260476
0.614768599846213                0.410208113227599
0.649436425128625                0.439915354367627
0.692815748838779                0.470920411850389
0.740564887691375                0.500638905733273
0.766614987403179                0.516145185388938
0.792674464400698                0.530361150530442
0.823094379254943                0.544580866586230
0.853523671394903                0.557510268127856
0.892664461962603                0.571737486012216
0.931814629816017                0.584674389382412
0.970983552240859                0.595030663724283
1.01886397309344                0.606684754408887
1.06676314851745                0.615758216065166
1.12339257694063                0.623548865035852
1.18004075993523                0.628758884978213
1.24105875807228                0.632682341320697
1.30209551078075                0.634025168634855
1.36314164077494                0.634077681434850
1.43292740105401                0.631557067035090
1.48964122504861                0.627734885378311
1.54637380361463                0.621332074693207
1.60746682003738                0.614933014922387
1.65984833803240                0.607236138808835
1.71659967116985                0.598252699095404
1.76899056645057                0.589265508467689
1.81702102387457                0.580274566925688
1.86506085858428                0.569993310869524
1.91310069329399                0.559712054813361
1.96114052800370                0.549430798757197
2.00482930214240                0.537855477272585
2.04850869899538                0.527570470302136
2.08783703527735                0.515991397903239
2.13590500184420                0.501839198304587
2.17959377598290                0.490263876819975
2.21455229712242                0.479971368020955
2.25389001069011                0.467101981107895
2.29322772425779                0.454232594194835
2.33256543782547                0.441363207281775
2.36753333625071                0.429780383968592
2.40688042710411                0.415620682541369
2.44184832552935                0.404037859228187
2.48119541638274                0.389878157800964
2.53366132994918                0.370568451059946
2.58613662080132                0.349968429804765
2.61237426622739                0.339668419177174
2.66047974193710                0.320354961521871
2.70420602521865                0.303618381980608
2.73920205550103                0.288164615124937
2.76982827064097                0.273997411869143
2.80481492363764                0.259833959527635
2.84855058420490                0.241807065472209
2.88354661448728                0.226353298616538
2.91416345234151                0.213476409874907
2.94478966748145                0.199309206619113
2.97103669019323                0.187718881477360
3.00603272047562                0.172265114621689
3.03665893561556                0.158097911365895
3.06292471289877                0.143926957195816
3.09355092803871                0.129759753940023
3.12417714317865                0.115592550684229
3.15043354317615                0.102711911028313
3.18105975831609                0.0885447077725195
3.20732553559930                0.0743737536024406
3.23795175073924                0.0602065503466470
3.26421752802246                0.0460355961765680
3.29484374316240                0.0318683929207745
3.32546995830234                0.0177011896649808
3.34737529772882                0.00352648458061655


