 0.75000000000000D+00
 0.15719500000000D+03  0.18101325753872D-06  0.17913707735779D-06  0.17730239873662D-06  0.17556999846825D-06  0.17400078373375D-06  0.17265140426425D-06  0.17157238006469D-06  0.17080816062090D-06  0.17039695536999D-06  0.17036867050449D-06
 0.15739500000000D+03  0.18541964079590D-06  0.18359855869989D-06  0.18169161463075D-06  0.17975611835600D-06  0.17785441248298D-06  0.17604902977605D-06  0.17439925459485D-06  0.17296008779377D-06  0.17178227816607D-06  0.17091120871360D-06
 0.15759500000000D+03  0.18945643452516D-06  0.18792519112621D-06  0.18619044876694D-06  0.18429986581047D-06  0.18231012962278D-06  0.18028298121758D-06  0.17828089398346D-06  0.17636462972806D-06  0.17459274152445D-06  0.17302113302629D-06
 0.15779500000000D+03  0.19275925070371D-06  0.19172506905419D-06  0.19038980598178D-06  0.18878678219168D-06  0.18696060092375D-06  0.18496516760217D-06  0.18285966459201D-06  0.18070502952964D-06  0.17856240429435D-06  0.17649275426975D-06
 0.15799500000000D+03  0.19503459657146D-06  0.19465883420502D-06  0.19391257268661D-06  0.19281207195375D-06  0.19138506976983D-06  0.18967126318852D-06  0.18771980811258D-06  0.18558565058733D-06  0.18332692536460D-06  0.18100401843063D-06
 0.15819500000000D+03  0.19608617228579D-06  0.19647041720359D-06  0.19644816247027D-06  0.19601784727863D-06  0.19518783951424D-06  0.19397897917538D-06  0.19242436987387D-06  0.19056675279141D-06  0.18845547897593D-06  0.18614475489043D-06
 0.15839500000000D+03  0.19583134071003D-06  0.19700927419030D-06  0.19778027984082D-06  0.19812580087586D-06  0.19803470494930D-06  0.19750678892267D-06  0.19655482395144D-06  0.19520392240092D-06  0.19348912013365D-06  0.19145310748045D-06
 0.15859500000000D+03  0.19430614016309D-06  0.19624178736354D-06  0.19780480803823D-06  0.19896152385579D-06  0.19968313410649D-06  0.19994885558418D-06  0.19974937224783D-06  0.19908847305672D-06  0.19798225858612D-06  0.19645715622352D-06
 0.15879500000000D+03  0.19165880829261D-06  0.19425105552287D-06  0.19653618109546D-06  0.19846786478928D-06  0.20000272380510D-06  0.20110210399794D-06  0.20173562637416D-06  0.20188454159735D-06  0.20154308449852D-06  0.20071773882506D-06
 0.15899500000000D+03  0.18813327320726D-06  0.19122589500319D-06  0.19410230563241D-06  0.19670642700328D-06  0.19898393280229D-06  0.20088244339412D-06  0.20235395832154D-06  0.20335874358151D-06  0.20386858350594D-06  0.20386797388351D-06
 0.15919500000000D+03  0.18404509499947D-06  0.18744109784558D-06  0.19072958170319D-06  0.19384803256863D-06  0.19673492270182D-06  0.19932883356349D-06  0.20156916244812D-06  0.20339921403865D-06  0.20477037175640D-06  0.20564524562297D-06
 0.15939500000000D+03  0.17975274649672D-06  0.18323161586923D-06  0.18672048013630D-06  0.19015426550566D-06  0.19346797459823D-06  0.19659570847857D-06  0.19946984817951D-06  0.20202242645344D-06  0.20418888436523D-06  0.20591244960867D-06
 0.15959500000000D+03  0.17562698046152D-06  0.17896336733339D-06  0.18242636939168D-06  0.18595278171592D-06  0.18947797281414D-06  0.19293571244151D-06  0.19625667444715D-06  0.19936792819880D-06  0.20219512503536D-06  0.20466686359439D-06
 0.15979500000000D+03  0.17202057977650D-06  0.17500301264248D-06  0.17821801774160D-06  0.18160898664204D-06  0.18511571485246D-06  0.18867543964009D-06  0.19222170581899D-06  0.19568258668155D-06  0.19898078089978D-06  0.20203667187198D-06
 0.15999500000000D+03  0.16924029259056D-06  0.17168860058395D-06  0.17445574056570D-06  0.17749622656226D-06  0.18075849390516D-06  0.18418688774201D-06  0.18772162625875D-06  0.19129679669654D-06  0.19483865137222D-06  0.19826652007174D-06
 0.16019500000000D+03  0.16752238987542D-06  0.16930265321898D-06  0.17146079785763D-06  0.17396617290322D-06  0.17677987038651D-06  0.17985690702610D-06  0.18314739909848D-06  0.18659531416161D-06  0.19013588060267D-06  0.19369427360613D-06
 0.16039500000000D+03  0.16701309781930D-06  0.16804909902138D-06  0.16948949561493D-06  0.17132083589283D-06  0.17352014543377D-06  0.17605642275389D-06  0.17889252265700D-06  0.18198515638275D-06  0.18528251854936D-06  0.18872141216077D-06
 0.16059500000000D+03  0.16775512022706D-06  0.16803543741243D-06  0.16871146816611D-06  0.16978765694502D-06  0.17125893476825D-06  0.17311091197346D-06  0.17532162862636D-06  0.17786264787434D-06  0.18069771794940D-06  0.18377942437312D-06
 0.16079500000000D+03  0.16968150860800D-06  0.16926155132813D-06  0.16919370901091D-06  0.16949928571587D-06  0.17019137407243D-06  0.17127360883863D-06  0.17274099475752D-06  0.17458143304411D-06  0.17677565095227D-06  0.17929442512362D-06
 0.16099500000000D+03  0.17261814111912D-06  0.17161659979591D-06  0.17089197903721D-06  0.17047980552197D-06  0.17040971698119D-06  0.17070310738268D-06  0.17137260580316D-06  0.17242321111922D-06  0.17385312619015D-06  0.17565215785161D-06
 0.16119500000000D+03  0.17629582545076D-06  0.17488528448088D-06  0.17365115691172D-06  0.17263921449605D-06  0.17189226012361D-06  0.17144727415463D-06  0.17133359647055D-06  0.17157303757387D-06  0.17218090255019D-06  0.17316557781976D-06
 0.16139500000000D+03  0.18037228676033D-06  0.17876426760975D-06  0.17721574455242D-06  0.17577776955196D-06  0.17450150545912D-06  0.17343551917108D-06  0.17262311238869D-06  0.17210119258021D-06  0.17190077208091D-06  0.17204727329277D-06
 0.16159500000000D+03  0.18446292306921D-06  0.18288841415586D-06  0.18125088327542D-06  0.17960116491537D-06  0.17799307052515D-06  0.17648132205081D-06  0.17511866626345D-06  0.17395372771434D-06  0.17303055925346D-06  0.17238901445071D-06
 0.16179500000000D+03  0.18817745538920D-06  0.18686487880700D-06  0.18537277362497D-06  0.18374627844055D-06  0.18203588066445D-06  0.18029624455079D-06  0.17858371670565D-06  0.17695368212247D-06  0.17545915238638D-06  0.17415068172101D-06
 0.16199500000000D+03  0.19115810441537D-06  0.19031131219103D-06  0.18918557213441D-06  0.18781545077486D-06  0.18624256337937D-06  0.18451531114684D-06  0.18268720478413D-06  0.18081433389398D-06  0.17895332587868D-06  0.17716059518272D-06
 0.16219500000000D+03  0.19311440240512D-06  0.19289335480293D-06  0.19232029673755D-06  0.19141544023691D-06  0.19020701041425D-06  0.18873171615701D-06  0.18703407200344D-06  0.18516449437689D-06  0.18317713798063D-06  0.18112859185960D-06
 0.16239500000000D+03  0.19385050230912D-06  0.19435669496997D-06  0.19447072796775D-06  0.19419606308588D-06  0.19354445393276D-06  0.19253685516515D-06  0.19120368351720D-06  0.18958384902883D-06  0.18772296760889D-06  0.18567182616659D-06
 0.16259500000000D+03  0.19328250136369D-06  0.19455026453774D-06  0.19542205526399D-06  0.19588365405856D-06  0.19592885330780D-06  0.19556047662990D-06  0.19479133415068D-06  0.19364426374164D-06  0.19215109017207D-06  0.19035124504902D-06
 0.16279500000000D+03  0.19144501893653D-06  0.19343896288808D-06  0.19506970353210D-06  0.19630582147251D-06  0.19712320024443D-06  0.19750589156594D-06  0.19744741410325D-06  0.19695167136012D-06  0.19603285292338D-06  0.19471455837371D-06
 0.16299500000000D+03  0.18848735320178D-06  0.19110577130626D-06  0.19342752691493D-06  0.19540582601375D-06  0.19700009621122D-06  0.19817658834853D-06  0.19890965819683D-06  0.19918326742708D-06  0.19899184124946D-06  0.19834016451574D-06
 0.16319500000000D+03  0.18465990051613D-06  0.18774380131264D-06  0.19062564442484D-06  0.19324639363233D-06  0.19555173709218D-06  0.19749251709201D-06  0.19902572650963D-06  0.20011620216151D-06  0.20073827087621D-06  0.20087657533441D-06
 0.16339500000000D+03  0.18029166388170D-06  0.18363896217641D-06  0.18689851982900D-06  0.19000343185863D-06  0.19288950951204D-06  0.19549579760029D-06  0.19776519635043D-06  0.19964594667940D-06  0.20109371880090D-06  0.20207336036224D-06
 0.16359500000000D+03  0.17576020433169D-06  0.17914418137789D-06  0.18256397988006D-06  0.18595022161413D-06  0.18923368509173D-06  0.19234621566424D-06  0.19522109712900D-06  0.19779403265656D-06  0.20000519778505D-06  0.20180167113193D-06
 0.16379500000000D+03  0.17145645240683D-06  0.17464691193834D-06  0.17799435131279D-06  0.18143287500286D-06  0.18489375524171D-06  0.18830691334627D-06  0.19160132874518D-06  0.19470543398051D-06  0.19754864144790D-06  0.20006396817065D-06
 0.16399500000000D+03  0.16774796209535D-06  0.17053286673246D-06  0.17358195473818D-06  0.17683864507182D-06  0.18024043853438D-06  0.18372087540119D-06  0.18721029284140D-06  0.19063581398642D-06  0.19392202130928D-06  0.19699313715428D-06
 0.16419500000000D+03  0.16494478453770D-06  0.16714991685147D-06  0.16970239979787D-06  0.17255990286085D-06  0.17567149117926D-06  0.17897965254992D-06  0.18242155399608D-06  0.18592899633267D-06  0.18942822293145D-06  0.19284108353936D-06
 0.16439500000000D+03  0.16327175968044D-06  0.16477627485519D-06  0.16667980325824D-06  0.16895763922184D-06  0.17157471303640D-06  0.17448708029965D-06  0.17764352898844D-06  0.18098587725086D-06  0.18444825061003D-06  0.18795696760793D-06
 0.16459500000000D+03  0.16284980372342D-06  0.16359629348293D-06  0.16475777860781D-06  0.16632859566633D-06  0.16829226800177D-06  0.17062188350089D-06  0.17328159641889D-06  0.17622742981500D-06  0.17940655380662D-06  0.18275608247294D-06
 0.16479500000000D+03  0.16368725126203D-06  0.16368580376035D-06  0.16407892977113D-06  0.16487941764930D-06  0.16609020476423D-06  0.16770335875862D-06  0.16970086666152D-06  0.17205574792162D-06  0.17473179766658D-06  0.17768187053037D-06
 0.16499500000000D+03  0.16568107413587D-06  0.16500749375366D-06  0.16467413827950D-06  0.16470990678927D-06  0.16513599441045D-06  0.16596363552438D-06  0.16719368439516D-06  0.16881752772382D-06  0.17081743122838D-06  0.17316501024771D-06
 0.16519500000000D+03  0.16862713004383D-06  0.16741585130934D-06  0.16646172213187D-06  0.16580610772428D-06  0.16548552377888D-06  0.16552871107774D-06  0.16595487145625D-06  0.16677377134582D-06  0.16798640460725D-06  0.16958413754755D-06
 0.16539500000000D+03  0.17223838736938D-06  0.17067075522077D-06  0.16925584528095D-06  0.16804303389558D-06  0.16707984993077D-06  0.16640914630324D-06  0.16606631781188D-06  0.16607819025255D-06  0.16646341342514D-06  0.16723232111092D-06
 0.16559500000000D+03  0.17616997877132D-06  0.17445865882882D-06  0.17278327730378D-06  0.17119638564068D-06  0.16975138088539D-06  0.16850043622552D-06  0.16749138591137D-06  0.16676542522951D-06  0.16635664625698D-06  0.16629220229377D-06
 0.16579500000000D+03  0.18004961916066D-06  0.17842010887461D-06  0.17670742340361D-06  0.17496240032835D-06  0.17323887238719D-06  0.17159267523656D-06  0.17007897571253D-06  0.16874927038833D-06  0.16764979170061D-06  0.16682134904091D-06
 0.16599500000000D+03  0.18351126993207D-06  0.18218184529568D-06  0.18065816199964D-06  0.17898466273444D-06  0.17721038185408D-06  0.17538893540026D-06  0.17357685815638D-06  0.17183066480355D-06  0.17020433765600D-06  0.16874834856518D-06
 0.16619500000000D+03  0.18622911131039D-06  0.18539096170422D-06  0.18426534615514D-06  0.18288610039094D-06  0.18129281119746D-06  0.17953140234643D-06  0.17765364503455D-06  0.17571501002237D-06  0.17377186393715D-06  0.17187958856892D-06
 0.16639500000000D+03  0.18794826254247D-06  0.18774784576510D-06  0.18719301334726D-06  0.18630355754325D-06  0.18510585022412D-06  0.18363357914326D-06  0.18192820027167D-06  0.18003799151025D-06  0.17801573250916D-06  0.17591631691254D-06
 0.16659500000000D+03  0.18850863869326D-06  0.18903424485534D-06  0.18917074761625D-06  0.18892157034564D-06  0.18829722013125D-06  0.18731588103676D-06  0.18600435781096D-06  0.18439830535325D-06  0.18254098644537D-06  0.18048107515823D-06
 0.16679500000000D+03  0.18785904674260D-06  0.18913311255449D-06  0.19001859494184D-06  0.19050161980791D-06  0.19057548354624D-06  0.19024104810657D-06  0.18950774625071D-06  0.18839461099474D-06  0.18693029936769D-06  0.18515176706882D-06
 0.16699500000000D+03  0.18606000863719D-06  0.18803794419135D-06  0.18966262354236D-06  0.19090347984835D-06  0.19173667223824D-06  0.19214540450622D-06  0.19212075587858D-06  0.19166300927128D-06  0.19078270049742D-06  0.18950052861322D-06
 0.16719500000000D+03  0.18327549595071D-06  0.18585087574750D-06  0.18813955320834D-06  0.19009633150486D-06  0.19168172514566D-06  0.19286235715476D-06  0.19361160429995D-06  0.19391083006748D-06  0.19375095955047D-06  0.19313354476830D-06
 0.16739500000000D+03  0.17975529192952D-06  0.18277046666709D-06  0.18559050970173D-06  0.18815884045774D-06  0.19042309119989D-06  0.19233564525685D-06  0.19385421438902D-06  0.19494281348669D-06  0.19557335566932D-06  0.19572743256913D-06
 0.16759500000000D+03  0.17581066811607D-06  0.17907135790394D-06  0.18224543581789D-06  0.18526897548559D-06  0.18808046751271D-06  0.19062143534781D-06  0.19283705088963D-06  0.19467689445532D-06  0.19609625917045D-06  0.19705808107247D-06
 0.16779500000000D+03  0.17178632504598D-06  0.17507860774752D-06  0.17840063288180D-06  0.18168555650258D-06  0.18486706718490D-06  0.18787995263661D-06  0.19066075704269D-06  0.19314845087601D-06  0.19528538615087D-06  0.19701893346650D-06
 0.16799500000000D+03  0.16803123082768D-06  0.17113945475081D-06  0.17439217256077D-06  0.17772410894322D-06  0.18106870049721D-06  0.18435852466451D-06  0.18752590422776D-06  0.19050356106512D-06  0.19322533333229D-06  0.19562733606599D-06
 0.16819500000000D+03  0.16487040669529D-06  0.16759477941168D-06  0.17056763805130D-06  0.17372957591994D-06  0.17701820517552D-06  0.18036846594826D-06  0.18371306425709D-06  0.18698307544302D-06  0.19010855752671D-06  0.19301929203501D-06
 0.16839500000000D+03  0.16257916701042D-06  0.16475196761886D-06  0.16725812808169D-06  0.17004803377337D-06  0.17306752522886D-06  0.17625820299232D-06  0.17955765457706D-06  0.18289990045776D-06  0.18621594901014D-06  0.18943428302705D-06
 0.16859500000000D+03  0.16136099966302D-06  0.16286047415215D-06  0.16475199010995D-06  0.16699908161934D-06  0.16955930636906D-06  0.17238468472272D-06  0.17542177708263D-06  0.17861187960567D-06  0.18189145719948D-06  0.18519250375041D-06
 0.16879500000000D+03  0.16133018522124D-06  0.16209123082432D-06  0.16327150792474D-06  0.16485026084892D-06  0.16679952040562D-06  0.16908474699470D-06  0.17166488881389D-06  0.17449232000110D-06  0.17751304175328D-06  0.18066693022516D-06
 0.16899500000000D+03  0.16250031539434D-06  0.16252108803742D-06  0.16295375786516D-06  0.16379477637739D-06  0.16503248257976D-06  0.16664789628822D-06  0.16861487430011D-06  0.17089987756553D-06  0.17346187089770D-06  0.17625237725369D-06
 0.16919500000000D+03  0.16477996992749D-06  0.16412360947760D-06  0.16383697497648D-06  0.16393388102785D-06  0.16441966809976D-06  0.16529197788597D-06  0.16654103613427D-06  0.16814937516962D-06  0.17009145226901D-06  0.17233341195421D-06
 0.16939500000000D+03  0.16797680453023D-06  0.16676762871608D-06  0.16585391615728D-06  0.16526544291843D-06  0.16502387722181D-06  0.16514331987994D-06  0.16563063069698D-06  0.16648519687851D-06  0.16769836612037D-06  0.16925287670600D-06
 0.16959500000000D+03  0.17181098838108D-06  0.17022485007320D-06  0.16883372433711D-06  0.16768032091484D-06  0.16680043957198D-06  0.16622309691698D-06  0.16597074105036D-06  0.16605907425875D-06  0.16649641745509D-06  0.16728285469414D-06
 0.16979500000000D+03  0.17593808901461D-06  0.17418720629178D-06  0.17251347536127D-06  0.17096804916727D-06  0.16959715508182D-06  0.16844173580740D-06  0.16753740189281D-06  0.16691424372401D-06  0.16659621157532D-06  0.16660008735537D-06
 0.16999500000000D+03  0.17998007683367D-06  0.17829350506708D-06  0.17655970072968D-06  0.17483273853710D-06  0.17316432931140D-06  0.17160302972643D-06  0.17019385816202D-06  0.16897800889300D-06  0.16799228117049D-06  0.16726801457488D-06
 0.17019500000000D+03  0.18356140937076D-06  0.18216321431111D-06  0.18059866799445D-06  0.17891886200808D-06  0.17717533422530D-06  0.17541899809511D-06  0.17369945171808D-06  0.17206454100851D-06  0.17055983631829D-06  0.16922765505413D-06
 0.17039500000000D+03  0.18634579953015D-06  0.18543355817574D-06  0.18425238383106D-06  0.18284481692309D-06  0.18125654486827D-06  0.17953523490846D-06  0.17772964853319D-06  0.17588906086490D-06  0.17406277457788D-06  0.17229932014600D-06
 0.17059500000000D+03  0.18806893223561D-06  0.18779514803132D-06  0.18717583942358D-06  0.18624038204407D-06  0.18502359591561D-06  0.18356463899427D-06  0.18190606946456D-06  0.18009317855909D-06  0.17817353655502D-06  0.17619641643258D-06
 0.17079500000000D+03  0.18856328746352D-06  0.18902165549507D-06  0.18909063549780D-06  0.18878317478512D-06  0.18811937857963D-06  0.18712556581268D-06  0.18583340457757D-06  0.18427923677402D-06  0.18250365554438D-06  0.18055114687373D-06
 0.17099500000000D+03  0.18777291440720D-06  0.18899043084951D-06  0.18981103005319D-06  0.19022948705878D-06  0.19024878261359D-06  0.18987937686977D-06  0.18913850596796D-06  0.18804957638501D-06  0.18664177801456D-06  0.18494989237087D-06
 0.17119500000000D+03  0.18575765128185D-06  0.18769276436011D-06  0.18926018052423D-06  0.19043630979603D-06  0.19120611336232D-06  0.19156263541151D-06  0.19150651851992D-06  0.19104554033749D-06  0.19019428333668D-06  0.18897404020749D-06
 0.17139500000000D+03  0.18268726250440D-06  0.18523385135182D-06  0.18747603091861D-06  0.18937319252705D-06  0.19089288842563D-06  0.19201066939621D-06  0.19270986160378D-06  0.19298131462914D-06  0.19282318090628D-06  0.19224087586568D-06
 0.17159500000000D+03  0.17882626122097D-06  0.18182309852359D-06  0.18460725712604D-06  0.18712395599797D-06  0.18932542554391D-06  0.19117110241181D-06  0.19262770021459D-06  0.19366922603680D-06  0.19427695140128D-06  0.19443944739635D-06
 0.17179500000000D+03  0.17451033469105D-06  0.17775551725264D-06  0.18089992465589D-06  0.18387881296843D-06  0.18663257684896D-06  0.18910732978312D-06  0.19125528107322D-06  0.19303504512370D-06  0.19441188147857D-06  0.19535788375327D-06
 0.17199500000000D+03  0.17011585010441D-06  0.17338523205752D-06  0.17667560087609D-06  0.17991749608015D-06  0.18304414622306D-06  0.18599240879298D-06  0.18870343206714D-06  0.19112322980845D-06  0.19320321534777D-06  0.19490063104675D-06
 0.17219500000000D+03  0.16602496844194D-06  0.16909296575254D-06  0.17230219608124D-06  0.17558422628007D-06  0.17887055252542D-06  0.18209380639593D-06  0.18518864126321D-06  0.18809249464437D-06  0.19074635854544D-06  0.19309547528572D-06
 0.17239500000000D+03  0.16258996458899D-06  0.16525053120278D-06  0.16815988437321D-06  0.17125618946105D-06  0.17447481086250D-06  0.17774963548733D-06  0.18101409187851D-06  0.18420199682254D-06  0.18724843430163D-06  0.19009064178288D-06
 0.17259500000000D+03  0.16010080153738D-06  0.16218623338779D-06  0.16460559833668D-06  0.16730841065901D-06  0.17023901443362D-06  0.17333785393099D-06  0.17654251689402D-06  0.17978856912278D-06  0.18301039568347D-06  0.18614211717852D-06
 0.17279500000000D+03  0.15875950413510D-06  0.16015511300249D-06  0.16194013213039D-06  0.16407887380937D-06  0.16652871985639D-06  0.16924118812943D-06  0.17216288978703D-06  0.17523628236832D-06  0.17840036556814D-06  0.18159144897591D-06
 0.17299500000000D+03  0.15866361773242D-06  0.15931706237703D-06  0.16038146764186D-06  0.16183785084073D-06  0.16365927146471D-06  0.16581159807166D-06  0.16825428135784D-06  0.17094098050961D-06  0.17382007273583D-06  0.17683515096409D-06
 0.17319500000000D+03  0.15979957168256D-06  0.15972442551218D-06  0.16004673709514D-06  0.16076457570158D-06  0.16186776146317D-06  0.16333831097780D-06  0.16515095443757D-06  0.16727359878667D-06  0.16966766305767D-06  0.17228828056009D-06
 0.17339500000000D+03  0.16204563463347D-06  0.16131935131780D-06  0.16094380353776D-06  0.16093303026521D-06  0.16129318192050D-06  0.16202269479056D-06  0.16311252277682D-06  0.16454640003959D-06  0.16630102737775D-06  0.16834603402882D-06
 0.17359500000000D+03  0.16518357051341D-06  0.16394031056425D-06  0.16297232017285D-06  0.16230729666550D-06  0.16196593344243D-06  0.16196192162631D-06  0.16230192169746D-06  0.16298559628157D-06  0.16400565278159D-06  0.16534764761319D-06
 0.17379500000000D+03  0.16891793205629D-06  0.16733684280151D-06  0.16593354753416D-06  0.16474608415453D-06  0.16380675968553D-06  0.16314208782441D-06  0.16277258026352D-06  0.16271255192302D-06  0.16297000224832D-06  0.16354632031762D-06
 0.17399500000000D+03  0.17290181164549D-06  0.17119149080610D-06  0.16954801717930D-06  0.16801568667296D-06  0.16663460195597D-06  0.16544062465245D-06  0.16446510159038D-06  0.16373449790360D-06  0.16327010477544D-06  0.16308766102011D-06
 0.17419500000000D+03  0.17676750675206D-06  0.17514765238763D-06  0.17347998296889D-06  0.17181048911197D-06  0.17018266090513D-06  0.16863747640501D-06  0.16721317811864D-06  0.16594484348968D-06  0.16486394998740D-06  0.16399790861370D-06
 0.17439500000000D+03  0.18015988283681D-06  0.17884153650922D-06  0.17736720026589D-06  0.17577986368429D-06  0.17412175981548D-06  0.17243435163946D-06  0.17075823496082D-06  0.16913278313531D-06  0.16759566313717D-06  0.16618230031214D-06
 0.17459500000000D+03  0.18276943238413D-06  0.18193562803794D-06  0.18085386023267D-06  0.17955969648573D-06  0.17808963519898D-06  0.17648101361317D-06  0.17477204780158D-06  0.17300167011967D-06  0.17120913752857D-06  0.16943350389369D-06
 0.17479500000000D+03  0.18436149842152D-06  0.18415034744654D-06  0.18362368983660D-06  0.18280594748825D-06  0.18172399102787D-06  0.18040688978367D-06  0.17888603224760D-06  0.17719521160902D-06  0.17537046913569D-06  0.17344970519842D-06
 0.17499500000000D+03  0.18479819665115D-06  0.18529031574061D-06  0.18542967492037D-06  0.18522689061917D-06  0.18469627098602D-06  0.18385535596502D-06  0.18272501714180D-06  0.18132976016947D-06  0.17969789120591D-06  0.17786141250488D-06
 0.17519500000000D+03  0.18405038031345D-06  0.18526206217375D-06  0.18611691344241D-06  0.18661038431070D-06  0.18674250921349D-06  0.18651722573245D-06  0.18594234436035D-06  0.18502995829514D-06  0.18379692584734D-06  0.18226515136209D-06
 0.17539500000000D+03  0.18219841412174D-06  0.18408115178766D-06  0.18563590020705D-06  0.18684294129092D-06  0.18768765529056D-06  0.18815964342258D-06  0.18825248293780D-06  0.18796409194342D-06  0.18729741973958D-06  0.18626111841184D-06
 0.17559500000000D+03  0.17942218596428D-06  0.18186829393701D-06  0.18404494390675D-06  0.18591849610023D-06  0.18746056421130D-06  0.18864699278203D-06  0.18945735713209D-06  0.18987513503563D-06  0.18988842676209D-06  0.18949091023924D-06
 0.17579500000000D+03  0.17598222665114D-06  0.17883558040488D-06  0.18150204635356D-06  0.18393633281449D-06  0.18609824164977D-06  0.18795157566395D-06  0.18946339191772D-06  0.19060387636248D-06  0.19134689881800D-06  0.19167105625299D-06
 0.17599500000000D+03  0.17219467273835D-06  0.17526516260133D-06  0.17824797412907D-06  0.18108919183928D-06  0.18373955251308D-06  0.18615339141073D-06  0.18828770427215D-06  0.19010168701111D-06  0.19155696889623D-06  0.19261851455118D-06
 0.17619500000000D+03  0.16840298560298D-06  0.17148317337304D-06  0.17458307802029D-06  0.17764370305167D-06  0.18060998014024D-06  0.18342990550422D-06  0.18605351087184D-06  0.18843209915278D-06  0.19051807364164D-06  0.19226549750849D-06
 0.17639500000000D+03  0.16494898524414D-06  0.16783156741557D-06  0.17084057005347D-06  0.17391576993797D-06  0.17699983169004D-06  0.18003781888485D-06  0.18297621759738D-06  0.18576195902974D-06  0.18834184788591D-06  0.19066265337117D-06
 0.17659500000000D+03  0.16214517588357D-06  0.16464005318174D-06  0.16735861968255D-06  0.17024340655010D-06  0.17323844425727D-06  0.17628932889166D-06  0.17934247559277D-06  0.18234406643393D-06  0.18523915625320D-06  0.18797126403525D-06
 0.17679500000000D+03  0.16024982254337D-06  0.16219974042704D-06  0.16445309352665D-06  0.16695906936662D-06  0.16966663463842D-06  0.17252527612554D-06  0.17548466848935D-06  0.17849371798389D-06  0.18149947904282D-06  0.18444630342680D-06
 0.17699500000000D+03  0.15944593592436D-06  0.16073975686285D-06  0.16239232317697D-06  0.16436304566462D-06  0.16660916402820D-06  0.16908716793956D-06  0.17175302688412D-06  0.17456151095540D-06  0.17746508494971D-06  0.18041273971384D-06
 0.17719500000000D+03  0.15982523875063D-06  0.16040795563342D-06  0.16137507986930D-06  0.16269917016830D-06  0.16434862760492D-06  0.16628966500756D-06  0.16848716053786D-06  0.17090441502961D-06  0.17350220178501D-06  0.17623744605321D-06
 0.17739500000000D+03  0.16137823827988D-06  0.16125687968053D-06  0.16151294391225D-06  0.16213408682987D-06  0.16310204483687D-06  0.16439490276055D-06  0.16598851219530D-06  0.16785678279124D-06  0.16997105104227D-06  0.17229879014846D-06
 0.17759500000000D+03  0.16399160894988D-06  0.16323626277270D-06  0.16281838142935D-06  0.16274137794942D-06  0.16300148648038D-06  0.16359001843712D-06  0.16449516448368D-06  0.16570281995354D-06  0.16719638933887D-06  0.16895569899493D-06
 0.17779500000000D+03  0.16745405256810D-06  0.16619340646935D-06  0.16519996494397D-06  0.16449203740702D-06  0.16408022753677D-06  0.16396938443095D-06  0.16416052374059D-06  0.16465207795046D-06  0.16544017743383D-06  0.16651790123564D-06
 0.17799500000000D+03  0.17147144193812D-06  0.16988260202555D-06  0.16846615221496D-06  0.16725284491044D-06  0.16626605176980D-06  0.16552320494387D-06  0.16503755939969D-06  0.16481967213208D-06  0.16487811210635D-06  0.16521912451029D-06
 0.17819500000000D+03  0.17569115456844D-06  0.17398413826158D-06  0.17233865880760D-06  0.17079402611457D-06  0.16938331169311D-06  0.16813420380282D-06  0.16707039626766D-06  0.16621306854408D-06  0.16558190263875D-06  0.16519516869057D-06
 0.17839500000000D+03  0.17973403999024D-06  0.17813220277449D-06  0.17647550839317D-06  0.17480692456829D-06  0.17316495285822D-06  0.17158394329222D-06  0.17009501099797D-06  0.16872732277051D-06  0.16750926293503D-06  0.16646889261685D-06
 0.17859500000000D+03  0.18323077986333D-06  0.18194929462707D-06  0.18050229740567D-06  0.17893111289545D-06  0.17727471677895D-06  0.17556962470127D-06  0.17385035925249D-06  0.17215043137113D-06  0.17050350576348D-06  0.16894415481272D-06
 0.17879500000000D+03  0.18585815683113D-06  0.18508316431918D-06  0.18404842824991D-06  0.18278859083257D-06  0.18133811666637D-06  0.17973086797556D-06  0.17800022106728D-06  0.17617972496550D-06  0.17430415693698D-06  0.17241048103421D-06
 0.17899500000000D+03  0.18737057093104D-06  0.18724150086008D-06  0.18678374273851D-06  0.18602102562396D-06  0.18497891077319D-06  0.18368411189488D-06  0.18216436644885D-06  0.18044882047843D-06  0.17856891324944D-06  0.17655944630226D-06
 0.17919500000000D+03  0.18762317095599D-06  0.18822003493016D-06  0.18845078003949D-06  0.18832513927602D-06  0.18785640585845D-06  0.18706050965638D-06  0.18595569938677D-06  0.18456272133064D-06  0.18290551207396D-06  0.18101227895514D-06
 0.17939500000000D+03  0.18658469561733D-06  0.18792122133668D-06  0.18888893591816D-06  0.18948179596526D-06  0.18969869150190D-06  0.18954230239993D-06  0.18901859121426D-06  0.18813682094775D-06  0.18691006169817D-06  0.18535618583108D-06
 0.17959500000000D+03  0.18433971294478D-06  0.18636244540264D-06  0.18804857633953D-06  0.18937588003940D-06  0.19032798323984D-06  0.19089310966276D-06  0.19106337284488D-06  0.19083464149161D-06  0.19020688131637D-06  0.18918499394143D-06
 0.17979500000000D+03  0.18108083610119D-06  0.18367397142994D-06  0.18599477855208D-06  0.18800588362198D-06  0.18967607595208D-06  0.19097915469367D-06  0.19189306811845D-06  0.19239961618454D-06  0.19248465273551D-06  0.19213874773857D-06
 0.17999500000000D+03  0.17709175088701D-06  0.18008734523772D-06  0.18290123433183D-06  0.18548340548222D-06  0.18778955798136D-06  0.18978030923720D-06  0.19142032282279D-06  0.19267785677395D-06  0.19352484178709D-06  0.19393739710808D-06
 0.18019500000000D+03  0.17272207598626D-06  0.17591506171523D-06  0.17903503207753D-06  0.18202321163099D-06  0.18482528198875D-06  0.18739112554567D-06  0.18967415298467D-06  0.19163076007260D-06  0.19322028090020D-06  0.19440540169594D-06
 0.18039500000000D+03  0.16835570233751D-06  0.17152265017273D-06  0.17473314270623D-06  0.17792452943574D-06  0.18103671433759D-06  0.18401242983365D-06  0.18679695165836D-06  0.18933758895356D-06  0.19158350699233D-06  0.19348604543472D-06
 0.18059500000000D+03  0.16437532481452D-06  0.16729522356241D-06  0.17037203081390D-06  0.17354452442905D-06  0.17675182855566D-06  0.17993401363570D-06  0.18303225672048D-06  0.18598851589153D-06  0.18874524297710D-06  0.19124555240193D-06
 0.18079500000000D+03  0.16112687582821D-06  0.16360169337529D-06  0.16633292280244D-06  0.16926579195332D-06  0.17234376961267D-06  0.17550919808223D-06  0.17870377345067D-06  0.18186850899162D-06  0.18494340986637D-06  0.18786741317053D-06
 0.18099500000000D+03  0.15888788150087D-06  0.16076062127159D-06  0.16296635785986D-06  0.16546090819813D-06  0.16819664186634D-06  0.17112293347600D-06  0.17418670090744D-06  0.17733264273338D-06  0.18050298556998D-06  0.18363716376414D-06
 0.18119500000000D+03  0.15784312870551D-06  0.15901155666404D-06  0.16056006568441D-06  0.16245795806416D-06  0.16466993382085D-06  0.16715635587134D-06  0.16987358436582D-06  0.17277433160728D-06  0.17580757075405D-06  0.17891802469737D-06
 0.18139500000000D+03  0.15806971407584D-06  0.15849469148227D-06  0.15931365655246D-06  0.16051094649104D-06  0.16206560845227D-06  0.16395166904969D-06  0.16613815492900D-06  0.16858932957419D-06  0.17126475593629D-06  0.17411874542640D-06
 0.18159500000000D+03  0.15953210900171D-06  0.15924021147390D-06  0.15932231894566D-06  0.15977806297798D-06  0.16060143211942D-06  0.16178129395773D-06  0.16330121459440D-06  0.16513939080560D-06  0.16726873631226D-06  0.16965643151937D-06
 0.18179500000000D+03  0.16208681406777D-06  0.16116743040572D-06  0.16057027940949D-06  0.16030935091866D-06  0.16039290654602D-06  0.16082437470309D-06  0.16160223903311D-06  0.16271964991407D-06  0.16416434150533D-06  0.16591831202162D-06
 0.18199500000000D+03  0.16549565479075D-06  0.16409301824663D-06  0.16293371542656D-06  0.16204403499820D-06  0.16144477128992D-06  0.16115238516679D-06  0.16117922113177D-06  0.16153298378611D-06  0.16221635477269D-06  0.16322669422321D-06
 0.18219500000000D+03  0.16944660204253D-06  0.16774734704429D-06  0.16619230534083D-06  0.16481696451969D-06  0.16365198122414D-06  0.16272432991527D-06  0.16205793453179D-06  0.16167330475004D-06  0.16158689285286D-06  0.16181064626498D-06
 0.18239500000000D+03  0.17358084168689D-06  0.17179786722338D-06  0.17004845534966D-06  0.16837333057962D-06  0.16680952617112D-06  0.16539124593847D-06  0.16415077357519D-06  0.16311850760963D-06  0.16232228010844D-06  0.16178666886867D-06
 0.18259500000000D+03  0.17752440924640D-06  0.17587814972132D-06  0.17415309116769D-06  0.17239070317786D-06  0.17063027313392D-06  0.16890937517908D-06  0.16726479625427D-06  0.16573302181832D-06  0.16434981360776D-06  0.16314937087017D-06
 0.18279500000000D+03  0.18092202428247D-06  0.17962063514526D-06  0.17813645896985D-06  0.17650715223442D-06  0.17476982073746D-06  0.17296119619423D-06  0.17111836796443D-06  0.16927957632994D-06  0.16748426298557D-06  0.16577233780255D-06
 0.18299500000000D+03  0.18347002650422D-06  0.18269034425322D-06  0.18164162766043D-06  0.18035359219934D-06  0.17885688138424D-06  0.17718314231200D-06  0.17536552331080D-06  0.17343955187624D-06  0.17144368330137D-06  0.16941896916097D-06
 0.18319500000000D+03  0.18494488011133D-06  0.18481615072722D-06  0.18435757455020D-06  0.18358764098030D-06  0.18252692052892D-06  0.18119814392727D-06  0.17962657770801D-06  0.17784083418602D-06  0.17587377312038D-06  0.17376275128500D-06
 0.18339500000000D+03  0.18522388051981D-06  0.18581605648331D-06  0.18604825552428D-06  0.18592555406137D-06  0.18545592560709D-06  0.18465023958507D-06  0.18352263790451D-06  0.18209126483337D-06  0.18037932356010D-06  0.17841588869941D-06
 0.18359500000000D+03  0.18429558130982D-06  0.18561345597877D-06  0.18657423042155D-06  0.18716857512833D-06  0.18739063715752D-06  0.18723774013901D-06  0.18671074748149D-06  0.18581478058187D-06  0.18456030006900D-06  0.18296430750913D-06
 0.18379500000000D+03  0.18225890929579D-06  0.18424258941433D-06  0.18590432786045D-06  0.18722057276560D-06  0.18817168982587D-06  0.18874118111626D-06  0.18891584771911D-06  0.18868650941656D-06  0.18804907907428D-06  0.18700594391526D-06
 0.18399500000000D+03  0.17931158276396D-06  0.18184297398532D-06  0.18411629975511D-06  0.18609506448176D-06  0.18774699514326D-06  0.18904279413233D-06  0.18995585368234D-06  0.19046283968986D-06  0.19054475064887D-06  0.19018833220007D-06
 0.18419500000000D+03  0.17572984637352D-06  0.17864413660473D-06  0.18138703212522D-06  0.18391134233852D-06  0.18617416757182D-06  0.18813543338863D-06  0.18975703087866D-06  0.19100300982588D-06  0.19184052801482D-06  0.19224122268343D-06
 0.18439500000000D+03  0.17184234696890D-06  0.17494305513054D-06  0.17797420132222D-06  0.18088094416676D-06  0.18361243500160D-06  0.18612049915714D-06  0.18835831794656D-06  0.19028000889992D-06  0.19184124794256D-06  0.19300051550325D-06
 0.18459500000000D+03  0.16800110091303D-06  0.17107714563855D-06  0.17419199159292D-06  0.17728675544718D-06  0.18030581589900D-06  0.18319594701284D-06  0.18590487125147D-06  0.18838020052927D-06  0.19056947269646D-06  0.19242110734865D-06
 0.18479500000000D+03  0.16455210784482D-06  0.16739546685186D-06  0.17038357291885D-06  0.17345740175172D-06  0.17656007018972D-06  0.17963654574429D-06  0.18263245741582D-06  0.18549262703217D-06  0.18816037619655D-06  0.19057795003762D-06
 0.18499500000000D+03  0.16180755927610D-06  0.16423030451783D-06  0.16689266836584D-06  0.16973939974631D-06  0.17271599965459D-06  0.17576895654275D-06  0.17884508185890D-06  0.18189002789220D-06  0.18484695734134D-06  0.18765622174050D-06
 0.18519500000000D+03  0.16002106536073D-06  0.16187075455602D-06  0.16403602131283D-06  0.16646906260775D-06  0.16912130431471D-06  0.17194404362668D-06  0.17488836928584D-06  0.17790404874229D-06  0.18093788649609D-06  0.18393261163399D-06
 0.18539500000000D+03  0.15936703020840D-06  0.16053955610649D-06  0.16207816109176D-06  0.16394570640636D-06  0.16610272254022D-06  0.16850838390245D-06  0.17112090784794D-06  0.17389702248289D-06  0.17679044317336D-06  0.17975016589194D-06
 0.18559500000000D+03  0.15992524084588D-06  0.16037429202774D-06  0.16120967207053D-06  0.16240745388673D-06  0.16393985231328D-06  0.16577653497264D-06  0.16788534632453D-06  0.17023234756278D-06  0.17278076254835D-06  0.17548906698461D-06
 0.18579500000000D+03  0.16167180455875D-06  0.16141411705433D-06  0.16153017142911D-06  0.16201089529455D-06  0.16284195528300D-06  0.16400542706680D-06  0.16548074521594D-06  0.16724515584640D-06  0.16927327691663D-06  0.17153541559351D-06
 0.18599500000000D+03  0.16447765052427D-06  0.16359328725657D-06  0.16303730635246D-06  0.16281596009422D-06  0.16292912415116D-06  0.16337226943850D-06  0.16413761619189D-06  0.16521481244677D-06  0.16659103370882D-06  0.16824983437645D-06
 0.18619500000000D+03  0.16811574463657D-06  0.16674281379265D-06  0.16562318434852D-06  0.16477747763817D-06  0.16421933704673D-06  0.16395750511744D-06  0.16399718425448D-06  0.16434082299958D-06  0.16498855003774D-06  0.16593764224413D-06
 0.18639500000000D+03  0.17227773614283D-06  0.17060135537950D-06  0.16907959881190D-06  0.16774494457482D-06  0.16662302350773D-06  0.16573449497362D-06  0.16509656450099D-06  0.16472385288198D-06  0.16462895922162D-06  0.16482242267260D-06
 0.18659500000000D+03  0.17659976637664D-06  0.17483576415864D-06  0.17311298129278D-06  0.17147179192841D-06  0.16994668860548D-06  0.16856764547847D-06  0.16736165202478D-06  0.16635369118717D-06  0.16556732439594D-06  0.16502492874056D-06
 0.18679500000000D+03  0.18069564189657D-06  0.17907038648188D-06  0.17736898955622D-06  0.17563471802460D-06  0.17390667144642D-06  0.17222043813046D-06  0.17060943665249D-06  0.16910601170552D-06  0.16774205659452D-06  0.16654934808849D-06
 0.18699500000000D+03  0.18419389959092D-06  0.18292249496814D-06  0.18146503780313D-06  0.17986229027799D-06  0.17815303916723D-06  0.17637403815497D-06  0.17456095259526D-06  0.17274951140843D-06  0.17097625350169D-06  0.16927891150433D-06
 0.18719500000000D+03  0.18677415090797D-06  0.18603967628892D-06  0.18502730245162D-06  0.18377022013774D-06  0.18230194739549D-06  0.18065572405581D-06  0.17886493819215D-06  0.17696419378643D-06  0.17499024458969D-06  0.17298250446013D-06
 0.18739500000000D+03  0.18819807379129D-06  0.18813433507323D-06  0.18772751086648D-06  0.18699908748461D-06  0.18597295449226D-06  0.18467449967934D-06  0.18313052730556D-06  0.18137006667785D-06  0.17942545253374D-06  0.17733307903056D-06
 0.18759500000000D+03  0.18833158532302D-06  0.18901107624525D-06  0.18931476178941D-06  0.18924957870797D-06  0.18882650218579D-06  0.18805955728706D-06  0.18696536473004D-06  0.18556356103433D-06  0.18387786393413D-06  0.18193710895567D-06
 0.18779500000000D+03  0.18715650104119D-06  0.18858431732917D-06  0.18963880330497D-06  0.19031090089883D-06  0.19059671065192D-06  0.19049652649695D-06  0.19001420870615D-06  0.18915720700280D-06  0.18793739927417D-06  0.18637230060947D-06
 0.18799500000000D+03  0.18477152892065D-06  0.18688526196663D-06  0.18866300833107D-06  0.19007965137003D-06  0.19111584489002D-06  0.19175707277110D-06  0.19199302072520D-06  0.19181733336781D-06  0.19122808740054D-06  0.19022894396724D-06
 0.18819500000000D+03  0.18138324594407D-06  0.18405857026018D-06  0.18646686005433D-06  0.18856822702366D-06  0.19032865939693D-06  0.19171908366490D-06  0.19271480543079D-06  0.19329520515967D-06  0.19344387568098D-06  0.19314949262935D-06
 0.18839500000000D+03  0.17728791139646D-06  0.18034948979337D-06  0.18323855085539D-06  0.18590305830178D-06  0.18829640285334D-06  0.19037652350866D-06  0.19210538136198D-06  0.19344874942527D-06  0.19437620375272D-06  0.19486162998878D-06
 0.18859500000000D+03  0.17284518014214D-06  0.17608230118273D-06  0.17925845604053D-06  0.18231334468409D-06  0.18519101254308D-06  0.18783921691495D-06  0.19020886827910D-06  0.19225392091984D-06  0.19393143973065D-06  0.19520185904451D-06
 0.18879500000000D+03  0.16844547234874D-06  0.17163131720789D-06  0.17487439042885D-06  0.17811101277669D-06  0.18128012301193D-06  0.18432313994014D-06  0.18718338837870D-06  0.18980595469723D-06  0.19213791782315D-06  0.19412859156863D-06
 0.18899500000000D+03  0.16447386974005D-06  0.16738661320775D-06  0.17047020806501D-06  0.17366297406331D-06  0.17690362000869D-06  0.18013176113267D-06  0.18328748713334D-06  0.18631102818106D-06  0.18914302257419D-06  0.19172491025701D-06
 0.18919500000000D+03  0.16127438158793D-06  0.16371782019608D-06  0.16643042626639D-06  0.16935769942529D-06  0.17244313179264D-06  0.17562929904101D-06  0.17885780467745D-06  0.18206874204999D-06  0.18520073329382D-06  0.18819142569694D-06
 0.18939500000000D+03  0.15911864189943D-06  0.16094002149688D-06  0.16310459129300D-06  0.16556931250478D-06  0.16828702114648D-06  0.17120774493769D-06  0.17427917063311D-06  0.17744609272363D-06  0.18065002064895D-06  0.18382950672192D-06
 0.18959500000000D+03  0.15818234946766D-06  0.15928558291163D-06  0.16077542480809D-06  0.16262316896469D-06  0.16479454069813D-06  0.16725077841047D-06  0.16994953153050D-06  0.17284459171921D-06  0.17588510908969D-06  0.17901542247019D-06
 0.18979500000000D+03  0.15853136014244D-06  0.15888465148033D-06  0.15963415228917D-06  0.16076675421649D-06  0.16226319048814D-06  0.16409856545587D-06  0.16624334158224D-06  0.16866354290160D-06  0.17131988361454D-06  0.17416695092607D-06
 0.18999500000000D+03  0.16011788611985D-06  0.15975556704766D-06  0.15976509430605D-06  0.16014872704556D-06  0.16090272617689D-06  0.16201735705605D-06  0.16347754797077D-06  0.16526348120398D-06  0.16735002242534D-06  0.16970542940602D-06
 0.19019500000000D+03  0.16278624370290D-06  0.16180513939222D-06  0.16114017399408D-06  0.16080753023005D-06  0.16081800200549D-06  0.16117682852986D-06  0.16188378957895D-06  0.16293384057792D-06  0.16431705677986D-06  0.16601729873747D-06
 0.19039500000000D+03  0.16628714489542D-06  0.16483799706751D-06  0.16362295424682D-06  0.16266974902575D-06  0.16200147433558D-06  0.16163671327460D-06  0.16158918516589D-06  0.16186803403672D-06  0.16247817360564D-06  0.16341935097528D-06
 0.19059500000000D+03  0.17029941515068D-06  0.16857396366519D-06  0.16698132079920D-06  0.16555764877713D-06  0.16433521403141D-06  0.16334308155997D-06  0.16260671860335D-06  0.16214776846285D-06  0.16198442887385D-06  0.16213110054658D-06
 0.19079500000000D+03  0.17445786290852D-06  0.17267233317615D-06  0.17090777532004D-06  0.16920501887433D-06  0.16760179865700D-06  0.16613391582848D-06  0.16483524583019D-06  0.16373718546565D-06  0.16286870472301D-06  0.16225641538312D-06
 0.19099500000000D+03  0.17838556872712D-06  0.17676164282810D-06  0.17504613888975D-06  0.17328029198164D-06  0.17150325938618D-06  0.16975335837472D-06  0.16806868474220D-06  0.16648667097332D-06  0.16504372398237D-06  0.16377534321301D-06
 0.19119500000000D+03  0.18172811826112D-06  0.18047292800312D-06  0.17902302212834D-06  0.17741557654501D-06  0.17568699840407D-06  0.17387381735460D-06  0.17201376595377D-06  0.17014586035535D-06  0.16830988670301D-06  0.16654627957116D-06
 0.19139500000000D+03  0.18418654743845D-06  0.18347363107608D-06  0.18248167773919D-06  0.18123960447126D-06  0.17977704455591D-06  0.17812468697098D-06  0.17631543658976D-06  0.17438514895726D-06  0.17237241192616D-06  0.17031820008864D-06
 0.19159500000000D+03  0.18554538222403D-06  0.18549868051598D-06  0.18511506335649D-06  0.18441178427150D-06  0.18340820637040D-06  0.18212566995635D-06  0.18058837278369D-06  0.17882455221750D-06  0.17686690132384D-06  0.17475231914266D-06
 0.19179500000000D+03  0.18569243544714D-06  0.18637514191492D-06  0.18669449398296D-06  0.18665388950715D-06  0.18625987691849D-06  0.18552177173234D-06  0.18445211569152D-06  0.18306792196538D-06  0.18139174703177D-06  0.17945193958338D-06
 0.19199500000000D+03  0.18462803105899D-06  0.18603748067764D-06  0.18709048054847D-06  0.18777576552017D-06  0.18808580977772D-06  0.18801633264172D-06  0.18756641728143D-06  0.18673950104526D-06  0.18554481462817D-06  0.18399833557200D-06
 0.19219500000000D+03  0.18246284970251D-06  0.18453179127494D-06  0.18628332702204D-06  0.18769202118562D-06  0.18873640849171D-06  0.18939833674924D-06  0.18966288380009D-06  0.18951898577883D-06  0.18896084398311D-06  0.18798945137518D-06
 0.19239500000000D+03  0.17940522415267D-06  0.18200899704958D-06  0.18436258565553D-06  0.18642793681621D-06  0.18817102274614D-06  0.18956085929759D-06  0.19056924179330D-06  0.19117107132835D-06  0.19134544673042D-06  0.19107738008047D-06
 0.19259500000000D+03  0.17574002657738D-06  0.17870854201032D-06  0.18151611750580D-06  0.18411444442418D-06  0.18645922328657D-06  0.18850879480464D-06  0.19022356301251D-06  0.19156608373169D-06  0.19250176974863D-06  0.19300038931227D-06
 0.19279500000000D+03  0.17180199386582D-06  0.17493509346399D-06  0.17801080606061D-06  0.18097355810285D-06  0.18377163306137D-06  0.18635560802316D-06  0.18867731760634D-06  0.19068964686771D-06  0.19234690630049D-06  0.19360588462114D-06
 0.19299500000000D+03  0.16794639066295D-06  0.17103109605621D-06  0.17416762632309D-06  0.17729664273187D-06  0.18036218315539D-06  0.18331032865823D-06  0.18608774204026D-06  0.18864101168547D-06  0.19091672325351D-06  0.19286205157743D-06
 0.19319500000000D+03  0.16451949984175D-06  0.16734777646715D-06  0.17033376453524D-06  0.17341823349782D-06  0.17654434364804D-06  0.17965700061986D-06  0.18270127385957D-06  0.18562120148603D-06  0.18835947154307D-06  0.19085763043840D-06
 0.19339500000000D+03  0.16183085396065D-06  0.16421667901665D-06  0.16685405002850D-06  0.16968787036165D-06  0.17266391942889D-06  0.17572914951887D-06  0.17883046458299D-06  0.18191312109109D-06  0.18491988340643D-06  0.18779086635496D-06
 0.19359500000000D+03  0.16012863476978D-06  0.16192331025561D-06  0.16404343150795D-06  0.16644189849829D-06  0.16907061444160D-06  0.17188165680271D-06  0.17482684395162D-06  0.17785611848769D-06  0.18091615475940D-06  0.18394974499437D-06
 0.19379500000000D+03  0.15957939289577D-06  0.16068415764657D-06  0.16216185590433D-06  0.16397672723126D-06  0.16609007852797D-06  0.16846200339946D-06  0.17105189952015D-06  0.17381732691671D-06  0.17671228212628D-06  0.17968602377997D-06
 0.19399500000000D+03  0.16025316810683D-06  0.16062824518670D-06  0.16139276874112D-06  0.16252481269761D-06  0.16399781630082D-06  0.16578245718375D-06  0.16784795163954D-06  0.17016175483907D-06  0.17268792865897D-06  0.17538544538460D-06
 0.19419500000000D+03  0.16211514392027D-06  0.16178442816655D-06  0.16182649263811D-06  0.16223463197416D-06  0.16299624657506D-06  0.16409458927589D-06  0.16551045752161D-06  0.16722280217240D-06  0.16920765621686D-06  0.17143618491813D-06
 0.19439500000000D+03  0.16502503686739D-06  0.16407571544477D-06  0.16344984968832D-06  0.16315604427648D-06  0.16319629558854D-06  0.16356752029284D-06  0.16426322683291D-06  0.16527478209604D-06  0.16659119009792D-06  0.16819732485569D-06
 0.19459500000000D+03  0.16874533436205D-06  0.16732191857411D-06  0.16614346655389D-06  0.16523256800438D-06  0.16460507049264D-06  0.16427143293425D-06  0.16423811701558D-06  0.16450908477732D-06  0.16508640613784D-06  0.16596909700367D-06
 0.19479500000000D+03  0.17295902529451D-06  0.17125167073567D-06  0.16968809291827D-06  0.16830211406560D-06  0.16712126761149D-06  0.16616803404341D-06  0.16546090853546D-06  0.16501573730383D-06  0.16484685219606D-06  0.16496673225450D-06
 0.19499500000000D+03  0.17729642004276D-06  0.17552410076483D-06  0.17378075844374D-06  0.17210742337140D-06  0.17053986403813D-06  0.16910967744912D-06  0.16784514383245D-06  0.16677220904138D-06  0.16591573209889D-06  0.16529989971623D-06
 0.19519500000000D+03  0.18136908145812D-06  0.17975908270853D-06  0.17806049649129D-06  0.17631663670254D-06  0.17456709847743D-06  0.17284856816225D-06  0.17119559946947D-06  0.16964128738264D-06  0.16821830925397D-06  0.16695979956380D-06
 0.19539500000000D+03  0.18480722384571D-06  0.18357324709951D-06  0.18214172123756D-06  0.18055298131506D-06  0.17884557569700D-06  0.17705661568804D-06  0.17522251044190D-06  0.17337952206882D-06  0.17156450663634D-06  0.16981590449235D-06
 0.19559500000000D+03  0.18729588357298D-06  0.18661745170676D-06  0.18565160633181D-06  0.18443074216349D-06  0.18298758984461D-06  0.18135498541012D-06  0.17956646163059D-06  0.17765685496943D-06  0.17566286823688D-06  0.17362395079458D-06
 0.19579500000000D+03  0.18860527667261D-06  0.18861086945919D-06  0.18826670202535D-06  0.18759313478560D-06  0.18661293218567D-06  0.18535048077174D-06  0.18383205474409D-06  0.18208649310753D-06  0.18014578687613D-06  0.17804581972990D-06
 0.19599500000000D+03  0.18861202703624D-06  0.18936757751669D-06  0.18974411812372D-06  0.18974713683584D-06  0.18938628739130D-06  0.18867425129688D-06  0.18762654408980D-06  0.18626210830925D-06  0.18460403993007D-06  0.18268030687205D-06
 0.19619500000000D+03  0.18730974522349D-06  0.18881317631017D-06  0.18994388119259D-06  0.19069108638461D-06  0.19104942370507D-06  0.19101772606773D-06  0.19059840690177D-06  0.18979775041480D-06  0.18862670821059D-06  0.18710172627519D-06
 0.19639500000000D+03  0.18480892868297D-06  0.18699071204751D-06  0.18884089146526D-06  0.19033254212524D-06  0.19144472149953D-06  0.19216145331747D-06  0.19247089951213D-06  0.19236523392387D-06  0.19184129802999D-06  0.19090155226790D-06
 0.19659500000000D+03  0.18132688701640D-06  0.18405630118949D-06  0.18652639398593D-06  0.18869566219308D-06  0.19052846115763D-06  0.19199428419007D-06  0.19306702739218D-06  0.19372454846790D-06  0.19394898159799D-06  0.19372767553864D-06
 0.19679500000000D+03  0.17716857911272D-06  0.18026523641403D-06  0.18319957849722D-06  0.18591844929116D-06  0.18837379024770D-06  0.19052215901305D-06  0.19232429400016D-06  0.19374463837192D-06  0.19475128499824D-06  0.19531668827788D-06
 0.19699500000000D+03  0.17269948948784D-06  0.17594946885792D-06  0.17915006038989D-06  0.18224052001188D-06  0.18516393193485D-06  0.18786684579623D-06  0.19029913147740D-06  0.19241375115618D-06  0.19416652428924D-06  0.19551647024572D-06
 0.19719500000000D+03  0.16831240716828D-06  0.17148781434320D-06  0.17473220676703D-06  0.17798210930872D-06  0.18117623943569D-06  0.18425522417421D-06  0.18716154618847D-06  0.18983965138334D-06  0.19223583053380D-06  0.19429823366671D-06
 0.19739500000000D+03  0.16439108516406D-06  0.16727120846486D-06  0.17033301171153D-06  0.17351546260446D-06  0.17675784254994D-06  0.17999966517078D-06  0.18318049578695D-06  0.18624021291675D-06  0.18911920148242D-06  0.19175825675068D-06
 0.19759500000000D+03  0.16127467479931D-06  0.16366644923073D-06  0.16633637168156D-06  0.16923079209833D-06  0.17229437525354D-06  0.17547043498122D-06  0.17870058431486D-06  0.18192482004332D-06  0.18508195989526D-06  0.18810968932472D-06
 0.19779500000000D+03  0.15922696270530D-06  0.16098247125292D-06  0.16308757470374D-06  0.16550016371390D-06  0.16817449937084D-06  0.17106208942545D-06  0.17411136667089D-06  0.17726735905490D-06  0.18047205331514D-06  0.18366468127532D-06
 0.19799500000000D+03  0.15841362279946D-06  0.15944288002158D-06  0.16086200480135D-06  0.16264335350571D-06  0.16475401511106D-06  0.16715711008756D-06  0.16981180650658D-06  0.17267262554236D-06  0.17568936241707D-06  0.17880744542205D-06
 0.19819500000000D+03  0.15888927269199D-06  0.15916733431087D-06  0.15984131213107D-06  0.16089943894991D-06  0.16232362922624D-06  0.16409083858752D-06  0.16617360074551D-06  0.16853930165845D-06  0.17114949735000D-06  0.17395998844986D-06
 0.19839500000000D+03  0.16059468619315D-06  0.16016289973710D-06  0.16009895041318D-06  0.16040678101780D-06  0.16108374377588D-06  0.16212160595686D-06  0.16350749509473D-06  0.16522354546068D-06  0.16724580118661D-06  0.16954368591524D-06
 0.19859500000000D+03  0.16336352825952D-06  0.16232526471060D-06  0.16159561292341D-06  0.16119263096635D-06  0.16112828695248D-06  0.16140890098110D-06  0.16203612998118D-06  0.16300718391946D-06  0.16431376119716D-06  0.16594086655290D-06
 0.19879500000000D+03  0.16693755138624D-06  0.16544900482231D-06  0.16418414702293D-06  0.16317242333395D-06  0.16243824478626D-06  0.16200099970070D-06  0.16187568802551D-06  0.16207355968586D-06  0.16260151696027D-06  0.16346058418072D-06
 0.19899500000000D+03  0.17098908505187D-06  0.16924582749879D-06  0.16762308237576D-06  0.16615816205122D-06  0.16488463312316D-06  0.16383228337765D-06  0.16302725950951D-06  0.16249274078074D-06  0.16224896405600D-06  0.16231184758823D-06
 0.19919500000000D+03  0.17514949224266D-06  0.17336960831186D-06  0.17159773983677D-06  0.16987505811668D-06  0.16824024890150D-06  0.16672980818105D-06  0.16537788216550D-06  0.16421662808972D-06  0.16327666470516D-06  0.16258626439587D-06
 0.19939500000000D+03  0.17904180799941D-06  0.17744672308389D-06  0.17574765941123D-06  0.17398540130918D-06  0.17219938942576D-06  0.17042845334052D-06  0.16871075687705D-06  0.16708378498184D-06  0.16558484107026D-06  0.16425090829344D-06
 0.19959500000000D+03  0.18231503268136D-06  0.18110956329927D-06  0.17969858109411D-06  0.17811824514893D-06  0.17640445682824D-06  0.17459380657598D-06  0.17272395009668D-06  0.17083348536214D-06  0.16896222689225D-06  0.16715151669604D-06
 0.19979500000000D+03  0.18467680556417D-06  0.18403034273103D-06  0.18309646323104D-06  0.18190277745076D-06  0.18047775860475D-06  0.17885150935389D-06  0.17705659657265D-06  0.17512821042377D-06  0.17310424960694D-06  0.17102575207994D-06
 0.19999500000000D+03  0.18592082469557D-06  0.18595170208162D-06  0.18564029034271D-06  0.18500242415546D-06  0.18405594734991D-06  0.18282098844950D-06  0.18132097575340D-06  0.17958331324690D-06  0.17763957460219D-06  0.17552587838583D-06
 0.20019500000000D+03  0.18594571054179D-06  0.18671056070252D-06  0.18711006660690D-06  0.18714613831329D-06  0.18682372884093D-06  0.18615055513090D-06  0.18513790225515D-06  0.18380172653551D-06  0.18216328019358D-06  0.18024953110162D-06
 0.20039500000000D+03  0.18476308867480D-06  0.18625235086257D-06  0.18738669600492D-06  0.18815329396513D-06  0.18854309635719D-06  0.18855015730100D-06  0.18817196232154D-06  0.18741060484363D-06  0.18627392993600D-06  0.18477626471003D-06
 0.20059500000000D+03  0.18249425195227D-06  0.18463412042097D-06  0.18646147563174D-06  0.18794929687795D-06  0.18907468788994D-06  0.18981800061725D-06  0.19016266537147D-06  0.19009604884035D-06  0.18961088338386D-06  0.18870649134966D-06
 0.20079500000000D+03  0.17935641691314D-06  0.18201665564242D-06  0.18443445931632D-06  0.18657034077901D-06  0.18838892529076D-06  0.18985797558495D-06  0.19094787101801D-06  0.19163193524891D-06  0.19188772998787D-06  0.19169867828325D-06
 0.20099500000000D+03  0.17564086161459D-06  0.17864728302521D-06  0.18150256609726D-06  0.18415734337012D-06  0.18656612423918D-06  0.18868620102600D-06  0.19047693002571D-06  0.19189955903793D-06  0.19291802391233D-06  0.19350060201056D-06
 0.20119500000000D+03  0.17168584883600D-06  0.17483596396802D-06  0.17793956385426D-06  0.18094054933285D-06  0.18378633746408D-06  0.18642663504819D-06  0.18881256767902D-06  0.19089617113492D-06  0.19263056733818D-06  0.19397120143559D-06
 0.20139500000000D+03  0.16784719878002D-06  0.17092755181779D-06  0.17407066734011D-06  0.17721722157082D-06  0.18031089401774D-06  0.18329714713582D-06  0.18612217325117D-06  0.18873218379592D-06  0.19107307856089D-06  0.19309098264157D-06
 0.20159500000000D+03  0.16446891022239D-06  0.16727277356604D-06  0.17024444344316D-06  0.17332511563628D-06  0.17645818240656D-06  0.17958834137247D-06  0.18266038809000D-06  0.18561832819851D-06  0.18840474271983D-06  0.19096062123674D-06
 0.20179500000000D+03  0.16185565426954D-06  0.16419994047037D-06  0.16680425368692D-06  0.16961416867126D-06  0.17257621013268D-06  0.17563767416816D-06  0.17874546459432D-06  0.18184500455757D-06  0.18487942946221D-06  0.18778892360607D-06
 0.20199500000000D+03  0.16024852143703D-06  0.16198889121307D-06  0.16406091948695D-06  0.16641832865865D-06  0.16901408613109D-06  0.17180117906786D-06  0.17473184622465D-06  0.17775635074486D-06  0.18082201398736D-06  0.18387229456710D-06
 0.20219500000000D+03  0.15980517841899D-06  0.16084839248812D-06  0.16226792299373D-06  0.16402900241936D-06  0.16609411817645D-06  0.16842469215424D-06  0.17098106129009D-06  0.17372134091870D-06  0.17660028030824D-06  0.17956821027309D-06
 0.20239500000000D+03  0.16058554868483D-06  0.16089816415022D-06  0.16160033483075D-06  0.16267137785058D-06  0.16408591654949D-06  0.16581612991774D-06  0.16783264422233D-06  0.17010383313088D-06  0.17259457379490D-06  0.17526506441830D-06
 0.20259500000000D+03  0.16254418335543D-06  0.16215676684301D-06  0.16213872529308D-06  0.16248487928366D-06  0.16318381516077D-06  0.16422022935697D-06  0.16557659448330D-06  0.16723319620406D-06  0.16916702332171D-06  0.17135043765449D-06
 0.20279500000000D+03  0.16553052847592D-06  0.16453667959056D-06  0.16385944951852D-06  0.16350914853087D-06  0.16348900634482D-06  0.16379719507874D-06  0.16442887947699D-06  0.16537707373255D-06  0.16663198042187D-06  0.16817959779615D-06
 0.20299500000000D+03  0.16929816193188D-06  0.16784787477217D-06  0.16663277450029D-06  0.16567708708345D-06  0.16499793469714D-06  0.16460682207492D-06  0.16451159849489D-06  0.16471793537841D-06  0.16522935186588D-06  0.16604598253716D-06
 0.20319500000000D+03  0.17352354268902D-06  0.17181087786616D-06  0.17023017449386D-06  0.16881650340521D-06  0.16759859202476D-06  0.16659978235567D-06  0.16583955071740D-06  0.16533520865036D-06  0.16510263925583D-06  0.16515550624527D-06
 0.20339500000000D+03  0.17783370800434D-06  0.17607946094356D-06  0.17434154293330D-06  0.17266157920898D-06  0.17107622890198D-06  0.16961775761753D-06  0.16831500132575D-06  0.16719488018771D-06  0.16628363258366D-06  0.16560666611458D-06
 0.20359500000000D+03  0.18184075292431D-06  0.18027169126461D-06  0.17860188437566D-06  0.17687447496723D-06  0.17512940881202D-06  0.17340376370676D-06  0.17173227102577D-06  0.17014839857710D-06  0.16868573662004D-06  0.16737850770763D-06
 0.20379500000000D+03  0.18517930269939D-06  0.18400632164793D-06  0.18262535623182D-06  0.18107587411789D-06  0.17939609204963D-06  0.17762309987298D-06  0.17579315179445D-06  0.17394231483905D-06  0.17210769544105D-06  0.17032843510347D-06
 0.20399500000000D+03  0.18754224602384D-06  0.18694010645270D-06  0.18604282302517D-06  0.18488142515640D-06  0.18348764950864D-06  0.18189378349974D-06  0.18013287614751D-06  0.17823912420243D-06  0.17624879204719D-06  0.17420141861110D-06
 0.20419500000000D+03  0.18871024315370D-06  0.18880123234992D-06  0.18853809627987D-06  0.18793955795967D-06  0.18702689783982D-06  0.18582341024544D-06  0.18435452801111D-06  0.18264813991579D-06  0.18073524381638D-06  0.17865111520086D-06
 0.20439500000000D+03  0.18857187727841D-06  0.18941491213354D-06  0.18987828211985D-06  0.18996573316658D-06  0.18968519125925D-06  0.18904781716183D-06  0.18806791434025D-06  0.18676325162291D-06  0.18515559184204D-06  0.18327169181535D-06
 0.20459500000000D+03  0.18713310708018D-06  0.18871888198103D-06  0.18993504997031D-06  0.19076907938279D-06  0.19121385158033D-06  0.19126646755561D-06  0.19092781642942D-06  0.19020281943465D-06  0.18910094886022D-06  0.18763706618147D-06
 0.20479500000000D+03  0.18451609101910D-06  0.18676823187234D-06  0.18869545681918D-06  0.19026912736140D-06  0.19146666272645D-06  0.19227038628650D-06  0.19266677953743D-06  0.19264649222062D-06  0.19220484941072D-06  0.19134261154504D-06
 0.20499500000000D+03  0.18094811036520D-06  0.18373002146825D-06  0.18626236328515D-06  0.18850207428943D-06  0.19041204294064D-06  0.19196028016340D-06  0.19311907244341D-06  0.19386467951360D-06  0.19417771704577D-06  0.19404390272995D-06
 0.20519500000000D+03  0.17674149059773D-06  0.17986845128732D-06  0.18284507626072D-06  0.18561700556647D-06  0.18813493558292D-06  0.19035424949172D-06  0.19223437193069D-06  0.19373825302289D-06  0.19483249901634D-06  0.19548807662805D-06
 0.20539500000000D+03  0.17226571730778D-06  0.17552149663896D-06  0.17874095374049D-06  0.18186273697642D-06  0.18482901784328D-06  0.18758549659812D-06  0.19008116802963D-06  0.19226784102929D-06  0.19409999162970D-06  0.19553530697951D-06
 0.20559500000000D+03  0.16791374031125D-06  0.17107044372513D-06  0.17430896567139D-06  0.17756599211432D-06  0.18077984100449D-06  0.18389062774730D-06  0.18684042174122D-06  0.18957305312575D-06  0.19203381798977D-06  0.19416973205471D-06
 0.20579500000000D+03  0.16406557279716D-06  0.16690480180836D-06  0.16993702337401D-06  0.17310212907673D-06  0.17633969421266D-06  0.17958912684357D-06  0.18278997711921D-06  0.18588211230629D-06  0.18880549952396D-06  0.19150013480292D-06
 0.20599500000000D+03  0.16105312547422D-06  0.16338615247298D-06  0.16600607152352D-06  0.16886070910385D-06  0.17189578160358D-06  0.17505502602797D-06  0.17828037044716D-06  0.18151231395659D-06  0.18468996227286D-06  0.18775074613421D-06
 0.20619500000000D+03  0.15913022982003D-06  0.16081499396506D-06  0.16285484882277D-06  0.16520938589083D-06  0.16783454174971D-06  0.17068287723607D-06  0.17370346976764D-06  0.17684218000247D-06  0.18004192902834D-06  0.18324241254931D-06
 0.20639500000000D+03  0.15845090403678D-06  0.15940419539287D-06  0.16074929705901D-06  0.16246019535053D-06  0.16450596343476D-06  0.16685137814314D-06  0.16945664853658D-06  0.17227730142909D-06  0.17526447817106D-06  0.17836480222223D-06
 0.20659500000000D+03  0.15905748437069D-06  0.15926146182249D-06  0.15985973371553D-06  0.16084195080365D-06  0.16219194443420D-06  0.16388871585953D-06  0.16590628875454D-06  0.16821318182330D-06  0.17077241641518D-06  0.17354151681162D-06
 0.20679500000000D+03  0.16087886343049D-06  0.16038176124843D-06  0.16024750217910D-06  0.16048126011976D-06  0.16108195658504D-06  0.16204343541151D-06  0.16335469305272D-06  0.16499917743623D-06  0.16695431380607D-06  0.16919142669964D-06
 0.20699500000000D+03  0.16373816244955D-06  0.16264951114153D-06  0.16186147155643D-06  0.16139323682212D-06  0.16125790722911D-06  0.16146354191498D-06  0.16201380249044D-06  0.16290744182806D-06  0.16413741786626D-06  0.16569046986021D-06
 0.20719500000000D+03  0.16736877237190D-06  0.16584969866199D-06  0.16454388618178D-06  0.16348183828555D-06  0.16268873690581D-06  0.16218514032729D-06  0.16198783116859D-06  0.16210975377357D-06  0.16255903007178D-06  0.16333806427782D-06
 0.20739500000000D+03  0.17143757595947D-06  0.16968688615317D-06  0.16804469525781D-06  0.16654917091994D-06  0.16523440807516D-06  0.16413076811364D-06  0.16326562824038D-06  0.16266376878386D-06  0.16234667145143D-06  0.16233128990613D-06
 0.20759500000000D+03  0.17557396238542D-06  0.17381090249832D-06  0.17204335043376D-06  0.17031290508414D-06  0.16865857092347D-06  0.16711694581873D-06  0.16572268897302D-06  0.16450913255274D-06  0.16350809066423D-06  0.16274864781549D-06
 0.20779500000000D+03  0.17940275448017D-06  0.17784765201924D-06  0.17617679719820D-06  0.17443078056259D-06  0.17264905697348D-06  0.17087023409561D-06  0.16913231448262D-06  0.16747326396924D-06  0.16593130062632D-06  0.16454407669823D-06
 0.20799500000000D+03  0.18257843288040D-06  0.18143281371508D-06  0.18007181961755D-06  0.17853075396129D-06  0.17684507642228D-06  0.17505089336242D-06  0.17318520462741D-06  0.17128631725454D-06  0.16939439861596D-06  0.16755125112228D-06
 0.20819500000000D+03  0.18481734160076D-06  0.18424543753593D-06  0.18337910854991D-06  0.18224458914038D-06  0.18086937455450D-06  0.17928278216724D-06  0.17751641533069D-06  0.17560453051537D-06  0.17358464399320D-06  0.17149785227396D-06
 0.20839500000000D+03  0.18592427004470D-06  0.18603791397242D-06  0.18580571015745D-06  0.18524184414062D-06  0.18436272321347D-06  0.18318733182374D-06  0.18173792974287D-06  0.18004058637668D-06  0.17812579217980D-06  0.17602912939610D-06
 0.20859500000000D+03  0.18581020662057D-06  0.18665883256359D-06  0.18714223743276D-06  0.18726063987227D-06  0.18701731744608D-06  0.18641851483217D-06  0.18547416632616D-06  0.18419871709214D-06  0.18261185681690D-06  0.18073937305200D-06
 0.20879500000000D+03  0.18449918481217D-06  0.18606601236983D-06  0.18728164138386D-06  0.18813164448082D-06  0.18860531704705D-06  0.18869507568317D-06  0.18839689634539D-06  0.18771131627212D-06  0.18664442871660D-06  0.18520888916954D-06
 0.20899500000000D+03  0.18212374545632D-06  0.18432837263333D-06  0.18622744917618D-06  0.18779250253739D-06  0.18899918334961D-06  0.18982628230383D-06  0.19025566508418D-06  0.19027315557750D-06  0.18986977641533D-06  0.18904297717025D-06
 0.20919500000000D+03  0.17891017847084D-06  0.18161696070390D-06  0.18409093025082D-06  0.18629133113833D-06  0.18818160427754D-06  0.18972823705647D-06  0.19090018068773D-06  0.19166929216123D-06  0.19201158576081D-06  0.19190870331543D-06
 0.20939500000000D+03  0.17515593636549D-06  0.17818690870997D-06  0.18107822537734D-06  0.18377952161743D-06  0.18624438328746D-06  0.18842920617453D-06  0.19029226051324D-06  0.19179352817855D-06  0.19289560918151D-06  0.19356527719084D-06
 0.20959500000000D+03  0.17120216729834D-06  0.17435298199949D-06  0.17746964770016D-06  0.18049547995357D-06  0.18337723748836D-06  0.18606408472072D-06  0.18850652463665D-06  0.19065569804652D-06  0.19246366028147D-06  0.19388469257055D-06
 0.20979500000000D+03  0.16740421397014D-06  0.17046158497956D-06  0.17359389542059D-06  0.17674177745163D-06  0.17984858777666D-06  0.18285953383870D-06  0.18572063823685D-06  0.18837772534835D-06  0.19077600570160D-06  0.19286078569660D-06
 0.20999500000000D+03  0.16410241631494D-06  0.16686175013439D-06  0.16979982454934D-06  0.17285837313630D-06  0.17598091657289D-06  0.17911216399574D-06  0.18219708880506D-06  0.18517984315193D-06  0.18800282210902D-06  0.19060657213638D-06
 0.21019500000000D+03  0.16159496816134D-06  0.16387706593848D-06  0.16642796138163D-06  0.16919426859875D-06  0.17212317649315D-06  0.17516231712182D-06  0.17825901120264D-06  0.18135926171200D-06  0.18440658594327D-06  0.18734118128131D-06
 0.21039500000000D+03  0.16011415025928D-06  0.16178000156372D-06  0.16378340665725D-06  0.16607946293693D-06  0.16862231800203D-06  0.17136571178734D-06  0.17426250426824D-06  0.17726380744306D-06  0.18031783538501D-06  0.18336859745053D-06
 0.21059500000000D+03  0.15980706936772D-06  0.16076981941422D-06  0.16211142888258D-06  0.16379866482672D-06  0.16579556988987D-06  0.16806477672240D-06  0.17056749499425D-06  0.17326282361035D-06  0.17610674639373D-06  0.17905068397050D-06
 0.21079500000000D+03  0.16072202214075D-06  0.16095522581577D-06  0.16157693139324D-06  0.16256802587762D-06  0.16390484940957D-06  0.16556117498154D-06  0.16750881937072D-06  0.16971723043282D-06  0.17215265656564D-06  0.17477680111172D-06
 0.21099500000000D+03  0.16280167165903D-06  0.16234299921993D-06  0.16224904487789D-06  0.16251617098946D-06  0.16313463430858D-06  0.16409091672206D-06  0.16536899717341D-06  0.16695035936251D-06  0.16881334875005D-06  0.17093202709641D-06
 0.21119500000000D+03  0.16588425536890D-06  0.16483393508237D-06  0.16409223244267D-06  0.16367092630923D-06  0.16357472437773D-06  0.16380352645799D-06  0.16435419671171D-06  0.16522110822932D-06  0.16639575212844D-06  0.16786578817852D-06
 0.21139500000000D+03  0.16971386889505D-06  0.16822741321158D-06  0.16696536850544D-06  0.16595327300229D-06  0.16520945637934D-06  0.16474686739561D-06  0.16457501889642D-06  0.16470106045717D-06  0.16512974768797D-06  0.16586267546572D-06
 0.21159500000000D+03  0.17396026973776D-06  0.17223552426465D-06  0.17063008778327D-06  0.16918004121498D-06  0.16791500404791D-06  0.16685933291084D-06  0.16603386814842D-06  0.16545736200297D-06  0.16514689137447D-06  0.16511731655461D-06
 0.21179500000000D+03  0.17824746509005D-06  0.17650677706975D-06  0.17476906674864D-06  0.17307648801680D-06  0.17146622404705D-06  0.16997107078712D-06  0.16862071804647D-06  0.16744325101586D-06  0.16646599251623D-06  0.16571528537752D-06
 0.21199500000000D+03  0.18218871553471D-06  0.18065791461528D-06  0.17901364380330D-06  0.17729894895711D-06  0.17555385853548D-06  0.17381550486936D-06  0.17211886570106D-06  0.17049806426773D-06  0.16898750887858D-06  0.16762209526194D-06
 0.21219500000000D+03  0.18542401130979D-06  0.18431062773980D-06  0.18297844858076D-06  0.18146617787703D-06  0.17981160399575D-06  0.17805142802587D-06  0.17622156756842D-06  0.17435809730139D-06  0.17249848074784D-06  0.17068221790742D-06
 0.21239500000000D+03  0.18765526075433D-06  0.18712863840036D-06  0.18629903819626D-06  0.18519614762429D-06  0.18385074308406D-06  0.18229431152149D-06  0.18055908916366D-06  0.17867863931205D-06  0.17668897992121D-06  0.17462959390290D-06
 0.21259500000000D+03  0.18867482338044D-06  0.18885037757766D-06  0.18866766609233D-06  0.18814368140060D-06  0.18729827645085D-06  0.18615356609205D-06  0.18473382302576D-06  0.18306579627732D-06  0.18117961683602D-06  0.17910999724611D-06
 0.21279500000000D+03  0.18838446349894D-06  0.18931347666238D-06  0.18986270674973D-06  0.19003400572273D-06  0.18983355922680D-06  0.18927102776970D-06  0.18835931279892D-06  0.18711473093301D-06  0.18555768131124D-06  0.18371383393793D-06
 0.21299500000000D+03  0.18680357725532D-06  0.18846903188095D-06  0.18976875009298D-06  0.19068833897433D-06  0.19121883792935D-06  0.19135563867253D-06  0.19109806271504D-06  0.19044944086699D-06  0.18941759797144D-06  0.18801588071293D-06
 0.21319500000000D+03  0.18406687066920D-06  0.18638523778181D-06  0.18838620032248D-06  0.19003942973344D-06  0.19132061501398D-06  0.19221033495847D-06  0.19269341773767D-06  0.19275889775158D-06  0.19240038666908D-06  0.19161689370187D-06
 0.21339500000000D+03  0.18041223758279D-06  0.18324090955245D-06  0.18583053614259D-06  0.18813663436343D-06  0.19012064042280D-06  0.19174899539703D-06  0.19299237255054D-06  0.19382546093748D-06  0.19422725258105D-06  0.19418170285152D-06
 0.21359500000000D+03  0.17615974306450D-06  0.17930966821193D-06  0.18232190219701D-06  0.18514102884822D-06  0.18771666990806D-06  0.19000300600960D-06  0.19195807294206D-06  0.19354337661659D-06  0.19472407207742D-06  0.19546954146680D-06
 0.21379500000000D+03  0.17168296957403D-06  0.17493571515431D-06  0.17816577659463D-06  0.18131123289971D-06  0.18431360851740D-06  0.18711788900025D-06  0.18967210842970D-06  0.19192689735427D-06  0.19383550676375D-06  0.19535433035342D-06
 0.21399500000000D+03  0.16737484658914D-06  0.17050272014032D-06  0.17372575896438D-06  0.17698069506191D-06  0.18020566360363D-06  0.18334057946296D-06  0.18632712840209D-06  0.18910841560246D-06  0.19162882250425D-06  0.19383441169066D-06
 0.21419500000000D+03  0.16361120347398D-06  0.16639842844007D-06  0.16939039944042D-06  0.17252774505394D-06  0.17575036917505D-06  0.17899795049469D-06  0.18221026380830D-06  0.18532707082099D-06  0.18828787232356D-06  0.19103208406647D-06
 0.21439500000000D+03  0.16071604110095D-06  0.16297865508028D-06  0.16553718138136D-06  0.16834083102708D-06  0.17133620348151D-06  0.17446771862679D-06  0.17767804455663D-06  0.18090825053172D-06  0.18409757547194D-06  0.18718330345467D-06
 0.21459500000000D+03  0.15893241008475D-06  0.16053473617140D-06  0.16249762401632D-06  0.16478251070886D-06  0.16734675937255D-06  0.17014399148179D-06  0.17312438081186D-06  0.17623493521286D-06  0.17941938801436D-06  0.18261781395560D-06
 0.21479500000000D+03  0.15840178590721D-06  0.15926795031064D-06  0.16052744463441D-06  0.16215627667120D-06  0.16412537273349D-06  0.16640093130203D-06  0.16894447249864D-06  0.17171302792502D-06  0.17465916405875D-06  0.17773048216457D-06
 0.21499500000000D+03  0.15915337712257D-06  0.15927313757116D-06  0.15978476752663D-06  0.16067982708302D-06  0.16194419524892D-06  0.16355860583520D-06  0.16549853419458D-06  0.16773411817400D-06  0.17023019763228D-06  0.17294585178250D-06
 0.21519500000000D+03  0.16110347187898D-06  0.16053229436443D-06  0.16031793053967D-06  0.16046715406057D-06  0.16098083494475D-06  0.16185472260171D-06  0.16307938095338D-06  0.16463982215995D-06  0.16651538386376D-06  0.16867935812055D-06
 0.21539500000000D+03  0.16406409276080D-06  0.16291782825328D-06  0.16206312091680D-06  0.16152038316533D-06  0.16130430324727D-06  0.16142478528895D-06  0.16188712887480D-06  0.16269153603120D-06  0.16383270613632D-06  0.16529947277724D-06
 0.21559500000000D+03  0.16775989305366D-06  0.16620460605883D-06  0.16485125545748D-06  0.16373120016365D-06  0.16287070039814D-06  0.16229182728268D-06  0.16201294272785D-06  0.16204832738771D-06  0.16240752956282D-06  0.16309485799358D-06
 0.21579500000000D+03  0.17185210650789D-06  0.17008974811749D-06  0.16842320158734D-06  0.16689115074364D-06  0.16552824052957D-06  0.16436579741682D-06  0.16343250413810D-06  0.16275434052215D-06  0.16235388185011D-06  0.16224955915004D-06
 0.21599500000000D+03  0.17596811982289D-06  0.17421896224355D-06  0.17245231378450D-06  0.17070992206320D-06  0.16903087572950D-06  0.16745210221351D-06  0.16600906118375D-06  0.16473603693999D-06  0.16366564155070D-06  0.16282791559509D-06
 0.21619500000000D+03  0.17973469782504D-06  0.17821779804459D-06  0.17657298271797D-06  0.17484054707145D-06  0.17305963155594D-06  0.17126858376605D-06  0.16950555227683D-06  0.16780902713057D-06  0.16621772917047D-06  0.16476977581255D-06
 0.21639500000000D+03  0.18281214210216D-06  0.18172550122934D-06  0.18041329434935D-06  0.17891002295574D-06  0.17725045982242D-06  0.17546998375159D-06  0.17360508083414D-06  0.17169398900192D-06  0.16977700452444D-06  0.16789597775696D-06
 0.21659500000000D+03  0.18492600462857D-06  0.18442837910489D-06  0.18362908422562D-06  0.18255306961810D-06  0.18122677072804D-06  0.17967843386919D-06  0.17793861579453D-06  0.17604085550113D-06  0.17402230506820D-06  0.17192372766691D-06
 0.21679500000000D+03  0.18589277133294D-06  0.18608911143439D-06  0.18593597433393D-06  0.18544591359430D-06  0.18463393367925D-06  0.18351769169288D-06  0.18211805633401D-06  0.18045982671739D-06  0.17857256689191D-06  0.17649112133829D-06
 0.21699500000000D+03  0.18563642252209D-06  0.18656857348462D-06  0.18713576779810D-06  0.18733645382375D-06  0.18717227132417D-06  0.18664794827908D-06  0.18577185648734D-06  0.18455682538744D-06  0.18302111281728D-06  0.18118933239381D-06
 0.21719500000000D+03  0.18419396660018D-06  0.18583759948130D-06  0.18713408154155D-06  0.18806728207061D-06  0.18862480629707D-06  0.18879745665486D-06  0.18857959934118D-06  0.18797004304359D-06  0.18697313252125D-06  0.18559995207653D-06
 0.21739500000000D+03  0.18170966002737D-06  0.18397755293079D-06  0.18594729005217D-06  0.18758890351265D-06  0.18887650218956D-06  0.18978730841399D-06  0.19030162516332D-06  0.19040361796621D-06  0.19008249807697D-06  0.18933389985542D-06
 0.21759500000000D+03  0.17841922982189D-06  0.18117020992312D-06  0.18369844282159D-06  0.18596195385933D-06  0.18792293982321D-06  0.18954653870674D-06  0.19080028968869D-06  0.19165457443653D-06  0.19208375870891D-06  0.19206766406838D-06
 0.21779500000000D+03  0.17462657772985D-06  0.17767885345876D-06  0.18060336399248D-06  0.18334883773207D-06  0.18586797715926D-06  0.18811619340047D-06  0.19005062359174D-06  0.19163003044073D-06  0.19281566733364D-06  0.19357272423552D-06
 0.21799500000000D+03  0.17067593134163D-06  0.17382328492576D-06  0.17694923965515D-06  0.17999656480878D-06  0.18291149399054D-06  0.18564263915675D-06  0.18813977482645D-06  0.19035315349792D-06  0.19223384268055D-06  0.19373493945661D-06
 0.21819500000000D+03  0.16692225570479D-06  0.16995159341405D-06  0.17306844026054D-06  0.17621331940408D-06  0.17932940647150D-06  0.18236177079896D-06  0.18525618447440D-06  0.18795800137557D-06  0.19041182580128D-06  0.19256223575978D-06
 0.21839500000000D+03  0.16370220846772D-06  0.16641115238601D-06  0.16931017353697D-06  0.17234140863808D-06  0.17544855845941D-06  0.17857654586030D-06  0.18167056035506D-06  0.18467477062514D-06  0.18753137951376D-06  0.19018064434681D-06
 0.21859500000000D+03  0.16130733557705D-06  0.16352074685432D-06  0.16601207975298D-06  0.16872888591787D-06  0.17161894352863D-06  0.17463039974214D-06  0.17771117423885D-06  0.18080778064062D-06  0.18386400284234D-06  0.18682015984109D-06
 0.21879500000000D+03  0.15996079151094D-06  0.16154525726068D-06  0.16347337547684D-06  0.16570165098063D-06  0.16818526658188D-06  0.17087877149870D-06  0.17373590084360D-06  0.17670869617693D-06  0.17974611722272D-06  0.18279270262481D-06
 0.21899500000000D+03  0.15979869320897D-06  0.16067407874760D-06  0.16193083047134D-06  0.16353744709881D-06  0.16545942552519D-06  0.16766052240083D-06  0.17010302121422D-06  0.17274723532947D-06  0.17555032595354D-06  0.17846466154078D-06
 0.21919500000000D+03  0.16085722174305D-06  0.16100442382784D-06  0.16153877115600D-06  0.16244301921120D-06  0.16369526445201D-06  0.16527071709437D-06  0.16714243680556D-06  0.16928123070803D-06  0.17165483010594D-06  0.17422628375539D-06
 0.21939500000000D+03  0.16306666442725D-06  0.16253074825033D-06  0.16235437519135D-06  0.16253572973932D-06  0.16306693552643D-06  0.16393615211678D-06  0.16512876242721D-06  0.16662765406303D-06  0.16841278773766D-06  0.17045987516488D-06
 0.21959500000000D+03  0.16625361494488D-06  0.16514163600091D-06  0.16432964837789D-06  0.16383105461341D-06  0.16365232023304D-06  0.16379510282608D-06  0.16425779338577D-06  0.16503616200193D-06  0.16612328129597D-06  0.16750859832674D-06
 0.21979500000000D+03  0.17015234065798D-06  0.16862542712624D-06  0.16731153012259D-06  0.16623749259284D-06  0.16542309641902D-06  0.16488290786427D-06  0.16462797964408D-06  0.16466681660149D-06  0.16500560321251D-06  0.16564765643007D-06
