%!PS-Adobe-3.0 EPSF-3.0
%%Title: %omega.eps
%%Creator: matplotlib version 2.2.3, http://matplotlib.org/
%%CreationDate: Wed Feb 27 17:02:24 2019
%%Orientation: portrait
%%BoundingBox: -234 36 846 756
%%EndComments
%%BeginProlog
/mpldict 9 dict def
mpldict begin
/m { moveto } bind def
/l { lineto } bind def
/r { rlineto } bind def
/c { curveto } bind def
/cl { closepath } bind def
/box {
m
1 index 0 r
0 exch r
neg 0 r
cl
} bind def
/clipbox {
box
clip
newpath
} bind def
%!PS-Adobe-3.0 Resource-Font
%%Title: DejaVu Sans Oblique
%%Copyright: Copyright (c) 2003 by Bitstream, Inc. All Rights Reserved. Copyright (c) 2006 by Tavmjong Bah. All Rights Reserved. DejaVu changes are in public domain 
%%Creator: Converted from TrueType to type 3 by PPR
25 dict begin
/_d{bind def}bind def
/_m{moveto}_d
/_l{lineto}_d
/_cl{closepath eofill}_d
/_c{curveto}_d
/_sc{7 -1 roll{setcachedevice}{pop pop pop pop pop pop}ifelse}_d
/_e{exec}_d
/FontName /DejaVuSans-Oblique def
/PaintType 0 def
/FontMatrix[.001 0 0 .001 0 0]def
/FontBBox[-1016 -350 1659 1068]def
/FontType 3 def
/Encoding [ /i /alpha /omega ] def
/FontInfo 10 dict dup begin
/FamilyName (DejaVu Sans) def
/FullName (DejaVu Sans Oblique) def
/Notice (Copyright (c) 2003 by Bitstream, Inc. All Rights Reserved. Copyright (c) 2006 by Tavmjong Bah. All Rights Reserved. DejaVu changes are in public domain ) def
/Weight (Oblique) def
/Version (Version 2.35) def
/ItalicAngle -11.0 def
/isFixedPitch false def
/UnderlinePosition -130 def
/UnderlineThickness 90 def
end readonly def
/CharStrings 4 dict dup begin
/.notdef 0 def
/i{278 0 35 0 273 760 _sc
183 760 _m
273 760 _l
251 646 _l
161 646 _l
183 760 _l
142 547 _m
232 547 _l
125 0 _l
35 0 _l
142 547 _l
_cl}_d
/alpha{{659 0 55 -11 645 559 _sc
409 254 _m
410 367 _l
410 443 381 482 323 483 _c
279 483 244 465 218 429 _c
184 384 161 332 150 273 _c
136 201 137 148 155 114 _c
173 79 202 62 242 62 _c
285 62 325 96 362 166 _c
409 254 _l
338 559 _m
440 561 490 509 489 404 _c
489 404 514 451 565 547 _c
645 547 _l
487 250 _l
486 144 _l
486 128 490 113 499 100 _c
509 84 519 76 530 76 _c
}_e{573 76 _l
559 0 _l
504 0 _l
473 0 447 13 425 41 _c
415 55 409 76 409 104 _c
387 69 359 37 323 8 _c
305 -5 273 -11 227 -11 _c
151 -10 99 14 71 62 _c
43 112 37 183 55 273 _c
73 369 108 440 158 484 _c
213 533 273 558 338 559 _c
_cl}_e}_d
/omega{{837 0 68 -13 771 547 _sc
214 -13 _m
78 -13 30 83 68 276 _c
82 352 125 443 196 547 _c
293 547 _l
225 443 184 351 170 273 _c
142 132 164 62 237 62 _c
304 62 354 149 387 325 _c
470 325 _l
434 149 450 61 518 62 _c
590 62 640 133 668 273 _c
682 351 677 443 651 547 _c
748 547 _l
778 443 785 352 771 276 _c
733 82 647 -13 512 -13 _c
423 -13 383 35 391 132 _c
}_e{359 35 300 -13 214 -13 _c
_cl}_e}_d
end readonly def

/BuildGlyph
 {exch begin
 CharStrings exch
 2 copy known not{pop /.notdef}if
 true 3 1 roll get exec
 end}_d

/BuildChar {
 1 index /Encoding get exch get
 1 index /BuildGlyph get exec
}_d

FontName currentdict end definefont pop
%!PS-Adobe-3.0 Resource-Font
%%Title: DejaVu Serif
%%Copyright: Copyright (c) 2003 by Bitstream, Inc. All Rights Reserved. DejaVu changes are in public domain 
%%Creator: Converted from TrueType to type 3 by PPR
25 dict begin
/_d{bind def}bind def
/_m{moveto}_d
/_l{lineto}_d
/_cl{closepath eofill}_d
/_c{curveto}_d
/_sc{7 -1 roll{setcachedevice}{pop pop pop pop pop pop}ifelse}_d
/_e{exec}_d
/FontName /DejaVuSerif def
/PaintType 0 def
/FontMatrix[.001 0 0 .001 0 0]def
/FontBBox[-770 -347 2105 1109]def
/FontType 3 def
/Encoding [ /hyphen /period /zero /one /two /three /four /five /six ] def
/FontInfo 10 dict dup begin
/FamilyName (DejaVu Serif) def
/FullName (DejaVu Serif) def
/Notice (Copyright (c) 2003 by Bitstream, Inc. All Rights Reserved. DejaVu changes are in public domain ) def
/Weight (Book) def
/Version (Version 2.35) def
/ItalicAngle 0.0 def
/isFixedPitch false def
/UnderlinePosition -130 def
/UnderlineThickness 90 def
end readonly def
/CharStrings 10 dict dup begin
/.notdef 0 def
/hyphen{338 0 44 230 294 306 _sc
44 306 _m
294 306 _l
294 230 _l
44 230 _l
44 306 _l
_cl}_d
/period{318 0 94 -13 224 116 _sc
94 51 _m
94 69 100 84 112 97 _c
124 109 140 116 159 116 _c
177 116 192 109 205 97 _c
217 84 224 69 224 51 _c
224 33 217 17 205 5 _c
192 -7 177 -13 159 -13 _c
140 -13 124 -7 112 5 _c
100 17 94 32 94 51 _c
_cl}_d
/zero{636 0 66 -13 570 742 _sc
318 34 _m
368 34 405 61 430 116 _c
454 170 467 253 467 364 _c
467 474 454 557 430 612 _c
405 666 368 694 318 694 _c
268 694 230 666 206 612 _c
181 557 169 474 169 364 _c
169 253 181 170 206 116 _c
230 61 268 34 318 34 _c
318 -13 _m
238 -13 176 20 132 86 _c
88 152 66 244 66 364 _c
66 483 88 576 132 642 _c
176 708 238 742 318 742 _c
397 742 459 708 503 642 _c
547 576 570 483 570 364 _c
570 244 547 152 503 86 _c
459 20 397 -13 318 -13 _c
_cl}_d
/one{636 0 122 0 494 742 _sc
142 0 _m
142 52 _l
269 52 _l
269 658 _l
122 563 _l
122 627 _l
300 742 _l
367 742 _l
367 52 _l
494 52 _l
494 0 _l
142 0 _l
_cl}_d
/two{{636 0 68 0 538 742 _sc
128 555 _m
73 555 _l
73 685 _l
107 703 142 717 178 727 _c
213 737 248 742 282 742 _c
358 742 418 723 462 687 _c
506 650 528 600 528 537 _c
528 465 478 380 378 281 _c
370 273 365 268 361 264 _c
177 80 _l
481 80 _l
481 170 _l
538 170 _l
538 0 _l
68 0 _l
68 53 _l
289 274 _l
337 322 372 367 393 408 _c
414 449 425 492 425 537 _c
}_e{425 586 412 624 386 652 _c
360 680 325 694 281 694 _c
234 694 198 682 173 659 _c
147 636 132 601 128 555 _c
_cl}_e}_d
/three{{636 0 76 -13 562 742 _sc
97 698 _m
135 712 171 723 206 731 _c
241 738 274 742 305 742 _c
376 742 432 726 472 696 _c
512 665 532 622 532 568 _c
532 524 518 487 490 458 _c
462 428 423 408 373 398 _c
433 389 479 367 512 332 _c
545 297 562 252 562 197 _c
562 129 539 77 493 41 _c
447 5 382 -13 296 -13 _c
258 -13 220 -9 184 -1 _c
148 6 112 18 76 35 _c
76 177 _l
}_e{131 177 _l
134 129 150 94 178 70 _c
206 46 246 34 298 34 _c
348 34 387 48 416 77 _c
444 106 459 146 459 196 _c
459 253 444 296 414 326 _c
384 355 341 370 284 370 _c
238 370 _l
238 420 _l
262 420 _l
319 420 362 431 390 455 _c
418 479 433 514 433 562 _c
433 604 421 637 398 660 _c
374 682 341 694 297 694 _c
253 694 218 683 194 662 _c
170 641 156 610 152 570 _c
}_e{97 570 _l
97 698 _l
_cl}_e}_d
/four{636 0 31 0 586 742 _sc
349 247 _m
349 635 _l
100 247 _l
349 247 _l
564 0 _m
232 0 _l
232 52 _l
349 52 _l
349 195 _l
31 195 _l
31 248 _l
350 742 _l
447 742 _l
447 247 _l
586 247 _l
586 195 _l
447 195 _l
447 52 _l
564 52 _l
564 0 _l
_cl}_d
/five{{636 0 85 -13 559 729 _sc
503 729 _m
503 649 _l
169 649 _l
169 440 _l
185 452 205 460 228 466 _c
250 472 276 475 304 475 _c
382 475 444 453 490 409 _c
536 365 559 306 559 231 _c
559 153 536 93 490 51 _c
444 8 379 -13 296 -13 _c
262 -13 228 -9 193 -1 _c
157 6 121 18 85 35 _c
85 177 _l
140 177 _l
143 130 158 94 184 70 _c
210 46 248 34 296 34 _c
}_e{347 34 386 51 414 85 _c
442 119 456 167 456 231 _c
456 294 442 342 415 376 _c
387 410 348 427 296 427 _c
266 427 240 421 218 411 _c
196 401 176 385 159 363 _c
117 363 _l
117 729 _l
503 729 _l
_cl}_e}_d
/six{{636 0 67 -13 573 742 _sc
327 34 _m
373 34 408 50 433 84 _c
457 118 470 166 470 230 _c
470 293 457 341 433 375 _c
408 409 373 426 327 426 _c
280 426 244 409 220 377 _c
196 344 184 297 184 236 _c
184 171 196 121 221 86 _c
245 51 281 34 327 34 _c
168 401 _m
190 425 215 444 243 456 _c
271 468 302 474 338 474 _c
410 474 468 452 510 408 _c
552 364 573 305 573 230 _c
}_e{573 156 550 97 505 53 _c
459 9 399 -13 323 -13 _c
241 -13 177 17 133 78 _c
89 139 67 227 67 341 _c
67 468 93 567 145 637 _c
197 707 271 742 367 742 _c
393 742 420 739 448 735 _c
476 730 505 723 535 713 _c
535 593 _l
480 593 _l
476 625 463 650 442 668 _c
421 685 393 694 357 694 _c
293 694 246 670 215 622 _c
184 574 168 500 168 401 _c
_cl}_e}_d
end readonly def

/BuildGlyph
 {exch begin
 CharStrings exch
 2 copy known not{pop /.notdef}if
 true 3 1 roll get exec
 end}_d

/BuildChar {
 1 index /Encoding get exch get
 1 index /BuildGlyph get exec
}_d

FontName currentdict end definefont pop
end
%%EndProlog
mpldict begin
-234 36 translate
1080 720 0 0 clipbox
gsave
0 0 m
1080 0 l
1080 720 l
0 720 l
cl
1.000 setgray
fill
grestore
gsave
135 79.2 m
972 79.2 l
972 633.6 l
135 633.6 l
cl
1.000 setgray
fill
grestore
0.800 setlinewidth
1 setlinejoin
0 setlinecap
[] 0 setdash
0.000 setgray
gsave
/o {
gsave
newpath
translate
0.8 setlinewidth
1 setlinejoin
0 setlinecap
0 0 m
0 -3.5 l

gsave
0.000 setgray
fill
grestore
stroke
grestore
} bind def
145.967 79.2 o
grestore
/DejaVuSerif findfont
30.000 scalefont
setfont
gsave
122.107464 49.403125 translate
0.000000 rotate
0.000000 0.000000 m /zero glyphshow
19.086914 0.000000 m /period glyphshow
28.623047 0.000000 m /zero glyphshow
grestore
gsave
/o {
gsave
newpath
translate
0.8 setlinewidth
1 setlinejoin
0 setlinecap
0 0 m
0 -3.5 l

gsave
0.000 setgray
fill
grestore
stroke
grestore
} bind def
281.36 79.2 o
grestore
gsave
257.500541 49.403125 translate
0.000000 rotate
0.000000 0.000000 m /zero glyphshow
19.086914 0.000000 m /period glyphshow
28.623047 0.000000 m /five glyphshow
grestore
gsave
/o {
gsave
newpath
translate
0.8 setlinewidth
1 setlinejoin
0 setlinecap
0 0 m
0 -3.5 l

gsave
0.000 setgray
fill
grestore
stroke
grestore
} bind def
416.753 79.2 o
grestore
gsave
392.893618 49.403125 translate
0.000000 rotate
0.000000 0.000000 m /one glyphshow
19.086914 0.000000 m /period glyphshow
28.623047 0.000000 m /zero glyphshow
grestore
gsave
/o {
gsave
newpath
translate
0.8 setlinewidth
1 setlinejoin
0 setlinecap
0 0 m
0 -3.5 l

gsave
0.000 setgray
fill
grestore
stroke
grestore
} bind def
552.146 79.2 o
grestore
gsave
528.286694 49.403125 translate
0.000000 rotate
0.000000 0.000000 m /one glyphshow
19.086914 0.000000 m /period glyphshow
28.623047 0.000000 m /five glyphshow
grestore
gsave
/o {
gsave
newpath
translate
0.8 setlinewidth
1 setlinejoin
0 setlinecap
0 0 m
0 -3.5 l

gsave
0.000 setgray
fill
grestore
stroke
grestore
} bind def
687.539 79.2 o
grestore
gsave
663.679771 49.403125 translate
0.000000 rotate
0.000000 0.000000 m /two glyphshow
19.086914 0.000000 m /period glyphshow
28.623047 0.000000 m /zero glyphshow
grestore
gsave
/o {
gsave
newpath
translate
0.8 setlinewidth
1 setlinejoin
0 setlinecap
0 0 m
0 -3.5 l

gsave
0.000 setgray
fill
grestore
stroke
grestore
} bind def
822.932 79.2 o
grestore
gsave
799.072848 49.403125 translate
0.000000 rotate
0.000000 0.000000 m /two glyphshow
19.086914 0.000000 m /period glyphshow
28.623047 0.000000 m /five glyphshow
grestore
gsave
/o {
gsave
newpath
translate
0.8 setlinewidth
1 setlinejoin
0 setlinecap
0 0 m
0 -3.5 l

gsave
0.000 setgray
fill
grestore
stroke
grestore
} bind def
958.325 79.2 o
grestore
gsave
934.465924 49.403125 translate
0.000000 rotate
0.000000 0.000000 m /three glyphshow
19.086914 0.000000 m /period glyphshow
28.623047 0.000000 m /zero glyphshow
grestore
gsave
538.000000 11.809375 translate
0.000000 rotate
/DejaVuSans-Oblique findfont
36.0 scalefont
setfont
0.000000 0.312500 moveto
/omega glyphshow


grestore
gsave
/o {
gsave
newpath
translate
0.8 setlinewidth
1 setlinejoin
0 setlinecap
0 0 m
-3.5 0 l

gsave
0.000 setgray
fill
grestore
stroke
grestore
} bind def
135 101.115 o
grestore
gsave
80.281250 89.716304 translate
0.000000 rotate
0.000000 0.000000 m /zero glyphshow
19.086914 0.000000 m /period glyphshow
28.623047 0.000000 m /zero glyphshow
grestore
gsave
/o {
gsave
newpath
translate
0.8 setlinewidth
1 setlinejoin
0 setlinecap
0 0 m
-3.5 0 l

gsave
0.000 setgray
fill
grestore
stroke
grestore
} bind def
135 182.716 o
grestore
gsave
80.281250 171.317368 translate
0.000000 rotate
0.000000 0.000000 m /zero glyphshow
19.086914 0.000000 m /period glyphshow
28.623047 0.000000 m /one glyphshow
grestore
gsave
/o {
gsave
newpath
translate
0.8 setlinewidth
1 setlinejoin
0 setlinecap
0 0 m
-3.5 0 l

gsave
0.000 setgray
fill
grestore
stroke
grestore
} bind def
135 264.317 o
grestore
gsave
80.281250 252.918433 translate
0.000000 rotate
0.000000 0.000000 m /zero glyphshow
19.086914 0.000000 m /period glyphshow
28.623047 0.000000 m /two glyphshow
grestore
gsave
/o {
gsave
newpath
translate
0.8 setlinewidth
1 setlinejoin
0 setlinecap
0 0 m
-3.5 0 l

gsave
0.000 setgray
fill
grestore
stroke
grestore
} bind def
135 345.918 o
grestore
gsave
80.281250 334.519498 translate
0.000000 rotate
0.000000 0.000000 m /zero glyphshow
19.086914 0.000000 m /period glyphshow
28.623047 0.000000 m /three glyphshow
grestore
gsave
/o {
gsave
newpath
translate
0.8 setlinewidth
1 setlinejoin
0 setlinecap
0 0 m
-3.5 0 l

gsave
0.000 setgray
fill
grestore
stroke
grestore
} bind def
135 427.519 o
grestore
gsave
80.281250 416.120562 translate
0.000000 rotate
0.000000 0.000000 m /zero glyphshow
19.086914 0.000000 m /period glyphshow
28.623047 0.000000 m /four glyphshow
grestore
gsave
/o {
gsave
newpath
translate
0.8 setlinewidth
1 setlinejoin
0 setlinecap
0 0 m
-3.5 0 l

gsave
0.000 setgray
fill
grestore
stroke
grestore
} bind def
135 509.12 o
grestore
gsave
80.281250 497.721627 translate
0.000000 rotate
0.000000 0.000000 m /zero glyphshow
19.086914 0.000000 m /period glyphshow
28.623047 0.000000 m /five glyphshow
grestore
gsave
/o {
gsave
newpath
translate
0.8 setlinewidth
1 setlinejoin
0 setlinecap
0 0 m
-3.5 0 l

gsave
0.000 setgray
fill
grestore
stroke
grestore
} bind def
135 590.721 o
grestore
gsave
80.281250 579.322692 translate
0.000000 rotate
0.000000 0.000000 m /zero glyphshow
19.086914 0.000000 m /period glyphshow
28.623047 0.000000 m /six glyphshow
grestore
gsave
68.796875 334.400000 translate
90.000000 rotate
/DejaVuSerif findfont
36.0 scalefont
setfont
0.000000 0.781250 moveto
/hyphen glyphshow

/DejaVuSans-Oblique findfont
36.0 scalefont
setfont
12.164062 0.781250 moveto
/alpha glyphshow

/DejaVuSans-Oblique findfont
25.2 scalefont
setfont
35.894531 -5.125000 moveto
/i glyphshow


grestore
3.000 setlinewidth
[12 3] 0 setdash
gsave
837 554.4 135 79.2 clipbox
202.831931 158.281999 m
205.539793 157.311762 l
208.247654 156.776459 l
210.955516 156.645898 l
213.663378 156.8091 l
216.371239 157.182833 l
219.079101 157.709976 l
224.494824 159.083321 l
229.910547 160.730847 l
240.741993 164.456752 l
256.989162 170.430766 l
275.944193 177.316263 l
289.4835 181.962628 l
300.314947 185.45597 l
311.146393 188.724092 l
321.977839 191.753124 l
332.809285 194.53164 l
343.640731 197.054745 l
354.472177 199.319174 l
365.303623 201.322481 l
376.13507 203.066295 l
386.966516 204.550619 l
397.797962 205.778715 l
400.505823 206.04555 l
419.460854 207.471937 l
430.2923 207.941959 l
441.123746 208.165546 l
451.955192 208.145146 l
462.786639 207.88239 l
473.618085 207.38136 l
484.449531 206.643686 l
495.280977 205.671817 l
506.112423 204.469834 l
516.943869 203.038551 l
527.775315 201.381233 l
538.606762 199.500329 l
549.438208 197.397469 l
560.269654 195.075919 l
571.1011 192.536494 l
581.932546 189.781642 l
592.763992 186.813811 l
606.3033 182.808015 l
614.426885 180.247374 l
627.966192 175.720963 l
638.797638 171.871024 l
649.629084 167.820347 l
660.460531 163.573828 l
673.999838 157.999659 l
690.247007 150.930559 l
701.078454 146.002671 l
717.325623 138.333803 l
722.741346 135.714409 l
722.741346 135.714409 l
stroke
grestore
gsave
837 554.4 135 79.2 clipbox
173.045455 117.75483 m
175.753316 121.53704 l
178.461178 125.804775 l
181.169039 130.611894 l
186.584762 142.170685 l
189.292624 149.176136 l
192.000485 157.291362 l
194.708347 166.957824 l
197.416208 179.116383 l
200.12407 195.670791 l
202.831931 217.297521 l
205.539793 242.0357 l
210.955516 298.953258 l
213.663378 330.448005 l
216.371239 362.524568 l
219.079101 393.603149 l
221.786962 422.267971 l
224.494824 447.654879 l
227.202685 469.519068 l
229.910547 488.031901 l
232.618408 503.54916 l
235.32627 516.453552 l
238.034131 527.086987 l
240.741993 535.734252 l
243.449854 542.626278 l
246.157716 547.949931 l
248.865577 551.858622 l
251.573439 554.478832 l
254.281301 555.922355 l
256.989162 556.282216 l
259.697024 555.644912 l
262.404885 554.086331 l
265.112747 551.677468 l
275.944193 534.750143 l
278.652054 528.963812 l
286.775639 508.605978 l
289.4835 500.951798 l
292.191362 492.924701 l
294.899224 484.55896 l
297.607085 475.886399 l
300.314947 466.939658 l
303.022808 457.751378 l
305.73067 448.352568 l
308.438531 438.251172 l
311.146393 428.285234 l
313.854254 418.127533 l
316.562116 407.796839 l
319.269977 397.307838 l
321.977839 386.678483 l
324.6857 375.924279 l
327.393562 365.061545 l
330.101423 354.107418 l
332.809285 343.076586 l
335.517147 331.984553 l
338.225008 320.84356 l
340.93287 309.662582 l
343.640731 298.4457 l
346.348593 287.188017 l
349.056454 275.876477 l
351.764316 263.886833 l
354.472177 252.900066 l
357.180039 242.090373 l
359.8879 231.469994 l
362.595762 215.763421 l
365.303623 205.090002 l
368.011485 191.861653 l
370.719346 183.562825 l
373.427208 172.811069 l
381.550793 137.891525 l
384.258654 128.424985 l
386.966516 117.223607 l
592.763992 104.574626 l
606.3033 113.541767 l
611.719023 113.457718 l
614.426885 113.401413 l
619.842608 113.25698 l
622.550469 113.16885 l
stroke
grestore
[3 0] 0 setdash
0.000 0.500 0.000 setrgbcolor
gsave
837 554.4 135 79.2 clipbox
173.045455 112.119461 m
175.753316 114.459779 l
178.461178 117.021237 l
181.169039 119.800569 l
183.876901 122.793696 l
186.584762 125.992458 l
192.000485 132.952213 l
197.416208 140.475015 l
202.831931 148.082682 l
205.539793 151.649464 l
208.247654 154.866178 l
219.079101 163.010781 l
221.786962 164.2095 l
227.202685 166.299304 l
243.449854 172.29535 l
289.4835 189.926076 l
303.022808 194.731563 l
313.854254 198.355466 l
324.6857 201.764758 l
335.517147 204.9472 l
346.348593 207.896262 l
357.180039 210.607866 l
368.011485 213.078746 l
381.550793 215.827886 l
392.382239 217.757751 l
403.213685 219.448525 l
414.045131 220.902656 l
422.168716 221.83862 l
435.708023 223.109965 l
446.539469 223.868039 l
457.370916 224.400078 l
468.202362 224.709346 l
479.033808 224.796659 l
489.865254 224.667729 l
500.6967 224.323373 l
511.528146 223.766853 l
522.359592 223.000619 l
533.191038 222.028751 l
544.022485 220.852879 l
554.853931 219.475453 l
565.685377 217.899737 l
579.224685 215.655708 l
590.056131 213.642609 l
600.887577 211.438565 l
611.719023 209.047653 l
622.550469 206.470692 l
636.089777 202.992038 l
649.629084 199.231045 l
663.168392 195.192609 l
676.7077 190.880808 l
690.247007 186.298909 l
703.786315 181.452621 l
717.325623 176.345211 l
730.86493 170.982389 l
744.404238 165.373948 l
757.943546 159.533759 l
774.190715 152.263921 l
833.763669 125.230304 l
847.302976 119.152656 l
852.718699 116.571615 l
858.134423 113.772698 l
860.842284 112.228806 l
863.550146 110.519264 l
866.258007 108.522486 l
868.965869 105.884323 l
868.965869 105.884323 l
stroke
grestore
gsave
837 554.4 135 79.2 clipbox
173.045455 115.328831 m
178.461178 123.181301 l
181.169039 127.800737 l
183.876901 132.908964 l
186.584762 138.536173 l
189.292624 144.72235 l
192.000485 151.519719 l
194.708347 159.000904 l
197.416208 167.263012 l
205.539793 198.23796 l
210.955516 226.174085 l
213.663378 242.948816 l
216.371239 261.703188 l
219.079101 282.418435 l
221.786962 305.029274 l
224.494824 329.423096 l
227.202685 355.386107 l
229.910547 382.534781 l
232.618408 410.257927 l
235.32627 437.730557 l
238.034131 464.0265 l
243.449854 509.975244 l
246.157716 528.758993 l
248.865577 544.632032 l
251.573439 557.734715 l
254.281301 568.284101 l
256.989162 576.520912 l
259.697024 582.68016 l
262.404885 586.978905 l
265.112747 589.612987 l
267.820608 590.755402 l
270.52847 590.560375 l
273.236331 589.165813 l
275.944193 586.693301 l
278.652054 583.251368 l
286.775639 568.028689 l
292.191362 554.560434 l
294.899224 547.020495 l
300.314947 530.586041 l
303.022808 521.782102 l
305.73067 512.641967 l
308.438531 503.203171 l
311.146393 493.502437 l
313.854254 483.574035 l
316.562116 473.450607 l
319.269977 462.387135 l
321.977839 451.643539 l
324.6857 440.699204 l
327.393562 429.564739 l
330.101423 418.250751 l
332.809285 406.764585 l
335.517147 395.116849 l
338.225008 384.680073 l
340.93287 372.998881 l
343.640731 361.17407 l
346.348593 349.189322 l
349.056454 338.339644 l
351.764316 326.620099 l
354.472177 314.871994 l
357.180039 302.329095 l
359.8879 290.581805 l
362.595762 276.25429 l
365.303623 263.443739 l
368.011485 252.674031 l
370.719346 239.727206 l
373.427208 229.80778 l
376.13507 218.7133 l
378.842931 207.157773 l
381.550793 195.181184 l
384.258654 181.652544 l
386.966516 167.039425 l
389.674377 158.338304 l
392.382239 151.541751 l
stroke
grestore
[6 6] 0 setdash
0.000 0.000 1.000 setrgbcolor
gsave
837 554.4 135 79.2 clipbox
173.045455 109.850951 m
175.753316 111.670655 l
178.461178 113.646217 l
183.876901 118.033906 l
189.292624 122.938946 l
194.708347 128.251991 l
210.955516 144.715822 l
216.371239 149.566189 l
219.079101 151.770234 l
224.494824 155.740942 l
229.910547 159.212251 l
235.32627 162.316356 l
240.741993 165.169945 l
248.865577 169.151261 l
259.697024 174.118318 l
267.820608 177.67286 l
284.067777 184.430244 l
292.191362 187.641246 l
305.73067 192.738865 l
316.562116 196.579827 l
327.393562 200.202914 l
338.225008 203.601598 l
349.056454 206.774248 l
357.180039 209.001957 l
370.719346 212.42757 l
381.550793 214.908242 l
392.382239 217.157983 l
403.213685 219.178426 l
414.045131 220.971201 l
422.168716 222.168289 l
435.708023 223.884359 l
446.539469 225.008006 l
457.370916 225.914593 l
468.202362 226.604938 l
479.033808 227.083937 l
489.865254 227.352404 l
500.6967 227.414421 l
511.528146 227.273251 l
522.359592 226.929711 l
533.191038 226.388696 l
544.022485 225.651022 l
554.853931 224.721586 l
565.685377 223.601203 l
576.516823 222.293138 l
587.348269 220.800655 l
598.179715 219.126201 l
611.719023 216.78017 l
619.842608 215.239542 l
636.089777 211.865338 l
649.629084 208.758786 l
663.168392 205.389478 l
673.999838 202.50896 l
687.539146 198.679422 l
698.370592 195.434964 l
709.202038 192.033831 l
725.449207 186.640817 l
741.696377 180.905894 l
755.235684 175.871925 l
768.774992 170.614368 l
782.3143 165.143017 l
798.561469 158.319536 l
817.5165 150.072116 l
858.134423 132.098665 l
858.134423 132.098665 l
stroke
grestore
gsave
837 554.4 135 79.2 clipbox
175.753316 119.137152 m
178.461178 123.331447 l
181.169039 127.998212 l
183.876901 133.152135 l
186.584762 138.816881 l
192.000485 151.793898 l
197.416208 167.232004 l
200.12407 176.004934 l
202.831931 185.570211 l
205.539793 196.002907 l
210.955516 219.820626 l
213.663378 233.385171 l
216.371239 248.171284 l
219.079101 264.260566 l
221.786962 281.722378 l
224.494824 300.61384 l
227.202685 320.965146 l
235.32627 390.373379 l
238.034131 415.695822 l
240.741993 441.449934 l
243.449854 466.975563 l
246.157716 491.494235 l
248.865577 514.234819 l
251.573439 534.574701 l
254.281301 552.134434 l
256.989162 566.785089 l
259.697024 578.592763 l
262.404885 587.740242 l
265.112747 594.469066 l
270.52847 601.676888 l
273.236331 602.624277 l
275.944193 602.078366 l
278.652054 600.216229 l
284.067777 593.143865 l
286.775639 588.188232 l
289.4835 582.428829 l
292.191362 575.957049 l
294.899224 568.851228 l
297.607085 561.183176 l
300.314947 553.013277 l
303.022808 544.397837 l
305.73067 535.386631 l
308.438531 526.025357 l
311.146393 516.355631 l
313.854254 506.416621 l
316.562116 496.244233 l
319.269977 485.874369 l
321.977839 474.783969 l
324.6857 463.886146 l
327.393562 452.816962 l
330.101423 441.592736 l
332.809285 430.225707 l
335.517147 418.727301 l
338.225008 407.10323 l
340.93287 395.356756 l
343.640731 383.485433 l
346.348593 371.482733 l
349.056454 359.333966 l
351.764316 347.017102 l
357.180039 324.309157 l
359.8879 312.338281 l
362.595762 299.666452 l
365.303623 287.795945 l
368.011485 276.054368 l
370.719346 261.637908 l
373.427208 249.413252 l
376.13507 240.793732 l
381.550793 210.354086 l
384.258654 198.580685 l
386.966516 188.062308 l
389.674377 183.796204 l
392.382239 167.031265 l
397.797962 144.424506 l
400.505823 132.408749 l
stroke
grestore
[9 3] 0 setdash
0.750 0.000 0.750 setrgbcolor
gsave
837 554.4 135 79.2 clipbox
175.753316 119.178769 m
178.461178 123.386936 l
181.169039 128.065125 l
183.876901 133.226392 l
186.584762 138.88869 l
189.292624 145.071603 l
194.708347 159.107802 l
197.416208 167.024737 l
202.831931 184.851306 l
205.539793 194.85478 l
208.247654 205.655497 l
210.955516 217.310577 l
213.663378 229.879589 l
216.371239 243.425366 l
219.079101 258.009924 l
221.786962 273.696097 l
227.202685 308.601768 l
229.910547 327.914292 l
232.618408 348.495713 l
238.034131 393.310202 l
240.741993 417.270722 l
246.157716 466.678535 l
248.865577 491.001364 l
254.281301 535.269942 l
256.989162 553.905177 l
259.697024 569.673767 l
262.404885 582.481054 l
265.112747 592.42496 l
267.820608 599.720911 l
270.52847 604.634111 l
273.236331 607.439555 l
275.944193 608.4 l
278.652054 607.750456 l
281.359916 605.698189 l
284.067777 602.423538 l
286.775639 598.082361 l
289.4835 592.808485 l
292.191362 586.716965 l
294.899224 579.905724 l
297.607085 572.462891 l
300.314947 564.461091 l
303.022808 555.968052 l
305.73067 547.039263 l
308.438531 537.728582 l
311.146393 528.080888 l
313.854254 518.140246 l
316.562116 507.945009 l
319.269977 497.532713 l
321.977839 486.938447 l
324.6857 475.371496 l
327.393562 464.177462 l
330.101423 452.79901 l
332.809285 441.245931 l
335.517147 429.52965 l
338.225008 417.657511 l
340.93287 405.640938 l
343.640731 394.795341 l
346.348593 382.757552 l
349.056454 370.588385 l
351.764316 358.272336 l
354.472177 347.121551 l
362.595762 310.942087 l
365.303623 298.227825 l
368.011485 286.300197 l
370.719346 270.689098 l
373.427208 261.82151 l
376.13507 250.367169 l
378.842931 235.439886 l
381.550793 220.868384 l
389.674377 192.028935 l
392.382239 182.223751 l
400.505823 141.96913 l
stroke
grestore
gsave
837 554.4 135 79.2 clipbox
178.461178 111.74328 m
183.876901 115.403904 l
189.292624 119.462741 l
194.708347 123.830846 l
205.539793 133.035446 l
213.663378 139.82139 l
219.079101 144.068726 l
224.494824 148.021481 l
232.618408 153.394911 l
238.034131 156.654058 l
243.449854 159.705938 l
248.865577 162.592167 l
259.697024 167.990078 l
270.52847 173.019967 l
281.359916 177.766701 l
292.191362 182.269448 l
303.022808 186.545344 l
313.854254 190.600101 l
324.6857 194.435351 l
335.517147 198.050278 l
346.348593 201.44325 l
357.180039 204.614268 l
365.303623 206.846057 l
378.842931 210.287174 l
389.674377 212.789878 l
403.213685 215.606747 l
414.045131 217.613317 l
427.584439 219.814098 l
438.415885 221.332694 l
446.539469 222.331491 l
460.078777 223.732581 l
470.910223 224.618769 l
481.741669 225.299321 l
492.573115 225.776688 l
503.404562 226.053315 l
514.236008 226.133284 l
525.067454 226.017411 l
535.8989 225.709775 l
546.730346 225.212008 l
557.561792 224.528191 l
568.393238 223.65914 l
581.932546 222.319251 l
595.471854 220.700285 l
609.011161 218.808773 l
622.550469 216.647977 l
636.089777 214.225241 l
649.629084 211.543014 l
663.168392 208.607824 l
676.7077 205.424566 l
690.247007 201.996505 l
703.786315 198.329354 l
714.617761 195.226881 l
730.86493 190.294913 l
744.404238 185.9366 l
760.651407 180.413024 l
776.898577 174.576916 l
790.437884 169.480113 l
803.977192 164.177676 l
820.224361 157.554934 l
836.47153 150.682492 l
863.550146 138.916434 l
868.965869 136.572036 l
871.67373 134.550777 l
882.505176 129.209172 l
893.336622 123.608075 l
898.752346 120.714501 l
901.460207 120.066588 l
906.87593 117.405578 l
914.999515 113.251267 l
917.707376 112.249206 l
923.123099 109.592276 l
925.830961 108.418852 l
928.538822 107.108339 l
931.246684 105.17929 l
933.954545 104.4 l
933.954545 104.4 l
stroke
grestore
0.800 setlinewidth
0 setlinejoin
2 setlinecap
[] 0 setdash
0.000 setgray
gsave
135 79.2 m
135 633.6 l
stroke
grestore
gsave
972 79.2 m
972 633.6 l
stroke
grestore
gsave
135 79.2 m
972 79.2 l
stroke
grestore
gsave
135 633.6 m
972 633.6 l
stroke
grestore

end
showpage
