%!PS-Adobe-3.0 EPSF-3.0
%%Title: S025h07.eps
%%Creator: matplotlib version 2.2.3, http://matplotlib.org/
%%CreationDate: Fri Dec 21 14:34:54 2018
%%Orientation: portrait
%%BoundingBox: 75 223 536 568
%%EndComments
%%BeginProlog
/mpldict 9 dict def
mpldict begin
/m { moveto } bind def
/l { lineto } bind def
/r { rlineto } bind def
/c { curveto } bind def
/cl { closepath } bind def
/box {
m
1 index 0 r
0 exch r
neg 0 r
cl
} bind def
/clipbox {
box
clip
newpath
} bind def
%!PS-Adobe-3.0 Resource-Font
%%Title: DejaVu Sans Oblique
%%Copyright: Copyright (c) 2003 by Bitstream, Inc. All Rights Reserved. Copyright (c) 2006 by Tavmjong Bah. All Rights Reserved. DejaVu changes are in public domain 
%%Creator: Converted from TrueType to type 3 by PPR
25 dict begin
/_d{bind def}bind def
/_m{moveto}_d
/_l{lineto}_d
/_cl{closepath eofill}_d
/_c{curveto}_d
/_sc{7 -1 roll{setcachedevice}{pop pop pop pop pop pop}ifelse}_d
/_e{exec}_d
/FontName /DejaVuSans-Oblique def
/PaintType 0 def
/FontMatrix[.001 0 0 .001 0 0]def
/FontBBox[-1016 -350 1659 1068]def
/FontType 3 def
/Encoding [ /i /r /alpha ] def
/FontInfo 10 dict dup begin
/FamilyName (DejaVu Sans) def
/FullName (DejaVu Sans Oblique) def
/Notice (Copyright (c) 2003 by Bitstream, Inc. All Rights Reserved. Copyright (c) 2006 by Tavmjong Bah. All Rights Reserved. DejaVu changes are in public domain ) def
/Weight (Oblique) def
/Version (Version 2.35) def
/ItalicAngle -11.0 def
/isFixedPitch false def
/UnderlinePosition -130 def
/UnderlineThickness 90 def
end readonly def
/CharStrings 4 dict dup begin
/.notdef 0 def
/i{278 0 35 0 273 760 _sc
183 760 _m
273 760 _l
251 646 _l
161 646 _l
183 760 _l
142 547 _m
232 547 _l
125 0 _l
35 0 _l
142 547 _l
_cl}_d
/r{411 0 35 0 463 560 _sc
446 464 _m
436 468 426 472 414 475 _c
402 477 390 479 377 479 _c
329 479 287 460 251 424 _c
215 388 192 339 180 279 _c
125 0 _l
35 0 _l
142 547 _l
232 547 _l
215 462 _l
238 493 266 517 300 534 _c
333 551 368 560 406 560 _c
415 560 424 559 434 558 _c
444 557 453 555 463 553 _c
446 464 _l
_cl}_d
/alpha{{659 0 55 -11 645 559 _sc
409 254 _m
410 367 _l
410 443 381 482 323 483 _c
279 483 244 465 218 429 _c
184 384 161 332 150 273 _c
136 201 137 148 155 114 _c
173 79 202 62 242 62 _c
285 62 325 96 362 166 _c
409 254 _l
338 559 _m
440 561 490 509 489 404 _c
489 404 514 451 565 547 _c
645 547 _l
487 250 _l
486 144 _l
486 128 490 113 499 100 _c
509 84 519 76 530 76 _c
}_e{573 76 _l
559 0 _l
504 0 _l
473 0 447 13 425 41 _c
415 55 409 76 409 104 _c
387 69 359 37 323 8 _c
305 -5 273 -11 227 -11 _c
151 -10 99 14 71 62 _c
43 112 37 183 55 273 _c
73 369 108 440 158 484 _c
213 533 273 558 338 559 _c
_cl}_e}_d
end readonly def

/BuildGlyph
 {exch begin
 CharStrings exch
 2 copy known not{pop /.notdef}if
 true 3 1 roll get exec
 end}_d

/BuildChar {
 1 index /Encoding get exch get
 1 index /BuildGlyph get exec
}_d

FontName currentdict end definefont pop
%!PS-Adobe-3.0 Resource-Font
%%Title: DejaVu Serif
%%Copyright: Copyright (c) 2003 by Bitstream, Inc. All Rights Reserved. DejaVu changes are in public domain 
%%Creator: Converted from TrueType to type 3 by PPR
25 dict begin
/_d{bind def}bind def
/_m{moveto}_d
/_l{lineto}_d
/_cl{closepath eofill}_d
/_c{curveto}_d
/_sc{7 -1 roll{setcachedevice}{pop pop pop pop pop pop}ifelse}_d
/_e{exec}_d
/FontName /DejaVuSerif def
/PaintType 0 def
/FontMatrix[.001 0 0 .001 0 0]def
/FontBBox[-770 -347 2105 1109]def
/FontType 3 def
/Encoding [ /hyphen /period /zero /one /two /three /four /five ] def
/FontInfo 10 dict dup begin
/FamilyName (DejaVu Serif) def
/FullName (DejaVu Serif) def
/Notice (Copyright (c) 2003 by Bitstream, Inc. All Rights Reserved. DejaVu changes are in public domain ) def
/Weight (Book) def
/Version (Version 2.35) def
/ItalicAngle 0.0 def
/isFixedPitch false def
/UnderlinePosition -130 def
/UnderlineThickness 90 def
end readonly def
/CharStrings 9 dict dup begin
/.notdef 0 def
/hyphen{338 0 44 230 294 306 _sc
44 306 _m
294 306 _l
294 230 _l
44 230 _l
44 306 _l
_cl}_d
/period{318 0 94 -13 224 116 _sc
94 51 _m
94 69 100 84 112 97 _c
124 109 140 116 159 116 _c
177 116 192 109 205 97 _c
217 84 224 69 224 51 _c
224 33 217 17 205 5 _c
192 -7 177 -13 159 -13 _c
140 -13 124 -7 112 5 _c
100 17 94 32 94 51 _c
_cl}_d
/zero{636 0 66 -13 570 742 _sc
318 34 _m
368 34 405 61 430 116 _c
454 170 467 253 467 364 _c
467 474 454 557 430 612 _c
405 666 368 694 318 694 _c
268 694 230 666 206 612 _c
181 557 169 474 169 364 _c
169 253 181 170 206 116 _c
230 61 268 34 318 34 _c
318 -13 _m
238 -13 176 20 132 86 _c
88 152 66 244 66 364 _c
66 483 88 576 132 642 _c
176 708 238 742 318 742 _c
397 742 459 708 503 642 _c
547 576 570 483 570 364 _c
570 244 547 152 503 86 _c
459 20 397 -13 318 -13 _c
_cl}_d
/one{636 0 122 0 494 742 _sc
142 0 _m
142 52 _l
269 52 _l
269 658 _l
122 563 _l
122 627 _l
300 742 _l
367 742 _l
367 52 _l
494 52 _l
494 0 _l
142 0 _l
_cl}_d
/two{{636 0 68 0 538 742 _sc
128 555 _m
73 555 _l
73 685 _l
107 703 142 717 178 727 _c
213 737 248 742 282 742 _c
358 742 418 723 462 687 _c
506 650 528 600 528 537 _c
528 465 478 380 378 281 _c
370 273 365 268 361 264 _c
177 80 _l
481 80 _l
481 170 _l
538 170 _l
538 0 _l
68 0 _l
68 53 _l
289 274 _l
337 322 372 367 393 408 _c
414 449 425 492 425 537 _c
}_e{425 586 412 624 386 652 _c
360 680 325 694 281 694 _c
234 694 198 682 173 659 _c
147 636 132 601 128 555 _c
_cl}_e}_d
/three{{636 0 76 -13 562 742 _sc
97 698 _m
135 712 171 723 206 731 _c
241 738 274 742 305 742 _c
376 742 432 726 472 696 _c
512 665 532 622 532 568 _c
532 524 518 487 490 458 _c
462 428 423 408 373 398 _c
433 389 479 367 512 332 _c
545 297 562 252 562 197 _c
562 129 539 77 493 41 _c
447 5 382 -13 296 -13 _c
258 -13 220 -9 184 -1 _c
148 6 112 18 76 35 _c
76 177 _l
}_e{131 177 _l
134 129 150 94 178 70 _c
206 46 246 34 298 34 _c
348 34 387 48 416 77 _c
444 106 459 146 459 196 _c
459 253 444 296 414 326 _c
384 355 341 370 284 370 _c
238 370 _l
238 420 _l
262 420 _l
319 420 362 431 390 455 _c
418 479 433 514 433 562 _c
433 604 421 637 398 660 _c
374 682 341 694 297 694 _c
253 694 218 683 194 662 _c
170 641 156 610 152 570 _c
}_e{97 570 _l
97 698 _l
_cl}_e}_d
/four{636 0 31 0 586 742 _sc
349 247 _m
349 635 _l
100 247 _l
349 247 _l
564 0 _m
232 0 _l
232 52 _l
349 52 _l
349 195 _l
31 195 _l
31 248 _l
350 742 _l
447 742 _l
447 247 _l
586 247 _l
586 195 _l
447 195 _l
447 52 _l
564 52 _l
564 0 _l
_cl}_d
/five{{636 0 85 -13 559 729 _sc
503 729 _m
503 649 _l
169 649 _l
169 440 _l
185 452 205 460 228 466 _c
250 472 276 475 304 475 _c
382 475 444 453 490 409 _c
536 365 559 306 559 231 _c
559 153 536 93 490 51 _c
444 8 379 -13 296 -13 _c
262 -13 228 -9 193 -1 _c
157 6 121 18 85 35 _c
85 177 _l
140 177 _l
143 130 158 94 184 70 _c
210 46 248 34 296 34 _c
}_e{347 34 386 51 414 85 _c
442 119 456 167 456 231 _c
456 294 442 342 415 376 _c
387 410 348 427 296 427 _c
266 427 240 421 218 411 _c
196 401 176 385 159 363 _c
117 363 _l
117 729 _l
503 729 _l
_cl}_e}_d
end readonly def

/BuildGlyph
 {exch begin
 CharStrings exch
 2 copy known not{pop /.notdef}if
 true 3 1 roll get exec
 end}_d

/BuildChar {
 1 index /Encoding get exch get
 1 index /BuildGlyph get exec
}_d

FontName currentdict end definefont pop
end
%%EndProlog
mpldict begin
75.6 223.2 translate
460.8 345.6 0 0 clipbox
gsave
0 0 m
460.8 0 l
460.8 345.6 l
0 345.6 l
cl
1.000 setgray
fill
grestore
gsave
57.6 38.016 m
414.72 38.016 l
414.72 304.128 l
57.6 304.128 l
cl
1.000 setgray
fill
grestore
0.800 setlinewidth
1 setlinejoin
0 setlinecap
[] 0 setdash
0.000 setgray
gsave
/o {
gsave
newpath
translate
0.8 setlinewidth
1 setlinejoin
0 setlinecap
0 0 m
0 -3.5 l

gsave
0.000 setgray
fill
grestore
stroke
grestore
} bind def
60.461 38.016 o
grestore
/DejaVuSerif findfont
15.000 scalefont
setfont
gsave
55.687532 19.625375 translate
0.000000 rotate
0.000000 0.000000 m /zero glyphshow
grestore
gsave
/o {
gsave
newpath
translate
0.8 setlinewidth
1 setlinejoin
0 setlinecap
0 0 m
0 -3.5 l

gsave
0.000 setgray
fill
grestore
stroke
grestore
} bind def
146.858 38.016 o
grestore
gsave
142.084583 19.625375 translate
0.000000 rotate
0.000000 0.000000 m /one glyphshow
grestore
gsave
/o {
gsave
newpath
translate
0.8 setlinewidth
1 setlinejoin
0 setlinecap
0 0 m
0 -3.5 l

gsave
0.000 setgray
fill
grestore
stroke
grestore
} bind def
233.255 38.016 o
grestore
gsave
228.481634 19.625375 translate
0.000000 rotate
0.000000 0.000000 m /two glyphshow
grestore
gsave
/o {
gsave
newpath
translate
0.8 setlinewidth
1 setlinejoin
0 setlinecap
0 0 m
0 -3.5 l

gsave
0.000 setgray
fill
grestore
stroke
grestore
} bind def
319.652 38.016 o
grestore
gsave
314.878686 19.625375 translate
0.000000 rotate
0.000000 0.000000 m /three glyphshow
grestore
gsave
/o {
gsave
newpath
translate
0.8 setlinewidth
1 setlinejoin
0 setlinecap
0 0 m
0 -3.5 l

gsave
0.000 setgray
fill
grestore
stroke
grestore
} bind def
406.049 38.016 o
grestore
gsave
401.275737 19.625375 translate
0.000000 rotate
0.000000 0.000000 m /four glyphshow
grestore
gsave
226.160000 -2.702750 translate
0.000000 rotate
/DejaVuSans-Oblique findfont
20.0 scalefont
setfont
0.000000 0.765625 moveto
/alpha glyphshow

/DejaVuSans-Oblique findfont
14.0 scalefont
setfont
13.183594 -2.515625 moveto
/r glyphshow


grestore
gsave
/o {
gsave
newpath
translate
0.8 setlinewidth
1 setlinejoin
0 setlinecap
0 0 m
-3.5 0 l

gsave
0.000 setgray
fill
grestore
stroke
grestore
} bind def
57.6 48.259 o
grestore
gsave
26.740625 42.563685 translate
0.000000 rotate
0.000000 0.000000 m /zero glyphshow
9.543457 0.000000 m /period glyphshow
14.311523 0.000000 m /zero glyphshow
grestore
gsave
/o {
gsave
newpath
translate
0.8 setlinewidth
1 setlinejoin
0 setlinecap
0 0 m
-3.5 0 l

gsave
0.000 setgray
fill
grestore
stroke
grestore
} bind def
57.6 91.9619 o
grestore
gsave
26.740625 86.266580 translate
0.000000 rotate
0.000000 0.000000 m /zero glyphshow
9.543457 0.000000 m /period glyphshow
14.311523 0.000000 m /one glyphshow
grestore
gsave
/o {
gsave
newpath
translate
0.8 setlinewidth
1 setlinejoin
0 setlinecap
0 0 m
-3.5 0 l

gsave
0.000 setgray
fill
grestore
stroke
grestore
} bind def
57.6 135.665 o
grestore
gsave
26.740625 129.969476 translate
0.000000 rotate
0.000000 0.000000 m /zero glyphshow
9.543457 0.000000 m /period glyphshow
14.311523 0.000000 m /two glyphshow
grestore
gsave
/o {
gsave
newpath
translate
0.8 setlinewidth
1 setlinejoin
0 setlinecap
0 0 m
-3.5 0 l

gsave
0.000 setgray
fill
grestore
stroke
grestore
} bind def
57.6 179.368 o
grestore
gsave
26.740625 173.672371 translate
0.000000 rotate
0.000000 0.000000 m /zero glyphshow
9.543457 0.000000 m /period glyphshow
14.311523 0.000000 m /three glyphshow
grestore
gsave
/o {
gsave
newpath
translate
0.8 setlinewidth
1 setlinejoin
0 setlinecap
0 0 m
-3.5 0 l

gsave
0.000 setgray
fill
grestore
stroke
grestore
} bind def
57.6 223.071 o
grestore
gsave
26.740625 217.375267 translate
0.000000 rotate
0.000000 0.000000 m /zero glyphshow
9.543457 0.000000 m /period glyphshow
14.311523 0.000000 m /four glyphshow
grestore
gsave
/o {
gsave
newpath
translate
0.8 setlinewidth
1 setlinejoin
0 setlinecap
0 0 m
-3.5 0 l

gsave
0.000 setgray
fill
grestore
stroke
grestore
} bind def
57.6 266.773 o
grestore
gsave
26.740625 261.078162 translate
0.000000 rotate
0.000000 0.000000 m /zero glyphshow
9.543457 0.000000 m /period glyphshow
14.311523 0.000000 m /five glyphshow
grestore
gsave
18.584375 158.572000 translate
90.000000 rotate
/DejaVuSerif findfont
20.0 scalefont
setfont
0.000000 0.765625 moveto
/hyphen glyphshow

/DejaVuSans-Oblique findfont
20.0 scalefont
setfont
6.757812 0.765625 moveto
/alpha glyphshow

/DejaVuSans-Oblique findfont
14.0 scalefont
setfont
19.941406 -2.515625 moveto
/i glyphshow


grestore
2.000 setlinewidth
2 setlinecap
1.000 0.000 0.000 setrgbcolor
gsave
357.1 266.1 57.6 38.02 clipbox
94.078667 79.178796 m
95.216343 78.875935 l
96.5739 78.356307 l
98.042563 78.069616 l
99.563065 77.999692 l
101.110782 78.087097 l
104.248118 78.569577 l
107.413965 79.305097 l
110.594068 80.187459 l
118.573527 82.707805 l
142.571172 90.581318 l
152.167724 93.429436 l
160.159538 95.597537 l
168.145563 97.563293 l
176.125022 99.316653 l
184.097482 100.854121 l
192.062686 102.173511 l
200.020545 103.275698 l
207.971234 104.161993 l
215.914838 104.834581 l
223.851444 105.295646 l
231.781311 105.548686 l
239.704525 105.595885 l
247.621346 105.440303 l
255.531947 105.084998 l
263.436327 104.532157 l
271.334572 103.785274 l
279.226857 102.846099 l
287.113093 101.718127 l
296.568646 100.117727 l
306.015472 98.252487 l
315.453399 96.125468 l
324.882342 93.741912 l
334.302126 91.104005 l
343.712406 88.21568 l
353.11301 85.082183 l
362.504024 81.710067 l
371.887176 78.108949 l
381.26618 74.287131 l
392.21502 69.579018 l
398.487273 66.789462 l
398.487273 66.789462 l
stroke
grestore
0 setlinecap
[12.8 3.2 2 3.2] 0 setdash
0.000 0.000 1.000 setrgbcolor
gsave
357.1 266.1 57.6 38.02 clipbox
73.832727 57.170892 m
75.212056 59.196521 l
76.609788 61.482182 l
78.03197 64.05672 l
79.487069 66.96034 l
80.987181 70.247235 l
82.549844 73.999129 l
84.201929 78.345382 l
85.984127 83.522427 l
87.948623 90.034158 l
90.070794 98.900164 l
92.107518 110.482743 l
94.035209 123.731713 l
96.050247 138.324109 l
98.330093 154.214919 l
101.023607 171.082489 l
104.228679 188.26166 l
107.961895 204.906345 l
112.156299 220.258298 l
116.693354 233.854706 l
121.44908 245.564459 l
126.324293 255.479335 l
131.251084 263.789878 l
136.187121 270.701054 l
141.107346 276.395978 l
145.996815 281.027174 l
150.846627 284.71832 l
155.65134 287.569497 l
160.407238 289.662866 l
165.111644 291.066166 l
169.76257 291.83927 l
174.358461 292.032 l
178.898021 291.69068 l
183.380387 290.855955 l
187.80478 289.565846 l
192.170682 287.854003 l
196.477834 285.753205 l
200.726323 283.292732 l
204.916234 280.500117 l
209.047914 277.401145 l
213.121708 274.019852 l
217.138307 270.378089 l
221.098316 266.498146 l
225.002512 262.398815 l
228.851587 258.099761 l
232.646578 253.61934 l
236.388347 248.974596 l
240.077847 244.183011 l
243.716373 239.262065 l
247.305133 234.228365 l
250.918172 228.818384 l
254.425546 223.480949 l
257.888167 218.040813 l
261.306985 212.508026 l
264.683382 206.890456 l
268.018308 201.197717 l
271.313232 195.438112 l
274.569451 189.620383 l
277.788605 183.753706 l
280.972768 177.845949 l
284.124187 171.905414 l
287.245885 165.938658 l
290.341405 159.950487 l
293.414894 153.943087 l
296.471276 147.913836 l
299.515995 141.85574 l
302.183503 135.434474 l
305.093529 129.550316 l
307.989126 123.760993 l
310.879021 118.073062 l
313.387905 109.661128 l
316.065954 103.94479 l
319.78552 96.860113 l
322.259154 92.415529 l
325.139286 86.657235 l
327.237871 80.501245 l
329.862181 72.96337 l
332.515435 67.955455 l
335.24921 62.885482 l
338.060225 56.886386 l
341.642765 50.112 l
342.894831 54.914511 l
344.656294 54.894408 l
346.417066 54.869497 l
348.177406 54.839342 l
349.937314 54.803506 l
351.697049 54.761988 l
353.456611 54.714789 l
stroke
grestore
0.800 setlinewidth
0 setlinejoin
2 setlinecap
[] 0 setdash
0.000 setgray
gsave
57.6 38.016 m
57.6 304.128 l
stroke
grestore
gsave
414.72 38.016 m
414.72 304.128 l
stroke
grestore
gsave
57.6 38.016 m
414.72 38.016 l
stroke
grestore
gsave
57.6 304.128 m
414.72 304.128 l
stroke
grestore

end
showpage
