%!PS-Adobe-3.0 EPSF-3.0
%%Title: temperature.eps
%%Creator: matplotlib version 2.2.3, http://matplotlib.org/
%%CreationDate: Wed Feb 27 17:02:24 2019
%%Orientation: portrait
%%BoundingBox: -234 36 846 756
%%EndComments
%%BeginProlog
/mpldict 9 dict def
mpldict begin
/m { moveto } bind def
/l { lineto } bind def
/r { rlineto } bind def
/c { curveto } bind def
/cl { closepath } bind def
/box {
m
1 index 0 r
0 exch r
neg 0 r
cl
} bind def
/clipbox {
box
clip
newpath
} bind def
%!PS-Adobe-3.0 Resource-Font
%%Title: DejaVu Sans Oblique
%%Copyright: Copyright (c) 2003 by Bitstream, Inc. All Rights Reserved. Copyright (c) 2006 by Tavmjong Bah. All Rights Reserved. DejaVu changes are in public domain 
%%Creator: Converted from TrueType to type 3 by PPR
25 dict begin
/_d{bind def}bind def
/_m{moveto}_d
/_l{lineto}_d
/_cl{closepath eofill}_d
/_c{curveto}_d
/_sc{7 -1 roll{setcachedevice}{pop pop pop pop pop pop}ifelse}_d
/_e{exec}_d
/FontName /DejaVuSans-Oblique def
/PaintType 0 def
/FontMatrix[.001 0 0 .001 0 0]def
/FontBBox[-1016 -350 1659 1068]def
/FontType 3 def
/Encoding [ /i /r /alpha ] def
/FontInfo 10 dict dup begin
/FamilyName (DejaVu Sans) def
/FullName (DejaVu Sans Oblique) def
/Notice (Copyright (c) 2003 by Bitstream, Inc. All Rights Reserved. Copyright (c) 2006 by Tavmjong Bah. All Rights Reserved. DejaVu changes are in public domain ) def
/Weight (Oblique) def
/Version (Version 2.35) def
/ItalicAngle -11.0 def
/isFixedPitch false def
/UnderlinePosition -130 def
/UnderlineThickness 90 def
end readonly def
/CharStrings 4 dict dup begin
/.notdef 0 def
/i{278 0 35 0 273 760 _sc
183 760 _m
273 760 _l
251 646 _l
161 646 _l
183 760 _l
142 547 _m
232 547 _l
125 0 _l
35 0 _l
142 547 _l
_cl}_d
/r{411 0 35 0 463 560 _sc
446 464 _m
436 468 426 472 414 475 _c
402 477 390 479 377 479 _c
329 479 287 460 251 424 _c
215 388 192 339 180 279 _c
125 0 _l
35 0 _l
142 547 _l
232 547 _l
215 462 _l
238 493 266 517 300 534 _c
333 551 368 560 406 560 _c
415 560 424 559 434 558 _c
444 557 453 555 463 553 _c
446 464 _l
_cl}_d
/alpha{{659 0 55 -11 645 559 _sc
409 254 _m
410 367 _l
410 443 381 482 323 483 _c
279 483 244 465 218 429 _c
184 384 161 332 150 273 _c
136 201 137 148 155 114 _c
173 79 202 62 242 62 _c
285 62 325 96 362 166 _c
409 254 _l
338 559 _m
440 561 490 509 489 404 _c
489 404 514 451 565 547 _c
645 547 _l
487 250 _l
486 144 _l
486 128 490 113 499 100 _c
509 84 519 76 530 76 _c
}_e{573 76 _l
559 0 _l
504 0 _l
473 0 447 13 425 41 _c
415 55 409 76 409 104 _c
387 69 359 37 323 8 _c
305 -5 273 -11 227 -11 _c
151 -10 99 14 71 62 _c
43 112 37 183 55 273 _c
73 369 108 440 158 484 _c
213 533 273 558 338 559 _c
_cl}_e}_d
end readonly def

/BuildGlyph
 {exch begin
 CharStrings exch
 2 copy known not{pop /.notdef}if
 true 3 1 roll get exec
 end}_d

/BuildChar {
 1 index /Encoding get exch get
 1 index /BuildGlyph get exec
}_d

FontName currentdict end definefont pop
%!PS-Adobe-3.0 Resource-Font
%%Title: DejaVu Serif
%%Copyright: Copyright (c) 2003 by Bitstream, Inc. All Rights Reserved. DejaVu changes are in public domain 
%%Creator: Converted from TrueType to type 3 by PPR
25 dict begin
/_d{bind def}bind def
/_m{moveto}_d
/_l{lineto}_d
/_cl{closepath eofill}_d
/_c{curveto}_d
/_sc{7 -1 roll{setcachedevice}{pop pop pop pop pop pop}ifelse}_d
/_e{exec}_d
/FontName /DejaVuSerif def
/PaintType 0 def
/FontMatrix[.001 0 0 .001 0 0]def
/FontBBox[-770 -347 2105 1109]def
/FontType 3 def
/Encoding [ /hyphen /period /zero /one /two /three /four /five /six ] def
/FontInfo 10 dict dup begin
/FamilyName (DejaVu Serif) def
/FullName (DejaVu Serif) def
/Notice (Copyright (c) 2003 by Bitstream, Inc. All Rights Reserved. DejaVu changes are in public domain ) def
/Weight (Book) def
/Version (Version 2.35) def
/ItalicAngle 0.0 def
/isFixedPitch false def
/UnderlinePosition -130 def
/UnderlineThickness 90 def
end readonly def
/CharStrings 10 dict dup begin
/.notdef 0 def
/hyphen{338 0 44 230 294 306 _sc
44 306 _m
294 306 _l
294 230 _l
44 230 _l
44 306 _l
_cl}_d
/period{318 0 94 -13 224 116 _sc
94 51 _m
94 69 100 84 112 97 _c
124 109 140 116 159 116 _c
177 116 192 109 205 97 _c
217 84 224 69 224 51 _c
224 33 217 17 205 5 _c
192 -7 177 -13 159 -13 _c
140 -13 124 -7 112 5 _c
100 17 94 32 94 51 _c
_cl}_d
/zero{636 0 66 -13 570 742 _sc
318 34 _m
368 34 405 61 430 116 _c
454 170 467 253 467 364 _c
467 474 454 557 430 612 _c
405 666 368 694 318 694 _c
268 694 230 666 206 612 _c
181 557 169 474 169 364 _c
169 253 181 170 206 116 _c
230 61 268 34 318 34 _c
318 -13 _m
238 -13 176 20 132 86 _c
88 152 66 244 66 364 _c
66 483 88 576 132 642 _c
176 708 238 742 318 742 _c
397 742 459 708 503 642 _c
547 576 570 483 570 364 _c
570 244 547 152 503 86 _c
459 20 397 -13 318 -13 _c
_cl}_d
/one{636 0 122 0 494 742 _sc
142 0 _m
142 52 _l
269 52 _l
269 658 _l
122 563 _l
122 627 _l
300 742 _l
367 742 _l
367 52 _l
494 52 _l
494 0 _l
142 0 _l
_cl}_d
/two{{636 0 68 0 538 742 _sc
128 555 _m
73 555 _l
73 685 _l
107 703 142 717 178 727 _c
213 737 248 742 282 742 _c
358 742 418 723 462 687 _c
506 650 528 600 528 537 _c
528 465 478 380 378 281 _c
370 273 365 268 361 264 _c
177 80 _l
481 80 _l
481 170 _l
538 170 _l
538 0 _l
68 0 _l
68 53 _l
289 274 _l
337 322 372 367 393 408 _c
414 449 425 492 425 537 _c
}_e{425 586 412 624 386 652 _c
360 680 325 694 281 694 _c
234 694 198 682 173 659 _c
147 636 132 601 128 555 _c
_cl}_e}_d
/three{{636 0 76 -13 562 742 _sc
97 698 _m
135 712 171 723 206 731 _c
241 738 274 742 305 742 _c
376 742 432 726 472 696 _c
512 665 532 622 532 568 _c
532 524 518 487 490 458 _c
462 428 423 408 373 398 _c
433 389 479 367 512 332 _c
545 297 562 252 562 197 _c
562 129 539 77 493 41 _c
447 5 382 -13 296 -13 _c
258 -13 220 -9 184 -1 _c
148 6 112 18 76 35 _c
76 177 _l
}_e{131 177 _l
134 129 150 94 178 70 _c
206 46 246 34 298 34 _c
348 34 387 48 416 77 _c
444 106 459 146 459 196 _c
459 253 444 296 414 326 _c
384 355 341 370 284 370 _c
238 370 _l
238 420 _l
262 420 _l
319 420 362 431 390 455 _c
418 479 433 514 433 562 _c
433 604 421 637 398 660 _c
374 682 341 694 297 694 _c
253 694 218 683 194 662 _c
170 641 156 610 152 570 _c
}_e{97 570 _l
97 698 _l
_cl}_e}_d
/four{636 0 31 0 586 742 _sc
349 247 _m
349 635 _l
100 247 _l
349 247 _l
564 0 _m
232 0 _l
232 52 _l
349 52 _l
349 195 _l
31 195 _l
31 248 _l
350 742 _l
447 742 _l
447 247 _l
586 247 _l
586 195 _l
447 195 _l
447 52 _l
564 52 _l
564 0 _l
_cl}_d
/five{{636 0 85 -13 559 729 _sc
503 729 _m
503 649 _l
169 649 _l
169 440 _l
185 452 205 460 228 466 _c
250 472 276 475 304 475 _c
382 475 444 453 490 409 _c
536 365 559 306 559 231 _c
559 153 536 93 490 51 _c
444 8 379 -13 296 -13 _c
262 -13 228 -9 193 -1 _c
157 6 121 18 85 35 _c
85 177 _l
140 177 _l
143 130 158 94 184 70 _c
210 46 248 34 296 34 _c
}_e{347 34 386 51 414 85 _c
442 119 456 167 456 231 _c
456 294 442 342 415 376 _c
387 410 348 427 296 427 _c
266 427 240 421 218 411 _c
196 401 176 385 159 363 _c
117 363 _l
117 729 _l
503 729 _l
_cl}_e}_d
/six{{636 0 67 -13 573 742 _sc
327 34 _m
373 34 408 50 433 84 _c
457 118 470 166 470 230 _c
470 293 457 341 433 375 _c
408 409 373 426 327 426 _c
280 426 244 409 220 377 _c
196 344 184 297 184 236 _c
184 171 196 121 221 86 _c
245 51 281 34 327 34 _c
168 401 _m
190 425 215 444 243 456 _c
271 468 302 474 338 474 _c
410 474 468 452 510 408 _c
552 364 573 305 573 230 _c
}_e{573 156 550 97 505 53 _c
459 9 399 -13 323 -13 _c
241 -13 177 17 133 78 _c
89 139 67 227 67 341 _c
67 468 93 567 145 637 _c
197 707 271 742 367 742 _c
393 742 420 739 448 735 _c
476 730 505 723 535 713 _c
535 593 _l
480 593 _l
476 625 463 650 442 668 _c
421 685 393 694 357 694 _c
293 694 246 670 215 622 _c
184 574 168 500 168 401 _c
_cl}_e}_d
end readonly def

/BuildGlyph
 {exch begin
 CharStrings exch
 2 copy known not{pop /.notdef}if
 true 3 1 roll get exec
 end}_d

/BuildChar {
 1 index /Encoding get exch get
 1 index /BuildGlyph get exec
}_d

FontName currentdict end definefont pop
end
%%EndProlog
mpldict begin
-234 36 translate
1080 720 0 0 clipbox
gsave
0 0 m
1080 0 l
1080 720 l
0 720 l
cl
1.000 setgray
fill
grestore
gsave
135 79.2 m
972 79.2 l
972 633.6 l
135 633.6 l
cl
1.000 setgray
fill
grestore
0.800 setlinewidth
1 setlinejoin
0 setlinecap
[] 0 setdash
0.000 setgray
gsave
/o {
gsave
newpath
translate
0.8 setlinewidth
1 setlinejoin
0 setlinecap
0 0 m
0 -3.5 l

gsave
0.000 setgray
fill
grestore
stroke
grestore
} bind def
149.095 79.2 o
grestore
/DejaVuSerif findfont
30.000 scalefont
setfont
gsave
139.548118 49.403125 translate
0.000000 rotate
0.000000 0.000000 m /zero glyphshow
grestore
gsave
/o {
gsave
newpath
translate
0.8 setlinewidth
1 setlinejoin
0 setlinecap
0 0 m
0 -3.5 l

gsave
0.000 setgray
fill
grestore
stroke
grestore
} bind def
304.667 79.2 o
grestore
gsave
295.120098 49.403125 translate
0.000000 rotate
0.000000 0.000000 m /one glyphshow
grestore
gsave
/o {
gsave
newpath
translate
0.8 setlinewidth
1 setlinejoin
0 setlinecap
0 0 m
0 -3.5 l

gsave
0.000 setgray
fill
grestore
stroke
grestore
} bind def
460.239 79.2 o
grestore
gsave
450.692079 49.403125 translate
0.000000 rotate
0.000000 0.000000 m /two glyphshow
grestore
gsave
/o {
gsave
newpath
translate
0.8 setlinewidth
1 setlinejoin
0 setlinecap
0 0 m
0 -3.5 l

gsave
0.000 setgray
fill
grestore
stroke
grestore
} bind def
615.811 79.2 o
grestore
gsave
606.264059 49.403125 translate
0.000000 rotate
0.000000 0.000000 m /three glyphshow
grestore
gsave
/o {
gsave
newpath
translate
0.8 setlinewidth
1 setlinejoin
0 setlinecap
0 0 m
0 -3.5 l

gsave
0.000 setgray
fill
grestore
stroke
grestore
} bind def
771.383 79.2 o
grestore
gsave
761.836040 49.403125 translate
0.000000 rotate
0.000000 0.000000 m /four glyphshow
grestore
gsave
/o {
gsave
newpath
translate
0.8 setlinewidth
1 setlinejoin
0 setlinecap
0 0 m
0 -3.5 l

gsave
0.000 setgray
fill
grestore
stroke
grestore
} bind def
926.955 79.2 o
grestore
gsave
917.408020 49.403125 translate
0.000000 rotate
0.000000 0.000000 m /five glyphshow
grestore
gsave
535.500000 11.809375 translate
0.000000 rotate
/DejaVuSans-Oblique findfont
36.0 scalefont
setfont
0.000000 0.781250 moveto
/alpha glyphshow

/DejaVuSans-Oblique findfont
25.2 scalefont
setfont
23.730469 -5.125000 moveto
/r glyphshow


grestore
gsave
/o {
gsave
newpath
translate
0.8 setlinewidth
1 setlinejoin
0 setlinecap
0 0 m
-3.5 0 l

gsave
0.000 setgray
fill
grestore
stroke
grestore
} bind def
135 101.115 o
grestore
gsave
80.281250 89.716304 translate
0.000000 rotate
0.000000 0.000000 m /zero glyphshow
19.086914 0.000000 m /period glyphshow
28.623047 0.000000 m /zero glyphshow
grestore
gsave
/o {
gsave
newpath
translate
0.8 setlinewidth
1 setlinejoin
0 setlinecap
0 0 m
-3.5 0 l

gsave
0.000 setgray
fill
grestore
stroke
grestore
} bind def
135 182.716 o
grestore
gsave
80.281250 171.317368 translate
0.000000 rotate
0.000000 0.000000 m /zero glyphshow
19.086914 0.000000 m /period glyphshow
28.623047 0.000000 m /one glyphshow
grestore
gsave
/o {
gsave
newpath
translate
0.8 setlinewidth
1 setlinejoin
0 setlinecap
0 0 m
-3.5 0 l

gsave
0.000 setgray
fill
grestore
stroke
grestore
} bind def
135 264.317 o
grestore
gsave
80.281250 252.918433 translate
0.000000 rotate
0.000000 0.000000 m /zero glyphshow
19.086914 0.000000 m /period glyphshow
28.623047 0.000000 m /two glyphshow
grestore
gsave
/o {
gsave
newpath
translate
0.8 setlinewidth
1 setlinejoin
0 setlinecap
0 0 m
-3.5 0 l

gsave
0.000 setgray
fill
grestore
stroke
grestore
} bind def
135 345.918 o
grestore
gsave
80.281250 334.519498 translate
0.000000 rotate
0.000000 0.000000 m /zero glyphshow
19.086914 0.000000 m /period glyphshow
28.623047 0.000000 m /three glyphshow
grestore
gsave
/o {
gsave
newpath
translate
0.8 setlinewidth
1 setlinejoin
0 setlinecap
0 0 m
-3.5 0 l

gsave
0.000 setgray
fill
grestore
stroke
grestore
} bind def
135 427.519 o
grestore
gsave
80.281250 416.120562 translate
0.000000 rotate
0.000000 0.000000 m /zero glyphshow
19.086914 0.000000 m /period glyphshow
28.623047 0.000000 m /four glyphshow
grestore
gsave
/o {
gsave
newpath
translate
0.8 setlinewidth
1 setlinejoin
0 setlinecap
0 0 m
-3.5 0 l

gsave
0.000 setgray
fill
grestore
stroke
grestore
} bind def
135 509.12 o
grestore
gsave
80.281250 497.721627 translate
0.000000 rotate
0.000000 0.000000 m /zero glyphshow
19.086914 0.000000 m /period glyphshow
28.623047 0.000000 m /five glyphshow
grestore
gsave
/o {
gsave
newpath
translate
0.8 setlinewidth
1 setlinejoin
0 setlinecap
0 0 m
-3.5 0 l

gsave
0.000 setgray
fill
grestore
stroke
grestore
} bind def
135 590.721 o
grestore
gsave
80.281250 579.322692 translate
0.000000 rotate
0.000000 0.000000 m /zero glyphshow
19.086914 0.000000 m /period glyphshow
28.623047 0.000000 m /six glyphshow
grestore
gsave
68.796875 334.400000 translate
90.000000 rotate
/DejaVuSerif findfont
36.0 scalefont
setfont
0.000000 0.781250 moveto
/hyphen glyphshow

/DejaVuSans-Oblique findfont
36.0 scalefont
setfont
12.164062 0.781250 moveto
/alpha glyphshow

/DejaVuSans-Oblique findfont
25.2 scalefont
setfont
35.894531 -5.125000 moveto
/i glyphshow


grestore
3.000 setlinewidth
[12 3] 0 setdash
gsave
837 554.4 135 79.2 clipbox
211.677711 158.281999 m
214.122214 157.311762 l
216.766782 156.776459 l
219.504693 156.645898 l
222.291609 156.8091 l
225.107151 157.182833 l
227.940895 157.709976 l
233.641519 159.083321 l
239.367812 160.730847 l
250.858825 164.456752 l
268.134627 170.430766 l
288.304534 177.316263 l
302.708944 181.962628 l
314.22796 185.45597 l
325.74122 188.724092 l
337.247946 191.753124 l
348.747516 194.53164 l
360.239151 197.054745 l
371.722697 199.319174 l
383.197842 201.322481 l
394.664586 203.066295 l
406.122929 204.550619 l
417.573027 205.778715 l
420.434307 206.04555 l
440.448953 207.471937 l
451.874937 207.941959 l
463.293454 208.165546 l
474.704348 208.145146 l
486.107774 207.88239 l
497.504044 207.38136 l
508.893313 206.643686 l
520.275426 205.671817 l
531.650538 204.469834 l
543.018649 203.038551 l
554.379915 201.381233 l
565.734181 199.500329 l
577.081601 197.397469 l
588.421865 195.075919 l
599.755128 192.536494 l
611.08139 189.781642 l
622.400185 186.813811 l
636.538567 182.808015 l
645.015995 180.247374 l
659.135397 175.720963 l
670.4223 171.871024 l
681.701269 167.820347 l
692.97277 163.573828 l
704.237892 159.137994 l
718.313112 153.332078 l
729.571856 148.486607 l
746.472263 140.923005 l
757.766477 135.714409 l
757.766477 135.714409 l
stroke
grestore
gsave
837 554.4 135 79.2 clipbox
173.173024 117.75483 m
175.65673 121.53704 l
178.173574 125.804775 l
180.734444 130.611894 l
186.055784 142.170685 l
188.869614 149.176136 l
191.844462 157.291362 l
195.0536 166.957824 l
198.590996 179.116383 l
202.412311 195.670791 l
206.079764 217.297521 l
209.550886 242.0357 l
217.284525 298.953258 l
222.134637 330.448005 l
227.905891 362.524568 l
234.628156 393.603149 l
242.180865 422.267971 l
250.350572 447.654879 l
258.914031 469.519068 l
267.692647 488.031901 l
276.564139 503.54916 l
285.452278 516.453552 l
294.311947 527.086987 l
303.116232 535.734252 l
311.849109 542.626278 l
320.500778 547.949931 l
329.064549 551.858622 l
337.535599 554.478832 l
345.91035 555.922355 l
354.186001 556.282216 l
362.36022 555.644912 l
370.43145 554.086331 l
378.398291 551.677468 l
409.210255 534.750143 l
416.650018 528.963812 l
438.348731 508.605978 l
445.378874 500.951798 l
452.309761 492.924701 l
459.14326 484.55896 l
465.880927 475.886399 l
472.524473 466.939658 l
479.076231 457.751378 l
485.53838 448.352568 l
492.044245 438.251172 l
498.359845 428.285234 l
504.594859 418.127533 l
510.750998 407.796839 l
516.830751 397.307838 l
522.835829 386.678483 l
528.768878 375.924279 l
534.63223 365.061545 l
540.428842 354.107418 l
546.162448 343.076586 l
551.837091 331.984553 l
557.458218 320.84356 l
563.032206 309.662582 l
568.566524 298.4457 l
574.070038 287.188017 l
579.552551 275.876477 l
584.355835 263.886833 l
589.595811 252.900066 l
594.809806 242.090373 l
600.013533 231.469994 l
604.531188 215.763421 l
609.353452 205.090002 l
616.051137 191.861653 l
620.505319 183.562825 l
625.691466 172.811069 l
638.973424 137.891525 l
643.896033 128.424985 l
648.957723 117.223607 l
655.40867 104.574626 l
657.66322 113.541767 l
664.005578 113.457718 l
667.175357 113.401413 l
673.513049 113.25698 l
676.681427 113.16885 l
stroke
grestore
[3 0] 0 setdash
0.000 0.500 0.000 setrgbcolor
gsave
837 554.4 135 79.2 clipbox
173.091348 112.119461 m
175.544096 114.459779 l
178.016135 117.021237 l
180.511509 119.800569 l
185.592957 125.992458 l
190.840089 132.952213 l
199.171746 144.314345 l
202.107545 148.082682 l
205.128597 151.649464 l
208.224169 154.866178 l
220.762959 163.010781 l
226.819843 165.285002 l
247.134899 172.29535 l
300.684797 191.882053 l
311.907604 195.656103 l
323.1273 199.228597 l
334.345284 202.581585 l
348.366209 206.451108 l
362.385889 209.952609 l
373.600607 212.483058 l
384.81439 214.7736 l
396.026774 216.822603 l
407.237758 218.632514 l
418.446719 220.204967 l
426.852118 221.22906 l
438.05719 222.390243 l
452.059912 223.517154 l
463.258761 224.162619 l
474.454499 224.582048 l
485.646658 224.780339 l
496.835084 224.759122 l
508.01962 224.521663 l
519.199956 224.071225 l
530.375781 223.409441 l
541.546938 222.540389 l
552.713117 221.465703 l
563.874006 220.189463 l
572.241134 219.100089 l
586.17945 217.038846 l
597.323382 215.170181 l
608.461092 213.108938 l
619.592422 210.858381 l
630.717219 208.420957 l
639.056344 206.470692 l
652.946122 202.992038 l
666.824542 199.231045 l
680.69114 195.192609 l
694.545447 190.880808 l
708.386997 186.298909 l
722.215479 181.452621 l
736.030116 176.345211 l
749.829973 170.982389 l
763.613961 165.373948 l
777.380059 159.533759 l
793.872089 152.263921 l
818.548606 141.061726 l
840.445051 131.224718 l
870.613569 117.881312 l
876.114283 115.208877 l
881.619664 112.228806 l
884.374066 110.519264 l
887.129557 108.522486 l
889.886137 105.884323 l
889.886137 105.884323 l
stroke
grestore
gsave
837 554.4 135 79.2 clipbox
182.909185 115.328831 m
189.578867 123.181301 l
192.878393 127.800737 l
196.14836 132.908964 l
199.383791 138.536173 l
202.57955 144.72235 l
205.730194 151.519719 l
208.830122 159.000904 l
211.87451 167.263012 l
220.674439 198.23796 l
226.43558 226.174085 l
229.424896 242.948816 l
232.581918 261.703188 l
235.979143 282.418435 l
239.690469 305.029274 l
243.797413 329.423096 l
248.392543 355.386107 l
253.573868 382.534781 l
259.427419 410.257927 l
266.001735 437.730557 l
273.283126 464.0265 l
289.598738 509.975244 l
298.362263 528.758993 l
307.351212 544.632032 l
316.460418 557.734715 l
325.610695 568.284101 l
334.745571 576.520912 l
343.824907 582.68016 l
352.820857 586.978905 l
361.714285 589.612987 l
370.491812 590.755402 l
379.144725 590.560375 l
387.667425 589.165813 l
396.056489 586.693301 l
404.310671 583.251368 l
428.266578 568.028689 l
443.582017 554.560434 l
451.050717 547.020495 l
465.624544 530.586041 l
472.735895 521.782102 l
479.734456 512.641967 l
486.623339 503.203171 l
493.405966 493.502437 l
500.085605 483.574035 l
506.665989 473.450607 l
513.29071 462.387135 l
519.706188 451.643539 l
526.031744 440.699204 l
532.26847 429.564739 l
538.416985 418.250751 l
544.477447 406.764585 l
550.4483 395.116849 l
556.506895 384.680073 l
562.392028 372.998881 l
568.21462 361.17407 l
573.977318 349.189322 l
579.460919 338.339644 l
585.080179 326.620099 l
590.655878 314.871994 l
595.888231 302.329095 l
601.264176 290.581805 l
606.785581 276.25429 l
612.017467 263.443739 l
617.562364 252.674031 l
622.837809 239.727206 l
627.976041 229.80778 l
632.796127 218.7133 l
637.97963 207.157773 l
642.527622 195.181184 l
647.059745 181.652544 l
653.094537 167.039425 l
657.472333 158.338304 l
659.81058 151.541751 l
stroke
grestore
[6 6] 0 setdash
0.000 0.000 1.000 setrgbcolor
gsave
837 554.4 135 79.2 clipbox
173.045455 109.850951 m
175.482334 111.670655 l
180.399031 115.770292 l
185.389469 120.427265 l
190.475739 125.552628 l
201.021497 136.611204 l
206.50292 142.09806 l
212.106156 147.211999 l
214.940833 149.566189 l
217.78889 151.770234 l
223.501493 155.740942 l
229.205851 159.212251 l
234.883139 162.316356 l
240.52869 165.169945 l
248.943734 169.151261 l
260.089845 174.118318 l
268.413101 177.67286 l
285.00812 184.430244 l
293.291861 187.641246 l
307.090007 192.738865 l
318.126439 196.579827 l
329.163804 200.202914 l
340.203658 203.601598 l
351.246624 206.774248 l
359.530988 209.001957 l
373.342202 212.42757 l
384.394346 214.908242 l
395.449136 217.157983 l
406.505792 219.178426 l
417.564004 220.971201 l
425.858324 222.168289 l
439.682917 223.884359 l
450.742373 225.008006 l
461.801519 225.914593 l
472.859575 226.604938 l
483.916076 227.083937 l
494.970554 227.352404 l
506.022854 227.414421 l
517.072198 227.273251 l
528.118431 226.929711 l
539.161086 226.388696 l
550.199696 225.651022 l
561.23395 224.721586 l
572.263692 223.601203 l
583.288301 222.293138 l
594.307464 220.800655 l
605.321027 219.126201 l
619.079502 216.78017 l
627.32995 215.239542 l
643.819336 211.865338 l
657.548719 208.758786 l
671.266434 205.389478 l
682.232236 202.50896 l
695.928171 198.679422 l
706.875771 195.434964 l
717.81497 192.033831 l
731.476679 187.562909 l
745.124542 182.854528 l
758.757937 177.912767 l
775.098129 171.683342 l
788.697921 166.253607 l
804.99673 159.475007 l
821.273449 152.453235 l
848.369887 140.45543 l
867.348113 132.098665 l
867.348113 132.098665 l
stroke
grestore
gsave
837 554.4 135 79.2 clipbox
186.404576 119.137152 m
189.779866 123.331447 l
193.142865 127.998212 l
196.492019 133.152135 l
199.825615 138.816881 l
206.441625 151.793898 l
212.988872 167.232004 l
216.240482 176.004934 l
219.483224 185.570211 l
222.723944 196.002907 l
229.246922 219.820626 l
232.562783 233.385171 l
235.945851 248.171284 l
239.425374 264.260566 l
243.036977 281.722378 l
246.82251 300.61384 l
250.832223 320.965146 l
264.850658 390.373379 l
270.443004 415.695822 l
276.623723 441.449934 l
283.442288 466.975563 l
290.903364 491.494235 l
298.95717 514.234819 l
307.505073 534.574701 l
316.421525 552.134434 l
325.578025 566.785089 l
334.862094 578.592763 l
344.183812 587.740242 l
353.476593 594.469066 l
371.80095 601.676888 l
380.779164 602.624277 l
389.614253 602.078366 l
398.298747 600.216229 l
415.204599 593.143865 l
423.426111 588.188232 l
431.496097 582.428829 l
439.417978 575.957049 l
447.195488 568.851228 l
454.832672 561.183176 l
462.333886 553.013277 l
469.703486 544.397837 l
476.945829 535.386631 l
484.064958 526.025357 l
491.06523 516.355631 l
497.950846 506.416621 l
504.725851 496.244233 l
511.394755 485.874369 l
518.080305 474.783969 l
524.572479 463.886146 l
530.972866 452.816962 l
537.285044 441.592736 l
543.513212 430.225707 l
549.661106 418.727301 l
555.732458 407.10323 l
561.731158 395.356756 l
567.660784 383.485433 l
573.524603 371.482733 l
579.325571 359.333966 l
585.06571 347.017102 l
596.122989 324.309157 l
601.688421 312.338281 l
606.833186 299.666452 l
612.18813 287.795945 l
617.495468 276.054368 l
622.685038 261.637908 l
627.76493 249.413252 l
632.737632 240.793732 l
642.856345 210.354086 l
648.913385 198.580685 l
654.034036 188.062308 l
657.021174 183.796204 l
661.072891 167.031265 l
674.001233 144.424506 l
679.40207 132.408749 l
stroke
grestore
[9 3] 0 setdash
0.750 0.000 0.750 setrgbcolor
gsave
837 554.4 135 79.2 clipbox
186.480184 119.178769 m
189.880521 123.386936 l
193.274635 128.065125 l
196.661903 133.226392 l
200.041705 138.88869 l
203.414039 145.071603 l
210.138793 159.107802 l
213.494636 167.024737 l
220.208656 184.851306 l
223.577412 194.85478 l
226.963747 205.655497 l
230.377619 217.310577 l
233.831317 229.879589 l
237.340087 243.425366 l
240.922599 258.009924 l
244.600631 273.696097 l
252.356984 308.601768 l
256.5064 327.914292 l
260.896641 348.495713 l
270.63218 393.310202 l
276.115159 417.270722 l
288.672618 466.678535 l
295.851954 491.001364 l
311.98679 535.269942 l
320.785786 553.905177 l
329.911794 569.673767 l
339.236778 582.481054 l
348.649194 592.42496 l
358.061299 599.720911 l
367.408842 604.634111 l
376.648417 607.439555 l
385.751556 608.4 l
394.700834 607.750456 l
403.487073 605.698189 l
412.106072 602.423538 l
420.55752 598.082361 l
428.843283 592.808485 l
436.966941 586.716965 l
444.932849 579.905724 l
452.745829 572.462891 l
460.411172 564.461091 l
467.934011 555.968052 l
475.319635 547.039263 l
482.573178 537.728582 l
489.699308 528.080888 l
496.703315 518.140246 l
503.589553 507.945009 l
510.362846 497.532713 l
517.028016 486.938447 l
523.721812 475.371496 l
530.204963 464.177462 l
536.591504 452.79901 l
542.883301 441.245931 l
549.081756 429.52965 l
555.187178 417.657511 l
561.199102 405.640938 l
567.304835 394.795341 l
573.224349 382.757552 l
579.0779 370.588385 l
584.868134 358.272336 l
590.391095 347.121551 l
607.196914 310.942087 l
612.294696 298.227825 l
617.640461 286.300197 l
623.0637 270.689098 l
627.924391 261.82151 l
633.045976 250.367169 l
638.102377 235.439886 l
643.398825 220.868384 l
657.500025 192.028935 l
662.387785 182.223751 l
679.498369 141.96913 l
stroke
grestore
gsave
837 554.4 135 79.2 clipbox
177.882499 111.74328 m
182.797484 115.403904 l
187.774543 119.462741 l
195.383413 126.097723 l
205.834894 135.33578 l
211.186259 139.82139 l
216.602653 144.068726 l
222.063074 148.021481 l
230.293454 153.394911 l
235.78639 156.654058 l
241.274969 159.705938 l
246.756081 162.592167 l
257.694036 167.990078 l
268.605699 173.019967 l
279.501027 177.766701 l
290.388577 182.269448 l
301.274259 186.545344 l
312.162276 190.600101 l
323.054803 194.435351 l
333.953398 198.050278 l
344.858683 201.44325 l
355.770813 204.614268 l
363.959344 206.846057 l
377.614519 210.287174 l
388.545318 212.789878 l
402.215739 215.606747 l
413.156961 217.613317 l
426.838272 219.814098 l
437.786339 221.332694 l
445.998828 222.331491 l
459.687918 223.732581 l
470.64003 224.618769 l
481.592141 225.299321 l
492.543942 225.776688 l
503.494498 226.053315 l
514.443499 226.133284 l
525.390477 226.017411 l
536.334654 225.709775 l
547.275876 225.212008 l
558.21352 224.528191 l
569.147119 223.65914 l
582.80805 222.319251 l
596.461202 220.700285 l
610.105954 218.808773 l
623.741527 216.647977 l
637.367455 214.225241 l
650.982803 211.543014 l
664.587262 208.607824 l
678.180208 205.424566 l
691.760864 201.996505 l
705.328919 198.329354 l
716.173997 195.226881 l
732.425357 190.294913 l
745.952652 185.9366 l
762.166053 180.413024 l
778.357518 174.576916 l
791.83254 169.480113 l
805.289984 164.177676 l
818.727513 158.677764 l
834.820501 151.842859 l
853.538922 143.637056 l
869.524721 136.572036 l
872.447918 134.550777 l
883.2219 129.209172 l
894.055622 123.608075 l
899.508887 120.714501 l
901.513276 120.066588 l
904.601069 118.786268 l
915.490796 113.251267 l
917.965946 112.249206 l
928.669143 107.108339 l
930.617371 105.17929 l
933.954545 104.4 l
933.954545 104.4 l
stroke
grestore
0.800 setlinewidth
0 setlinejoin
2 setlinecap
[] 0 setdash
0.000 setgray
gsave
135 79.2 m
135 633.6 l
stroke
grestore
gsave
972 79.2 m
972 633.6 l
stroke
grestore
gsave
135 79.2 m
972 79.2 l
stroke
grestore
gsave
135 633.6 m
972 633.6 l
stroke
grestore

end
showpage
