 0.95000000000000D+00
 0.15009500000000D+03  0.56668306346153D-08  0.58717336073774D-08  0.63331818525549D-08  0.70410296653847D-08  0.79696047340624D-08  0.90789493131560D-08  0.10316999760582D-07  0.11622570785932D-07  0.12928956791405D-07  0.14167923014205D-07
 0.15019500000000D+03  0.57046720780987D-08  0.57296236333760D-08  0.60124921235234D-08  0.65549507028487D-08  0.73426381437817D-08  0.83456476979726D-08  0.95200283810968D-08  0.10810211817340D-07  0.12152214295019D-07  0.13477412058853D-07
 0.15029500000000D+03  0.58716834435800D-08  0.57203690097062D-08  0.58193578389086D-08  0.61821712192468D-08  0.68063828169907D-08  0.76733232104968D-08  0.87488315303841D-08  0.99850198451557D-08  0.11322945389884D-07  0.12696023729579D-07
 0.15039500000000D+03  0.61620128781649D-08  0.58447027464163D-08  0.57613407499702D-08  0.59368693303629D-08  0.63809690232751D-08  0.70869786050889D-08  0.80318547516309D-08  0.91771927934145D-08  0.10471255605847D-07  0.11851887579868D-07
 0.15049500000000D+03  0.65651878409532D-08  0.60983739905205D-08  0.58409948357551D-08  0.58285427887887D-08  0.60825124464369D-08  0.66085691759465D-08  0.73957064093104D-08  0.84164699973736D-08  0.96282529173523D-08  0.10975588385719D-07
 0.15059500000000D+03  0.70664993762611D-08  0.64722895926538D-08  0.60557447175499D-08  0.58616226515515D-08  0.59224806981674D-08  0.62561576269446D-08  0.68641516270163D-08  0.77310272738228D-08  0.88249127924661D-08  0.10099071958256D-07
 0.15069500000000D+03  0.76475520832848D-08  0.69528442436640D-08  0.63979618568102D-08  0.60352792301565D-08  0.59072320879920D-08  0.60432080483078D-08  0.64572015085256D-08  0.71464160029281D-08  0.80909322032404D-08  0.92544848542318D-08
 0.15079500000000D+03  0.82869581733128D-08  0.75224270188341D-08  0.68552371917145D-08  0.63434302533806D-08  0.60377473507355D-08  0.59780490648864D-08  0.61903349162456D-08  0.66845880329112D-08  0.74536160215932D-08  0.84729901111504D-08
 0.15089500000000D+03  0.89611478396280D-08  0.81600846019812D-08  0.74108405351027D-08  0.67749527972311D-08  0.63095673470077D-08  0.60635298874416D-08  0.60738856207024D-08  0.63630459619086D-08  0.69368392923006D-08  0.77836034450143D-08
 0.15099500000000D+03  0.96452632545501D-08  0.88423147423977D-08  0.80443490562769D-08  0.73140919291756D-08  0.67129412854168D-08  0.62968854092892D-08  0.61126215685291D-08  0.61941542940555D-08  0.65601271110311D-08  0.72120949492469D-08
 0.15109500000000D+03  0.10314100094128D-07  0.95439579663580D-08  0.87324199084138D-08  0.79410506028976D-08  0.72331811666904D-08  0.66698179716989D-08  0.63055355626060D-08  0.61846412011530D-08  0.63378902053020D-08  0.67800000751761D-08
 0.15119500000000D+03  0.10943058729790D-07  0.10239151497213D-07  0.94496759129024D-08  0.86327375526831D-08  0.78512093555280D-08  0.71687943673492D-08  0.66458581163413D-08  0.63353133406468D-08  0.62788488824706D-08  0.65037804927348D-08
 0.15129500000000D+03  0.11509067180040D-07  0.10902306925737D-07  0.10169668481236D-07  0.93636431715030D-08  0.85442778907283D-08  0.77755475031347D-08  0.71212940219092D-08  0.66409976762758D-08  0.63856709384896D-08  0.63941703574663D-08
 0.15139500000000D+03  0.11991439551390D-07  0.11509072512612D-07  0.10865878872511D-07  0.10106807957023D-07  0.92868307725817D-08  0.84677633619188D-08  0.77144747032619D-08  0.70907148967188D-08  0.66548406844593D-08  0.64557366858056D-08
 0.15149500000000D+03  0.12372636894040D-07  0.12037242096644D-07  0.11512717583729D-07  0.10834844340492D-07  0.10051474394737D-07  0.92199259365679D-08  0.84036091818500D-08  0.76680792730233D-08  0.70767668089507D-08  0.66866742121537D-08
 0.15159500000000D+03  0.12638901954676D-07  0.12467575329893D-07  0.12086482183613D-07  0.11520970746071D-07  0.10810016818368D-07  0.10004286066869D-07  0.91633079378439D-08  0.83519101204445D-08  0.76361267922127D-08  0.70788456164794D-08
 0.15169500000000D+03  0.12780744964816D-07  0.12784498184044D-07  0.12566236161641D-07  0.12140016630898D-07  0.11534533929540D-07  0.10791914930532D-07  0.99655465410756D-08  0.91170309263374D-08  0.83124355135902D-08  0.76180678029528D-08
 0.15179500000000D+03  0.12793264054788D-07  0.12976658121626D-07  0.12934575214141D-07  0.12669358993244D-07  0.12198419781850D-07  0.11553799573030D-07  0.10780730030566D-07  0.99352241409553D-08  0.90808160551452D-08  0.82846344721226D-08
 0.15189500000000D+03  0.12676290805024D-07  0.13037314701435D-07  0.13178252593586D-07  0.13089754273828D-07  0.12777379603239D-07  0.12261936452178D-07  0.11578814929071D-07  0.10776303015145D-07  0.99129419978531D-08  0.90540550855278D-08
 0.15199500000000D+03  0.12434358510114D-07  0.12964553360548D-07  0.13288641411960D-07  0.13386034495468D-07  0.13250326931873D-07  0.12890379555126D-07  0.12330443674518D-07  0.11609257038028D-07  0.10778113179628D-07  0.98979809926207D-08
 0.15209500000000D+03  0.12076497625106D-07  0.12761317347888D-07  0.13262018783563D-07  0.13547642603662D-07  0.13600150942362D-07  0.13416202141145D-07  0.13008046204173D-07  0.12403424705202D-07  0.11644421307026D-07  0.10785281456869D-07
 0.15219500000000D+03  0.11615869306699D-07  0.12435259948988D-07  0.13099664070131D-07  0.13568988954835D-07  0.13814325956236D-07  0.13820335396602D-07  0.13586865395361D-07  0.13129646643836D-07  0.12479958253401D-07  0.11683225990804D-07
 0.15229500000000D+03  0.11069253715514D-07  0.11998425938436D-07  0.12807770909943D-07  0.13449618395928D-07  0.13885342071171D-07  0.14088252998116D-07  0.14045866896799D-07  0.13761353525477D-07  0.13254018486737D-07  0.12558725099944D-07
 0.15239500000000D+03  0.10456414620246D-07  0.11466777364882D-07  0.12397179853468D-07  0.13194185033227D-07  0.13810943432502D-07  0.14210477442497D-07  0.14368499332499D-07  0.14275546586047D-07  0.13938247877321D-07  0.13379579436616D-07
 0.15249500000000D+03  0.97993657044342D-08  0.10859584102328D-07  0.11882945009212D-07  0.12812239262239D-07  0.13594168539829D-07  0.14182891654157D-07  0.14543277609180D-07  0.14653633719804D-07  0.14507694044794D-07  0.14115687542648D-07
 0.15259500000000D+03  0.91215667394165D-08  0.10198703932883D-07  0.11283753890449D-07  0.12317838620285D-07  0.13243194775531D-07  0.14006847442833D-07  0.14564169742740D-07  0.14882090712806D-07  0.14941718211811D-07  0.14740164753423D-07
 0.15269500000000D+03  0.84470794212665D-08  0.95077801577402D-08  0.10621224466228D-07  0.11729000271637D-07  0.12770996735121D-07  0.13689070483726D-07  0.14430775850233D-07  0.14952924866385D-07  0.15224734942648D-07  0.15230330265189D-07
 0.15279500000000D+03  0.77997131894299D-08  0.88113868154598D-08  0.99191071345953D-08  0.11067018237820D-07  0.12194834650277D-07  0.13241369281316D-07  0.14148296341458D-07  0.14863926634660D-07  0.15346753796662D-07  0.15568525552598D-07
 0.15289500000000D+03  0.72021908042276D-08  0.81341525188292D-08  0.92024218837863D-08  0.10355672696739D-07  0.11535594995829D-07  0.12680162751553D-07  0.13727294520167D-07  0.14618703557162D-07  0.15303705414481D-07  0.15742734906408D-07
 0.15299500000000D+03  0.66753619453645D-08  0.74998937457317D-08  0.84965622713923D-08  0.96203617049656D-08  0.10817010092443D-07  0.12025847361656D-07  0.13183266438894D-07  0.14226499318652D-07  0.15097543459695D-07  0.15746987433144D-07
 0.15309500000000D+03  0.62374907147727D-08  0.69307872126375D-08  0.78263980610158D-08  0.88871875134123D-08  0.10064787046893D-07  0.11302030008137D-07  0.12536037664439D-07  0.13701808858383D-07  0.14736122750673D-07  0.15581528987109D-07
 0.15319500000000D+03  0.59036398126354D-08  0.64466088266791D-08  0.72154074782022D-08  0.81820302624617D-08  0.93056786587361D-08  0.10534656859218D-07  0.11809012383660D-07  0.13063807775208D-07  0.14232862456722D-07  0.15252761760789D-07
 0.15329500000000D+03  0.56851704441004D-08  0.60640637789068D-08  0.66848681809634D-08  0.75296413150940D-08  0.85665299652074D-08  0.97510711644261D-08  0.11028304854602D-07  0.12335620586845D-07  0.13606211067820D-07  0.14772958238744D-07
 0.15339500000000D+03  0.55893728496471D-08  0.57962287456637D-08  0.62531333065986D-08  0.69527869067437D-08  0.78733339399718D-08  0.89790345246761D-08  0.10221786492076D-07  0.11543457519876D-07  0.12878936704540D-07  0.14159764563205D-07
 0.15349500000000D+03  0.56192378779158D-08  0.56521230523355D-08  0.59350154932216D-08  0.64714702758012D-08  0.72503285888328D-08  0.82457463522686D-08  0.94180838344295D-08  0.10715653314885D-07  0.12077272006735D-07  0.13435515765735D-07
 0.15359500000000D+03  0.57733753756072D-08  0.56364211709438D-08  0.57412977280026D-08  0.61022571248433D-08  0.67191654086929D-08  0.75768953053530D-08  0.86455632869851D-08  0.98816439744027D-08  0.11229947185851D-07  0.12626391553586D-07
 0.15369500000000D+03  0.60460804874531D-08  0.57493142143275D-08  0.56783853946665D-08  0.58577252973217D-08  0.62981760289891D-08  0.69957744618356D-08  0.79313379404881D-08  0.90709184621755D-08  0.10367147771711D-07  0.11761446236773D-07
 0.15379500000000D+03  0.64275443638272D-08  0.59865232931792D-08  0.57481091289857D-08  0.57460550905278D-08  0.60017599854649D-08  0.65224890346758D-08  0.73003300194681D-08  0.83119821323091D-08  0.95194351160464D-08  0.10871549846127D-07
 0.15389500000000D+03  0.69042013775239D-08  0.63394628476740D-08  0.59476831866181D-08  0.57707718163809D-08  0.58399121401496D-08  0.61732816721322D-08  0.67744197535773D-08  0.76313672180430D-08  0.87166678708256D-08  0.99882794916345D-08
 0.15399500000000D+03  0.74592008567458D-08  0.67955474725559D-08  0.62698191186665D-08  0.59306472163451D-08  0.58179034163844D-08  0.59599959908651D-08  0.63717078324913D-08  0.70527231661637D-08  0.79869615232905D-08  0.91428005696900D-08
 0.15409500000000D+03  0.80729876392639D-08  0.73386314320622D-08  0.67029897631406D-08  0.62197612779845D-08  0.59361234187213D-08  0.58896941187566D-08  0.61059142620466D-08  0.65960161112919D-08  0.73557207604935D-08  0.83647766216068D-08
 0.15419500000000D+03  0.87239725227419D-08  0.79495661063382D-08  0.72318340106495D-08  0.66277210215715D-08  0.61900883035218D-08  0.59644388386622D-08  0.59859315520535D-08  0.62768625065513D-08  0.68447760997645D-08  0.76813445875555D-08
 0.15429500000000D+03  0.93892709971289D-08  0.86068571100501D-08  0.78376885942978D-08  0.71400280484193D-08  0.65706120974581D-08  0.61812455797604D-08  0.60155449011656D-08  0.61060170336099D-08  0.64716520214661D-08  0.71161890336902D-08
 0.15439500000000D+03  0.10045486555110D-07  0.92873998515934D-08  0.84992293795111D-08  0.77385821794520D-08  0.70641346578983D-08  0.65322041474408D-08  0.61933265639121D-08  0.60890295780805D-08  0.62489889507411D-08  0.66887448204333D-08
 0.15449500000000D+03  0.10669513433879D-07  0.99672699216782D-08  0.91932013705809D-08  0.84023044624693D-08  0.76531947499660D-08  0.70047648534609D-08  0.65127060447961D-08  0.62260804453635D-08  0.61841360337911D-08  0.64135528045648D-08
 0.15459500000000D+03  0.11239332883865D-07  0.10622542966687D-07  0.98952139771471D-08  0.91078592774280D-08  0.83170323866512D-08  0.75821787317628D-08  0.69622123099156D-08  0.65119972703620D-08  0.62789259182910D-08  0.62997877107360D-08
 0.15469500000000D+03  0.11734777015139D-07  0.11230117658245D-07  0.10580576054881D-07  0.98304522971914D-08  0.90323007354810D-08  0.82440769161966D-08  0.75258789722825D-08  0.69364513960238D-08  0.65296368480298D-08  0.63509714533083D-08
 0.15479500000000D+03  0.12138234956759D-07  0.11768515048669D-07  0.11225143898903D-07  0.10544678731753D-07  0.97738646208344D-08  0.89671701164884D-08  0.81837985151547D-08  0.74843260031983D-08  0.69271414812758D-08  0.65648791164428D-08
 0.15489500000000D+03  0.12435277483417D-07  0.12218628024295D-07  0.11806154763967D-07  0.11225394651140D-07  0.10515660016360D-07  0.97260455479092D-08  0.89128071779258D-08  0.81362430983690D-08  0.74572360922387D-08  0.69336386804534D-08
 0.15499500000000D+03  0.12615178409049D-07  0.12564395745302D-07  0.12303018639185D-07  0.11848583289333D-07  0.11231586987089D-07  0.10494035726007D-07  0.96872782384132D-08  0.88692317240626D-08  0.81011383545113D-08  0.74440195761971D-08
 0.15509500000000D+03  0.12671313895596D-07  0.12793379888816D-07  0.12698041932383D-07  0.12392188110816D-07  0.11896407354487D-07  0.11244131296417D-07  0.10479998168199D-07  0.96575155536261D-08  0.88361368604221D-08  0.80778994047838D-08
 0.15519500000000D+03  0.12601424336243D-07  0.12897222174225D-07  0.12977058422648D-07  0.12836885093125D-07  0.12486617957180D-07  0.11949908585434D-07  0.11263097586154D-07  0.10473394459019D-07  0.96363710131264D-08  0.88128928116907D-08
 0.15529500000000D+03  0.12407727586366D-07  0.12871966011437D-07  0.13129945307076D-07  0.13166768150788D-07  0.12981270790886D-07  0.12586441872298D-07  0.12009007149332D-07  0.11288191775775D-07  0.10473716037605D-07  0.96231216728276D-08
 0.15539500000000D+03  0.12096876950048D-07  0.12718229120498D-07  0.13151005370781D-07  0.13369923891445D-07  0.13362712545781D-07  0.13131170529376D-07  0.12691407547912D-07  0.12073236899111D-07  0.11318744677600D-07  0.10480101541287D-07
 0.15549500000000D+03  0.11679762379369D-07  0.12441218549120D-07  0.13039200200134D-07  0.13438874930895D-07  0.13617218116621D-07  0.13564692169112D-07  0.13286142646995D-07  0.12800851582321D-07  0.12141734749517D-07  0.11353715809209D-07
 0.15559500000000D+03  0.11171158676545D-07  0.12050584563555D-07  0.12798223868863D-07  0.13370874758517D-07  0.13735495522590D-07  0.13871454780109D-07  0.13772065565136D-07  0.13445307913261D-07  0.12913690169834D-07  0.12213246337035D-07
 0.15569500000000D+03  0.10589229948409D-07  0.11560115282590D-07  0.12436411561769D-07  0.13168041574931D-07  0.13713043304167D-07  0.14040323516223D-07  0.14131789105304D-07  0.13983726443623D-07  0.13607342404435D-07  0.13028427456056D-07
 0.15579500000000D+03  0.99549049681394D-08  0.10987279512220D-07  0.11966483042075D-07  0.12837323532900D-07  0.13550345805891D-07  0.14065001291434D-07  0.14352314450689D-07  0.14396884351027D-07  0.14198099537638D-07  0.13770489309125D-07
 0.15589500000000D+03  0.92911432492736D-08  0.10352630842471D-07  0.11405126569087D-07  0.12390293287050D-07  0.13252896725990D-07  0.13944286577716D-07  0.14425515379418D-07  0.14669905822341D-07  0.14664911341886D-07  0.14413156493995D-07
 0.15599500000000D+03  0.86221163163197D-08  0.96790914874727D-08  0.10772434659377D-07  0.11842775556668D-07  0.12831046809020D-07  0.13682156728214D-07  0.14348459392497D-07  0.14792810036499D-07  0.14991020846618D-07  0.14933568934121D-07
 0.15609500000000D+03  0.79723326433190D-08  0.89911393675851D-08  0.10091208758471D-07  0.11214317359507D-07  0.12299677440326D-07  0.13287670652090D-07  0.14123552018402D-07  0.14760896155033D-07  0.15164575939467D-07  0.15313093827124D-07
 0.15619500000000D+03  0.73657378100880D-08  0.83139263206547D-08  0.93861552321061D-08  0.10527516486763D-07  0.11677708006590D-07  0.12774690620598D-07  0.13758496059950D-07  0.14574949533830D-07  0.15179078447471D-07  0.15538000397934D-07
 0.15629500000000D+03  0.68248233974641D-08  0.76723588616716D-08  0.86829998643342D-08  0.98072294413165D-08  0.10987451021876D-07  0.12161429226330D-07  0.13266063559945D-07  0.14241258859969D-07  0.15033652880488D-07  0.15599972978541D-07
 0.15639500000000D+03  0.63697788420235D-08  0.70901753732421D-08  0.80075520283273D-08  0.90796852167784D-08  0.10253834964830D-07  0.11469833859665D-07  0.12663684626782D-07  0.13771439973729D-07  0.14733122488110D-07  0.15496442593689D-07
 0.15649500000000D+03  0.60177197789066D-08  0.65890548184544D-08  0.73847526482057D-08  0.83715357107721D-08  0.95035202917564D-08  0.10724827291092D-07  0.11972863794137D-07  0.13182068608424D-07  0.14287886371213D-07  0.15230722670951D-07
 0.15659500000000D+03  0.57820242606097D-08  0.61877918813010D-08  0.68377417934091D-08  0.77088770031085D-08  0.87639389323007D-08  0.99534288155769D-08  0.11218441075200D-07  0.12494130988212D-07  0.13713597955287D-07  0.14811940605507D-07
 0.15669500000000D+03  0.56718046634263D-08  0.59015717740422D-08  0.63869820771864D-08  0.71162779682154D-08  0.80622914897578D-08  0.91837856704297D-08  0.10427721071367D-07  0.11732307954528D-07  0.13030651998217D-07  0.14254763555103D-07
 0.15679500000000D+03  0.56915381735412D-08  0.57413747922314D-08  0.60494728583515D-08  0.66158535459598D-08  0.74245391208283D-08  0.84441488221830D-08  0.96294991491158D-08  0.10924114805433D-07  0.12263494261402D-07  0.13578923847140D-07
 0.15689500000000D+03  0.58408726535477D-08  0.57135361120822D-08  0.58380875296902D-08  0.62264193315478D-08  0.68744284544510D-08  0.77618304806822D-08  0.88530185397451D-08  0.10098925067714D-07  0.11439774781932D-07  0.12808556542744D-07
 0.15699500000000D+03  0.61146176749164D-08  0.58194804597428D-08  0.57610619554839D-08  0.59627618952279D-08  0.64325877674278D-08  0.71621826154929D-08  0.81268959820939D-08  0.92869117051353D-08  0.10589372081946D-07  0.11971368786017D-07
 0.15709500000000D+03  0.65029228752272D-08  0.60556443666302D-08  0.58216565176552D-08  0.58350554162368D-08  0.61157308704916D-08  0.66676361386509D-08  0.74780559760090D-08  0.85179435240472D-08  0.97433213606461D-08  0.11097667307392D-07
 0.15719500000000D+03  0.69916379216469D-08  0.64135910597595D-08  0.60180074529339D-08  0.58484499093621D-08  0.59360017539323D-08  0.62968391565397D-08  0.69307146398903D-08  0.78204775112504D-08  0.89326844511641D-08  0.10219276565616D-07
 0.15729500000000D+03  0.75628406221413D-08  0.68803149779851D-08  0.63431754981283D-08  0.60028497217090D-08  0.59004880657732D-08  0.60639297352967D-08  0.65054534207483D-08  0.72204893033112D-08  0.81874028159557D-08  0.93683852120914D-08
 0.15739500000000D+03  0.81955125137285D-08  0.74387248472963D-08  0.67853916575542D-08  0.62928933507310D-08  0.60109251081902D-08  0.59779740089108D-08  0.62184204143127D-08  0.67404837678864D-08  0.75351768557777D-08  0.85763625587918D-08
 0.15749500000000D+03  0.88663349402932D-08  0.80682865953438D-08  0.73284915614230D-08  0.67081373235409D-08  0.62636044890842D-08  0.60425943213098D-08  0.60806928269233D-08  0.63986256722497D-08  0.70004151210769D-08  0.78725892639851D-08
 0.15759500000000D+03  0.95505735314530D-08  0.87458005271019D-08  0.79525218128998D-08  0.72334382772498D-08  0.66494931847615D-08  0.62558046614331D-08  0.60978282568748D-08  0.62080266036729D-08  0.66032955093506D-08  0.72833472985504D-08
 0.15769500000000D+03  0.10223015360995D-07  0.94462814693641D-08  0.86344943350456D-08  0.78495189162722D-08  0.71545599488052D-08  0.66100622383239D-08  0.62696251952840D-08  0.61762187686095D-08  0.63589771596953D-08  0.68308132614542D-08
 0.15779500000000D+03  0.10858921066978D-07  0.10143906307527D-07  0.93492584043203D-08  0.85336956242105D-08  0.77602971738201D-08  0.70925350380454D-08  0.65901047430709D-08  0.63048392121404D-08  0.62769965648760D-08  0.65321961986739D-08
 0.15789500000000D+03  0.11434953931230D-07  0.10812990688057D-07  0.10070455114028D-07  0.92607385791455D-08  0.84444179221970D-08  0.76855760420468D-08  0.70477163889983D-08  0.65895396440417D-08  0.63608745642981D-08  0.63990562640006D-08
 0.15799500000000D+03  0.11930049323959D-07  0.11428955754876D-07  0.10771515689604D-07  0.10003829614126D-07  0.91817003185633D-08  0.83673859268138D-08  0.76257612312425D-08  0.70201277992655D-08  0.66079526146073D-08  0.64368339669366D-08
 0.15809500000000D+03  0.12326190909299D-07  0.11969246640223D-07  0.11426663525287D-07  0.10735579056646D-07  0.99449452245400D-08  0.91128379597283D-08  0.83030167223305D-08  0.75809365340117D-08  0.70094674101129D-08  0.66446116147904D-08
 0.15819500000000D+03  0.12609064390041D-07  0.12414166957289D-07  0.12011880075239D-07  0.11429060556995D-07  0.10706008409917D-07  0.98944318715181D-08  0.90545383481566D-08  0.82514071430484D-08  0.75508629732388D-08  0.70151192078143D-08
 0.15829500000000D+03  0.12768565090671D-07  0.12747597573772D-07  0.12505796758132D-07  0.12058822558413D-07  0.11436865517170D-07  0.10683338072237D-07  0.98526060613997D-08  0.90068641719924D-08  0.82123292403899D-08  0.75349869101958D-08
 0.15839500000000D+03  0.12799142038195D-07  0.12957573241576D-07  0.12890478676302D-07  0.12601836550290D-07  0.12110667108942D-07  0.11450489948575D-07  0.10667777164872D-07  0.98194507631427D-08  0.89695464396047D-08  0.81852357828280D-08
 0.15849500000000D+03  0.12699968076293D-07  0.13036696924200D-07  0.13152070983251D-07  0.13038345458634D-07  0.12702742003147D-07  0.12167680295259D-07  0.11470002984167D-07  0.10659186737337D-07  0.97946056924027D-08  0.89419882479336D-08
 0.15859500000000D+03  0.12474932611504D-07  0.12982378573657D-07  0.13281284870011D-07  0.13352580258057D-07  0.13191509845153D-07  0.12808618240925D-07  0.12229764281682D-07  0.11495106520096D-07  0.10657068729595D-07  0.97773702836877D-08
 0.15869500000000D+03  0.12132460525290D-07  0.12796892325195D-07  0.13273707054534D-07  0.13533318859686D-07  0.13559268254252D-07  0.13349905267366D-07  0.12919180032432D-07  0.12296430909748D-07  0.11525123772082D-07  0.10660569107784D-07
 0.15879500000000D+03  0.11685167306854D-07  0.12487253270907D-07  0.13129924003345D-07  0.13574268214028D-07  0.13792825647296D-07  0.13771892926728D-07  0.13513045877279D-07  0.13033725684959D-07  0.12366790776702D-07  0.11559003524016D-07
 0.15889500000000D+03  0.11149366323226D-07  0.12064921837634D-07  0.12855459547398D-07  0.13474258014940D-07  0.13883957664079D-07  0.14059390383977D-07  0.13989762153587D-07  0.13680001165766D-07  0.13151127552054D-07  0.12439559501785D-07
 0.15899500000000D+03  0.10544449149042D-07  0.11545350063972D-07  0.12460531751300D-07  0.13237242043910D-07  0.13829672639971D-07  0.14202196635529D-07  0.14332116644157D-07  0.14211709966770D-07  0.13849388754270D-07  0.13269841145780D-07
 0.15909500000000D+03  0.98921638852273D-08  0.10947389527129D-07  0.11959641568931D-07  0.12872110711807D-07  0.13632279423377D-07  0.14195439819914D-07  0.14527893774609D-07  0.14609605101067D-07  0.14436092400044D-07  0.14019387075841D-07
 0.15919500000000D+03  0.92158193138550D-08  0.10292585147574D-07  0.11371011727690D-07  0.12392325428708D-07  0.13299258660229D-07  0.14039714064119D-07  0.14570289566969D-07  0.14859427011410D-07  0.14889953094198D-07  0.14660804331145D-07
 0.15929500000000D+03  0.85394445273483D-08  0.96043824877017D-08  0.10715899240148D-07  0.11815391796931D-07  0.12842946134326D-07  0.13741012424804D-07  0.14458119835732D-07  0.14952395662557D-07  0.15194647377889D-07  0.15170776074284D-07
 0.15939500000000D+03  0.78869343423511D-08  0.89072784036066D-08  0.10017808814089D-07  0.11162194066339D-07  0.12280043572753D-07  0.13310462334999D-07  0.14195817501147D-07  0.14885492130836D-07  0.15339384106372D-07  0.15530905332015D-07
 0.15949500000000D+03  0.72812104106764D-08  0.82259459991975D-08  0.93016371437491D-08  0.10456217660098D-07  0.11630978263817D-07  0.12763877242141D-07  0.13793223120438D-07  0.14661522768445D-07  0.15319261161982D-07  0.15728364421810D-07
 0.15959500000000D+03  0.67434265537922D-08  0.75843648059005D-08  0.85927795927439D-08  0.97226897767171D-08  0.10919137713166D-07  0.12121144561263D-07  0.13265180464656D-07  0.14288967607714D-07  0.15135398679818D-07  0.15756328173428D-07
 0.15969500000000D+03  0.62922445810187D-08  0.70049860417007D-08  0.79162311457065D-08  0.89876700588206D-08  0.10170009263414D-07  0.11405475465442D-07  0.12630955910355D-07  0.13781622844130D-07  0.14794847897999D-07  0.15614178131904D-07
 0.15979500000000D+03  0.59432038310916D-08  0.65079607919912D-08  0.72957127734855D-08  0.82771240989229D-08  0.94102570632587D-08  0.10642546252633D-07  0.11913506342951D-07  0.13158054683376D-07  0.14310283356507D-07  0.15307474191177D-07
 0.15989500000000D+03  0.57082040397095D-08  0.61104561244096D-08  0.67528526206924D-08  0.76160121788738D-08  0.86667699858528D-08  0.98595639830326D-08  0.11138625017135D-07  0.12440888302317D-07  0.13699494119141D-07  0.14847699147529D-07
 0.15999500000000D+03  0.55951170254143D-08  0.58260806375078D-08  0.63064488031727D-08  0.70274241993445D-08  0.79657141023438D-08  0.90842907491534D-08  0.10333998286382D-07  0.11655960966133D-07  0.12984696699997D-07  0.14251790112740D-07
 0.16009500000000D+03  0.56075382465102D-08  0.56644368933937D-08  0.59718372323339D-08  0.65317893628970D-08  0.73316221926837D-08  0.83440613475018D-08  0.95282082552730D-08  0.10831372338078D-07  0.12191698222212D-07  0.13541478278515D-07
 0.16019500000000D+03  0.57446846530459D-08  0.56308137443587D-08  0.57603839088588D-08  0.61461859626142D-08  0.67865506308269D-08  0.76648283340396D-08  0.87497172359750D-08  0.99964676519904D-08  0.11348942872854D-07  0.12742464932059D-07
 0.16029500000000D+03  0.60014405738897D-08  0.57260268777423D-08  0.56791167000290D-08  0.58837727442814D-08  0.63493309465367D-08  0.70702665678495D-08  0.80258694607225D-08  0.91807906855930D-08  0.10486477860263D-07  0.11883466712827D-07
 0.16039500000000D+03  0.63685487645634D-08  0.59464111110595D-08  0.57305068818376D-08  0.57533589062134D-08  0.60349395877370D-08  0.65809665067809D-08  0.73819439107318D-08  0.84130434198617D-08  0.96348768066786D-08  0.10995166766883D-07
 0.16049500000000D+03  0.68329393114734D-08  0.62839632017106D-08  0.59124058339028D-08  0.57591250304699D-08  0.58540050405940D-08  0.62137418615975D-08  0.68402894930318D-08  0.77200879833417D-08  0.88241588516139D-08  0.10109110657386D-07
 0.16059500000000D+03  0.73781849461992D-08  0.67266293135854D-08  0.62181373591182D-08  0.59005022525008D-08  0.58124666669269D-08  0.59810728983186D-08  0.64195702757074D-08  0.71260240801981D-08  0.80827407781877D-08  0.92565866454326D-08
 0.16069500000000D+03  0.79850675620037D-08  0.72587269168307D-08  0.66367412887714D-08  0.61722119167623D-08  0.59113945457577D-08  0.58907018637490D-08  0.61341442379266D-08  0.66513717311844D-08  0.74364573201288D-08  0.84675293327272D-08
 0.16079500000000D+03  0.86322374249297D-08  0.78614868859443D-08  0.71533594446361D-08  0.65644629681619D-08  0.61469744078273D-08  0.59453918578012D-08  0.59935941694854D-08  0.63123849780615D-08  0.69076816039704D-08  0.77694837651782D-08
 0.16089500000000D+03  0.92969438040305D-08  0.85136979927630D-08  0.77497507680540D-08  0.70632995175070D-08  0.65106565704130D-08  0.61428551447414D-08  0.60024241321958D-08  0.61205173836948D-08  0.65145735905486D-08  0.71866640744701D-08
 0.16099500000000D+03  0.99558135691563D-08  0.91924329412208D-08  0.84049185864759D-08  0.76510865063021D-08  0.69894627463113D-08  0.64758515329089D-08  0.61599294356226D-08  0.60820548744196D-08  0.62704795754194D-08  0.67391367454576D-08
 0.16109500000000D+03  0.10585652769724D-07  0.98738326254923D-08  0.90958296530940D-08  0.83071172833937D-08  0.75664398356491D-08  0.69324521979345D-08  0.64602425389115D-08  0.61979258885182D-08  0.61835004670562D-08  0.64421538172842D-08
 0.16119500000000D+03  0.11164245353338D-07  0.10533923467293D-07  0.97982018366559D-08  0.90083232825444D-08  0.82212454206679D-08  0.74964593060058D-08  0.68925518158725D-08  0.64636930790016D-08  0.62562408618943D-08  0.63056559388634D-08
 0.16129500000000D+03  0.11671123038078D-07  0.11149441546313D-07  0.10487335217028D-07  0.97300629339375D-08  0.89308457682014D-08  0.81479671273061D-08  0.74414848481189D-08  0.68697251256958D-08  0.64857450486157D-08  0.63339593890376D-08
 0.16139500000000D+03  0.12088280935027D-07  0.11698636814225D-07  0.11138959907670D-07  0.10446964520568D-07  0.96703037867880D-08  0.88640461191413D-08  0.80876429649126D-08  0.74015416853283D-08  0.68636201643771D-08  0.65256351186689D-08
 0.16149500000000D+03  0.12400814834946D-07  0.12162031000915D-07  0.11730073218347D-07  0.11133795958190D-07  0.10413631658138D-07  0.96195277949353D-08  0.88082692398207D-08  0.80403192811989D-08  0.73763409461392D-08  0.68735817487375D-08
 0.16159500000000D+03  0.12597458118557D-07  0.12523103893378D-07  0.12239738818752D-07  0.11766333479792D-07  0.11134680827565D-07  0.10387865158647D-07  0.95780281821147D-08  0.87635411255173D-08  0.80057250118096D-08  0.73652884274322D-08
 0.16169500000000D+03  0.12670999002835D-07  0.12768884492300D-07  0.12649821383245D-07  0.12322200976187D-07  0.11808040745302D-07  0.11142041141803D-07  0.10369872011189D-07  0.95457695839272D-08  0.87295624963314D-08  0.79832776601194D-08
 0.16179500000000D+03  0.12618562257991D-07  0.12890426113263D-07  0.12945631792986D-07  0.12781652305365D-07  0.12409917239252D-07  0.11855495888185D-07  0.11155965748994D-07  0.10359516326307D-07  0.95223792713406D-08  0.87057128154266D-08
 0.16189500000000D+03  0.12441743564443D-07  0.12883147766949D-07  0.13116460334535D-07  0.13128270244224D-07  0.12918961696901D-07  0.12503042933386D-07  0.11908641470186D-07  0.11176182240935D-07  0.10356308994077D-07  0.95071501008268D-08
 0.16199500000000D+03  0.12146589247196D-07  0.12747028074768D-07  0.13155978437274D-07  0.13349557912608D-07  0.13317023354207D-07  0.13061744355197D-07  0.12601350961894D-07  0.11967036988024D-07  0.11202045948790D-07  0.10359410500115D-07
 0.16209500000000D+03  0.11743419124093D-07  0.12486642480620D-07  0.13062493291084D-07  0.13437401430595D-07  0.13589798932901D-07  0.13511715845284D-07  0.13209585801741D-07  0.12704206688287D-07  0.12029848135445D-07  0.11232543566772D-07
 0.16219500000000D+03  0.11246495506670D-07  0.12111039509980D-07  0.12839044114450D-07  0.13388386236774D-07  0.13727356619324D-07  0.13836834378416D-07  0.13711734488139D-07  0.13361637724583D-07  0.12810558386246D-07  0.12095852151026D-07
 0.16229500000000D+03  0.10673546844496D-07  0.11633457182292D-07  0.12493333811908D-07  0.13203953837894D-07  0.13724514904445D-07  0.14025323722078D-07  0.14089847760793D-07  0.13916005008333D-07  0.13516610497219D-07  0.12918945169997D-07
 0.16239500000000D+03  0.10045159928352D-07  0.11070886253663D-07  0.12037495152698D-07  0.12890390695212D-07  0.13581061051822D-07  0.14070196408704D-07  0.14330285626323D-07  0.14347534341834D-07  0.14122987482743D-07  0.13672784461219D-07
 0.16249500000000D+03  0.93840597657630D-08  0.10443492579930D-07  0.11487696276943D-07  0.12458646370584D-07  0.13301798850619D-07  0.13969534936252D-07  0.14424222830513D-07  0.14640710691368D-07  0.14608100114110D-07  0.14330691627260D-07
 0.16259500000000D+03  0.87143010002063D-08  0.97739163480831D-08  0.10863596121575D-07  0.11923983818544D-07  0.12896420740751D-07  0.13726599798862D-07  0.14367993551699D-07  0.14784847255573D-07  0.14954555891616D-07  0.14869281605568D-07
 0.16269500000000D+03  0.80603988415783D-08  0.90864710109408D-08  0.10187666060294D-07  0.11305470653820D-07  0.12379205235306D-07  0.13349757380100D-07  0.14163260862816D-07  0.14774494130098D-07  0.15149791508767D-07  0.15269291489476D-07
 0.16279500000000D+03  0.74464306923374D-08  0.84062692492311D-08  0.94843994536198D-08  0.10625326154405D-07  0.11768546650786D-07  0.12852226641003D-07  0.13817001930685D-07  0.14609670072038D-07  0.15186545662571D-07  0.15516275872479D-07
 0.16289500000000D+03  0.68951417897131D-08  0.77583069494340D-08  0.87794356756374D-08  0.99081444620237D-08  0.11086330299214D-07  0.12251649747989D-07  0.13341305869904D-07  0.14295906269277D-07  0.15063153689038D-07  0.15601143658190D-07
 0.16299500000000D+03  0.64270890683726D-08  0.71665388090371D-08  0.80986292874818D-08  0.91800196807326D-08  0.10357172282493D-07  0.11569498126306D-07  0.12752987494625D-07  0.13844097005755D-07  0.14783650876253D-07  0.15520515820220D-07
 0.16309500000000D+03  0.60598569540783D-08  0.66529805736365D-08  0.74670981352587D-08  0.84676031073682D-08  0.96075486224566D-08  0.10830331679494D-07  0.12073026733293D-07  0.13270158538537D-07  0.14357677318926D-07  0.15276888932641D-07
 0.16319500000000D+03  0.58073768600557D-08  0.62368729240101D-08  0.69082860547392D-08  0.77971264143231D-08  0.88648434110967D-08  0.10060934847339D-07  0.11325849977999D-07  0.12594504189406D-07  0.13800183688051D-07  0.14878595317749D-07
 0.16329500000000D+03  0.56793787771123D-08  0.59339405733071D-08  0.64430763964622D-08  0.71934270221944D-08  0.81563497238827D-08  0.92893585305801D-08  0.10538475894482D-07  0.11841350394700D-07  0.13130944124933D-07  0.14339557238497D-07
 0.16339500000000D+03  0.56809986068163D-08  0.57557771809309D-08  0.60889916250670D-08  0.66790129560105D-08  0.75082599663484D-08  0.85439014308390D-08  0.97395539642399D-08  0.11037875016064D-07  0.12373889426115D-07  0.13678839530702D-07
 0.16349500000000D+03  0.58125589452009D-08  0.57093822947370D-08  0.58595117446754D-08  0.62732040317019D-08  0.69446839094990D-08  0.78520677867739D-08  0.89583289999131D-08  0.10213255332830D-07  0.11556280530119D-07  0.12920012224771D-07
 0.16359500000000D+03  0.60695341200813D-08  0.57968708336272D-08  0.57635402846890D-08  0.59913841909581D-08  0.64867327468406D-08  0.72395406031078D-08  0.82235688049012D-08  0.93976185411925D-08  0.10707748788772D-07  0.12090341816154D-07
 0.16369500000000D+03  0.64427027225154D-08  0.60153688364858D-08  0.58050411586379D-08  0.58443961913147D-08  0.61517059698501D-08  0.67292100790132D-08  0.75624947919779D-08  0.86209420014414D-08  0.98592353277437D-08  0.11219836648595D-07
 0.16379500000000D+03  0.69184830075636D-08  0.63571016219787D-08  0.59828630791155D-08  0.58381047485281D-08  0.59524146797659D-08  0.63402959147528D-08  0.69997565227818D-08  0.79119436408503D-08  0.90418666893959D-08  0.10340178093868D-07
 0.16389500000000D+03  0.74794387569046D-08  0.68096724773042D-08  0.62907606501063D-08  0.59731477929184D-08  0.58966701880416D-08  0.60875994522867D-08  0.65564906233312D-08  0.72970046053188D-08  0.82858076307783D-08  0.94835745554988D-08
 0.16399500000000D+03  0.81049358876867D-08  0.73565219119869D-08  0.67176131067469D-08  0.62448879982507D-08  0.59869605533828D-08  0.59809172143964D-08  0.62495022835427D-08  0.67991662757743D-08  0.76191341708784D-08  0.86815795045934D-08
 0.16409500000000D+03  0.87719236305142D-08  0.79775497797563D-08  0.72478333223573D-08  0.66435685030535D-08  0.62203302976614D-08  0.60246414687717D-08  0.60906035595592D-08  0.64372420111138D-08  0.70667705387794D-08  0.79639175065408D-08
 0.16419500000000D+03  0.94558088129373D-08  0.86498755809552D-08  0.78619515684983D-08  0.71546681591137D-08  0.65884702553090D-08  0.62175661738664D-08  0.60861370595746D-08  0.62250804170792D-08  0.66495324264939D-08  0.73573632907342D-08
 0.16429500000000D+03  0.10131387936051D-07  0.93487063662318D-08  0.85373510087411D-08  0.77594431332829D-08  0.70780157257617D-08  0.65529083656618D-08  0.62367064980183D-08  0.61710116340377D-08  0.63833158364307D-08  0.68847181836550D-08
 0.16439500000000D+03  0.10773799501647D-07  0.10048277165405D-07  0.92491254143062D-08  0.84356336869398D-08  0.76710422445594D-08  0.70185460963699D-08  0.65371273348016D-08  0.62775012515092D-08  0.62784658682366D-08  0.65639255790695D-08
 0.16449500000000D+03  0.11359458524498D-07  0.10722825979767D-07  0.99710244384394D-08  0.91583078716404D-08  0.83457398110799D-08  0.75974648684852D-08  0.69766016434710D-08  0.65410282583320D-08  0.63393531510256D-08  0.64073625621906D-08
 0.16459500000000D+03  0.11866936342163D-07  0.11347564225869D-07  0.10676448228852D-07  0.99008080705787D-08  0.90772387428283D-08  0.82683955783260D-08  0.75391119051107D-08  0.69521942794866D-08  0.65641775369983D-08  0.64213384466682D-08
 0.16469500000000D+03  0.12277751615003D-07  0.11899604130142D-07  0.11339451354617D-07  0.10635762072309D-07  0.98385538599023D-08  0.90066187475752D-08  0.82040190714542D-08  0.74960616610060D-08  0.69450094705786D-08  0.66058230417692D-08
 0.16479500000000D+03  0.12577042612260D-07  0.12358806876469D-07  0.11935716036478D-07  0.11336117884408D-07  0.10601608763928D-07  0.97849027016905D-08  0.89468414560541D-08  0.81527082178744D-08  0.74680695542645D-08  0.69544182633524D-08
 0.16489500000000D+03  0.12754096260042D-07  0.12708519144798D-07  0.12443456457671D-07  0.11976160877693D-07  0.11338298800655D-07  0.10574537711631D-07  0.97401832475489D-08  0.88979771489362D-08  0.81142367272041D-08  0.74545766476173D-08
 0.16499500000000D+03  0.12802715689964D-07  0.12936170816132D-07  0.12844219362109D-07  0.12532473088986D-07  0.12021550019906D-07  0.11346424226607D-07  0.10554775090661D-07  0.97043922254666D-08  0.88597656623280D-08  0.80880599007473D-08
 0.16509500000000D+03  0.12721414851468D-07  0.13033712769958D-07  0.13123551002457D-07  0.12984797494665D-07  0.12626332098088D-07  0.12072171365295D-07  0.11360584564527D-07  0.10542201307239D-07  0.96771849752823D-08  0.88316203394491D-08
 0.16519500000000D+03  0.12513435807349D-07  0.12997880541265D-07  0.13271506503035D-07  0.13316774601990D-07  0.13130585688617D-07  0.12725161865366D-07  0.12127951719657D-07  0.11380505887087D-07  0.10536340087582D-07  0.96578784718797D-08
 0.16529500000000D+03  0.12186591302854D-07  0.12830276798379D-07  0.13282984528833D-07  0.13516524521897D-07  0.13516028839587D-07  0.13281541669327D-07  0.12828704217034D-07  0.12188430968847D-07  0.11405538491796D-07  0.10536361531145D-07
 0.16539500000000D+03  0.11752941792880D-07  0.12537272817833D-07  0.13157877457917D-07  0.13577054465327D-07  0.13768812710766D-07  0.13721096098390D-07  0.13437208032730D-07  0.12936288287371D-07  0.12252751026961D-07  0.11434660937186D-07
 0.16549500000000D+03  0.11228322077860D-07  0.12129736059373D-07  0.12901034695013D-07  0.13496478995704D-07  0.13880003517904D-07  0.14027979895913D-07  0.13931313025560D-07  0.13596686706175D-07  0.13046820772684D-07  0.12319661768478D-07
 0.16559500000000D+03  0.10631737833302D-07  0.11622597310298D-07  0.12522044012100D-07  0.13278048015573D-07  0.13845875078236D-07  0.14191274999709D-07  0.14293157693285D-07  0.14145546484812D-07  0.13758631372034D-07  0.13158794600212D-07
 0.16569500000000D+03  0.99846564699630D-08  0.11034276448327D-07  0.12034842563887D-07  0.12929985021471D-07  0.13668004159052D-07  0.14205357373133D-07  0.14509803865593D-07  0.14562978794862D-07  0.14362188935171D-07  0.13921259612449D-07
 0.16579500000000D+03  0.93102198341237D-08  0.10385990492922D-07  0.11457175253833D-07  0.12465145313146D-07  0.13353168680188D-07  0.14070062211207D-07  0.14573679545436D-07  0.14833998093841D-07  0.14835575982455D-07  0.14579174663416D-07
 0.16589500000000D+03  0.86324082052187D-08  0.97009711589842D-08  0.10809923224248D-07  0.11900510320044D-07  0.12913056355905D-07  0.13790644963068D-07  0.14482816228867D-07  0.14949042388678D-07  0.15161741885674D-07  0.15108602911528D-07
 0.16599500000000D+03  0.79751858733575D-08  0.90036215300510D-08  0.10116329272425D-07  0.11256539790179D-07  0.12363798287026D-07  0.13377543519863D-07  0.14240875415810D-07  0.14904284643406D-07  0.15329101612464D-07  0.15490421300459D-07
 0.16609500000000D+03  0.73616583255861D-08  0.83186427169660D-08  0.94011498701387D-08  0.10556408111780D-07  0.11725348086835D-07  0.12845954289188D-07  0.13856967293739D-07  0.14701727204100D-07  0.15331922876523D-07  0.15710998455690D-07
 0.16619500000000D+03  0.68132698149194D-08  0.76701614932250D-08  0.86897651554144D-08  0.98251544020186D-08  0.11020732157889D-07  0.12215241444817D-07  0.13345272390875D-07  0.14349079731709D-07  0.15170490627209D-07  0.15762658881084D-07
 0.16629500000000D+03  0.63490679348253D-08  0.70808889679742D-08  0.80072787901820D-08  0.90887781505505D-08  0.10275200605032D-07  0.11508204192810D-07  0.12724484060963D-07  0.13859429384395D-07  0.14851046761591D-07  0.15643919361595D-07
 0.16639500000000D+03  0.59850588979181D-08  0.65713384700796D-08  0.73776389926711D-08  0.83733131504571D-08  0.95153109039938D-08  0.10750231282213D-07  0.12017095741386D-07  0.13250719554895D-07  0.14385511620360D-07  0.15359492740435D-07
 0.16649500000000D+03  0.57336736576155D-08  0.61591280920769D-08  0.68228104499841D-08  0.77039122310905D-08  0.87679778304370D-08  0.99683751213498D-08  0.11248561846008D-07  0.12545060082269D-07  0.13791001889555D-07  0.14920063332912D-07
 0.16659500000000D+03  0.56033609582670D-08  0.58583899165738D-08  0.63620243100707D-08  0.71039740087599D-08  0.80595233240985D-08  0.91903797068580D-08  0.10446364802528D-07  0.11767897321228D-07  0.13089166682367D-07  0.14341846791543D-07
 0.16669500000000D+03  0.55983189968061D-08  0.56793039637356D-08  0.60111301771117D-08  0.65943406028833D-08  0.74147589898025D-08  0.84436971511291D-08  0.96390230701619D-08  0.10947076631777D-07  0.12305369593101D-07  0.13645954929602D-07
 0.16679500000000D+03  0.57183727683604D-08  0.56277705037843D-08  0.57820701347698D-08  0.61925921587301D-08  0.68561319263722D-08  0.77545269672920D-08  0.88550759809470D-08  0.10111832675889D-07  0.11467749239743D-07  0.12857592589241D-07
 0.16689500000000D+03  0.59589994842477D-08  0.57052297182905D-08  0.56824904474619D-08  0.59124602181547D-08  0.64029616545693D-08  0.71469105373040D-08  0.81220809880003D-08  0.92917443636496D-08  0.10606194150068D-07  0.12005118921240D-07
 0.16699500000000D+03  0.63114998196740D-08  0.59086329085470D-08  0.57155018902626D-08  0.57633776387656D-08  0.60707922309172D-08  0.66419104732845D-08  0.74656574669896D-08  0.85156914175048D-08  0.97512697684243D-08  0.11119009311222D-07
 0.16709500000000D+03  0.67633082863944D-08  0.62305646707375D-08  0.58795947787180D-08  0.57501780333857D-08  0.58708793397531D-08  0.62569010290574D-08  0.69086087237966D-08  0.78108484014731D-08  0.89331358912685D-08  0.10230756592623D-07
 0.16719500000000D+03  0.72984318378889D-08  0.66595108085536D-08  0.61687098490868D-08  0.58729527362318D-08  0.58098274086642D-08  0.60049914839537D-08  0.64701504548755D-08  0.72017498084834D-08  0.81804920513560D-08  0.93717511400722D-08
 0.16729500000000D+03  0.78980019952163D-08  0.71802623461920D-08  0.65724613065325D-08  0.61270682445796D-08  0.58893867487437D-08  0.58945996656192D-08  0.61652697446105D-08  0.67094565546237D-08  0.75195863733346D-08  0.85721789997145D-08
 0.16739500000000D+03  0.85409224134191D-08  0.77744419388312D-08  0.70765037321954D-08  0.65033420707666D-08  0.61064155318239D-08  0.59291876644154D-08  0.60042339311000D-08  0.63508501527135D-08  0.69733203564838D-08  0.78599754890159D-08
 0.16749500000000D+03  0.92045909629254D-08  0.84211353428870D-08  0.76630302272267D-08  0.69883700948960D-08  0.64530062249700D-08  0.61071664764245D-08  0.59922634951305D-08  0.61380760977909D-08  0.65604780629173D-08  0.72598688240437D-08
 0.16759500000000D+03  0.98656731389962D-08  0.90976074825077D-08  0.83113852685859D-08  0.75649939480101D-08  0.69167710410714D-08  0.64219709452625D-08  0.61293776907022D-08  0.60781527660599D-08  0.62951034735755D-08  0.67925444669070D-08
 0.16769500000000D+03  0.10500901985738D-07  0.97800800989031D-08  0.89987723420166D-08  0.82128927815608D-08  0.74812761552064D-08  0.68623010954892D-08  0.64104160969295D-08  0.61727565773561D-08  0.61860444973590D-08  0.64739562049649D-08
 0.16779500000000D+03  0.11087878770268D-07  0.10444546051644D-07  0.97010335752441D-08  0.89092800827729D-08  0.81266099896511D-08  0.74125208919762D-08  0.68252337789946D-08  0.64181884644877D-08  0.62366764583502D-08  0.63148046593931D-08
 0.16789500000000D+03  0.11605848397770D-07  0.11067594102079D-07  0.10393476381307D-07  0.96296830564652D-08  0.88300668840261D-08  0.80532007378612D-08  0.73590624377414D-08  0.68055209876232D-08  0.64448120153439D-08  0.63201981581859D-08
 0.16799500000000D+03  0.12036424039279D-07  0.11627217484168D-07  0.11051720589582D-07  0.10348779580304D-07  0.95669240273073D-08  0.87617857441216D-08  0.79930249291466D-08  0.73209198742586D-08  0.68027985520083D-08  0.64895048787949D-08
 0.16809500000000D+03  0.12364236659505D-07  0.12103579782342D-07  0.11652538731464D-07  0.11041265909548D-07  0.10311286709787D-07  0.95133680595224D-08  0.87047859594661D-08  0.79461284892544D-08  0.72977982697050D-08  0.68163990422187D-08
 0.16819500000000D+03  0.12577487077412D-07  0.12479712602961D-07  0.12174662088921D-07  0.11682727205437D-07  0.11036974818666D-07  0.10281538421805D-07  0.94693177098261D-08  0.86590988662040D-08  0.79122406610052D-08  0.72890978872602D-08
 0.16829500000000D+03  0.12668380848894D-07  0.12742121246643D-07  0.12599525825966D-07  0.12250482623804D-07  0.11718422102662D-07  0.11039289648690D-07  0.10259755703316D-07  0.94347485691348D-08  0.86244318698918D-08  0.78907803225374D-08
 0.16839500000000D+03  0.12633429593281D-07  0.12881277049843D-07  0.12911928011675D-07  0.12724377150979D-07  0.12331559109341D-07  0.11759943088095D-07  0.11048317473767D-07  0.10245818897261D-07  0.94093007706255D-08  0.86001726830452D-08
 0.16849500000000D+03  0.12473606339200D-07  0.12891978236188D-07  0.13100579600906D-07  0.13087493623980D-07  0.12854650882683D-07  0.12418068136736D-07  0.11807254591695D-07  0.11063806877261D-07  0.10239257523679D-07  0.93922820319546D-08
 0.16859500000000D+03  0.12194346965033D-07  0.12773564953073D-07  0.13158525441686D-07  0.13326760418753D-07  0.13269061513927D-07  0.12990364848846D-07  0.12509807400528D-07  0.11859941176638D-07  0.11085136982808D-07  0.10239253056930D-07
 0.16869500000000D+03  0.11805394755482D-07  0.12529978597746D-07  0.13083420084131D-07  0.13433433115638D-07  0.13559919468616D-07  0.13456480413251D-07  0.13131131454043D-07  0.12606170574661D-07  0.11917196707570D-07  0.11111320909280D-07
 0.16879500000000D+03  0.11320490364559D-07  0.12169660466761D-07  0.12877646511998D-07  0.13403432018985D-07  0.13716660253869D-07  0.13799731884909D-07  0.13649165149820D-07  0.13276132988033D-07  0.12706137542482D-07  0.11977829405292D-07
 0.16889500000000D+03  0.10756914916755D-07  0.11705290075216D-07  0.12548270818011D-07  0.13237521661160D-07  0.13733426411635D-07  0.14007710008213D-07  0.14045409435511D-07  0.13846073297220D-07  0.13424113806148D-07  0.12808281919616D-07
 0.16899500000000D+03  0.10134899417912D-07  0.11153369043005D-07  0.12106831186185D-07  0.12941323279839D-07  0.13609308974868D-07  0.14072742238310D-07  0.14305592721468D-07  0.14295679372741D-07  0.14045700126071D-07  0.13573391104128D-07
 0.16909500000000D+03  0.94769188894248D-08  0.10533662063919D-07  0.11568965189255D-07  0.12525156615787D-07  0.13348419330241D-07  0.13992197107919D-07  0.14420197244086D-07  0.14608807759770D-07  0.14548782878080D-07  0.14246093301448D-07
 0.16919500000000D+03  0.88068944714646D-08  0.98685119653851D-08  0.10953885190922D-07  0.12003713102856D-07  0.12959785793285D-07  0.13768616832234D-07  0.14384827048727D-07  0.14774073427780D-07  0.14915346048412D-07  0.14802494214866D-07
 0.16929500000000D+03  0.81493309422311D-08  0.91820510184388D-08  0.10283717368874D-07  0.11395568451060D-07  0.12457074992245D-07  0.13409670399610D-07  0.14200402436255D-07  0.14785281794156D-07  0.15132124119342D-07  0.15222714054465D-07
 0.16939500000000D+03  0.75284204516600D-08  0.84993352434702D-08  0.95827253315075D-08  0.10722548568464D-07  0.11858144218685D-07  0.12927925238967D-07  0.13873171054910D-07  0.14641685828625D-07  0.15191098254493D-07  0.15491602994317D-07
 0.16949500000000D+03  0.69671455650556D-08  0.78454322492356D-08  0.88764442597093D-08  0.10008968514784D-07  0.11184437050683D-07  0.12340441734691D-07  0.13414531703061D-07  0.14348056356190D-07  0.15089816574247D-07  0.15599301320281D-07
 0.16959500000000D+03  0.64864157785432D-08  0.72444959224954D-08  0.81907557288801D-08  0.92807694971849D-08  0.10460240576279D-07  0.11668201194846D-07  0.12840673192136D-07  0.13914559589020D-07  0.14831524586969D-07  0.15541623072795D-07
 0.16969500000000D+03  0.61042713710540D-08  0.67188628591320D-08  0.75509366252981D-08  0.85645835642262D-08  0.97118282071998D-08  0.10935384158942D-07  0.12172037125583D-07  0.13356442291569D-07  0.14425097772391D-07  0.15320247220835D-07
 0.16979500000000D+03  0.58351867207373D-08  0.62882056396182D-08  0.69807176536692D-08  0.78867593859460D-08  0.89665171281074D-08  0.10168521923158D-07  0.11432619972080D-07  0.12693531645410D-07  0.13884774763655D-07  0.14942706340903D-07
 0.16989500000000D+03  0.56895020300668D-08  0.59687768010347D-08  0.65013876629747D-08  0.72723850997497D-08  0.82516736235912D-08  0.93955496122178D-08  0.10649136115579D-07  0.11949563627329D-07  0.13229696376428D-07  0.14422169287868D-07
 0.16999500000000D+03  0.56730078432009D-08  0.57727746103926D-08  0.61309792695287D-08  0.67443454565905D-08  0.75937026227969D-08  0.86447937786455D-08  0.98500693966648D-08  0.11151360313425D-07  0.12483262687245D-07  0.13777021269740D-07
 0.17009500000000D+03  0.57867009512787D-08  0.57078575427624D-08  0.58835689684046D-08  0.63224502697570D-08  0.70170595842886D-08  0.79439311080226D-08  0.90646457531011D-08  0.10327882717379D-07  0.11672327238361D-07  0.13030251880326D-07
 0.17019500000000D+03  0.60267234936712D-08  0.57768288379346D-08  0.57687211125127D-08  0.60226693614432D-08  0.65433231381093D-08  0.73189571196629D-08  0.83217636568495D-08  0.95091912910174D-08  0.10826253986205D-07  0.12208668774456D-07
 0.17029500000000D+03  0.63844895716576D-08  0.59775058580748D-08  0.57910999018923D-08  0.58565058075646D-08  0.61903655935009D-08  0.67932045802595D-08  0.76489218807001D-08  0.87253507847108D-08  0.99758685395951D-08  0.11341961533954D-07
 0.17039500000000D+03  0.68469958450081D-08  0.63027814779499D-08  0.59502670489661D-08  0.58305343710833D-08  0.59716554684463D-08  0.63864505529896D-08  0.70711854932799D-08  0.80053195195965D-08  0.91523402686789D-08  0.10461646590706D-07
 0.17049500000000D+03  0.73973047642925D-08  0.67408767519582D-08  0.62406753339657D-08  0.59461257490774D-08  0.58957216450741D-08  0.61141485170666D-08  0.66102307109154D-08  0.73758650268278D-08  0.83860357287775D-08  0.95999295559433D-08
 0.17059500000000D+03  0.80151816947417D-08  0.72757760037687D-08  0.66518601727477D-08  0.61993698854942D-08  0.59658027379570D-08  0.59868178279384D-08  0.62835072313298D-08  0.68605482712236D-08  0.77053862804748D-08  0.87885256635529D-08
 0.17069500000000D+03  0.86778605876328D-08  0.78878276788243D-08  0.71688229720668D-08  0.65812034427009D-08  0.61796980060110D-08  0.60096170541016D-08  0.61035529233513D-08  0.64788171729857D-08  0.71358135858320D-08  0.80574819989956D-08
 0.17079500000000D+03  0.93609073881964D-08  0.85544871839093D-08  0.77725918582486D-08  0.70777379630494D-08  0.65298279516534D-08  0.61821206253535D-08  0.60774903282851D-08  0.62452468280865D-08  0.66987556688985D-08  0.74340465204184D-08
 0.17089500000000D+03  0.10039146307960D-07  0.92511718745027D-08  0.84409377489579D-08  0.76707767065655D-08  0.70035040099543D-08  0.64983100511746D-08  0.62067275200199D-08  0.61689587559474D-08  0.64108333740136D-08  0.69416284073238D-08
 0.17099500000000D+03  0.10687611627233D-07  0.99521936453134D-08  0.91492170835661D-08  0.83385000534866D-08  0.75833978595378D-08  0.69467820852520D-08  0.64868777451500D-08  0.62532448233062D-08  0.62831923584633D-08  0.65988918933073D-08
 0.17109500000000D+03  0.11282486931914D-07  0.10631731460586D-07  0.98713071731940D-08  0.90562921245030D-08  0.82481923306429D-08  0.75111670478960D-08  0.69079032786116D-08  0.64954134571879D-08  0.63210493401592D-08  0.64190214434742D-08
 0.17119500000000D+03  0.11801994634530D-07  0.11264804765936D-07  0.10580596340992D-07  0.97976752663214D-08  0.89733880806552D-08  0.81707415281302D-08  0.74544795077976D-08  0.68868667109255D-08  0.65234634141528D-08  0.64091900185231D-08
 0.17129500000000D+03  0.12227201196390D-07  0.11828209092456D-07  0.11250988970878D-07  0.10535314575655D-07  0.97322335531449D-08  0.89012113290236D-08  0.81065658631381D-08  0.74134071037382D-08  0.68833441806552D-08  0.65702544287436D-08
 0.17139500000000D+03  0.12542707486889D-07  0.12301377239471D-07  0.11857885343727D-07  0.11242051902959D-07  0.10496740568856D-07  0.96756332220528D-08  0.88401613217348D-08  0.80557633863364D-08  0.73876986025710D-08  0.68966927298061D-08
 0.17149500000000D+03  0.12737198949413D-07  0.12667133057948D-07  0.12379097687798D-07  0.11891927899908D-07  0.11238744466678D-07  0.10465438210207D-07  0.96282142790428D-08  0.87903149844115D-08  0.80181084047679D-08  0.73767886482339D-08
 0.17159500000000D+03  0.12803836402512D-07  0.12912309829434D-07  0.12795667083351D-07  0.12461151658938D-07  0.11930966169445D-07  0.11241514854562D-07  0.10441650017666D-07  0.95899863205523D-08  0.87514199456449D-08  0.79930576195972D-08
 0.17169500000000D+03  0.12740475071135D-07  0.13028211264231D-07  0.13092550534707D-07  0.12928980244912D-07  0.12548033935893D-07  0.11975308984806D-07  0.11250474130580D-07  0.10425274952483D-07  0.95606193392975D-08  0.87228986921986D-08
 0.17179500000000D+03  0.12549706486478D-07  0.13010899907929D-07  0.13259153384874D-07  0.13278474753227D-07  0.13067424812140D-07  0.12639895870420D-07  0.12024907308745D-07  0.11265371858979D-07  0.10415857655177D-07  0.95394468194837D-08
 0.17189500000000D+03  0.12238724893858D-07  0.12861304910661D-07  0.13289688980188D-07  0.13497105185704D-07  0.13470289751445D-07  0.13210982644173D-07  0.12736505998912D-07  0.12079328525948D-07  0.11285584677422D-07  0.10412591437336D-07
 0.17199500000000D+03  0.11819026470548D-07  0.12585148344775D-07  0.13183354752741D-07  0.13577183101057D-07  0.13742131784595D-07  0.13667802306617D-07  0.13359224579542D-07  0.12837223893439D-07  0.12137745281368D-07  0.11310120141145D-07
 0.17209500000000D+03  0.11305955722024D-07  0.12192696240670D-07  0.12944321330352D-07  0.13516108323745D-07  0.13873313186654D-07  0.13993865771316D-07  0.13870377782435D-07  0.13511284759663D-07  0.12940990181527D-07  0.12198941097283D-07
 0.17219500000000D+03  0.10718118685102D-07  0.11698346969171D-07  0.12581538577050D-07  0.13316423626141D-07  0.13859374949540D-07  0.14177544835536D-07  0.14251466896933D-07  0.14076915822690D-07  0.13665852702457D-07  0.13046334788800D-07
 0.17229500000000D+03  0.10076686861805D-07  0.11120075299384D-07  0.12108369312503D-07  0.12985678887082D-07  0.13701159666852D-07  0.14212466330198D-07  0.14488839543010D-07  0.14513599988684D-07  0.14285845276848D-07  0.13821184925423D-07
 0.17239500000000D+03  0.94046190338945D-08  0.10478755223184D-07  0.11542067601435D-07  0.12536113455272D-07  0.13404736804254D-07  0.14097705640434D-07  0.14574160141048D-07  0.14805635611631D-07  0.14778433423558D-07  0.14495139834409D-07
 0.17249500000000D+03  0.87258302127341D-08  0.97973883358521D-08  0.10903123740639D-07  0.11984172030894D-07  0.12981136925657D-07  0.13837775915866D-07  0.14504676257327D-07  0.14942684609188D-07  0.15125850742625D-07  0.15043659259239D-07
 0.17259500000000D+03  0.80643379584728D-08  0.91002671257829D-08  0.10214502254233D-07  0.11349875096140D-07  0.12445908471194D-07  0.13442417247763D-07  0.14283274373022D-07  0.14920113535456D-07  0.15315725646669D-07  0.15446906986875D-07
 0.17269500000000D+03  0.74434161945660D-08  0.84121039343133D-08  0.95008022461611D-08  0.10656069604852D-07  0.11818516886415D-07  0.12926197553829D-07  0.13918326931091D-07  0.14739118279049D-07  0.15341498738425D-07  0.15690456772527D-07
 0.17279500000000D+03  0.68847855220442D-08  0.77571566245380D-08  0.87873713148061D-08  0.99275891706809D-08  0.11121611088889D-07  0.12307943604668D-07  0.13423340412035D-07  0.14406631695398D-07  0.15202618526266D-07  0.15765787242762D-07
 0.17289500000000D+03  0.64078670039194D-08  0.71583812089413D-08  0.80994049185673D-08  0.91903553155250D-08  0.10380186293624D-07  0.11610026329503D-07  0.12816421374417D-07  0.13935021804368D-07  0.14904512126676D-07  0.15670550407394D-07
 0.17299500000000D+03  0.60291235654525D-08  0.66366399241686D-08  0.74610626457116D-08  0.84704524507648D-08  0.96206750260707D-08  0.10857529094269D-07  0.12119583624403D-07  0.13341595860650D-07  0.14458336340497D-07  0.15408607664256D-07
 0.17309500000000D+03  0.57615096758000D-08  0.62099906249791D-08  0.68946313732769D-08  0.77932092028986D-08  0.88699997092742D-08  0.10077330955161D-07  0.11357924767241D-07  0.12647932363485D-07  0.13880522654805D-07  0.14989836321618D-07
 0.17319500000000D+03  0.56140459831155D-08  0.58930800320513D-08  0.64197629111914D-08  0.71823175404797D-08  0.81546205466281D-08  0.92971389153851D-08  0.10558704222754D-07  0.11879068705214D-07  0.13192137015628D-07  0.14429718310960D-07
 0.17329500000000D+03  0.55915312126423D-08  0.56966594529885D-08  0.60528105507897D-08  0.66590190180232D-08  0.74996116017582D-08  0.85445039644073D-08  0.97503572973963D-08  0.11062576521537D-07  0.12418081403031D-07  0.13748730591385D-07
 0.17339500000000D+03  0.56943990473682D-08  0.56272372493981D-08  0.58062851150931D-08  0.62413844539209D-08  0.69277961030746D-08  0.78458552145458D-08  0.89614810937999D-08  0.10227559820484D-07  0.11586169150931D-07  0.12971563493097D-07
 0.17349500000000D+03  0.59187230292285D-08  0.56868776910701D-08  0.56884467908063D-08  0.59437096468740D-08  0.64589691984203D-08  0.72255848628192D-08  0.82198279500254D-08  0.94036126114136D-08  0.10726109487968D-07  0.12126198716835D-07
 0.17359500000000D+03  0.62563678732060D-08  0.58731510620774D-08  0.57030443587447D-08  0.57760454602995D-08  0.61092327979593D-08  0.67052141185167D-08  0.75513408203778D-08  0.86197730620838D-08  0.98684388941513D-08  0.11242882774422D-07
 0.17369500000000D+03  0.66952810946185D-08  0.61792350965214D-08  0.58492085765610D-08  0.57438759202446D-08  0.58904629242146D-08  0.63026667908949D-08  0.69792626547851D-08  0.79035102569337D-08  0.90434375886704D-08  0.10353034264569D-07
 0.17379500000000D+03  0.72199146182295D-08  0.65941631476779D-08  0.61215015446798D-08  0.58479530309645D-08  0.58099252943770D-08  0.60316730815046D-08  0.65233485448126D-08  0.72797775251578D-08  0.82800688532995D-08  0.94881245303887D-08
 0.17389500000000D+03  0.78117621621242D-08  0.71032100468222D-08  0.65101190338391D-08  0.60842919591109D-08  0.58700498482549D-08  0.59013214328478D-08  0.61992053372867D-08  0.67701631910417D-08  0.76049770586596D-08  0.86785709954806D-08
 0.17399500000000D+03  0.84499947538683D-08  0.76884024891505D-08  0.70012380907196D-08  0.64443252097365D-08  0.60683697574051D-08  0.59157712111644D-08  0.60177787355989D-08  0.63921656281937D-08  0.70415773329123D-08  0.79526809225730D-08
 0.17409500000000D+03  0.91121738145953D-08  0.83291370846998D-08  0.75774978757806D-08  0.69152095422184D-08  0.63976252512775D-08  0.60741337043442D-08  0.59850027809866D-08  0.61586148412666D-08  0.66092659512782D-08  0.73356806146648D-08
 0.17419500000000D+03  0.97750189009545D-08  0.90028860114485D-08  0.82185977220003D-08  0.74802747678071D-08  0.68460275091153D-08  0.63705235476266D-08  0.61016211961274D-08  0.60772576255920D-08  0.63227759007196D-08  0.68488613405938D-08
 0.17429500000000D+03  0.10415205477562D-07  0.96859675743832D-08  0.89019929206848D-08  0.81195993372100D-08  0.73976730153404D-08  0.67942773919189D-08  0.63631845399126D-08  0.61505178380898D-08  0.61916968643262D-08  0.65088686882533D-08
 0.17439500000000D+03  0.11010167045856D-07  0.10354356966113D-07  0.96036658154887D-08  0.88106938590828D-08  0.80330942729248D-08  0.73303315334422D-08  0.67602216151953D-08  0.63754376180613D-08  0.62201732522537D-08  0.63271568114372D-08
 0.17449500000000D+03  0.11538875610977D-07  0.10984511189103D-07  0.10298947482020D-07  0.95292704696269D-08  0.87299287135727D-08  0.79597454483802D-08  0.72785782298830D-08  0.67437996820930D-08  0.64067880544395D-08  0.63096233250711D-08
 0.17459500000000D+03  0.11982574847903D-07  0.11554181473903D-07  0.10963363640892D-07  0.10250073369436D-07  0.94636841231981D-08  0.86603538294088D-08  0.78999113633686D-08  0.72424252308909D-08  0.67446343711834D-08  0.64564346002124D-08
 0.17469500000000D+03  0.12325441441551D-07  0.12043186638402D-07  0.11573477539270D-07  0.10947743915070D-07  0.10208575992325D-07  0.94075258973095D-08  0.86023221498706D-08  0.78536366832060D-08  0.72215706473612D-08  0.67620450897540D-08
 0.17479500000000D+03  0.12555151920464D-07  0.12434121695307D-07  0.12107702371502D-07  0.11597692447410D-07  0.10938409968329D-07  0.10175007543043D-07  0.93611069600618D-08  0.85558695161260D-08  0.78206500389875D-08  0.72154082435534D-08
 0.17489500000000D+03  0.12663334863348D-07  0.12712977631566D-07  0.12547056413653D-07  0.12176948593478D-07  0.11627481083304D-07  0.10935819314519D-07  0.10149602332027D-07  0.93244130518700D-08  0.85207091085455D-08  0.78003707011959D-08
 0.17499500000000D+03  0.12645891599088D-07  0.12869650643197D-07  0.12875835427635D-07  0.12664962118623D-07  0.12251460699895D-07  0.11663181457012D-07  0.10940096649343D-07  0.10132256185649D-07  0.92970962959515D-08  0.84962359220591D-08
 0.17509500000000D+03  0.12503172392501D-07  0.12898322184874D-07  0.13082179042550D-07  0.13044327544709D-07  0.12788242188202D-07  0.12331436194132D-07  0.11704779352944D-07  0.10951010881010D-07  0.10122516449512D-07  0.92784783520698D-08
 0.17519500000000D+03  0.12239999537369D-07  0.12797694940230D-07  0.13158510722246D-07  0.13301407686882D-07  0.13218717237849D-07  0.12916937233101D-07  0.12416697157246D-07  0.11751883839394D-07  0.10967964216442D-07  0.10119584746574D-07
 0.17529500000000D+03  0.11865533669452D-07  0.12571074170185D-07  0.13101834539710D-07  0.13426833980573D-07  0.13527456425224D-07  0.13398877116703D-07  0.13050686260387D-07  0.12506665137733D-07  0.11803716362648D-07  0.10989995466769D-07
 0.17539500000000D+03  0.11392984844634D-07  0.12226288763192D-07  0.12913876240898D-07  0.13415864938003D-07  0.13703270185808D-07  0.13760024534075D-07  0.13584249921074D-07  0.13188701867401D-07  0.12600351180435D-07  0.11859115526682D-07
 0.17549500000000D+03  0.10839175354693D-07  0.11775451578743D-07  0.12601060909866D-07  0.13268588235892D-07  0.13739629657474D-07  0.13987346037806D-07  0.13998352034488D-07  0.13773824932049D-07  0.13329762101052D-07  0.12696362958230D-07
 0.17559500000000D+03  0.10223966704507D-07  0.11234564202875D-07  0.12174324835504D-07  0.12989956716433D-07  0.13634930914474D-07  0.14072489772492D-07  0.14278099475871D-07  0.14241198189270D-07  0.13966132493509D-07  0.13472220738774D-07
 0.17569500000000D+03  0.95695684564084D-08  0.10622976854683D-07  0.11648764792378D-07  0.12589653879878D-07  0.13392590832881D-07  0.14012112757495D-07  0.14413288974647D-07  0.14574061054942D-07  0.14486839424462D-07  0.14159258130245D-07
 0.17579500000000D+03  0.88997515495220D-08  0.99627197048390D-08  0.11043133721749D-07  0.12081790129847D-07  0.13020968120413D-07  0.13808037919089D-07  0.14398798096728D-07  0.14760338515740D-07  0.14873255883481D-07  0.14733087837758D-07
 0.17589500000000D+03  0.82389930040232D-08  0.92777270794296D-08  0.10379197545089D-07  0.11484436943886D-07  0.12533108783265D-07  0.13467232344239D-07  0.14234804488322D-07  0.14793096181925D-07  0.15111423634126D-07  0.15173226919784D-07
 0.17599500000000D+03  0.76115824023342D-08  0.85929807005957D-08  0.96809733502612D-08  0.10819012096744D-07  0.11946321337101D-07  0.13001604012170D-07  0.13926822786619D-07  0.14670822504375D-07  0.15192572405282D-07  0.15463831865458D-07
 0.17609500000000D+03  0.70407229939921D-08  0.79336020310404D-08  0.89738742321930D-08  0.10109534852007D-07  0.11281593217331D-07  0.12427620403162D-07  0.13485554418774D-07  0.14397525497692D-07  0.15113465539143D-07  0.15594281672584D-07
 0.17619500000000D+03  0.65476615172177D-08  0.73239267221108D-08  0.82837904096990D-08  0.93817754292479D-08  0.10562865896682D-07  0.11765758709459D-07  0.12926551748791D-07  0.13982637148191D-07  0.14876557387549D-07  0.15559587066521D-07
 0.17629500000000D+03  0.61508807282494D-08  0.67865959164004D-08  0.76361396461838D-08  0.86623278072639D-08  0.98161919448924D-08  0.11039803674691D-07  0.12269704519242D-07  0.13440725004986D-07  0.14489953595530D-07  0.15360609125215D-07
 0.17639500000000D+03  0.58653870945773D-08  0.63416995642094D-08  0.70549222594185D-08  0.79776387967674D-08  0.90688024199055D-08  0.10276015134702D-07  0.11538563068385D-07  0.12791017086094D-07  0.13967171798210D-07  0.15004076422554D-07
 0.17649500000000D+03  0.57021231229959D-08  0.60060058692018D-08  0.65618169323991D-08  0.73530290785069D-08  0.83481173108618D-08  0.95021928744112D-08  0.10759519152657D-07  0.12056752980032D-07  0.13326707021589D-07  0.14502396244289D-07
 0.17659500000000D+03  0.56675294166440D-08  0.57923084381275D-08  0.61753529995348D-08  0.68117433533157D-08  0.76807350170359D-08  0.87466711933418D-08  0.99608711178186D-08  0.11264380658004D-07  0.12591413023509D-07  0.13873262309809D-07
 0.17669500000000D+03  0.57632759257107D-08  0.57089187043763D-08  0.59101928092295D-08  0.63740667316124D-08  0.70914388235959D-08  0.80372793311607D-08  0.91718053738782D-08  0.10442624779184D-07  0.11787717711973D-07  0.13139068557758D-07
 0.17679500000000D+03  0.59861751912823D-08  0.57593258391398D-08  0.57765541595675D-08  0.60565429038952D-08  0.66022588443186D-08  0.74003064067386D-08  0.84213303731923D-08  0.96214579018464D-08  0.10944697380469D-07  0.12326145700501D-07
 0.17689500000000D+03  0.63282829680557D-08  0.59420398530533D-08  0.57797977556867D-08  0.58713264570499D-08  0.62316268196003D-08  0.68595105679776D-08  0.77372023148218D-08  0.88310107306648D-08  0.10093040530709D-07  0.11463844169255D-07
 0.17699500000000D+03  0.67771837924510D-08  0.62506261974958D-08  0.59201983185688D-08  0.58256969938069D-08  0.59936584333050D-08  0.64352114857622D-08  0.71448833791641D-08  0.81004610685161D-08  0.92639372289857D-08  0.10583493482759D-07
 0.17709500000000D+03  0.73164512175362D-08  0.66739322339504D-08  0.61929106400989D-08  0.59217566228007D-08  0.58975934759091D-08  0.61435030738846D-08  0.66665732611589D-08  0.74569432583464D-08  0.84879339840942D-08  0.97172736885155D-08
 0.17719500000000D+03  0.79262649576502D-08  0.71964978327893D-08  0.65881338540175D-08  0.61563251494597D-08  0.59474183561953D-08  0.59956193804802D-08  0.63203530102639D-08  0.69245203997035D-08  0.77937967837104D-08  0.88970390571413D-08
 0.17729500000000D+03  0.85841604538624D-08  0.77991344924787D-08  0.70914688562872D-08  0.65210392264038D-08  0.61416883627092D-08  0.59974810700868D-08  0.61194766745210D-08  0.65232603704930D-08  0.72074259627078D-08  0.81531373827398D-08
 0.17739500000000D+03  0.92658807292475D-08  0.84596501356994D-08  0.76844555722684D-08  0.70026531915245D-08  0.64735589971056D-08  0.61494429884506D-08  0.60718410505482D-08  0.62684536217661D-08  0.67508658399488D-08  0.75132698153700D-08
 0.17749500000000D+03  0.99462961332557D-08  0.91536905095061D-08  0.83452690481922D-08  0.75835307486603D-08  0.69310270129030D-08  0.64462552547650D-08  0.61796571252554D-08  0.61700058787295D-08  0.64414494649505D-08  0.70014359390984D-08
 0.17759500000000D+03  0.10600354882117D-07  0.98556632072498D-08  0.90495465350880D-08  0.82423084608111D-08  0.74973729138036D-08  0.68772415170042D-08  0.64393388185871D-08  0.62320324117417D-08  0.62911143695666D-08  0.66370066978062D-08
 0.17769500000000D+03  0.11204026302136D-07  0.10539706980617D-07  0.97713121808405D-08  0.89547046470338D-08  0.81517880391037D-08  0.74266888539594D-08  0.68416157461028D-08  0.64526726746970D-08  0.63059190311900D-08  0.64339637378595D-08
 0.17779500000000D+03  0.11735199394625D-07  0.11180667371435D-07  0.10483961925904D-07  0.96944410783861D-08  0.88701614293243D-08  0.80744347657711D-08  0.73718673311331D-08  0.68241351762550D-08  0.64857820366140D-08  0.64003378614162D-08
 0.17789500000000D+03  0.12174501691595D-07  0.11755039818363D-07  0.11161268897846D-07  0.10434240166501D-07  0.96259948294063D-08  0.87966282222436D-08  0.80106661689092D-08  0.73329728611945D-08  0.68244570032547D-08  0.65378717541297D-08
 0.17799500000000D+03  0.12506007201775D-07  0.12241843239243D-07  0.11778369108341D-07  0.11146857355692D-07  0.10391408795795D-07  0.95666342694925D-08  0.87345095556979D-08  0.79605794991582D-08  0.73097465671959D-08  0.68419232597853D-08
 0.17809500000000D+03  0.12717807327759D-07  0.12623390520798D-07  0.12312688561259D-07  0.11806107292012D-07  0.11138199190871D-07  0.10356045611311D-07  0.95167100054491D-08  0.86838880970437D-08  0.79239486509324D-08  0.73016156102076D-08
 0.17819500000000D+03  0.12802424684436D-07  0.12885927150350D-07  0.12744775873042D-07  0.12387843072071D-07  0.11838901538089D-07  0.11135760184062D-07  0.10328408799353D-07  0.94762436545377D-08  0.86445182803356D-08  0.79002306449247D-08
 0.17829500000000D+03  0.12757056450410D-07  0.13020115124994D-07  0.13059008992232D-07  0.12870850390045D-07  0.12467820831361D-07  0.11877081237169D-07  0.11139671490660D-07  0.10308415116906D-07  0.94449189375517D-08  0.86158306828576D-08
 0.17839500000000D+03  0.12583640908913D-07  0.13021345956831D-07  0.13244150320091D-07  0.13237622529973D-07  0.13001986392961D-07  0.12552795910669D-07  0.11920621062973D-07  0.11149705524161D-07  0.10295629292412D-07  0.94220848644522D-08
 0.17849500000000D+03  0.12288747859954D-07  0.12889873722841D-07  0.13293731165983D-07  0.13474987641697D-07  0.13421995106211D-07  0.13138189750343D-07  0.12642563249734D-07  0.11969115397127D-07  0.11165264566160D-07  0.10289266974423D-07
 0.17859500000000D+03  0.11883300311273D-07  0.12630766349549D-07  0.13206253679046D-07  0.13574566284575D-07  0.13712711577697D-07  0.13611957896843D-07  0.13279059384802D-07  0.12736512514448D-07  0.12021767075423D-07  0.11185384435949D-07
 0.17869500000000D+03  0.11382141018656D-07  0.12253680358530D-07  0.12985205834815D-07  0.13533044479629D-07  0.13863800207776D-07  0.13956978611624D-07  0.13806904975190D-07  0.13423761476768D-07  0.12833617899188D-07  0.12077392705785D-07
 0.17879500000000D+03  0.10803462828811D-07  0.11772470845419D-07  0.12638892388019D-07  0.13352255120967D-07  0.13870071422626D-07  0.14160921067971D-07  0.14206976771962D-07  0.14005768763305D-07  0.13571021203230D-07  0.12932445957090D-07
 0.17889500000000D+03  0.10168126214680D-07  0.11204654282885D-07  0.12180091626777D-07  0.13039068211292D-07  0.13731632079957D-07  0.14216666595586D-07  0.14464917184606D-07  0.14461403190324D-07  0.14207014517252D-07  0.13719133850384D-07
 0.17899500000000D+03  0.94988907718514D-08  0.10570746639179D-07  0.11625554016945D-07  0.12605097679761D-07  0.13453837938714D-07  0.14122530448676D-07  0.14571632096507D-07  0.14774257515974D-07  0.14718462045004D-07  0.14408655371577D-07
 0.17909500000000D+03  0.88195897063700D-08  0.98935031553869D-08  0.10995364197770D-07  0.12066239229058D-07  0.13047053736566D-07  0.13882279291010D-07  0.14523586115382D-07  0.14933224065594D-07  0.15086893649689D-07  0.14975884043881D-07
 0.17919500000000D+03  0.81542774783297D-08  0.91970888477037D-08  0.10312192125979D-07  0.11442059507757D-07  0.12526233540221D-07  0.13504947593362D-07  0.14322887640416D-07  0.14932865292906D-07  0.15299159167791D-07  0.15400284070689D-07
 0.17929500000000D+03  0.75263808049039D-08  0.85062103690022D-08  0.96004623660772D-08  0.10755061735660D-07  0.11910340364144D-07  0.13004463688728D-07  0.13977164464814D-07  0.14773568741745D-07  0.15347875779494D-07  0.15666643821273D-07
 0.17939500000000D+03  0.69578822400129D-08  0.78452402956282D-08  0.88854725449777D-08  0.10029856603192D-07  0.11221629390499D-07  0.12399103045338D-07  0.13499238605158D-07  0.14461484529157D-07  0.15231654888994D-07  0.15765601146526D-07
 0.17949500000000D+03  0.64685636335395D-08  0.72373642593544D-08  0.81924928334573D-08  0.92922697572305D-08  0.10484823324063D-07  0.11710792169273D-07  0.12906616348672D-07  0.14008251857770D-07  0.14955103925188D-07  0.15693943885241D-07
 0.17959500000000D+03  0.60753340502158D-08  0.67037797112924D-08  0.75458780322669D-08  0.85684184631431D-08  0.97262113960785D-08  0.10964291270495D-07  0.12220815883004D-07  0.13430528848986D-07  0.14528607263714D-07  0.15454678158459D-07
 0.17969500000000D+03  0.57916633306648D-08  0.62629725991904D-08  0.69682225093139D-08  0.78837901306669D-08  0.89727052616470D-08  0.10186287312640D-07  0.11466560128519D-07  0.12749346888822D-07  0.13967898735093D-07  0.15056866229497D-07
 0.17979500000000D+03  0.56271385462349D-08  0.59300949938407D-08  0.64795859658763D-08  0.72623543824708D-08  0.82508855366588D-08  0.94044312702311D-08  0.10670866401954D-07  0.11989316477579D-07  0.13293445613629D-07  0.14515244444486D-07
 0.17989500000000D+03  0.55871562793820D-08  0.57164628564490D-08  0.60968149338510D-08  0.67257383326436D-08  0.75860720552108D-08  0.86463543428145D-08  0.98620672351402D-08  0.11177716120246D-07  0.12529670333261D-07  0.13849639727772D-07
 0.17999500000000D+03  0.56727590946611D-08  0.56291888433946D-08  0.58329811648553D-08  0.62924918543601D-08  0.70014491937130D-08  0.79386975748895D-08  0.90687980426696D-08  0.10343498998371D-07  0.11704041271982D-07  0.13084210016118D-07
 0.18009500000000D+03  0.58806198886897D-08  0.56709604439911D-08  0.56969538143737D-08  0.59774659935921D-08  0.65172749263306D-08  0.73061878926534D-08  0.83189874166305D-08  0.95162539978300D-08  0.10846067675139D-07  0.12246539671262D-07
 0.18019500000000D+03  0.62031731495381D-08  0.58399689825105D-08  0.56931177000302D-08  0.57913234795460D-08  0.61501987890888D-08  0.67707911118451D-08  0.76388847051639D-08  0.87251581555095D-08  0.99862361029030D-08  0.11366625178059D-07
 0.18029500000000D+03  0.66288876359943D-08  0.61299902224975D-08  0.58212450694035D-08  0.57401956461866D-08  0.59127097890606D-08  0.63509691350343D-08  0.70521573178901D-08  0.79979568022291D-08  0.91549266989006D-08  0.10475789248074D-07
 0.18039500000000D+03  0.71426707133832D-08  0.65306126147075D-08  0.60765233901534D-08  0.58254951646811D-08  0.58127306576924D-08  0.60610644949245D-08  0.65790870329055D-08  0.73600057263862D-08  0.83813471452979D-08  0.96055628007291D-08
 0.18049500000000D+03  0.77263906522310D-08  0.70276047447208D-08  0.64497368055085D-08  0.60438889404918D-08  0.58533698704754D-08  0.59108307730769D-08  0.62358906112344D-08  0.68334066980674D-08  0.76925204951323D-08  0.87865742341191D-08
 0.18059500000000D+03  0.83594996949069D-08  0.76034093661410D-08  0.69275942030224D-08  0.63874304897156D-08  0.60328376915645D-08  0.59051223928585D-08  0.60341854189159D-08  0.64362638312909D-08  0.71123602873172D-08  0.80474840183004D-08
 0.18069500000000D+03  0.90197376982496D-08  0.82377476425621D-08  0.74931924344836D-08  0.68438462057895D-08  0.63445272969946D-08  0.60437520103175D-08  0.59806156812079D-08  0.61820836891224D-08  0.66608626081437D-08  0.74140000734497D-08
 0.18079500000000D+03  0.96838937311534D-08  0.89083139472083D-08  0.81265991989601D-08  0.73969652774814D-08  0.67772569197857D-08  0.63215183595554D-08  0.60766496129274D-08  0.60793369244175D-08  0.63534402344048D-08  0.69080057878888D-08
 0.18089500000000D+03  0.10328601198832D-07  0.95915388533169D-08  0.88055365466914D-08  0.80272787282025D-08  0.73156640694980D-08  0.67284020934454D-08  0.63185521434332D-08  0.61311937695115D-08  0.62004188540770D-08  0.65468280581737D-08
 0.18099500000000D+03  0.10931140923533D-07  0.10263395850289D-07  0.95061429550967D-08  0.87126092093986D-08  0.79407383210760D-08  0.72499220290243D-08  0.66975324354376D-08  0.63354400084269D-08  0.62067097888810D-08  0.63426675765479D-08
 0.18109500000000D+03  0.11470226168179D-07  0.10900225889305D-07  0.10203789534762D-07  0.94288698797805D-08  0.86304750445065D-08  0.78676393806010D-08  0.72000600245310D-08  0.66845743444242D-08  0.63716678137252D-08  0.63022079346339D-08
 0.18119500000000D+03  0.11926743867684D-07  0.11479553136071D-07  0.10873924197408D-07  0.10150888008764D-07  0.93606288473767D-08  0.85597931514523D-08  0.78083383100959D-08  0.71660824631623D-08  0.66891367486739D-08  0.64264141387471D-08
 0.18129500000000D+03  0.12284427344166D-07  0.11980865315633D-07  0.11492916603420D-07  0.10853266916987D-07  0.10105542504570D-07  0.93020459534841D-08  0.85009194248561D-08  0.77628777248238D-08  0.71476796475176D-08  0.67105250178866D-08
 0.18139500000000D+03  0.12530437526342D-07  0.12386332791608D-07  0.12038876436718D-07  0.11511258558503D-07  0.10839024819346D-07  0.10068316217826D-07  0.92534403036607D-08  0.84538934221297D-08  0.77309847694358D-08  0.71442379170879D-08
 0.18149500000000D+03  0.12655832155394D-07  0.12681442034335D-07  0.12492418051510D-07  0.12101618496647D-07  0.11535249252887D-07  0.10831670120485D-07  0.10039456153621D-07  0.92148070270063D-08  0.84184332299681D-08  0.77120781616287D-08
 0.18159500000000D+03  0.12655905609003D-07  0.12855521390282D-07  0.12837345808605D-07  0.12603415255627D-07  0.12169644318769D-07  0.11565244636654D-07  0.10831344576348D-07  0.10018872915421D-07  0.91858094044168D-08  0.83939401937082D-08
 0.18169500000000D+03  0.12530385763228D-07  0.12902140043793D-07  0.13061236464723D-07  0.12998767057574D-07  0.12719746696844D-07  0.12243172004164D-07  0.11601251375480D-07  0.10837836793208D-07  0.10006130907106D-07  0.91657821509400D-08
 0.18179500000000D+03  0.12283478668966D-07  0.12819364719262D-07  0.13155897777572D-07  0.13273480781472D-07  0.13165988797633D-07  0.12841475558061D-07  0.12322047653467D-07  0.11642902518376D-07  0.10850571386159D-07  0.10000451089337D-07
 0.18189500000000D+03  0.11923756653452D-07  0.12609862944016D-07  0.13117686005588D-07  0.13417570592541D-07  0.13492394109968D-07  0.13338907419211D-07  0.12968267203053D-07  0.12405720287503D-07  0.11689446534714D-07  0.10868612152087D-07
 0.18199500000000D+03  0.11463890650476D-07  0.12280846493512D-07  0.12947669157329D-07  0.13425637057074D-07  0.13687156082862D-07  0.13717699891504D-07  0.13516993460555D-07  0.13099364272785D-07  0.12493231691474D-07  0.11739751834830D-07
 0.18209500000000D+03  0.10920232972996D-07  0.11843853860131D-07  0.12651627601990D-07  0.13297091627781D-07  0.13743079501846D-07  0.13964204641115D-07  0.13948666425954D-07  0.13699267796287D-07  0.13233578238629D-07  0.12583223169689D-07
 0.18219500000000D+03  0.10312262200917D-07  0.11314376087518D-07  0.12239888884603D-07  0.13036216084811D-07  0.13657867275097D-07  0.14069396776916D-07  0.14247781970042D-07  0.14184085029490D-07  0.13884295742182D-07  0.13369299201464D-07
 0.18229500000000D+03  0.96619071744609D-08  0.10711335930784D-07  0.11726999165937D-07  0.12652051749381D-07  0.13434240178320D-07  0.14029224783839D-07  0.14403458825810D-07  0.14536450014699D-07  0.14422267443440D-07  0.14070200603317D-07
 0.18239500000000D+03  0.89927720514670D-08  0.10056435850705D-07  0.11131239468928D-07  0.12158118924889D-07  0.13079882326944D-07  0.13844791819001D-07  0.14409852265184D-07  0.14743606509160D-07  0.14828268310146D-07  0.14661063704686D-07
 0.18249500000000D+03  0.83292887855872D-08  0.93733956186001D-08  0.10474000675722D-07  0.11571972910506D-07  0.12607210830267D-07  0.13522359077175D-07  0.14266397936772D-07  0.14797885722701D-07  0.15087657384524D-07  0.15120816594331D-07
 0.18259500000000D+03  0.76958269910969D-08  0.86871050745447D-08  0.97790367736776D-08  0.10914608893233D-07  0.12032974085989D-07  0.13073167653888D-07  0.13977874504499D-07  0.14697013404015D-07  0.15190919597388D-07  0.15432933312769D-07
 0.18269500000000D+03  0.71157937689050D-08  0.80227216165099D-08  0.90716209690036D-08  0.10209733849055D-07  0.11377689317704D-07  0.12513081437752D-07  0.13554279472604D-07  0.14444232853494D-07  0.15134036505583D-07  0.15586039438925D-07
 0.18279500000000D+03  0.66107574918200D-08  0.74047450795992D-08  0.83776337381189D-08  0.94829290447108D-08  0.10664936037337D-07  0.11862059875494D-07  0.13010518771663D-07  0.14048236199072D-07  0.14918670483456D-07  0.15574346562708D-07
 0.18289500000000D+03  0.61996296387492D-08  0.68561045904199D-08  0.77226154358136D-08  0.87607315881609D-08  0.99205279010947D-08  0.11143475771305D-07  0.12365917144574D-07  0.13522902533318D-07  0.14552152660103D-07  0.15397898151849D-07
 0.18299500000000D+03  0.58979374341307D-08  0.63972925842709D-08  0.71308185080036D-08  0.80696674850388D-08  0.91715906764924D-08  0.10383299378590D-07  0.11643562911782D-07  0.12886848111322D-07  0.14047271215502D-07  0.15062615074967D-07
