 0.90000000000000D+00
 0.15009500000000D+03  0.20522113321438D-07  0.19434038412355D-07  0.18812741728204D-07  0.18739876134578D-07  0.19271603544209D-07  0.20434559560494D-07  0.22223121964216D-07  0.24598181077980D-07  0.27487555001880D-07  0.30788126836974D-07
 0.15019500000000D+03  0.21867801067816D-07  0.20478930835254D-07  0.19481435594904D-07  0.18973846723464D-07  0.19032932015579D-07  0.19708781226848D-07  0.21021017720876D-07  0.22956371063723D-07  0.25467799120430D-07  0.28475290438932D-07
 0.15029500000000D+03  0.23416429478703D-07  0.21789045451424D-07  0.20466580483734D-07  0.19561261225301D-07  0.19167858784231D-07  0.19358046100925D-07  0.20175679572091D-07  0.21633269621343D-07  0.23709867772381D-07  0.26350548807094D-07
 0.15039500000000D+03  0.25119547717630D-07  0.23323017941616D-07  0.21736515070038D-07  0.20482407021198D-07  0.19670370569487D-07  0.19391186802650D-07  0.19711240297713D-07  0.20668009398325D-07  0.22266807178761D-07  0.24478992957095D-07
 0.15049500000000D+03  0.26924067649182D-07  0.25032766786540D-07  0.23251009866074D-07  0.21707481165319D-07  0.20523260881644D-07  0.19805236051415D-07  0.19639981512565D-07  0.20088413744291D-07  0.21181501976297D-07  0.22917290730980D-07
 0.15059500000000D+03  0.28773843208781D-07  0.26864934453061D-07  0.24962491853633D-07  0.23197525578830D-07  0.21698711575568D-07  0.20585602228562D-07  0.19962065774100D-07  0.19910265577749D-07  0.20485481152202D-07  0.21712052106659D-07
 0.15069500000000D+03  0.30611338468089D-07  0.28762477498698D-07  0.26817475175954D-07  0.24905619948627D-07  0.23159175842127D-07  0.21706579848987D-07  0.20665624607144D-07  0.20136938750391D-07  0.20198077001364D-07  0.20898520814906D-07
 0.15079500000000D+03  0.32379339621798D-07  0.30666362552948D-07  0.28758158382516D-07  0.26778298179047D-07  0.24858535627971D-07  0.23132176773895D-07  0.21727194667277D-07  0.20759395848066D-07  0.20325953795813D-07  0.20499622361883D-07
 0.15089500000000D+03  0.34022664861054D-07  0.32517322538667D-07  0.30724144772790D-07  0.28757148961254D-07  0.26743499910161D-07  0.24817232251933D-07  0.23112485486501D-07  0.21756546755779D-07  0.20863012665553D-07  0.20525388099791D-07
 0.15099500000000D+03  0.35489825808179D-07  0.34257625880242D-07  0.32654239402785D-07  0.30780556666187D-07  0.28755204541827D-07  0.26708792880326D-07  0.24777454075842D-07  0.23095953133265D-07  0.21790669211934D-07  0.20972764484878D-07
 0.15109500000000D+03  0.36734594876592D-07  0.35832810832301D-07  0.34488274343963D-07  0.32785535396427D-07  0.30830969614598D-07  0.28747707441583D-07  0.26669654235433D-07  0.24734855360273D-07  0.23078490799836D-07  0.21825806330129D-07
 0.15119500000000D+03  0.37717434590052D-07  0.37193337466280D-07  0.36168912847112D-07  0.34709606698714D-07  0.32906166523661D-07  0.30870396389424D-07  0.28729821862707D-07  0.26621490661987D-07  0.24685171475570D-07  0.23056242900590D-07
 0.15129500000000D+03  0.38406747539679D-07  0.38296111275170D-07  0.37643383180366D-07  0.36492670176136D-07  0.34916144226790D-07  0.33010747607531D-07  0.30893651956368D-07  0.28696664143607D-07  0.26559814188851D-07  0.24624396295488D-07
 0.15139500000000D+03  0.38779909262557D-07  0.39105834792738D-07  0.38865094085408D-07  0.38078816066975D-07  0.36798162598261D-07  0.35102087007514D-07  0.33093718472668D-07  0.30895528459552D-07  0.28643482596735D-07  0.26480422877906D-07
 0.15149500000000D+03  0.38824050873320D-07  0.39596147058791D-07  0.39795086023141D-07  0.39418029782443D-07  0.38493280315671D-07  0.37079170612004D-07  0.35261484768769D-07  0.33149522909837D-07  0.30870978314226D-07  0.28565840696352D-07
 0.15159500000000D+03  0.38536563745828D-07  0.39750515176286D-07  0.40403275645235D-07  0.40467740412869D-07  0.39948145391196D-07  0.38880144012285D-07  0.37329350114537D-07  0.35388418967441D-07  0.33172794150347D-07  0.30815299020489D-07
 0.15169500000000D+03  0.37925304894897D-07  0.39562847573345D-07  0.40669455208904D-07  0.41194168305956D-07  0.41116638264071D-07  0.40448415508445D-07  0.39232676700439D-07  0.37542416650880D-07  0.35477189710454D-07  0.33158540393415D-07
 0.15179500000000D+03  0.37008488907529D-07  0.39037804871244D-07  0.40584013920973D-07  0.41573430967738D-07  0.41961320292272D-07  0.41734390830287D-07  0.40911741728966D-07  0.39544234800943D-07  0.37712332815604D-07  0.35522501072564D-07
 0.15189500000000D+03  0.35814260263331D-07  0.38190791427301D-07  0.40148354419264D-07  0.41592371706030D-07  0.42454644492655D-07  0.42697020082467D-07  0.42313560548014D-07  0.41331138216668D-07  0.39808448528161D-07  0.37833492456708D-07
 0.15199500000000D+03  0.34379948586215D-07  0.37047618615390D-07  0.39374984732559D-07  0.41249081590552D-07  0.42579890446769D-07  0.43305111430170D-07  0.43393529349896D-07  0.42846845752108D-07  0.41699917199308D-07  0.40019404122634D-07
 0.15209500000000D+03  0.32751018671802D-07  0.35643839652640D-07  0.38287274051664D-07  0.40553092399255D-07  0.42331791373942D-07  0.43538371005537D-07  0.44116839690043D-07  0.44043265855464D-07  0.43327263869948D-07  0.42011868445396D-07
 0.15219500000000D+03  0.30979736880022D-07  0.34023765174928D-07  0.36918869422820D-07  0.39525226203311D-07  0.41716828427387D-07  0.43388134526513D-07  0.44459621935521D-07  0.44882009614895D-07  0.44638983544697D-07  0.43748327453747D-07
 0.15229500000000D+03  0.29123585454545D-07  0.32239178660926D-07  0.35312779944185D-07  0.38197096044988D-07  0.40753175237747D-07  0.42857763128640D-07  0.44409780688099D-07  0.45335636118709D-07  0.45593150287601D-07  0.45173944561365D-07
 0.15239500000000D+03  0.27243466245791D-07  0.30347781004743D-07  0.33520145071998D-07  0.36610261692401D-07  0.39470284544322D-07  0.41962683859215D-07  0.43967492185743D-07  0.45388590790478D-07  0.46158762712686D-07  0.46243307081925D-07
 0.15249500000000D+03  0.25401744811791D-07  0.28411403774153D-07  0.31598714040371D-07  0.34815054587877D-07  0.37908118330023D-07  0.40730064104260D-07  0.43145341609622D-07  0.45037804264011D-07  0.46316784207869D-07  0.46921869934571D-07
 0.15259500000000D+03  0.23660194515513D-07  0.26494040622466D-07  0.29611073918530D-07  0.32869096671511D-07  0.36116033095483D-07  0.39198118827694D-07  0.41968087041771D-07  0.44292927254583D-07  0.46060843074421D-07  0.47187096617319D-07
 0.15269500000000D+03  0.22077907527509D-07  0.24659755526283D-07  0.27622674148208D-07  0.30835548526758D-07  0.34151342612231D-07  0.37415059789252D-07  0.40472046448551D-07  0.43176185689930D-07  0.45397565617629D-07  0.47029260302334D-07
 0.15279500000000D+03  0.20709245036646D-07  0.22970534505789D-07  0.25699705117684D-07  0.28781132956596D-07  0.32077591469582D-07  0.35437706725790D-07  0.38704114402608D-07  0.41721850004349D-07  0.44346524012507D-07  0.46451875715438D-07
 0.15289500000000D+03  0.19601901922113D-07  0.21484153703350D-07  0.23906896956427D-07  0.26773990271694D-07  0.29962583690645D-07  0.33329791630911D-07  0.36720426163703D-07  0.39975322871305D-07  0.42939790407676D-07  0.45471741223800D-07
 0.15299500000000D+03  0.18795161144598D-07  0.20252140585008D-07  0.22305311731692D-07  0.24881430789718D-07  0.27876221274619D-07  0.31159998485406D-07  0.34584698032717D-07  0.37991860625108D-07  0.41221099122495D-07  0.44118580184465D-07
 0.15309500000000D+03  0.18318409774417D-07  0.19317906050230D-07  0.20950207018582D-07  0.23167657770126D-07  0.25888217276682D-07  0.28999791732349D-07  0.32366284327229D-07  0.35834955029936D-07  0.39244629814847D-07  0.42434281004868D-07
 0.15319500000000D+03  0.18189981654881D-07  0.18715122935495D-07  0.19889050831158D-07  0.21691539658057D-07  0.24065756436638D-07  0.26921097027006D-07  0.30138002580017D-07  0.33574413667307D-07  0.37073435991266D-07  0.40471746417638D-07
 0.15329500000000D+03  0.18416381185324D-07  0.18466420472652D-07  0.19159766643690D-07  0.20504513494534D-07  0.22471182829043D-07  0.24993906811232D-07  0.27973789226524D-07  0.31284188731325D-07  0.34777554986899D-07  0.38293374027696D-07
 0.15339500000000D+03  0.18991928845662D-07  0.18582454617892D-07  0.18789282328303D-07  0.19648701125895D-07  0.21159797924554D-07  0.23283890485186D-07  0.25946257630170D-07  0.29040015061276D-07  0.32431847282580D-07  0.35969202055740D-07
 0.15349500000000D+03  0.19898852395814D-07  0.19061400963009D-07  0.18792448113476D-07  0.19155315982811D-07  0.20177853247257D-07  0.21850093759801D-07  0.24124238225552D-07  0.26916928330655D-07  0.30113624390613D-07  0.33574766122128D-07
 0.15359500000000D+03  0.21107828955483D-07  0.19888900622163D-07  0.19171376202717D-07  0.19043430447417D-07  0.19560819000439D-07  0.20742813565605D-07  0.22570386218947D-07  0.24986742894977D-07  0.27900135080789D-07  0.31188724554433D-07
 0.15369500000000D+03  0.22578963408216D-07  0.21038470780222D-07  0.19915238846412D-07  0.19319162175612D-07  0.19332003289899D-07  0.20001733133088D-07  0.21338945045864D-07  0.23315575259975D-07  0.25865988896344D-07  0.28890320636948D-07
 0.15379500000000D+03  0.24263168927302D-07  0.22472371463033D-07  0.21000543088591D-07  0.19975322466087D-07  0.19501585803914D-07  0.19654396154926D-07  0.20473753070365D-07  0.21961502825017D-07  0.24080603116346D-07  0.26756759935932D-07
 0.15389500000000D+03  0.26103897085942D-07  0.24142899692494D-07  0.22391880038815D-07  0.20991551447786D-07  0.20066115198654D-07  0.19715089112285D-07  0.20006576366020D-07  0.20972447872884D-07  0.22605763906626D-07  0.24860588733775D-07
 0.15399500000000D+03  0.28039149126353D-07  0.25994062749195D-07  0.24043125480589D-07  0.22334944362576D-07  0.21008501484111D-07  0.20184186991458D-07  0.19955841584556D-07  0.20384373205007D-07  0.21493393727430D-07  0.23267165038137D-07
 0.15409500000000D+03  0.30003687494808D-07  0.27963564985836D-07  0.25899048173236D-07  0.23961151657556D-07  0.22298514212707D-07  0.21048000142023D-07  0.20325829899559D-07  0.20219868025704D-07  0.20783614571176D-07  0.22032315939595D-07
 0.15419500000000D+03  0.31931358426026D-07  0.29985028582830D-07  0.27897263595156D-07  0.25815914234002D-07  0.23893775311446D-07  0.22279139664075D-07  0.21106376125631D-07  0.20487190573614D-07  0.20503189881640D-07  0.21200273669935D-07
 0.15429500000000D+03  0.33757432596917D-07  0.31990358648955D-07  0.29970455268775D-07  0.27836975336621D-07  0.25741213229866D-07  0.23837396482360D-07  0.22273097006639D-07  0.21179817804375D-07  0.20664416881921D-07  0.20801977090773D-07
 0.15439500000000D+03  0.35420871751508D-07  0.33912157678188D-07  0.32048774146737D-07  0.29956293445122D-07  0.27778924046095D-07  0.25671106416385D-07  0.23788150303591D-07  0.22276532705633D-07  0.21264525636535D-07  0.20853815259192D-07
 0.15449500000000D+03  0.36866434489970D-07  0.35686093773917D-07  0.34062319477660D-07  0.32102467202128D-07  0.29938366592807D-07  0.27718951458950D-07  0.25601502913372D-07  0.23742057467071D-07  0.22285621958194D-07  0.21356875199651D-07
 0.15459500000000D+03  0.38046543600794D-07  0.37253131100765D-07  0.35943602419125D-07  0.34203274650053D-07  0.32146803687740D-07  0.29912127504912D-07  0.27652663197594D-07  0.25528216915188D-07  0.23695189056044D-07  0.22296737425422D-07
 0.15469500000000D+03  0.38922849667862D-07  0.38561539275491D-07  0.37629896383399D-07  0.36188225286421D-07  0.34329891072338D-07  0.32176792177237D-07  0.29872811422226D-07  0.27575592737233D-07  0.25447138738202D-07  0.23643840823648D-07
 0.15479500000000D+03  0.39467440339288D-07  0.39568610172171D-07  0.39065385318091D-07  0.37991024748561D-07  0.36414310232926D-07  0.34436694188980D-07  0.32187244041545D-07  0.29815606527361D-07  0.27483378394526D-07  0.25354414310317D-07
 0.15489500000000D+03  0.39663660682371D-07  0.40242025038012D-07  0.40203032197564D-07  0.39551858021389D-07  0.38330341083462D-07  0.36615878540293D-07  0.34518033629081D-07  0.32172950007634D-07  0.29735836389051D-07  0.27371947513165D-07
 0.15499500000000D+03  0.39506526566653D-07  0.40560830957313D-07  0.41006104093769D-07  0.40819407341696D-07  0.40014275339616D-07  0.38641360082812D-07  0.36786797374216D-07  0.34568265141261D-07  0.32128867370715D-07  0.29629148158257D-07
 0.15509500000000D+03  0.39002729191390D-07  0.40516002621690D-07  0.41449306358970D-07  0.41752534637508D-07  0.41410580793709D-07  0.40445661506046D-07  0.38917463656762D-07  0.36920966203617D-07  0.34581941702907D-07  0.32050311361262D-07
 0.15519500000000D+03  0.38170244002904D-07  0.40110582187736D-07  0.41519495712421D-07  0.42321574439485D-07  0.42473739833056D-07  0.41969120172726D-07  0.40838928312562D-07  0.39152090770486D-07  0.37012510781263D-07  0.34554007089013D-07
 0.15529500000000D+03  0.37037570777458D-07  0.39359405965912D-07  0.41215959450217D-07  0.42509200728465D-07  0.43169701482563D-07  0.43161880722009D-07  0.42487499459384D-07  0.41187067172483D-07  0.39338933151580D-07  0.37055977847528D-07
 0.15539500000000D+03  0.35642643178887D-07  0.38288441169302D-07  0.40550264767871D-07  0.42310849162062D-07  0.43476903967650D-07  0.43985506036028D-07  0.43809041490285D-07  0.42958291996382D-07  0.41483345333518D-07  0.39472130001837D-07
 0.15549500000000D+03  0.34031455391816D-07  0.36933768500455D-07  0.39545697616499D-07  0.41734693668280D-07  0.43386843263350D-07  0.44414156981085D-07  0.44760744148249D-07  0.44407422081223D-07  0.43374365955513D-07  0.41721499452615D-07
 0.15559500000000D+03  0.32256460372310D-07  0.35340256669630D-07  0.38236324085339D-07  0.40801192757168D-07  0.42904181374446D-07  0.44435310226347D-07  0.45312460416705D-07  0.45487300279361D-07  0.44949531683284D-07  0.43729075656780D-07
 0.15569500000000D+03  0.30374798855758D-07  0.33559982865160D-07  0.36665718659795D-07  0.39542235496700D-07  0.42046405364550D-07  0.44050002406744D-07  0.45447576195725D-07  0.46163451974564D-07  0.46157377642112D-07  0.45428376744869D-07
 0.15579500000000D+03  0.28446420616064D-07  0.31650458708675D-07  0.34885412643829D-07  0.37999929510466D-07  0.40843063765690D-07  0.43272607050670D-07  0.45163394324765D-07  0.46415108841195D-07  0.46959092544405D-07  0.46763681975818D-07
 0.15589500000000D+03  0.26532159748195D-07  0.29672724398429D-07  0.32953122492423D-07  0.36225083329455D-07  0.39334620475265D-07  0.42130167313986D-07  0.44471034510337D-07  0.46235736479995D-07  0.47329698386832D-07  0.47691844951483D-07
 0.15599500000000D+03  0.24691824161129D-07  0.27689374723639D-07  0.30930821819614D-07  0.34275442860717D-07  0.37570977276439D-07  0.40661322105154D-07  0.43394868327408D-07  0.45633062361903D-07  0.47258725217361D-07  0.48183630721911D-07
 0.15609500000000D+03  0.22982356260102D-07  0.25762579625564D-07  0.28882722561983D-07  0.32213746636671D-07  0.35609724548743D-07  0.38914875285742D-07  0.41971524073259D-07  0.44628619086266D-07  0.46750372012984D-07  0.48224540948045D-07
 0.15619500000000D+03  0.21456117217598D-07  0.23952159224153D-07  0.26873230379723D-07  0.30105666990541D-07  0.33514185548427D-07  0.36948067085703D-07  0.40248509434194D-07  0.43256834629431D-07  0.45823164216024D-07  0.47815112510836D-07
 0.15629500000000D+03  0.20159341532996D-07  0.22313768975800D-07  0.24964937100477D-07  0.28017704546775D-07  0.31351322919552D-07  0.34824613626841D-07  0.38282510426810D-07  0.41563715531559D-07  0.44509136193490D-07  0.46970695355129D-07
 0.15639500000000D+03  0.19130802004801D-07  0.20897245135150D-07  0.23216709109772D-07  0.26015101647902D-07  0.29189577013298D-07  0.32612584561058D-07  0.36137432798951D-07  0.39605180535987D-07  0.42852582249499D-07  0.45720734101149D-07
 0.15649500000000D+03  0.18400718016552D-07  0.19745154213092D-07  0.21681925328073D-07  0.24159836816324D-07  0.27096704365427D-07  0.30382190452053D-07  0.33882257052269D-07  0.37445110915342D-07  0.40908432468886D-07  0.44107594414712D-07
 0.15659500000000D+03  0.17989932381672D-07  0.18891582893666D-07  0.20406912047473D-07  0.22508757337984D-07  0.25137681565284D-07  0.28203550873047D-07  0.31588780609091D-07  0.35153189590578D-07  0.38740319411999D-07  0.42184988870446D-07
 0.15669500000000D+03  0.17909374099465D-07  0.18361197118627D-07  0.19429614680138D-07  0.21111900821585D-07  0.23372735015180D-07  0.26144511512189D-07  0.29329320594341D-07  0.32802604282570D-07  0.36418408479361D-07  0.40016067830282D-07
 0.15679500000000D+03  0.18159816422770D-07  0.18168590976994D-07  0.18778538630625D-07  0.20011049391455D-07  0.21855551001375D-07  0.24268574146648D-07  0.27174448489174D-07  0.30467690522164D-07  0.34017068705717D-07  0.37671248616233D-07
 0.15689500000000D+03  0.18731931788811D-07  0.18317937837664D-07  0.18471983263855D-07  0.19238552260114D-07  0.20631713346369D-07  0.22632997448237D-07  0.25190823815002D-07  0.28221588630448D-07  0.31612462003145D-07  0.35225861040072D-07
 0.15699500000000D+03  0.19606637563954D-07  0.18802948008772D-07  0.18517584500878D-07  0.18816444028570D-07  0.19737407944024D-07  0.21287119496872D-07  0.23439188314006D-07  0.26133985046677D-07  0.29280127693734D-07  0.32757689323845D-07
 0.15709500000000D+03  0.20755719330948D-07  0.19607129254379D-07  0.18912173119964D-07  0.18755877391417D-07  0.19198424936762D-07  0.20270944872096D-07  0.21972575093983D-07  0.24269002922820D-07  0.27092635835098D-07  0.30344489838051D-07
 0.15719500000000D+03  0.22142711720087D-07  0.20704338888372D-07  0.19641947538732D-07  0.19056880176136D-07  0.19029480402930D-07  0.19614030521926D-07  0.20834779181943D-07  0.22683300019523D-07  0.25117377648556D-07  0.28061561179769D-07
 0.15729500000000D+03  0.23724010656702D-07  0.22059609024106D-07  0.20682951856124D-07  0.19708438000898D-07  0.19233870390794D-07  0.19334695510245D-07  0.20059127149129D-07  0.21424423920443D-07  0.23414554618039D-07  0.25979438218227D-07
 0.15739500000000D+03  0.25450185456614D-07  0.23630219999154D-07  0.22001842378597D-07  0.20688895456185D-07  0.19803461154750D-07  0.19439570439657D-07  0.19667574180827D-07  0.20529465709777D-07  0.22035419841005D-07  0.24161775166675D-07
 0.15749500000000D+03  0.27267454526322D-07  0.25366991117319D-07  0.23556918865889D-07  0.21966660750850D-07  0.20719010694105D-07  0.19923493039415D-07  0.19670147400593D-07  0.20024043794893D-07  0.21020816272749D-07  0.22663474811639D-07
 0.15759500000000D+03  0.29119284580890D-07  0.27215752741323D-07  0.25299390417724D-07  0.23501191346329D-07  0.21950808324451D-07  0.20769747284280D-07  0.20064744636173D-07  0.19921639748318D-07  0.20400046888987D-07  0.21529112047948D-07
 0.15769500000000D+03  0.30948070332775D-07  0.29118959502735D-07  0.27174840379138D-07  0.25244231352774D-07  0.23459611170212D-07  0.21950634640455D-07  0.20837288331592D-07  0.20223298119037D-07  0.20190101757364D-07  0.20791690119921D-07
 0.15779500000000D+03  0.32696849569989D-07  0.31017401031093D-07  0.29124849950852D-07  0.27141265482605D-07  0.25197849283287D-07  0.23428357773388D-07  0.21962225148402D-07  0.20917692332326D-07  0.20395256797279D-07  0.20471757727617D-07
 0.15789500000000D+03  0.34311007461402D-07  0.32851964189288D-07  0.31088736419996D-07  0.29133149240720D-07  0.27111064681103D-07  0.25156189438465D-07  0.23403353124018D-07  0.21981549253268D-07  0.21007048841427D-07  0.20576904675521D-07
 0.15799500000000D+03  0.35739923818777D-07  0.34565399371615D-07  0.33005359129655D-07  0.31157870852044D-07  0.29139544056521D-07  0.27079892432732D-07  0.25114950215569D-07  0.23380415907495D-07  0.22004621696191D-07  0.21101643253847D-07
 0.15809500000000D+03  0.36938517917744D-07  0.36104042997018D-07  0.34814944523341D-07  0.33152397246951D-07  0.31220100325518D-07  0.29139350521339D-07  0.27043170786521D-07  0.25069743392902D-07  0.23355428418199D-07  0.22027672265866D-07
 0.15819500000000D+03  0.37868647332622D-07  0.37419448924044D-07  0.36460880859291D-07  0.35054554289305D-07  0.33287954613991D-07  0.31270365257854D-07  0.29127670206878D-07  0.26996255320288D-07  0.25016266150489D-07  0.23324510745949D-07
 0.15829500000000D+03  0.38500320064923D-07  0.38469883126780D-07  0.37891433503673D-07  0.36804890371718D-07  0.35278667794189D-07  0.33406569667533D-07  0.31303412335321D-07  0.29099561314288D-07  0.26934611745495D-07  0.24950479131945D-07
 0.15839500000000D+03  0.38812683028168D-07  0.39221638594867D-07  0.39061333083759D-07  0.38348472535258D-07  0.37130069300060D-07  0.35481406914877D-07  0.33502610315061D-07  0.31313970296029D-07  0.29050219177688D-07  0.26853997123705D-07
 0.15849500000000D+03  0.38794754672641D-07  0.39650131040342D-07  0.39933191204508D-07  0.39636565400730D-07  0.38784130699824D-07  0.37430120372081D-07  0.35656747908379D-07  0.33570453544606D-07  0.31296933531568D-07  0.28975159819788D-07
 0.15859500000000D+03  0.38445875167615D-07  0.39740740588395D-07  0.40478701888533D-07  0.40628145418369D-07  0.40188732389543D-07  0.39191700967472D-07  0.37698626563617D-07  0.35798703966212D-07  0.33604671237482D-07  0.31247547100717D-07
 0.15869500000000D+03  0.37775854072966D-07  0.39489370170887D-07  0.40679591367147D-07  0.41291206235435D-07  0.41299273786599D-07  0.40710738331042D-07  0.39564382580670D-07  0.37929235638439D-07  0.35901512295067D-07  0.33600215723449D-07
 0.15879500000000D+03  0.36804802784027D-07  0.38902697797229D-07  0.40528284299609D-07  0.41603815321539D-07  0.42080080528833D-07  0.41939124061603D-07  0.41195419127583D-07  0.39895466574958D-07  0.38115847528576D-07  0.35959819291528D-07
 0.15889500000000D+03  0.35562647163633D-07  0.37998107203845D-07  0.40028260893273D-07  0.41554887347632D-07  0.42505566396398D-07  0.42837558398270D-07  0.42540199456439D-07  0.41635727785894D-07  0.40178522496268D-07  0.38252798230940D-07
 0.15899500000000D+03  0.34088324599414D-07  0.36803289524086D-07  0.39194086695261D-07  0.41144646148197D-07  0.42561112934331D-07  0.43376815658393D-07  0.43555850452061D-07  0.43095143087706D-07  0.42024919543760D-07  0.40407580173860D-07
 0.15909500000000D+03  0.32428679123027D-07  0.35355517496287D-07  0.38051104970587D-07  0.40384754361745D-07  0.42243636023023D-07  0.43538728967107D-07  0.44209529590786D-07  0.44227326723615D-07  0.43596920646282D-07  0.42356730751008D-07
 0.15919500000000D+03  0.30637078033722D-07  0.33700603228218D-07  0.36634790497732D-07  0.39298097986267D-07  0.41561815873177D-07  0.43316861005287D-07  0.44479513447788D-07  0.44995849658547D-07  0.44844696107548D-07  0.44038995717559D-07
 0.15929500000000D+03  0.28771783454037D-07  0.31891560506955D-07  0.34989773197598D-07  0.37918222031823D-07  0.40535975054297D-07  0.42716834691686D-07  0.44355972021582D-07  0.45375430367136D-07  0.45728267838712D-07  0.45401177568255D-07
 0.15939500000000D+03  0.26894122112093D-07  0.29987002872777D-07  0.33168550122862D-07  0.36288423105520D-07  0.39197598130870D-07  0.41756305832343D-07  0.43841400288297D-07  0.45352811987104D-07  0.46218800782842D-07  0.46399793298524D-07
 0.15949500000000D+03  0.25066506018402D-07  0.28049318883876D-07  0.31229914776001D-07  0.34460514992228D-07  0.37588496186325D-07  0.40464568745540D-07  0.42950686494199D-07  0.44927294804083D-07  0.46299582021964D-07  0.47002464690561D-07
 0.15959500000000D+03  0.23350365136034D-07  0.26142675828191D-07  0.29237143233541D-07  0.32493293916299D-07  0.35759629838434D-07  0.38881795615511D-07  0.41710805671438D-07  0.44110901102091D-07  0.45966654141318D-07  0.47188998385986D-07
 0.15969500000000D+03  0.21804060120813D-07  0.24330912154301D-07  0.27255986793019D-07  0.30450740940917D-07  0.33769615122971D-07  0.37057920726958D-07  0.40160136632927D-07  0.42928158383198D-07  0.45229077459349D-07  0.46952119981495D-07
 0.15979500000000D+03  0.20480848186438D-07  0.22675386590392D-07  0.25352530408636D-07  0.28400009563817D-07  0.31682947618558D-07  0.35051191629516D-07  0.38347411157934D-07  0.41415496744871D-07  0.44108804685826D-07  0.46297834376496D-07
 0.15989500000000D+03  0.19426977585284D-07  0.21232857746782D-07  0.23590984547271D-07  0.26409256600318D-07  0.29567991105751D-07  0.32926420466519D-07  0.36330315075488D-07  0.39620266699056D-07  0.42640161358365D-07  0.45245393532037D-07
 0.15999500000000D+03  0.18679985601533D-07  0.20053471389474D-07  0.22031484725600D-07  0.24545383426034D-07  0.27494787517164D-07  0.30752979896964D-07  0.34173772293557D-07  0.37599394787503D-07  0.40868935927543D-07  0.43826862580666D-07
 0.16009500000000D+03  0.18267270956270D-07  0.19178933003306D-07  0.20727977302774D-07  0.22871762034032D-07  0.25532754478555D-07  0.28602598884382D-07  0.31947954249185D-07  0.35417705813152D-07  0.38851094484683D-07  0.42086285756943D-07
 0.16019500000000D+03  0.18205003926842D-07  0.18640940303755D-07  0.19726271542246D-07  0.21446025556547D-07  0.23748344824088D-07  0.26547023676477D-07  0.29726068431320D-07  0.33145952127702D-07  0.36651146687345D-07  0.40078464776145D-07
 0.16029500000000D+03  0.18497426316436D-07  0.18459943736776D-07  0.19062336039952D-07  0.20318005324235D-07  0.22202748501009D-07  0.24655618028839D-07  0.27581990130670D-07  0.30858601876236D-07  0.34340201213782D-07  0.37867373918865D-07
 0.16039500000000D+03  0.19136578971379D-07  0.18644292675464D-07  0.18760912006077D-07  0.19527895660025D-07  0.20949720654562D-07  0.22992983545643D-07  0.25587810890355D-07  0.28631449000920D-07  0.31993760777189D-07  0.35524247976983D-07
 0.16049500000000D+03  0.20102477407218D-07  0.19189811193963D-07  0.18834506452398D-07  0.19104723027956D-07  0.20033619837943D-07  0.21616685301538D-07  0.23811384685752D-07  0.26539117658316D-07  0.29689317977725D-07  0.33125391111980D-07
 0.16059500000000D+03  0.21363737102087D-07  0.20079830471322D-07  0.19282815204064D-07  0.19065187669607D-07  0.19487736763807D-07  0.20575169074539D-07  0.22313958026579D-07  0.24652541939458D-07  0.27503823599086D-07  0.30749766219217D-07
 0.16069500000000D+03  0.22878630186087D-07  0.21285685826016D-07  0.20092609240879D-07  0.19412933502251D-07  0.19332986517513D-07  0.19905954046561D-07  0.21147972326260D-07  0.23036507772917D-07  0.25511107814236D-07  0.28476435140794D-07
 0.16079500000000D+03  0.24596535763895D-07  0.22767666114709D-07  0.21238098888297D-07  0.20138286155513D-07  0.19577025641613D-07  0.19634178359029D-07  0.20355125463922D-07  0.21747346997662D-07  0.23779341531699D-07  0.26381929493108D-07
 0.16089500000000D+03  0.26459728147646D-07  0.24476382916493D-07  0.22681769791482D-07  0.21218480223261D-07  0.20213840218928D-07  0.19771564314047D-07  0.19964774049418D-07  0.20830873216846D-07  0.22368629137519D-07  0.24537639364150D-07
 0.16099500000000D+03  0.28405431961222D-07  0.26354507799119D-07  0.24375663579654D-07  0.22618376023287D-07  0.21223832583769D-07  0.20315855438735D-07  0.19992748276844D-07  0.20320644701330D-07  0.21328824539051D-07  0.23007312033727D-07
 0.16109500000000D+03  0.30368061337725D-07  0.28338809212265D-07  0.26263055924466D-07  0.24291644532937D-07  0.22574413435597D-07  0.21250759550893D-07  0.20440637476738D-07  0.20236631008912D-07  0.20697659157068D-07  0.21844754523454D-07
 0.16119500000000D+03  0.32281552938644D-07  0.30362407205448D-07  0.28280466565544D-07  0.26182377983935D-07  0.24221084029888D-07  0.22546411166529D-07  0.21295586929507D-07  0.20584347089234D-07  0.20499262973113D-07  0.21091831607506D-07
 0.16129500000000D+03  0.34081699631404D-07  0.32357155008126D-07  0.30359920942512D-07  0.28227064159087D-07  0.26108971062597D-07  0.24160344144830D-07  0.22530625892670D-07  0.21354501738137D-07  0.20743147796541D-07  0.20776844471248D-07
 0.16139500000000D+03  0.35708393394529D-07  0.34256052008677D-07  0.32431372231916D-07  0.30356845948430D-07  0.28174756196348D-07  0.26038942652338D-07  0.24105524139041D-07  0.22523186972695D-07  0.21423705755442D-07  0.20913364281638D-07
 0.16149500000000D+03  0.37107692084857D-07  0.35995592958314D-07  0.34425186430955D-07  0.32499975198830D-07  0.30348924188490D-07  0.28119316726808D-07  0.25968150860880D-07  0.24052612171203D-07  0.22520256168709D-07  0.21499579617298D-07
 0.16159500000000D+03  0.38233634539165D-07  0.37517963102146D-07  0.36274591902463D-07  0.34584362041797D-07  0.32558239385911D-07  0.30331529292534D-07  0.28056286967346D-07  0.25892362887002D-07  0.23997651299403D-07  0.22518197429749D-07
 0.16169500000000D+03  0.39049741333581D-07  0.38772997905365D-07  0.37917998391071D-07  0.36540118073335D-07  0.34728350783277D-07  0.32601085636198D-07  0.30299821008961D-07  0.27981140508869D-07  0.25807427202695D-07  0.23936914762479D-07
 0.16179500000000D+03  0.39530153507396D-07  0.39719838370983D-07  0.39301098513320D-07  0.38301993985805D-07  0.36786421387754D-07  0.34851585050269D-07  0.32623241510336D-07  0.30248916871075D-07  0.27889461365134D-07  0.25709453962986D-07
 0.16189500000000D+03  0.39660377751586D-07  0.40328227759993D-07  0.40378676430045D-07  0.39811619170808D-07  0.38663678405618D-07  0.37007428204164D-07  0.34948325454034D-07  0.32619418905783D-07  0.30174075588255D-07  0.27777128963418D-07
 0.16199500000000D+03  0.39437623074896D-07  0.40579411881602D-07  0.41116062962716D-07  0.41019461791151D-07  0.40297786511019D-07  0.38996473042477D-07  0.37196914777330D-07  0.35012843665797D-07  0.32584502066626D-07  0.30070885901640D-07
 0.16209500000000D+03  0.38870729988062D-07  0.40466622086868D-07  0.41490192857076D-07  0.41886442014423D-07  0.41634956603278D-07  0.40752536481120D-07  0.39293670376040D-07  0.37348694399738D-07  0.35039614143064D-07  0.32513739438401D-07
 0.16219500000000D+03  0.37979708114391D-07  0.39995136814957D-07  0.41490237256008D-07  0.42385147542113D-07  0.42631716191573D-07  0.42217648376844D-07  0.41168696210833D-07  0.39548624320921D-07  0.37456811793548D-07  0.35023507993566D-07
 0.16229500000000D+03  0.36794911317243D-07  0.39181933269597D-07  0.41117801806350D-07  0.42500618251573D-07  0.43256283894767D-07  0.43343977407895D-07  0.42759934264447D-07  0.41539176348335D-07  0.39754946122000D-07  0.37515737902512D-07
 0.16239500000000D+03  0.35355890563884D-07  0.38054954956269D-07  0.40386697391351D-07  0.42230684729107D-07  0.43489508476146D-07  0.44095364660562D-07  0.44015243577509D-07  0.43254314088659D-07  0.41857167228402D-07  0.39906698940711D-07
 0.16249500000000D+03  0.33709973601950D-07  0.36652032960688D-07  0.39322305598613D-07  0.41585862848514D-07  0.43325351335034D-07  0.44448418812733D-07  0.44894092449422D-07  0.44637651007605D-07  0.43693585531188D-07  0.42116332109599D-07
 0.16259500000000D+03  0.31910627024362D-07  0.35019508725622D-07  0.37960574213332D-07  0.40588822621291D-07  0.42770909525317D-07  0.44393145783434D-07  0.45368811058765D-07  0.45644300186329D-07  0.45203647383894D-07  0.44071034911940D-07
 0.16269500000000D+03  0.30015660467423D-07  0.33210613557905D-07  0.36346688942374D-07  0.39273463758180D-07  0.41845993378075D-07  0.43933104592140D-07  0.45425371136850D-07  0.46242285197258D-07  0.46338140742956D-07  0.45706179060795D-07
 0.16279500000000D+03  0.28085334638908D-07  0.31283665163833D-07  0.34533476051764D-07  0.37683642352264D-07  0.40582288050491D-07  0.43085099088434D-07  0.45063678875736D-07  0.46413472330823D-07  0.47060764643551D-07  0.46968269827586D-07
 0.16289500000000D+03  0.26180434785774D-07  0.29300144259039D-07  0.32579596595360D-07  0.35871602597315D-07  0.39022141359829D-07  0.41878431481029D-07  0.44297386045126D-07  0.46154004562390D-07  0.47349216163027D-07  0.47816673979206D-07
 0.16299500000000D+03  0.24360369304180D-07  0.27322714890795D-07  0.30547596489422D-07  0.33896174408609D-07  0.37217030812064D-07  0.40353757704256D-07  0.43153241569870D-07  0.45474237276719D-07  0.47195769247649D-07  0.48224863300795D-07
 0.16309500000000D+03  0.22681349711164D-07  0.25413250758031D-07  0.28501877991523D-07  0.31820802251647D-07  0.35225770674319D-07  0.38561596275996D-07  0.41670021002853D-07  0.44398194032110D-07  0.46607340191543D-07  0.48181141854387D-07
 0.16319500000000D+03  0.21194703389701D-07  0.23630926758530D-07  0.26506657374958D-07  0.29711472532407D-07  0.33112525270738D-07  0.36560551251885D-07  0.39897084022976D-07  0.42962576899513D-07  0.45605053780685D-07  0.47688846263614D-07
 0.16329500000000D+03  0.19945364637697D-07  0.22030430488648D-07  0.24623970989803D-07  0.27634606752202D-07  0.30944697506567D-07  0.34415316133632D-07  0.37892620073337D-07  0.41215379696160D-07  0.44223341428409D-07  0.46766028461810D-07
 0.16339500000000D+03  0.18970582837691D-07  0.20660342725027D-07  0.22911787726075D-07  0.25654985515059D-07  0.28790762123149D-07  0.32194529223536D-07  0.35721649459229D-07  0.39214163473953D-07  0.42508617508797D-07  0.45444648699690D-07
 0.16349500000000D+03  0.18298879244774D-07  0.19561729279466D-07  0.21422280405205D-07  0.23833764654209D-07  0.26718111586182D-07  0.29968552096121D-07  0.33453851701223D-07  0.37024061807026D-07  0.40517592208708D-07  0.43769322586209D-07
 0.16359500000000D+03  0.17949276175780D-07  0.18766979274317D-07  0.20200302081125D-07  0.22226639484457D-07  0.24790979070031D-07  0.27807241803484D-07  0.31161294831535D-07  0.34715588772099D-07  0.38315288409875D-07  0.41795679140049D-07
 0.16369500000000D+03  0.17930814465881D-07  0.18298917057346D-07  0.19282105878400D-07  0.20882206754998D-07  0.23068497994751D-07  0.25777784401956D-07  0.28916138845973D-07  0.32362325156375D-07  0.35972836367646D-07  0.39588397052089D-07
 0.16379500000000D+03  0.18242367114449D-07  0.18170206865941D-07  0.18694339064131D-07  0.19840566529630D-07  0.21602951274248D-07  0.23942652661547D-07  0.26788383936217D-07  0.30038558564309D-07  0.33565123377259D-07  0.37218993552565D-07
 0.16389500000000D+03  0.18872749228950D-07  0.18383061147084D-07  0.18453333758050D-07  0.19132198201659D-07  0.20438256110860D-07  0.22357744678691D-07  0.24843729709322D-07  0.27816950981177D-07  0.31168376403266D-07  0.34763444520087D-07
 0.16399500000000D+03  0.19801116836054D-07  0.18929255311391D-07  0.18564708229398D-07  0.18777136386156D-07  0.19608722078471D-07  0.21070752834482D-07  0.23141605643187D-07  0.25766303272385D-07  0.28857754043272D-07  0.32299715939873D-07
 0.16409500000000D+03  0.20997639991118D-07  0.19790443800091D-07  0.19023284290894D-07  0.18784463732658D-07  0.19138111612243D-07  0.20119804391673D-07  0.21733425816166D-07  0.23949480350165D-07  0.26705020489982D-07  0.29905285759945D-07
 0.16419500000000D+03  0.22424428994309D-07  0.20938764811674D-07  0.19813318044182D-07  0.19152128959773D-07  0.19039023090480D-07  0.19532406255386D-07  0.20661112764171D-07  0.22421553621647D-07  0.24776368649640D-07  0.27654731894036D-07
 0.16429500000000D+03  0.24036686514786D-07  0.22337713994113D-07  0.20909033306916D-07  0.19867089805914D-07  0.19312607657990D-07  0.19324717269855D-07  0.19955926423677D-07  0.21228209134193D-07  0.23130452577947D-07  0.25617456888441D-07
 0.16439500000000D+03  0.25784053121079D-07  0.23943260969691D-07  0.22275439593923D-07  0.20905772277966D-07  0.19948621988853D-07  0.19501162103732D-07  0.19637624761307D-07  0.20404460831972D-07  0.21816681208076D-07  0.23855612923992D-07
 0.16449500000000D+03  0.27612109191656D-07  0.25705176819593D-07  0.23869409654088D-07  0.22234829707673D-07  0.20925810491574D-07  0.20054391489854D-07  0.19713973100275D-07  0.19973698792395D-07  0.20873816258728D-07  0.22422282676849D-07
 0.16459500000000D+03  0.29463992497351D-07  0.27568535698804D-07  0.25640985387673D-07  0.23812177824621D-07  0.22212602177618D-07  0.20965584515376D-07  0.20180609543135D-07  0.19947092464877D-07  0.20328907496605D-07  0.21359962414814D-07
 0.16469500000000D+03  0.31282087957635D-07  0.29475349649349D-07  0.27534875578561D-07  0.25588275441369D-07  0.23768099686406D-07  0.22205079972128D-07  0.21021264454259D-07  0.20323359012183D-07  0.20196588442728D-07  0.20699383845648D-07
 0.16479500000000D+03  0.33009744214262D-07  0.31366292489524D-07  0.29492104351799D-07  0.27507614522663D-07  0.25543330912283D-07  0.23733315626670D-07  0.22208322882862D-07  0.21088897063344D-07  0.20478745392965D-07  0.20458700928956D-07
 0.16489500000000D+03  0.34592970765823D-07  0.33182466423495D-07  0.31451765674036D-07  0.29510378464254D-07  0.27482727422905D-07  0.25502046790835D-07  0.23703710240216D-07  0.22218276716626D-07  0.21164562488837D-07  0.20643057363450D-07
 0.16499500000000D+03  0.35982069481457D-07  0.34867163771733D-07  0.33352836604508D-07  0.31534223410667D-07  0.29525788490111D-07  0.27455808887104D-07  0.25460073639157D-07  0.23675067654066D-07  0.22230935726312D-07  0.21244539997728D-07
 0.16509500000000D+03  0.37133155367945D-07  0.36367575988518D-07  0.35136000414719D-07  0.33516134453179D-07  0.31608885154068D-07  0.29533582913482D-07  0.27422224189785D-07  0.25412978901670D-07  0.23643239411415D-07  0.22242513197720D-07
 0.16519500000000D+03  0.38009523499623D-07  0.37636402917294D-07  0.36745430150252D-07  0.35394306612505D-07  0.33667155374030D-07  0.31670617907958D-07  0.29528799335626D-07  0.27377276230825D-07  0.25356419828107D-07  0.23604319431980D-07
 0.16529500000000D+03  0.38582822025696D-07  0.38633317037155D-07  0.38130483720082D-07  0.37109999653796D-07  0.35636439033298D-07  0.33800360764631D-07  0.31714099105515D-07  0.29506436568402D-07  0.27316382924706D-07  0.25286322183204D-07
 0.16539500000000D+03  0.38833995129283D-07  0.39326240264995D-07  0.39247263167876D-07  0.38609316019255D-07  0.37455200394777D-07  0.35856441116819D-07  0.33910046026662D-07  0.31733993169746D-07  0.29461635780687D-07  0.27235258918912D-07
 0.16549500000000D+03  0.38753964706225D-07  0.39692394681411D-07  0.40059993396798D-07  0.39844852498040D-07  0.39066385564840D-07  0.37774657514446D-07  0.36048215454236D-07  0.33990520795647D-07  0.31725135598096D-07  0.29389864395523D-07
 0.16559500000000D+03  0.38344025332840D-07  0.39719093322049D-07  0.40542179266807D-07  0.40777178674910D-07  0.40419163620588D-07  0.39494910804955D-07  0.38061881264884D-07  0.36205706788289D-07  0.34036295063889D-07  0.31682718148294D-07
 0.16569500000000D+03  0.37615933766321D-07  0.39404242891444D-07  0.40677504636953D-07  0.41376098689580D-07  0.41470502280165D-07  0.40963031484393D-07  0.39888021260426D-07  0.38310451809528D-07  0.36323089224312D-07  0.34042264735069D-07
 0.16579500000000D+03  0.36591681723990D-07  0.38756536878450D-07  0.40460442554362D-07  0.41621657371531D-07  0.42186532327549D-07  0.42132449809491D-07  0.41469227241262D-07  0.40238943116025D-07  0.38514206552686D-07  0.36394951233986D-07
 0.16589500000000D+03  0.35302948954598D-07  0.37795325035958D-07  0.39896552359373D-07  0.41504857356873D-07  0.42543659413538D-07  0.42965660631769D-07  0.42755466528809D-07  0.41930643609973D-07  0.40541185710181D-07  0.38667423702478D-07
 0.16599500000000D+03  0.33790242556703D-07  0.36550153472388D-07  0.39002446937095D-07  0.41028060305323D-07  0.42529387307314D-07  0.43435439199710D-07  0.43705644720702D-07  0.43332141514096D-07  0.42340479608156D-07  0.40788722824070D-07
 0.16609500000000D+03  0.32101737988111D-07  0.35059978604504D-07  0.37805421640496D-07  0.40205052769238D-07  0.42142823125482D-07  0.43525769535726D-07  0.44288923618458D-07  0.44398808353199D-07  0.43855389774532D-07  0.42692418816276D-07
 0.16619500000000D+03  0.30291847068877D-07  0.33372067822730D-07  0.36342745460015D-07  0.39060765564485D-07  0.41394842468231D-07  0.43232453384879D-07  0.44485753532128D-07  0.45096216946217D-07  0.45037816682845D-07  0.44318626843287D-07
 0.16629500000000D+03  0.28419548268387D-07  0.31540609757219D-07  0.34660624710137D-07  0.37630644578887D-07  0.40307900686228D-07  0.42563375099537D-07  0.44288585490419D-07  0.45401276276941D-07  0.45849775583939D-07  0.45615846648352D-07
 0.16639500000000D+03  0.26546524372253D-07  0.29625067281912D-07  0.32812859692815D-07  0.35959680725780D-07  0.38915485613074D-07  0.41538406107481D-07  0.43702236211534D-07  0.45303046364359D-07  0.46264632437791D-07  0.46542573854247D-07
 0.16649500000000D+03  0.24735161858144D-07  0.27688316560676D-07  0.30859225273567D-07  0.34101117067355D-07  0.37261216930026D-07  0.40188941737403D-07  0.42743886956193D-07  0.44803203534529D-07  0.46268020718842D-07  0.47068635324033D-07
 0.16659500000000D+03  0.23046474509289D-07  0.25794625152273D-07  0.28863616792868D-07  0.32114861802831D-07  0.35397607751480D-07  0.38557073052603D-07  0.41442706516323D-07  0.43916134738319D-07  0.45858407097387D-07  0.47176207066456D-07
 0.16669500000000D+03  0.21538020440447D-07  0.24007531000142D-07  0.26892012879678D-07  0.30065646582796D-07  0.33384514853740D-07  0.36694406848845D-07  0.39839098500956D-07  0.42668648687995D-07  0.45047282211418D-07  0.46860480341118D-07
 0.16679500000000D+03  0.20261886254579D-07  0.22387691523285D-07  0.25010316101720D-07  0.28020980139438D-07  0.31287314976406D-07  0.34660557941036D-07  0.37983583649694D-07  0.41099301512095D-07  0.43858961859867D-07  0.46129949792629D-07
 0.16689500000000D+03  0.19262813952483D-07  0.20990777438443D-07  0.23282140471495D-07  0.26048957096956D-07  0.29174855491929D-07  0.32521349073695D-07  0.35935338980562D-07  0.39257345242393D-07  0.42329993881273D-07  0.45006306538984D-07
 0.16699500000000D+03  0.18576545011538D-07  0.19865488820335D-07  0.21766621067398D-07  0.24215990552232D-07  0.27117238068155D-07  0.30346764949092D-07  0.33760426957845D-07  0.37201318606200D-07  0.40508176625258D-07  0.43523929068005D-07
 0.16709500000000D+03  0.18228451388768D-07  0.19051770732906D-07  0.20516324846784D-07  0.22584544034696D-07  0.25183503261825D-07  0.28208717599510D-07  0.31529759273886D-07  0.34997311111697D-07  0.38451206143869D-07  0.41728975453057D-07
 0.16719500000000D+03  0.18232514929286D-07  0.18579302135769D-07  0.19575342573024D-07  0.21210943175057D-07  0.23439291726830D-07  0.26178690175466D-07  0.29316850924130D-07  0.32716943030732D-07  0.36224980849620D-07  0.39678091658370D-07
 0.16729500000000D+03  0.18590704852647D-07  0.18466324453415D-07  0.18977639192354D-07  0.20143349256106D-07  0.21944563302086D-07  0.24325334640399D-07  0.27195430577191D-07  0.30435115272636D-07  0.33901604173465D-07  0.37436762401644D-07
 0.16739500000000D+03  0.19292787995463D-07  0.18718865186086D-07  0.18745733674435D-07  0.19419975277027D-07  0.20751458058202D-07  0.22712105256456D-07  0.25236982277213D-07  0.28227593887448D-07  0.31557137402008D-07  0.35077342961649D-07
 0.16749500000000D+03  0.20316588933361D-07  0.19330397506069D-07  0.18889769186332D-07  0.19067619864362D-07  0.19902382878616D-07  0.21395013496949D-07  0.23508300671867D-07  0.26168503532311D-07  0.29269165986820D-07  0.32676822177153D-07
 0.16759500000000D+03  0.21628697864551D-07  0.20281959473362D-07  0.19407020682981D-07  0.19100585140407D-07  0.19428402896517D-07  0.20420590541930D-07  0.22069146607188D-07  0.24327812098762D-07  0.27114252716840D-07  0.30314378314082D-07
 0.16769500000000D+03  0.23185604280107D-07  0.21542737143185D-07  0.20281870040856D-07  0.19520031605837D-07  0.19348008857879D-07  0.19824140314752D-07  0.20970091454420D-07  0.22768894198792D-07  0.25165359660494D-07  0.28068800021900D-07
 0.16779500000000D+03  0.24935215151203D-07  0.23071095470265D-07  0.21486259497070D-07  0.20313806596538D-07  0.19666319237931D-07  0.19628358779187D-07  0.20250636394651D-07  0.21546263706452D-07  0.23489327087915D-07  0.26015853710317D-07
 0.16789500000000D+03  0.26818698817229D-07  0.24816020730849D-07  0.22980613394724D-07  0.21456763626483D-07  0.20374760003900D-07  0.19842383856146D-07  0.19937686694277D-07  0.20703564466909D-07  0.22144501023133D-07  0.24225685732624D-07
 0.16799500000000D+03  0.28772581047320D-07  0.26718919415480D-07  0.24715197266034D-07  0.22911568895255D-07  0.21451245905078D-07  0.20461325045665D-07  0.20044450590387D-07  0.20271903161884D-07  0.21178601033255D-07  0.22760352102320D-07
 0.16809500000000D+03  0.30731008759975D-07  0.28715702358324D-07  0.26631863376170D-07  0.24629969597180D-07  0.22860865992714D-07  0.21466303183601D-07  0.20569817886377D-07  0.20268598908982D-07  0.20626915823841D-07  0.21671569448832D-07
 0.16819500000000D+03  0.32628090234968D-07  0.30739070253066D-07  0.28666114237740D-07  0.26554477712405D-07  0.24557053879489D-07  0.22825009568493D-07  0.21498255174781D-07  0.20696410495679D-07  0.20510905848361D-07  0.20998777972321D-07
 0.16829500000000D+03  0.34400218632061D-07  0.32720908390126D-07  0.30749401377219D-07  0.28620403984833D-07  0.26483201347554D-07  0.24492771078623D-07  0.22800233526718D-07  0.21543284552275D-07  0.20837279384925D-07  0.20767599884680D-07
 0.16839500000000D+03  0.35988288204089D-07  0.34594694844581D-07  0.32811566634136D-07  0.30758160978409D-07  0.28574653652666D-07  0.26414085168956D-07  0.24433181583806D-07  0.22782647139500D-07  0.21597591633642D-07  0.20988765063451D-07
 0.16849500000000D+03  0.37339719411561D-07  0.36297827515444D-07  0.34783328030442D-07  0.32895742408989D-07  0.30761007515416D-07  0.28524567179250D-07  0.26342933552536D-07  0.24374238173822D-07  0.22768395939603D-07  0.21657559545774D-07
 0.16859500000000D+03  0.38410219609176D-07  0.37773781102887D-07  0.36598711939444D-07  0.34961279024534D-07  0.32968619406321D-07  0.30753233540466D-07  0.28465619047552D-07  0.26265464105243D-07  0.24311953187512D-07  0.22753832550642D-07
 0.16869500000000D+03  0.39165219293147D-07  0.38974014764763D-07  0.38197337741764D-07  0.36885569447479D-07  0.35123223093113D-07  0.33025029409151D-07  0.30729921467328D-07  0.28393220726680D-07  0.26177480973298D-07  0.24242574796489D-07
 0.16879500000000D+03  0.39580939177583D-07  0.39859564056363D-07  0.39526469900827D-07  0.38604487531786D-07  0.37152551944291D-07  0.35263498885312D-07  0.33059614885521D-07  0.30686116395049D-07  0.28302899764569D-07  0.26075056154340D-07
 0.16889500000000D+03  0.39645059687094D-07  0.40402265932236D-07  0.40542764697614D-07  0.40061175520322D-07  0.38988863214032D-07  0.37393490823070D-07  0.35376277321246D-07  0.33067007645157D-07  0.30617010422330D-07  0.28190485559473D-07
 0.16899500000000D+03  0.39356980932312D-07  0.40585582128758D-07  0.41213653844817D-07  0.41207943937009D-07  0.40571268152514D-07  0.39343793482905D-07  0.37602071385709D-07  0.35455745314024D-07  0.33042017616632D-07  0.30518132132885D-07
 0.16909500000000D+03  0.38727677092951D-07  0.40405003227229D-07  0.41518323886302D-07  0.42007813838183D-07  0.41847782669634D-07  0.41049596677422D-07  0.39662481972030D-07  0.37772020669983D-07  0.35496298077240D-07  0.32979825155306D-07
 0.16919500000000D+03  0.37779163720870D-07  0.39868032280361D-07  0.41448267713646D-07  0.42435653797082D-07  0.42777027578117D-07  0.42454690072379D-07  0.41488904742163D-07  0.39938198067971D-07  0.37897302212651D-07  0.35492733245777D-07
 0.16929500000000D+03  0.36543609297605D-07  0.38993762358910D-07  0.41007401802244D-07  0.42478881801383D-07  0.43329524165541D-07  0.43513320103664D-07  0.43020988189133D-07  0.41882023325524D-07  0.40164472950512D-07  0.37972310889100D-07
 0.16939500000000D+03  0.35062133097495D-07  0.37812076181490D-07  0.40211759110502D-07  0.42137720156999D-07  0.43488548958367D-07  0.44191644571506D-07  0.44208645240342D-07  0.43539104940016D-07  0.42222066817273D-07  0.40335294012383D-07
 0.16949500000000D+03  0.33383339826664D-07  0.36362507731894D-07  0.39088782373791D-07  0.41425008673550D-07  0.43250530043592D-07  0.44468742313285D-07  0.45013666741228D-07  0.44855077726961D-07  0.44001768989307D-07  0.42502625877570D-07
 0.16959500000000D+03  0.31561647567278D-07  0.34692815201699D-07  0.37676255301720D-07  0.40365597168437D-07  0.42624985303564D-07  0.44337154386307D-07  0.45410887635482D-07  0.45787374494190D-07  0.45445005657848D-07  0.44402199946873D-07
 0.16969500000000D+03  0.29655469300282D-07  0.32857321618019D-07  0.36020919656319D-07  0.38995352145048D-07  0.41634019639273D-07  0.43802951948015D-07  0.45388876144944D-07  0.46306549882509D-07  0.46504872628525D-07  0.45971317014865D-07
 0.16979500000000D+03  0.27725309835814D-07  0.30915084140041D-07  0.34176834201764D-07  0.37359824022650D-07  0.40311413118451D-07  0.42885343676987D-07  0.44950135724634D-07  0.46397120367570D-07  0.47147617524478D-07  0.47158768898756D-07
 0.16989500000000D+03  0.25831839535686D-07  0.28927955338930D-07  0.32203537051973D-07  0.35512630324941D-07  0.38701344573128D-07  0.41615851476354D-07  0.44110828130625D-07  0.46057904547484D-07  0.47353633114529D-07  0.47926479244378D-07
 0.16999500000000D+03  0.24034003991881D-07  0.26958599986963D-07  0.30164076081575D-07  0.33513616712082D-07  0.36856805239546D-07  0.40037096864747D-07  0.42900042862801D-07  0.45301867271914D-07  0.47117940007498D-07  0.48250652348319D-07
 0.17009500000000D+03  0.22387225074927D-07  0.25068529191907D-07  0.28122972965756D-07  0.31426861720802D-07  0.34837764481773D-07  0.38201251586284D-07  0.41358652987123D-07  0.44155489100822D-07  0.46450157208216D-07  0.48122402129309D-07
 0.17019500000000D+03  0.20941743738983D-07  0.23316210366653D-07  0.26144185285869D-07  0.29318592698443D-07  0.32709154492269D-07  0.36168214416623D-07  0.39537809542663D-07  0.42657698401817D-07  0.45373977946621D-07  0.47547854405531D-07
 0.17029500000000D+03  0.19741148915720D-07  0.21755306777890D-07  0.24289128223417D-07  0.27255079880350D-07  0.30538743237551D-07  0.34003581896878D-07  0.37497136205734D-07  0.40858416682368D-07  0.43926185084025D-07  0.46547735502005D-07
 0.17039500000000D+03  0.18821129985355D-07  0.20433094526991D-07  0.22614812923932D-07  0.25300573105992D-07  0.28394965004421D-07  0.31776483888132D-07  0.35302692570935D-07  0.38816778264238D-07  0.42155254783421D-07  0.45156478164866D-07
 0.17049500000000D+03  0.18208482904648D-07  0.19389098028589D-07  0.21172152906445D-07  0.23515341558625D-07  0.26344775937891D-07  0.29557355582589D-07  0.33024778388460D-07  0.36599093056705D-07  0.40119608706001D-07  0.43420891242480D-07
 0.17059500000000D+03  0.17920392305207D-07  0.18653977601618D-07  0.20004483179782D-07  0.21953871414363D-07  0.24451598208730D-07  0.27415716163632D-07  0.30735652529491D-07  0.34276626016027D-07  0.37885583635222D-07  0.41398452250734D-07
 0.17069500000000D+03  0.17964003940646D-07  0.18248694891799D-07  0.19146329248116D-07  0.20663269664095D-07  0.22773411180234D-07  0.25418020939572D-07  0.28507239560487D-07  0.31923269034443D-07  0.35525193144960D-07  0.39155291596110D-07
 0.17079500000000D+03  0.18336293929818D-07  0.18183973704140D-07  0.18622455174049D-07  0.19681914880445D-07  0.21361041434062D-07  0.23625648763930D-07  0.26408893855826D-07  0.29613180697625D-07  0.33113758842756D-07  0.36763943862869D-07
 0.17089500000000D+03  0.19024233470973D-07  0.18460065622281D-07  0.18447211530112D-07  0.19038387582396D-07  0.20256696029011D-07  0.22093080180726D-07  0.24505286450441D-07  0.27418466846614D-07  0.30727489037041D-07  0.34300945280156D-07
 0.17099500000000D+03  0.20005240227906D-07  0.19066821694905D-07  0.18624195603741D-07  0.18750704326208D-07  0.19492775156536D-07  0.20866314272454D-07  0.22854473620255D-07  0.25406970466798D-07  0.28441080657351D-07  0.31844357462266D-07
 0.17109500000000D+03  0.21247900539124D-07  0.19984063628592D-07  0.19146227804546D-07  0.18825870929686D-07  0.19090991658757D-07  0.19981563905054D-07  0.21506198764820D-07  0.23640233400606D-07  0.26325416189873D-07  0.29471296015179D-07
 0.17119500000000D+03  0.22712940086122D-07  0.21182240477132D-07  0.19995640017833D-07  0.19259761507412D-07  0.19061815907694D-07  0.19464260206767D-07  0.20500470829440D-07  0.22171685039358D-07  0.24445421582831D-07  0.27255538917555D-07
 0.17129500000000D+03  0.24354414775145D-07  0.22623349881045D-07  0.21144863801547D-07  0.20037321430673D-07  0.19404255510362D-07  0.19328387917877D-07  0.19866453504335D-07  0.21045104780814D-07  0.22858143834320D-07  0.25265284027108D-07
 0.17139500000000D+03  0.26121088423899D-07  0.24262096595805D-07  0.22557298966988D-07  0.21133084085119D-07  0.20105970388224D-07  0.19576163920037D-07  0.19621690020285D-07  0.20293395916242D-07  0.21611098598958D-07  0.23561117950456D-07
 0.17149500000000D+03  0.27957959473410D-07  0.26047255447843D-07  0.24188436334887D-07  0.22511983524404D-07  0.21143715150376D-07  0.20198061994313D-07  0.19771678750299D-07  0.19937698991374D-07  0.20740928925667D-07  0.22194250157811D-07
 0.17159500000000D+03  0.29807895426321D-07  0.27923201055401D-07  0.25987202421886D-07  0.24130437937249D-07  0.22484092491102D-07  0.21173177846569D-07  0.20309805234418D-07  0.19986862808671D-07  0.20272406437039D-07  0.21205056922303D-07
 0.17169500000000D+03  0.31613331094681D-07  0.29831562715307D-07  0.27897488578531D-07  0.25937672372341D-07  0.24084593732581D-07  0.22469919841872D-07  0.21217626861721D-07  0.20437281325418D-07  0.20217796133273D-07  0.20621969700601D-07
 0.17179500000000D+03  0.33317985059284D-07  0.31712959842231D-07  0.29859822745295D-07  0.27877243499593D-07  0.25894895725868D-07  0.24047002854874D-07  0.22465497445474D-07  0.21273094956925D-07  0.20576595784344D-07  0.20460732211729D-07
 0.17189500000000D+03  0.34868548023835D-07  0.33508771296538D-07  0.31813138580628D-07  0.29888724412437D-07  0.27858377226331D-07  0.25854715303843D-07  0.24013510473266D-07  0.22466745403246D-07  0.21335650778479D-07  0.20724039960995D-07
 0.17199500000000D+03  0.36216297005175D-07  0.35162890880501D-07  0.33696594293336D-07  0.31909503664094D-07  0.29913812666639D-07  0.27836422909731D-07  0.25812732046990D-07  0.23979864250892D-07  0.22469635520991D-07  0.21401565523157D-07
 0.17209500000000D+03  0.37318590540146D-07  0.36623421238431D-07  0.35451392115947D-07  0.33876649936366D-07  0.31997197038734D-07  0.29930267109930D-07  0.27806687574294D-07  0.25764467411024D-07  0.23941883205293D-07  0.22470362752544D-07
 0.17219500000000D+03  0.38140202307076D-07  0.37844259371432D-07  0.37022549007934D-07  0.35728792002821D-07  0.34043652427743D-07  0.32071011444327D-07  0.29933060243745D-07  0.27764420078492D-07  0.25705537170425D-07  0.23895633418771D-07
 0.17229500000000D+03  0.38654453744745D-07  0.38786528969463D-07  0.38360569887499D-07  0.37407962995259D-07  0.35989364661314D-07  0.34191985687359D-07  0.32125554303274D-07  0.29917130450342D-07  0.27704989261792D-07  0.25631830747735D-07
 0.17239500000000D+03  0.38844110387704D-07  0.39419817761480D-07  0.39422976456540D-07  0.38861358425163D-07  0.37773497577431D-07  0.36227075075351D-07  0.34315872240573D-07  0.32155425028843D-07  0.29877563751393D-07  0.27624066133450D-07
 0.17249500000000D+03  0.38702011702274D-07  0.39723182071216D-07  0.40175647494586D-07  0.40042958950524D-07  0.39340032587545D-07  0.38112700707969D-07  0.36435752192357D-07  0.34409554034601D-07  0.32155399559019D-07  0.29809778012854D-07
 0.17259500000000D+03  0.38231410174778D-07  0.39685885717968D-07  0.40593930335011D-07  0.40914971501538D-07  0.40639482520947D-07  0.39789737104317D-07  0.38419010325611D-07  0.36609272333231D-07  0.34467478836007D-07  0.32120615679529D-07
 0.17269500000000D+03  0.37446002236647D-07  0.39307846289538D-07  0.40663488075166D-07  0.41449046066285D-07  0.41630431169586D-07  0.41205313970663D-07  0.40203532559724D-07  0.38685939378060D-07  0.36741746497272D-07  0.34484485749758D-07
 0.17279500000000D+03  0.36369641261813D-07  0.38599768601201D-07  0.40380852879640D-07  0.41627230161449D-07  0.42280853488302D-07  0.42314451477140D-07  0.41733160838232D-07  0.40574581016547D-07  0.38907263064644D-07  0.36827705161074D-07
 0.17289500000000D+03  0.35035731272713D-07  0.37582952793100D-07  0.39753662474317D-07  0.41442628739455D-07  0.42569176013466D-07  0.43081481721896D-07  0.42959421202079D-07  0.42215856606093D-07  0.40896332243580D-07  0.39077202033700D-07
 0.17299500000000D+03  0.33486309046172D-07  0.36288772944405D-07  0.38800564550429D-07  0.40899743970993D-07  0.42485042705919D-07  0.43481213550387D-07  0.43843044138806D-07  0.43557876725735D-07  0.42646545005447D-07  0.41162704491994D-07
 0.17309500000000D+03  0.31770831883679D-07  0.34757831206826D-07  0.37550782240510D-07  0.40014476942121D-07  0.42029758058195D-07  0.43499803454305D-07  0.44355232048686D-07  0.44557819828838D-07  0.44102683579571D-07  0.43018857638116D-07
 0.17319500000000D+03  0.29944698213479D-07  0.33038802157066D-07  0.36043343007983D-07  0.38813781756544D-07  0.41216386880079D-07  0.43135301851571D-07  0.44478634135577D-07  0.45183300420854D-07  0.45218431647597D-07  0.44587210285841D-07
 0.17329500000000D+03  0.28067538171724D-07  0.31186992163369D-07  0.34325983092853D-07  0.37334971756538D-07  0.40069498629383D-07  0.42397851592140D-07  0.44207995546051D-07  0.45413446718149D-07  0.45957841137832D-07  0.45818015772974D-07
 0.17339500000000D+03  0.26201321040108D-07  0.29262648819535D-07  0.32453749916499D-07  0.35624687461634D-07  0.38624553408832D-07  0.41309523981241D-07  0.43550455087699D-07  0.45239652193548D-07  0.46296511288428D-07  0.46671795134719D-07
 0.17349500000000D+03  0.24408335494671D-07  0.27329065612340D-07  0.30487335349704D-07  0.33737546223615D-07  0.36926936703150D-07  0.39903786885997D-07  0.42525474291465D-07  0.44665972880152D-07  0.46222442026020D-07  0.47120616083795D-07
 0.17359500000000D+03  0.22749106570593D-07  0.25450536568413D-07  0.28491183200010D-07  0.31734504306356D-07  0.35030660444362D-07  0.38224609495992D-07  0.41164389867274D-07  0.43709150718980D-07  0.45736531124819D-07  0.47149047542223D-07
 0.17369500000000D+03  0.21280319542919D-07  0.23690224211553D-07  0.26531424308919D-07  0.29680972848582D-07  0.32996758879832D-07  0.36325218914061D-07  0.39509591643405D-07  0.42398252520893D-07  0.44852692998132D-07  0.46754756833839D-07
 0.17379500000000D+03  0.20052825012927D-07  0.22108011225449D-07  0.24673701817844D-07  0.27644739607879D-07  0.30891418724228D-07  0.34266534786187D-07  0.37613338756647D-07  0.40773924177369D-07  0.43597586250538D-07  0.45948724999291D-07
 0.17389500000000D+03  0.19109800845567D-07  0.20758411198500D-07  0.22980956945162D-07  0.25693758083894D-07  0.28783893875108D-07  0.32115319404630D-07  0.35536238010591D-07  0.38887270482906D-07  0.42009947193387D-07  0.44755064953966D-07
 0.17399500000000D+03  0.18485144773039D-07  0.19688616170542D-07  0.21511251448188D-07  0.23893874069419D-07  0.26744265149950D-07  0.29942091828634D-07  0.33345419726629D-07  0.36798382173640D-07  0.40139537288537D-07  0.43210437282424D-07
 0.17409500000000D+03  0.18202166149008D-07  0.18936757908314D-07  0.20315706245829D-07  0.22306566312646D-07  0.24841114566390D-07  0.27818865171377D-07  0.31112457789512D-07  0.34574543341611D-07  0.38045723794490D-07  0.41363069243216D-07
 0.17419500000000D+03  0.18272636389555D-07  0.18530455530150D-07  0.19436635912792D-07  0.20986782199710D-07  0.23139191074893D-07  0.25816775823638D-07  0.28911091568079D-07  0.32288163985811D-07  0.35795724559674D-07  0.39271393912693D-07
 0.17429500000000D+03  0.18696245198299D-07  0.18485714086489D-07  0.18905955489300D-07  0.19980950613008D-07  0.21697149762193D-07  0.24003681471680D-07  0.26814817515928D-07  0.30014493764149D-07  0.33462559693444D-07  0.37002338153453D-07
 0.17439500000000D+03  0.19460494144812D-07  0.18806227025146D-07  0.18743929013276D-07  0.19325251899994D-07  0.20565448777429D-07  0.22441810713843D-07  0.24894426987664D-07  0.27829183581429D-07  0.31122764424405D-07  0.34629300025484D-07
 0.17449500000000D+03  0.20541041221927D-07  0.19483120447471D-07  0.18958318334864D-07  0.19044218861211D-07  0.19784487056699D-07  0.21185550270332D-07  0.23215573541886D-07  0.25805770966391D-07  0.28853928418799D-07  0.32229868067178D-07
 0.17459500000000D+03  0.21902490565740D-07  0.20495159298299D-07  0.19543976349319D-07  0.19149732712394D-07  0.19383060932559D-07  0.20279455639621D-07  0.21836457111610D-07  0.24013172662022D-07  0.26732136679393D-07  0.29883346175806D-07
 0.17469500000000D+03  0.23499601678771D-07  0.21809415998069D-07  0.20482911311911D-07  0.19640464239411D-07  0.19377208709258D-07  0.19756567119513D-07  0.20805713299743D-07  0.22513272840334D-07  0.24829395296791D-07  0.27668158137312D-07
 0.17479500000000D+03  0.25278873440042D-07  0.23382381599132D-07  0.21744829189598D-07  0.20501793292478D-07  0.19769499319510D-07  0.19637105100442D-07  0.20160593184360D-07  0.21358697223509D-07  0.23211131142982D-07  0.25659214630248D-07
 0.17489500000000D+03  0.27180441091453D-07  0.25161479535784D-07  0.23288140109772D-07  0.21706220103595D-07  0.20548804613089D-07  0.19927606421568D-07  0.19925512041987D-07  0.20590861583260D-07  0.21933857430559D-07  0.23925332127125D-07
 0.17499500000000D+03  0.29140210314103D-07  0.27086923667200D-07  0.25061394098369D-07  0.23214260669839D-07  0.21690575333409D-07  0.20620547624732D-07  0.20111034197876D-07  0.20238377177638D-07  0.21043096306168D-07  0.22526796876387D-07
 0.17509500000000D+03  0.31092142293440D-07  0.29093846724204D-07  0.27005091729045D-07  0.24975796831600D-07  0.23157619376666D-07  0.21694481737674D-07  0.20713345965276D-07  0.20315885465148D-07  0.20571644819211D-07  0.21513167432990D-07
 0.17519500000000D+03  0.32970597874770D-07  0.31114613412248D-07  0.29053798248049D-07  0.26931830991773D-07  0.24901358687806D-07  0.23114693666529D-07  0.21714249843355D-07  0.20823379990357D-07  0.20538261420981D-07  0.20921405475578D-07
 0.17529500000000D+03  0.34712647761901D-07  0.33081224966997D-07  0.31138476245412D-07  0.29016576953073D-07  0.26863519451543D-07  0.24834356537386D-07  0.23081691635557D-07  0.21746055072428D-07  0.20946836591066D-07  0.20774416540553D-07
 0.17539500000000D+03  0.36260259113193D-07  0.34927719251363D-07  0.33188942801707D-07  0.31159803242458D-07  0.28978190426345D-07  0.26796148728257D-07  0.24770809043570D-07  0.23054699598221D-07  0.21786093569008D-07  0.21080069710674D-07
 0.17549500000000D+03  0.37562276442250D-07  0.36592472527030D-07  0.35136352715679D-07  0.33289334449564D-07  0.31174167581671D-07  0.28934270264434D-07  0.26725466912112D-07  0.24706630887816D-07  0.23029844152100D-07  0.21830748430010D-07
 0.17559500000000D+03  0.38576125791579D-07  0.38020315510117D-07  0.36915610023551D-07  0.35333610116730D-07  0.33377490652653D-07  0.31176779031514D-07  0.28880222069491D-07  0.26647139568833D-07  0.24637801102211D-07  0.23003464045356D-07
 0.17569500000000D+03  0.39269184902287D-07  0.39164386637909D-07  0.38467615324843D-07  0.37224199809082D-07  0.35514069532530D-07  0.33448153019809D-07  0.31162641021257D-07  0.28811393112182D-07  0.26556924159953D-07  0.24560540317805D-07
 0.17579500000000D+03  0.39619777646183D-07  0.39987658839024D-07  0.39741265901464D-07  0.38898177030270D-07  0.37512295929733D-07  0.35671975386606D-07  0.33495877841995D-07  0.31126724601124D-07  0.28723252446866D-07  0.26450852235370D-07
 0.17589500000000D+03  0.39617767400153D-07  0.40464091601633D-07  0.40695138494758D-07  0.40300263173007D-07  0.39305538395185D-07  0.37773634982773D-07  0.35801408432244D-07  0.33515215757859D-07  0.31064153651696D-07  0.28611577436292D-07
 0.17599500000000D+03  0.39264740461870D-07  0.40579376825112D-07  0.41298799978826D-07  0.41384664981591D-07  0.40834426296756D-07  0.39682936222429D-07  0.38001811466975D-07  0.35896470317712D-07  0.33500901264074D-07  0.30970394966344D-07
 0.17609500000000D+03  0.38573786271370D-07  0.40331263907615D-07  0.41533708064616D-07  0.42116544154885D-07  0.42048839909788D-07  0.41336518489691D-07  0.40023486064398D-07  0.38190466254895D-07  0.35951476435912D-07  0.33448045439826D-07
 0.17619500000000D+03  0.37568895493821D-07  0.39729465947627D-07  0.41393681631170D-07  0.42473074740660D-07  0.42909538621723D-07  0.42679996062990D-07  0.41799201260044D-07  0.40320373458601D-07  0.38333481684668D-07  0.35961150262716D-07
 0.17629500000000D+03  0.36284009468560D-07  0.38795164137374D-07  0.40884937432061D-07  0.42444061867828D-07  0.43389376310813D-07  0.43669743938522D-07  0.43270382239627D-07  0.42215227153634D-07  0.40567050068544D-07  0.38425176406683D-07
 0.17639500000000D+03  0.34761764827193D-07  0.37560140871827D-07  0.40025706018326D-07  0.42032113199361D-07  0.43474071219058D-07  0.44274271941574D-07  0.44389052145921D-07  0.43812356196133D-07  0.42577635699765D-07  0.40757427896374D-07
 0.17649500000000D+03  0.33051985062858D-07  0.36065583420953D-07  0.38845454161456D-07  0.41252371452972D-07  0.43162516110958D-07  0.44475148061543D-07  0.45119365125316D-07  0.45059478580765D-07  0.44298579150545D-07  0.42879945854076D-07
 0.17659500000000D+03  0.31209976452943D-07  0.34360608999800D-07  0.37383753423318D-07  0.40131831769620D-07  0.42466632314918D-07  0.44267450995035D-07  0.45438685027405D-07  0.45916393079984D-07  0.45673353735140D-07  0.44722205370770D-07
 0.17669500000000D+03  0.29294689060677D-07  0.32500568640678D-07  0.35688844537156D-07  0.38708281121213D-07  0.41410787656088D-07  0.43659750489931D-07  0.45338183729887D-07  0.46356214789431D-07  0.46657414853006D-07  0.46223508999353D-07
 0.17679500000000D+03  0.27366804707425D-07  0.30545191456622D-07  0.33815954812003D-07  0.37028908015596D-07  0.40030812751930D-07  0.42673631455357D-07  0.44822952426691D-07  0.46366122346857D-07  0.47219593433716D-07  0.47334992361847D-07
 0.17689500000000D+03  0.25486813012866D-07  0.28556632805297D-07  0.31825430851910D-07  0.35148639310163D-07  0.38372662273273D-07  0.41342793313996D-07  0.43911637523355D-07  0.45947604660053D-07  0.47342994866958D-07  0.48021176108244D-07
 0.17699500000000D+03  0.23713134074840D-07  0.26597489700790D-07  0.29780751588172D-07  0.33128266949454D-07  0.36490777355755D-07  0.39711769280441D-07  0.42635629335975D-07  0.45116214185756D-07  0.47025385507940D-07  0.48261019062476D-07
 0.17709500000000D+03  0.22100342352651D-07  0.24728844802234D-07  0.27746487126376D-07  0.31032430968283D-07  0.34446212304722D-07  0.37834320881231D-07  0.41037846079652D-07  0.43900851380141D-07  0.46279068913773D-07  0.48048448664217D-07
 0.17719500000000D+03  0.20697541079792D-07  0.23008396680892D-07  0.25786267428579D-07  0.28927526303202D-07  0.32304593114084D-07  0.35771570972002D-07  0.39171167331969D-07  0.42342620315239D-07  0.45130272550285D-07  0.47392365689451D-07
 0.17729500000000D+03  0.19546930312049D-07  0.21488729087926D-07  0.23960821631347D-07  0.26879600041194D-07  0.30133977250888D-07  0.33589943767109D-07  0.37096580104180D-07  0.40493308237495D-07  0.43618082163486D-07  0.46316139794007D-07
 0.17739500000000D+03  0.18682604751146D-07  0.20215765868332D-07  0.22326144103067D-07  0.24952302950593D-07  0.28002683842263D-07  0.31358983090791D-07  0.34881106825734D-07  0.38413551823179D-07  0.41792974885175D-07  0.44856629951437D-07
 0.17749500000000D+03  0.18129609993380D-07  0.19227451237541D-07  0.20931837430413D-07  0.23204954748739D-07  0.25977161082227D-07  0.29149120374750D-07  0.32595588036761D-07  0.36170760001133D-07  0.39715013173978D-07  0.43062778833007D-07
 0.17759500000000D+03  0.17903278040911D-07  0.18552687587281D-07  0.19819675648372D-07  0.21690776832103D-07  0.24119953618486D-07  0.27029462102979D-07  0.30312393562926D-07  0.33836867530901D-07  0.37451769781080D-07  0.40993842282434D-07
 0.17769500000000D+03  0.18008854966683D-07  0.18210555031012D-07  0.19022423432451D-07  0.20455339390734D-07  0.22487827158409D-07  0.25065662708398D-07  0.28103134650106D-07  0.31485995202253D-07  0.35076059109550D-07  0.38717324126793D-07
 0.17779500000000D+03  0.18441425710979D-07  0.18209828733979D-07  0.18562938881516D-07  0.19535262202476D-07  0.21130100821283D-07  0.23317943637891D-07  0.26036446231053D-07  0.29192091785937D-07  0.32663552747830D-07  0.36306692640660D-07
 0.17789500000000D+03  0.19186133260924D-07  0.18548801878681D-07  0.18453579144013D-07  0.18957200190660D-07  0.20087230123952D-07  0.21839312704258D-07  0.24175903468537D-07  0.27026629983146D-07  0.30290356818008D-07  0.33838958162651D-07
 0.17799500000000D+03  0.20218682060570D-07  0.19215414056750D-07  0.18695919670754D-07  0.18737136252910D-07  0.19389675168219D-07  0.20674030209395D-07  0.22578130259942D-07  0.25056423883557D-07  0.28030626354335D-07  0.31392191857140D-07
 0.17809500000000D+03  0.21506108541144D-07  0.20187677100713D-07  0.19280789488861D-07  0.18879995131684D-07  0.19057079833931D-07  0.19856359913991D-07  0.21291149781626D-07  0.23341629147756D-07  0.25954287511919D-07  0.29043063682356D-07
 0.17819500000000D+03  0.23007795257388D-07  0.21434383006818D-07  0.20188616742877D-07  0.19379583386038D-07  0.19097778787296D-07  0.19409633990512D-07  0.20353018671082D-07  0.21933979574968D-07  0.24124932306469D-07  0.26864473567232D-07
 0.17829500000000D+03  0.24676699362477D-07  0.22916071772142D-07  0.21390070984223D-07  0.20218852009071D-07  0.19508640088360D-07  0.19345651856586D-07  0.19790777348937D-07  0.20875305186985D-07  0.22597943109578D-07  0.24923343927273D-07
 0.17839500000000D+03  0.26460761133870D-07  0.24586230780932D-07  0.22846981438505D-07  0.21370470071517D-07  0.20275242306705D-07  0.19664423456018D-07  0.19619739512182D-07  0.20196367724529D-07  0.21418895568068D-07  0.23278634281082D-07
 0.17849500000000D+03  0.28304454046322D-07  0.26392691918999D-07  0.24513503857017D-07  0.22797690098918D-07  0.21372376496445D-07  0.20354258328399D-07  0.19843134208050D-07  0.19916039767113D-07  0.20622279263831D-07  0.21979630173529D-07
 0.17859500000000D+03  0.30150434534376D-07  0.28279187949992D-07  0.26337502665839D-07  0.24455478833050D-07  0.22764855290995D-07  0.21392192863080D-07  0.20452104330537D-07  0.20040843787494D-07  0.20230565549321D-07  0.21064549165351D-07
 0.17869500000000D+03  0.31941247141229D-07  0.30187025919865D-07  0.28262110050938D-07  0.26291880699052D-07  0.24408603890556D-07  0.22744739630580D-07  0.21426056057676D-07  0.20564857555289D-07  0.20253641831959D-07  0.20559496592139D-07
 0.17879500000000D+03  0.33621039248114D-07  0.32056832518637D-07  0.30227419434866D-07  0.28249575794537D-07  0.26252000951376D-07  0.24368934770127D-07  0.22733344839598D-07  0.21469982611669D-07  0.20688621368717D-07  0.20477793389685D-07
 0.17889500000000D+03  0.35137239041371D-07  0.33830324462043D-07  0.32172267570007D-07  0.30267589618053D-07  0.28237431451230D-07  0.26213652216255D-07  0.24332275211389D-07  0.22726563231709D-07  0.21520027582144D-07  0.20819687770348D-07
 0.17899500000000D+03  0.36442150815626D-07  0.35452056087442D-07  0.34036057241177D-07  0.32283108128996D-07  0.30303008590511D-07  0.28221147184826D-07  0.26172384080733D-07  0.24294334539479D-07  0.22720342215703D-07  0.21572452140544D-07
 0.17909500000000D+03  0.37494423134153D-07  0.36871096504465D-07  0.35760571369304D-07  0.34233349131700D-07  0.32384417767430D-07  0.30328785907980D-07  0.28195970351953D-07  0.26123670393085D-07  0.24250897486466D-07  0.22710856578282D-07
 0.17919500000000D+03  0.38260347766672D-07  0.38042589806475D-07  0.37291729157424D-07  0.36057439440821D-07  0.34416832697919D-07  0.32470914190463D-07  0.30339827902163D-07  0.28157094445355D-07  0.26063083926597D-07  0.24198000629535D-07
 0.17929500000000D+03  0.38714950688891D-07  0.38929154030014D-07  0.38581235827838D-07  0.37698246836357D-07  0.36336851878657D-07  0.34580814021707D-07  0.32537134111476D-07  0.30331011525982D-07  0.28099837973466D-07  0.25986476302513D-07
 0.17939500000000D+03  0.38842840739562D-07  0.39502077733755D-07  0.39588079461662D-07  0.39104116464701D-07  0.38084402842527D-07  0.36592695267208D-07  0.34719442439329D-07  0.32577611279883D-07  0.30297366695627D-07  0.28019827090844D-07
 0.17949500000000D+03  0.38638786767136D-07  0.39742277237523D-07  0.40279831456574D-07  0.40230463084580D-07  0.39604562042060D-07  0.38443668410463D-07  0.36818724986781D-07  0.34826891912954D-07  0.32587061432996D-07  0.30234260772629D-07
 0.17959500000000D+03  0.38108000230072D-07  0.39640982691135D-07  0.40633711145278D-07  0.41041173380589D-07  0.40849239716808D-07  0.40075644438199D-07  0.38769409625884D-07  0.37008748999708D-07  0.34897547670061D-07  0.32560567725010D-07
 0.17969500000000D+03  0.37266107204923D-07  0.39200127201539D-07  0.40637380139196D-07  0.41509776450602D-07  0.41778681741841D-07  0.41437109256892D-07  0.40510356129991D-07  0.39055072637942D-07  0.37156815216244D-07  0.34926191656077D-07
 0.17979500000000D+03  0.36138801553024D-07  0.38432420196670D-07  0.40289437946579D-07  0.41620345487417D-07  0.42362744193227D-07  0.42484722484098D-07  0.41986716804848D-07  0.40901795814886D-07  0.39294370782766D-07  0.37257396059033D-07
 0.17989500000000D+03  0.34761179528057D-07  0.37361093995532D-07  0.39599597321627D-07  0.41368099584192D-07  0.42581901170779D-07  0.43184694049166D-07  0.43151629386113D-07  0.42490837680832D-07  0.41243354345610D-07  0.39481467388019D-07
 0.17999500000000D+03  0.33176765270275D-07  0.36019321118151D-07  0.38588525581444D-07  0.40759681455411D-07  0.42427952250013D-07  0.43513896729850D-07  0.43967693408166D-07  0.43771887496951D-07  0.42942561275075D-07  0.41528894969623D-07
 0.18009500000000D+03  0.31436246284048D-07  0.34449309111093D-07  0.37287346715230D-07  0.39813094629418D-07  0.41904402749090D-07  0.43460678502553D-07  0.44408185824917D-07  0.44703978306350D-07  0.44338314081627D-07  0.43335468007254D-07
 0.18019500000000D+03  0.29595947934010D-07  0.32701089450600D-07  0.35736808415956D-07  0.38557292270924D-07  0.41026497739838D-07  0.43025345345776D-07  0.44457977330090D-07  0.45256803832023D-07  0.45386130746830D-07  0.44844231695634D-07
 0.18029500000000D+03  0.27716085955325D-07  0.30831027231310D-07  0.33986128065163D-07  0.37031419147833D-07  0.39820899340926D-07  0.42220292853544D-07  0.44114117530146D-07  0.45411737682985D-07  0.46052140935383D-07  0.46007247411051D-07
 0.18039500000000D+03  0.25858845614680D-07  0.28900088605242D-07  0.32091542025663D-07  0.35283718251122D-07  0.38325006224604D-07  0.41069773623357D-07  0.43386064808649D-07  0.45162520594350D-07  0.46314206866922D-07  0.46787106135467D-07
 0.18049500000000D+03  0.24086345063173D-07  0.26971912980516D-07  0.30114593113051D-07  0.33370124051261D-07  0.36585924338124D-07  0.39609296802147D-07  0.42295545319934D-07  0.44515589075498D-07  0.46162712203694D-07  0.47158149653340D-07
 0.18059500000000D+03  0.22458548104439D-07  0.25110746420762D-07  0.28120201521369D-07  0.31352575114800D-07  0.34659108440590D-07  0.37884666301593D-07  0.40876034983530D-07  0.43490027423439D-07  0.45600989915190D-07  0.47107360563700D-07
 0.18069500000000D+03  0.21031197526192D-07  0.23379301028302D-07  0.26174574387173D-07  0.29297089525443D-07  0.32606704986118D-07  0.35950674894448D-07  0.39171868520927D-07  0.42117134496465D-07  0.44645368640282D-07  0.46634889704833D-07
 0.18079500000000D+03  0.19853843760919D-07  0.21836611812240D-07  0.24343018127126D-07  0.27271656891013D-07  0.30495637879464D-07  0.33869482491920D-07  0.37236990355050D-07  0.40439606840996D-07  0.43324826500131D-07  0.45754198117404D-07
 0.18089500000000D+03  0.18968044432823D-07  0.20535967072531D-07  0.22687725146913D-07  0.25344010224643D-07  0.28395489346575D-07  0.31708718131656D-07  0.35133373409517D-07  0.38510350601391D-07  0.41680251527214D-07  0.44491800089983D-07
 0.18099500000000D+03  0.18405807882423D-07  0.19522990123255D-07  0.21265611921508D-07  0.23579349144306D-07  0.26376238172372D-07  0.29539356253851D-07  0.32929143270431D-07  0.36390945959771D-07  0.39763318752065D-07  0.42886604044974D-07
 0.18109500000000D+03  0.18188347755731D-07  0.18833948752792D-07  0.20126288214300D-07  0.22038092064397D-07  0.24505926353054D-07  0.27433428302375D-07  0.30696456506886D-07  0.34149799438912D-07  0.37635005381787D-07  0.40988858921592D-07
 0.18119500000000D+03  0.18325206126606D-07  0.18494363827720D-07  0.19310236812233D-07  0.20773738763876D-07  0.22848332218263D-07  0.25461640066833D-07  0.28509192802665D-07  0.31860030975944D-07  0.35363777217224D-07  0.38858725156914D-07
 0.18129500000000D+03  0.18813789566043D-07  0.18517979737488D-07  0.18847279196970D-07  0.19830925347470D-07  0.21460732694567D-07  0.23690972915537D-07  0.26440530458601D-07  0.29597153876437D-07  0.33023491229857D-07  0.36564501175001D-07
 0.18139500000000D+03  0.19639346533325D-07  0.18906147041307D-07  0.18755394818434D-07  0.19243750704628D-07  0.20391839015698D-07  0.22182352547623D-07  0.24560483230259D-07  0.27436616137280D-07  0.30691070717190D-07  0.34180548228484D-07
 0.18149500000000D+03  0.20775396164348D-07  0.19647652089429D-07  0.19039950095110D-07  0.19034446812892D-07  0.19679988321914D-07  0.20988471501359D-07  0.22933482758407D-07  0.25451280646596D-07  0.28444020250712D-07  0.31784968183323D-07
 0.18159500000000D+03  0.22184598928171D-07  0.20719010204695D-07  0.19693378222988D-07  0.19212454551747D-07  0.19351667859363D-07  0.20151850836252D-07  0.21616094399611D-07  0.23708928824867D-07  0.26357857207511D-07  0.29457099995191D-07
 0.18169500000000D+03  0.23820039835097D-07  0.22085219140700D-07  0.20695332914939D-07  0.19773952290496D-07  0.19420438731805D-07  0.19703221724397D-07  0.20654954475876D-07  0.22269876723098D-07  0.24503544441564D-07  0.27274910702631D-07
 0.18179500000000D+03  0.25626876102426D-07  0.23700949090013D-07  0.22013319175989D-07  0.20701866891877D-07  0.19886312482468D-07  0.19660298902605D-07  0.20085013343371D-07  0.21184793816369D-07  0.22945013959932D-07  0.25312365179927D-07
 0.18189500000000D+03  0.27544284578705D-07  0.25512125718142D-07  0.23603783235016D-07  0.21966376731820D-07  0.20735616610746D-07  0.20027005072600D-07  0.19928160915484D-07  0.20492812180984D-07  0.21736873675489D-07  0.23636865011063D-07
 0.18199500000000D+03  0.29507630816857D-07  0.27457844766278D-07  0.25413623031363D-07  0.23525894928759D-07  0.21941365185733D-07  0.20793188719494D-07  0.20192299297047D-07  0.20220007033790D-07  0.20922387823820D-07  0.22306850003184D-07
 0.18209500000000D+03  0.31450772264478D-07  0.29472541809856D-07  0.27382061465070D-07  0.25328499436190D-07  0.23464129015643D-07  0.21934858099273D-07  0.20870911228755D-07  0.20378318587549D-07  0.20531816004431D-07  0.21369655429379D-07
 0.18219500000000D+03  0.33308403103412D-07  0.31488329682341D-07  0.29442808155144D-07  0.27313756287890D-07  0.25253377590826D-07  0.23414932277860D-07  0.21943153668584D-07  0.20964969975891D-07  0.20581185795360D-07  0.20859713563460D-07
 0.18229500000000D+03  0.35018347989396D-07  0.33437409489049D-07  0.31526422718737D-07  0.29414864363156D-07  0.27249243573944D-07  0.25184487286065D-07  0.23374483937916D-07  0.21962417098423D-07  0.21071559539046D-07  0.20797179122954D-07
 0.18239500000000D+03  0.36523716158401D-07  0.35254459326169D-07  0.33562784318142D-07  0.31561035668456D-07  0.29384641295243D-07  0.27184453037014D-07  0.25117802597104D-07  0.23338844443055D-07  0.21988837582556D-07  0.21187044818847D-07
 0.18249500000000D+03  0.37774835629970D-07  0.36878907725934D-07  0.35483568821842D-07  0.33680015162466D-07  0.31587654727927D-07  0.29347696020693D-07  0.27115073941010D-07  0.25049197373338D-07  0.23304118704383D-07  0.22018795598266D-07
 0.18259500000000D+03  0.38730898868049D-07  0.38257006095320D-07  0.37224636436793D-07  0.35700639105340D-07  0.33784098735693D-07  0.31601405236788D-07  0.29299363147204D-07  0.27036717364882D-07  0.24974614727696D-07  0.23266628994100D-07
 0.18269500000000D+03  0.39361265418982D-07  0.39343625367501D-07  0.38728238800273D-07  0.37555330948905D-07  0.35900150647337D-07  0.33869685432584D-07  0.31597210040527D-07  0.29234923694201D-07  0.26945091722583D-07  0.24890245246846D-07
 0.18279500000000D+03  0.39646382821275D-07  0.40103715921498D-07  0.39944964691677D-07  0.39182438703864D-07  0.37864947699738D-07  0.36076253249049D-07  0.33931244347049D-07  0.31569964567645D-07  0.29149786210941D-07  0.26836185816216D-07
 0.18289500000000D+03  0.39578303559441D-07  0.40513385621735D-07  0.40835356941089D-07  0.40528327008530D-07  0.39613049503401D-07  0.38147128747412D-07  0.36222937095655D-07  0.33963243919758D-07  0.31514722907841D-07  0.29039674028981D-07
 0.18299500000000D+03  0.39160792166465D-07  0.40560567638774D-07  0.41371148844173D-07  0.41549150019239D-07  0.41086672984816D-07  0.40013217003234D-07  0.38395378017275D-07  0.36334218131392D-07  0.33960342149565D-07  0.31426888461165D-07
 0.18309500000000D+03  0.38409032030709D-07  0.40245266637018D-07  0.41536085465840D-07  0.42212246820124D-07  0.42237619528813D-07  0.41612681660838D-07  0.40375969520382D-07  0.38603250380677D-07  0.36404331414551D-07  0.33917579700254D-07
 0.18319500000000D+03  0.37348955440475D-07  0.39579388159142D-07  0.41326312682357D-07  0.42497118310401D-07  0.43028829368901D-07  0.42893023873899D-07  0.42098933827492D-07  0.40694409499502D-07  0.38764547035259D-07  0.36427925636308D-07
 0.18329500000000D+03  0.36016232466164D-07  0.38586170944397D-07  0.40750333817827D-07  0.42395962479650D-07  0.43435515637630D-07  0.43812795025737D-07  0.43507540541373D-07  0.42538104909761D-07  0.40961909712368D-07  0.38873510320305D-07
 0.18339500000000D+03  0.34454964152976D-07  0.37299254990407D-07  0.39828549555897D-07  0.41913762712448D-07  0.43445848861071D-07  0.44342888999038D-07  0.44555976410161D-07  0.44073458933045D-07  0.42923160737011D-07  0.41172307225232D-07
 0.18349500000000D+03  0.32716133035208D-07  0.35761429067338D-07  0.38592410888768D-07  0.41067940486919D-07  0.43061181091099D-07  0.44467378482397D-07  0.45210796349549D-07  0.45250331684909D-07  0.44583374464239D-07  0.43247549532779D-07
 0.18359500000000D+03  0.30855869166750D-07  0.34023109930812D-07  0.37083226806251D-07  0.39887598919097D-07  0.42295816464294D-07  0.44183878835093D-07  0.45451913760522D-07  0.46030930859285D-07  0.45888135794199D-07  0.45030377505590D-07
 0.18369500000000D+03  0.28933592769807D-07  0.32140611598618D-07  0.35350677988744D-07  0.38412396597853D-07  0.41176351060897D-07  0.43503441464572D-07  0.45273107776710D-07  0.46390957860054D-07  0.46795308202987D-07  0.46462165388918D-07
 0.18379500000000D+03  0.27010095387652D-07  0.30174266806522D-07  0.33451094851543D-07  0.36691101760583D-07  0.39740618988038D-07  0.42449995737456D-07  0.44682044304099D-07  0.46320261821883D-07  0.47276337087145D-07  0.47496446640371D-07
 0.18389500000000D+03  0.25145620290859D-07  0.28186464273996D-07  0.31445562913748D-07  0.34779884935947D-07  0.38036293278454D-07  0.41059373554158D-07  0.43699825741450D-07  0.45822993036000D-07  0.47317053679229D-07  0.48100375469998D-07
 0.18399500000000D+03  0.23398000064852D-07  0.26239664883977D-07  0.29397920745470D-07  0.32740413712596D-07  0.36119199289483D-07  0.39377963458838D-07  0.42360100432294D-07  0.44917266251552D-07  0.46917965450884D-07  0.48255683484367D-07
 0.18409500000000D+03  0.21820905049627D-07  0.24394457542304D-07  0.27372715862027D-07  0.30637816370958D-07  0.34051404756563D-07  0.37461051289899D-07  0.40707776724634D-07  0.43634361527832D-07  0.46094038766608D-07  0.47959111504396D-07
 0.18419500000000D+03  0.20462250862554D-07  0.22707711582909D-07  0.25433182108106D-07  0.28538581903808D-07  0.31899154563302D-07  0.35370911810877D-07  0.38797397707433D-07  0.42017505225908D-07  0.44873997780602D-07  0.47222317319541D-07
 0.18429500000000D+03  0.19362806858275D-07  0.21230877381257D-07  0.23639298559184D-07  0.26508462668618D-07  0.29730719784851D-07  0.33174720530648D-07  0.36691241119633D-07  0.40120285997341D-07  0.43299179570218D-07  0.46071279370780D-07
 0.18439500000000D+03  0.18555040299505D-07  0.20008480584197D-07  0.22045985023134D-07  0.24610442810198D-07  0.27614229852336D-07  0.30942357155152D-07  0.34457214588995D-07  0.38004770071550D-07  0.41421998858256D-07  0.44545233438512D-07
 0.18449500000000D+03  0.18062223446905D-07  0.19076848302319D-07  0.20701483112663D-07  0.22902830931233D-07  0.25615554021500D-07  0.28744172009473D-07  0.32166619362821D-07  0.35739386728156D-07  0.39304086161108D-07  0.42695193870034D-07
 0.18459500000000D+03  0.17897822925584D-07  0.18463097969267D-07  0.19645964831198D-07  0.21437529538862D-07  0.23796293976867D-07  0.26648784574278D-07  0.29891856227912D-07  0.33396658650467D-07  0.37014170738008D-07  0.40582122428592D-07
 0.18469500000000D+03  0.18065182773067D-07  0.18184411562626D-07  0.18910402910026D-07  0.20258526819097D-07  0.22211943638714D-07  0.24720979265427D-07  0.27704145623679D-07  0.31050853064388D-07  0.34625784365659D-07  0.38274816367600D-07
 0.18479500000000D+03  0.18557504684352D-07  0.18247609697206D-07  0.18515728975604D-07  0.19400648537539D-07  0.20910265335011D-07  0.23019758031472D-07  0.25671330303160D-07  0.28775628408490D-07  0.32214863879085D-07  0.35847592856458D-07
 0.18489500000000D+03  0.19358121293371D-07  0.18649031920449D-07  0.18472297218674D-07  0.18888599568745D-07  0.19929923715200D-07  0.21596602531574D-07  0.23855823579423D-07  0.26641748029413D-07  0.29857329831199D-07  0.33377849546374D-07
