0.100000	0.154246	0.013486
0.110000	0.170012	0.016354
0.120000	0.185902	0.019493
0.130000	0.201942	0.022899
0.140000	0.218164	0.026567
0.150000	0.234605	0.030487
0.160000	0.251312	0.034644
0.170000	0.268333	0.039016
0.180000	0.285728	0.043565
0.190000	0.303560	0.048235
0.200000	0.321888	0.052940
0.210000	0.340759	0.057558
0.220000	0.360178	0.061929
0.230000	0.380076	0.065871
0.270000	0.460674	0.075852
0.280000	0.480282	0.077321
0.290000	0.499607	0.078639
0.300000	0.518691	0.079882
0.310000	0.537578	0.081095
0.320000	0.556307	0.082301
0.330000	0.574911	0.083514
0.340000	0.593413	0.084739
0.350000	0.611834	0.085978
0.360000	0.630190	0.087230
0.400000	0.703163	0.092342
0.410000	0.721329	0.093635
0.430000	0.757601	0.096223
0.440000	0.775713	0.097515
0.450000	0.793812	0.098803
0.460000	0.811900	0.100087
0.470000	0.829979	0.101364
0.480000	0.848050	0.102634
0.490000	0.866115	0.103895
0.510000	0.902226	0.106388
0.520000	0.920276	0.107618
0.530000	0.938321	0.108836
0.540000	0.956363	0.110041
0.550000	0.974403	0.111233
0.560000	0.992441	0.112411
0.570000	1.010476	0.113575
0.580000	1.028510	0.114725
0.590000	1.046542	0.115858
0.600000	1.064574	0.116977
0.610000	1.082604	0.118079
0.620000	1.100633	0.119166
0.630000	1.118661	0.120236
0.640000	1.136689	0.121289
0.650000	1.154716	0.122325
0.660000	1.172743	0.123344
0.670000	1.190769	0.124345
0.700000	1.244845	0.127244
0.710000	1.262870	0.128175
0.720000	1.280894	0.129087
0.740000	1.316942	0.130858
0.750000	1.334965	0.131716
0.760000	1.352988	0.132556
0.770000	1.371011	0.133378
0.780000	1.389033	0.134181
0.790000	1.407056	0.134965
0.800000	1.425077	0.135731
0.810000	1.443098	0.136479
0.820000	1.461119	0.137209
0.840000	1.497160	0.138612
0.850000	1.515179	0.139286
0.860000	1.533198	0.139941
0.870000	1.551216	0.140578
0.880000	1.569234	0.141197
0.890000	1.587251	0.141797
0.900000	1.605268	0.142379
0.910000	1.623284	0.142943
0.920000	1.641299	0.143488
0.930000	1.659314	0.144015
0.940000	1.677327	0.144524
0.950000	1.695340	0.145015
0.960000	1.713353	0.145487
0.970000	1.731364	0.145942
0.980000	1.749375	0.146378
0.990000	1.767384	0.146797
1.000000	1.785393	0.147197
1.020000	1.821408	0.147944
1.040000	1.857418	0.148620
1.060000	1.893425	0.149225
1.070000	1.911426	0.149502
1.080000	1.929427	0.149760
1.090000	1.947426	0.150001
1.100000	1.965424	0.150225
1.110000	1.983421	0.150431
1.120000	2.001417	0.150620
1.130000	2.019411	0.150792
1.140000	2.037404	0.150946
1.150000	2.055396	0.151083
1.160000	2.073387	0.151203
1.170000	2.091376	0.151306
1.180000	2.109364	0.151392
1.190000	2.127350	0.151462
1.200000	2.145335	0.151514
1.210000	2.163318	0.151549
1.220000	2.181300	0.151568
1.230000	2.199280	0.151569
1.240000	2.217259	0.151555
1.250000	2.235236	0.151523
1.260000	2.253212	0.151475
1.270000	2.271186	0.151411
1.280000	2.289159	0.151330
1.290000	2.307129	0.151232
1.300000	2.325098	0.151119
1.310000	2.343066	0.150989
1.320000	2.361031	0.150842
1.330000	2.378995	0.150680
1.340000	2.396957	0.150501
1.350000	2.414917	0.150307
1.360000	2.432876	0.150096
1.370000	2.450832	0.149869
1.380000	2.468787	0.149627
1.390000	2.486739	0.149368
1.400000	2.504690	0.149094
1.410000	2.522639	0.148804
1.420000	2.540585	0.148498
1.430000	2.558530	0.148177
1.440000	2.576473	0.147840
1.450000	2.594414	0.147487
1.460000	2.612352	0.147119
1.470000	2.630289	0.146736
1.480000	2.648223	0.146337
1.490000	2.666155	0.145923
1.500000	2.684085	0.145493
1.510000	2.702013	0.145048
1.520000	2.719938	0.144588
1.540000	2.755783	0.143623
1.550000	2.773701	0.143117
1.570000	2.809532	0.142062
1.580000	2.827443	0.141512
1.590000	2.845352	0.140946
1.600000	2.863259	0.140367
1.610000	2.881164	0.139772
1.620000	2.899065	0.139162
1.630000	2.916965	0.138538
1.640000	2.934862	0.137900
1.650000	2.952756	0.137246
1.660000	2.970648	0.136579
1.670000	2.988537	0.135896
1.680000	3.006424	0.135199
1.690000	3.024307	0.134488
1.700000	3.042189	0.133763
1.710000	3.060067	0.133023
1.720000	3.077943	0.132269
1.730000	3.095816	0.131501
1.740000	3.113687	0.130718
1.750000	3.131555	0.129922
1.760000	3.149419	0.129111
1.780000	3.185141	0.127447
1.790000	3.202997	0.126595
1.800000	3.220851	0.125728
1.810000	3.238701	0.124848
1.820000	3.256549	0.123954
1.840000	3.292235	0.122124
1.850000	3.310074	0.121188
1.860000	3.327910	0.120239
1.870000	3.345743	0.119276
1.880000	3.363572	0.118300
1.900000	3.399222	0.116307
1.910000	3.417043	0.115290
1.930000	3.452674	0.113216
1.960000	3.506097	0.110006
1.970000	3.523898	0.108909
1.980000	3.541696	0.107799
1.990000	3.559490	0.106676
2.000000	3.577281	0.105540
2.010000	3.595069	0.104391
2.020000	3.612854	0.103229
2.030000	3.630635	0.102054
2.040000	3.648412	0.100866
2.050000	3.666186	0.099665
2.060000	3.683957	0.098452
2.070000	3.701724	0.097225
2.080000	3.719487	0.095986
2.090000	3.737247	0.094734
2.100000	3.755003	0.093470
2.110000	3.772756	0.092193
2.120000	3.790505	0.090903
2.130000	3.808249	0.089601
2.140000	3.825990	0.088287
2.150000	3.843727	0.086960
2.160000	3.861460	0.085621
2.170000	3.879189	0.084270
2.180000	3.896914	0.082907
2.190000	3.914634	0.081532
2.200000	3.932351	0.080146
2.210000	3.950062	0.078748
2.220000	3.967769	0.077338
2.240000	4.003169	0.074486
2.250000	4.020862	0.073043
2.260000	4.038549	0.071591
2.270000	4.056231	0.070128
2.280000	4.073908	0.068656
2.290000	4.091579	0.067175
2.300000	4.109244	0.065685
2.310000	4.126904	0.064187
2.320000	4.144558	0.062682
2.330000	4.162205	0.061170
2.340000	4.179847	0.059653
2.350000	4.197483	0.058131
2.360000	4.215112	0.056605
2.370000	4.232736	0.055076
2.380000	4.250354	0.053545
2.390000	4.267966	0.052014
2.400000	4.285573	0.050483
2.410000	4.303176	0.048954
2.420000	4.320775	0.047428
2.430000	4.338371	0.045906
2.440000	4.355964	0.044389
2.450000	4.373555	0.042878
2.460000	4.391146	0.041373
2.470000	4.408737	0.039874
2.480000	4.426329	0.038383
2.490000	4.443924	0.036899
2.500000	4.461522	0.035422
2.510000	4.479125	0.033950
2.520000	4.496732	0.032482
2.530000	4.514346	0.031017
2.540000	4.531965	0.029553
2.550000	4.549592	0.028086
2.560000	4.567227	0.026613
2.570000	4.584869	0.025129
2.580000	4.602519	0.023629
2.590000	4.620178	0.022105
2.600000	4.637844	0.020547
2.610000	4.655519	0.018942
2.620000	4.673202	0.017272
2.630000	4.690892	0.015512
2.640000	4.708590	0.013620
2.650000	4.726295	0.011525
2.660000	4.744007	0.009078
2.670000	4.761726	0.005845
