 0.90000000000000D+00
 0.60122500000000D+02  0.39369142056700D-06  0.39779219252309D-06  0.40217582690108D-06  0.40684601238417D-06  0.41180622323876D-06  0.41705972186223D-06  0.42260955282480D-06  0.42845852704878D-06  0.43460919516103D-06  0.44106380954294D-06
 0.60247500000000D+02  0.38861592589186D-06  0.39140661944726D-06  0.39446821660029D-06  0.39780630464065D-06  0.40142628874520D-06  0.40533340437770D-06  0.40953272294400D-06  0.41402914890696D-06  0.41882740682309D-06  0.42393201713741D-06
 0.60372500000000D+02  0.39059318669063D-06  0.39213098395293D-06  0.39391593201729D-06  0.39595529504300D-06  0.39825618725894D-06  0.40082559316490D-06  0.40367038326248D-06  0.40679732326504D-06  0.41021307484008D-06  0.41392418616821D-06
 0.60497500000000D+02  0.39941572741836D-06  0.39982154136317D-06  0.40044009188282D-06  0.40128002211749D-06  0.40234985829099D-06  0.40365803509194D-06  0.40521291912814D-06  0.40702282834533D-06  0.40909604525055D-06  0.41144082185212D-06
 0.60622500000000D+02  0.41453527315079D-06  0.41398794777507D-06  0.41360993070005D-06  0.41341087981117D-06  0.41340037110578D-06  0.41358792636876D-06  0.41398304148345D-06  0.41459521339949D-06  0.41543396358786D-06  0.41650885572831D-06
 0.60747500000000D+02  0.43508823529933D-06  0.43381574713239D-06  0.43266221869889D-06  0.43163790508540D-06  0.43075301759468D-06  0.43001775087346D-06  0.42944231302384D-06  0.42903695701177D-06  0.42881201138314D-06  0.42877790807459D-06
 0.60872500000000D+02  0.45993707270678D-06  0.45820513606570D-06  0.45653733903373D-06  0.45494407918917D-06  0.45343575212262D-06  0.45202277549517D-06  0.45071561802019D-06  0.44952483209621D-06  0.44846108844065D-06  0.44753521074296D-06
 0.60997500000000D+02  0.48772587621283D-06  0.48582450125435D-06  0.48393066607053D-06  0.48205443773277D-06  0.48020592672976D-06  0.47839530597530D-06  0.47663283613284D-06  0.47492889647052D-06  0.47329402005019D-06  0.47173893165508D-06
 0.61122500000000D+02  0.51694779653368D-06  0.51517646999514D-06  0.51335711009679D-06  0.51149898309225D-06  0.50961144673790D-06  0.50770396295816D-06  0.50578611759913D-06  0.50386764699011D-06  0.50195847063216D-06  0.50006872891040D-06
 0.61247500000000D+02  0.54602123413158D-06  0.54467347918809D-06  0.54322592558016D-06  0.54168659331641D-06  0.54006364288018D-06  0.53836538101519D-06  0.53660027374032D-06  0.53477696678842D-06  0.53290431331154D-06  0.53099140829155D-06
 0.61372500000000D+02  0.57337107839010D-06  0.57271919640784D-06  0.57192216992091D-06  0.57098637447320D-06  0.56991837338821D-06  0.56872491688087D-06  0.56741294795799D-06  0.56598961570573D-06  0.56446229628684D-06  0.56283862162383D-06
 0.61497500000000D+02  0.59751079277972D-06  0.59779159306818D-06  0.59789062417425D-06  0.59781228738017D-06  0.59756121429010D-06  0.59714226013409D-06  0.59656050293731D-06  0.59582124945323D-06  0.59493004858072D-06  0.59389271272222D-06
 0.61622500000000D+02  0.61712087862368D-06  0.61852316251812D-06  0.61971763756330D-06  0.62070648821694D-06  0.62149216369903D-06  0.62207736687723D-06  0.62246504774235D-06  0.62265840255344D-06  0.62266087965676D-06  0.62247619282128D-06
 0.61747500000000D+02  0.63111928636389D-06  0.63377377101282D-06  0.63620631130687D-06  0.63841673470110D-06  0.64040515650713D-06  0.64217196609983D-06  0.64371781623502D-06  0.64504361661576D-06  0.64615053286884D-06  0.64703999203683D-06
 0.61872500000000D+02  0.63871971223447D-06  0.64269196034506D-06  0.64644072887820D-06  0.64996346085999D-06  0.65325789611153D-06  0.65632205667959D-06  0.65915423384299D-06  0.66175297777786D-06  0.66411709107284D-06  0.66624562732826D-06
 0.61997500000000D+02  0.63947439568514D-06  0.64476116397038D-06  0.64983554663069D-06  0.65469269228170D-06  0.65932803904143D-06  0.66373730106613D-06  0.66791645520468D-06  0.67186172870707D-06  0.67556958909234D-06  0.67903673740775D-06
 0.62122500000000D+02  0.63329894391138D-06  0.63982818078648D-06  0.64616810994741D-06  0.65231179152019D-06  0.65825255050031D-06  0.66398396608970D-06  0.66949985988256D-06  0.67479428362126D-06  0.67986150745023D-06  0.68469600978060D-06
 0.62247500000000D+02  0.62047775287604D-06  0.62811227393300D-06  0.63559126083568D-06  0.64290599909922D-06  0.65004799713885D-06  0.65700897978558D-06  0.66378087964742D-06  0.67035582678632D-06  0.67672613739690D-06  0.68288430239061D-06
 0.62372500000000D+02  0.60164967451950D-06  0.61019433456247D-06  0.61862606527821D-06  0.62693478532171D-06  0.63511057811494D-06  0.64314369050595D-06  0.65102452858282D-06  0.65874365085328D-06  0.66629175920182D-06  0.67365968825862D-06
 0.62497500000000D+02  0.57777463151147D-06  0.58698660893170D-06  0.59613475168081D-06  0.60520809362527D-06  0.61419576141246D-06  0.62308697876995D-06  0.63187106759711D-06  0.64053744581719D-06  0.64907562212429D-06  0.65747518796320D-06
 0.62622500000000D+02  0.55008286826814D-06  0.55968449632403D-06  0.56927518100758D-06  0.57884360381376D-06  0.58837845651802D-06  0.59786845112764D-06  0.60730232658086D-06  0.61666885195387D-06  0.62595682605554D-06  0.63515507345425D-06
 0.62747500000000D+02  0.52000943128701D-06  0.52970286487022D-06  0.53943914267177D-06  0.54920714949617D-06  0.55899569160302D-06  0.56879351185448D-06  0.57858930185301D-06  0.58837171066882D-06  0.59812934982250D-06  0.60785079430319D-06
 0.62872500000000D+02  0.48911727336387D-06  0.49860017909047D-06  0.50817766130099D-06  0.51783935836033D-06  0.52757473974954D-06  0.53737312552945D-06  0.54722370328115D-06  0.55711554201279D-06  0.56703760253656D-06  0.57697874387891D-06
 0.62997500000000D+02  0.45901304313335D-06  0.46799445061805D-06  0.47711726732847D-06  0.48637240126929D-06  0.49575050487629D-06  0.50524199755798D-06  0.51483708639459D-06  0.52452578442301D-06  0.53429792590570D-06  0.54414317798762D-06
 0.63122500000000D+02  0.43126010924817D-06  0.43947556323383D-06  0.44787177569092D-06  0.45644137892963D-06  0.46517667189798D-06  0.47406964428573D-06  0.48311199960892D-06  0.49229517668475D-06  0.50161036884212D-06  0.51104854017372D-06
 0.63247500000000D+02  0.40729362727139D-06  0.41451883122855D-06  0.42195447426614D-06  0.42959528196082D-06  0.43743558264243D-06  0.44546933135888D-06  0.45369013373758D-06  0.46209126916747D-06  0.47066571263989D-06  0.47940615451280D-06
 0.63372500000000D+02  0.38834244347565D-06  0.39440467990081D-06  0.40069569795762D-06  0.40721257969836D-06  0.41395196446456D-06  0.42091007092464D-06  0.42808271996963D-06  0.43546535792896D-06  0.44305307947310D-06  0.45084064947518D-06
 0.63497500000000D+02  0.37536231786639D-06  0.38014906141056D-06  0.38517052625068D-06  0.39042629364533D-06  0.39591547884122D-06  0.40163674941116D-06  0.40758834541291D-06  0.41376810088409D-06  0.42017346609394D-06  0.42680152986967D-06
 0.63622500000000D+02  0.36898433845861D-06  0.37244863653354D-06  0.37614078853411D-06  0.38006288857800D-06  0.38421656636800D-06  0.38860300017807D-06  0.39322293258116D-06  0.39807668849689D-06  0.40316419505086D-06  0.40848500263573D-06
 0.63747500000000D+02  0.36948151809674D-06  0.37164389026661D-06  0.37401471879100D-06  0.37659849324626D-06  0.37939926681811D-06  0.38242066250818D-06  0.38566588291654D-06  0.38913772325029D-06  0.39283858713199D-06  0.39677050468742D-06
 0.63872500000000D+02  0.37675547085107D-06  0.37770226341858D-06  0.37882652582068D-06  0.38013489945142D-06  0.38163364393698D-06  0.38332863546106D-06  0.38522536936754D-06  0.38732896677271D-06  0.38964418485210D-06  0.39217543038214D-06
 0.63997500000000D+02  0.39034383944172D-06  0.39022215579821D-06  0.39023691973997D-06  0.39039656602461D-06  0.39070922758383D-06  0.39118272528660D-06  0.39182456249890D-06  0.39264192426995D-06  0.39364168091058D-06  0.39483039565352D-06
 0.64122500000000D+02  0.40944788531734D-06  0.40845738718160D-06  0.40755435853647D-06  0.40674857178639D-06  0.40604960001548D-06  0.40546679801123D-06  0.40500928837241D-06  0.40468595264886D-06  0.40450542739355D-06  0.40447610493379D-06
 0.64247500000000D+02  0.43297845501611D-06  0.43136048682419D-06  0.42977554752997D-06  0.42823421709248D-06  0.42674699703835D-06  0.42532428313679D-06  0.42397634316785D-06  0.42271329987387D-06  0.42154511910650D-06  0.42048160310483D-06
 0.64372500000000D+02  0.45961748051423D-06  0.45764210200140D-06  0.45564262154775D-06  0.45362984937051D-06  0.45161465105000D-06  0.44960791285053D-06  0.44762051182742D-06  0.44566329097685D-06  0.44374703959282D-06  0.44188247891008D-06
 0.64497500000000D+02  0.48789131607345D-06  0.48584293052255D-06  0.48371352485297D-06  0.48151354520948D-06  0.47925363325061D-06  0.47694458571212D-06  0.47459731811161D-06  0.47222283303755D-06  0.46983219335819D-06  0.46743650058734D-06
 0.64622500000000D+02  0.51625160102166D-06  0.51441393394733D-06  0.51244142109318D-06  0.51034356485734D-06  0.50813020232366D-06  0.50581146122011D-06  0.50339771903589D-06  0.50089956593755D-06  0.49832777200425D-06  0.49569325919034D-06
 0.64747500000000D+02  0.54315899731510D-06  0.54180020919411D-06  0.54025854811017D-06  0.53854203928893D-06  0.53665917309262D-06  0.53461885998321D-06  0.53243038735452D-06  0.53010337906475D-06  0.52764775837714D-06  0.52507371489540D-06
 0.64872500000000D+02  0.56716510155984D-06  0.56652380680924D-06  0.56565980241191D-06  0.56457917904733D-06  0.56328860654611D-06  0.56179529077573D-06  0.56010693086026D-06  0.55823167773148D-06  0.55617809489328D-06  0.55395512216059D-06
 0.64997500000000D+02  0.58698807201842D-06  0.58726098479255D-06  0.58728149772310D-06  0.58705341197343D-06  0.58658119822672D-06  0.58586995852420D-06  0.58492538675105D-06  0.58375372888712D-06  0.58236174404673D-06  0.58075666722285D-06
 0.65122500000000D+02  0.60157801101722D-06  0.60290984892695D-06  0.60397116510917D-06  0.60476324000463D-06  0.60528808408765D-06  0.60554840756646D-06  0.60554758701612D-06  0.60528963011375D-06  0.60477913959110D-06  0.60402127743634D-06
 0.65247500000000D+02  0.61016884623461D-06  0.61264500063860D-06  0.61484489790023D-06  0.61676720534006D-06  0.61841134624015D-06  0.61977747994468D-06  0.62086647729100D-06  0.62167989251053D-06  0.62221993273483D-06  0.62248942620001D-06
 0.65372500000000D+02  0.61231429671864D-06  0.61595663000750D-06  0.61932953395530D-06  0.62242911688255D-06  0.62525223158536D-06  0.62779646775339D-06  0.63006013837866D-06  0.63204226117150D-06  0.63374253605660D-06  0.63516131983149D-06
 0.65497500000000D+02  0.60790643401069D-06  0.61267239934840D-06  0.61718785728451D-06  0.62144655749591D-06  0.62544294464235D-06  0.62917216417470D-06  0.63263006119814D-06  0.63581317319249D-06  0.63871871751075D-06  0.64134457464519D-06
 0.65622500000000D+02  0.59717630942798D-06  0.60296141645347D-06  0.60852594606023D-06  0.61386162736726D-06  0.61896079882277D-06  0.62381642745885D-06  0.62842212078726D-06  0.63277213184413D-06  0.63686135806737D-06  0.64068533481864D-06
 0.65747500000000D+02  0.58067707419089D-06  0.58732055439676D-06  0.59378275234821D-06  0.60005383590287D-06  0.60612446476345D-06  0.61198582211885D-06  0.61762963911430D-06  0.62304821230508D-06  0.62823441446936D-06  0.63318169933650D-06
 0.65872500000000D+02  0.55925092268728D-06  0.56654428838525D-06  0.57370292081291D-06  0.58071598322527D-06  0.58757298808691D-06  0.59426383891842D-06  0.60077886578681D-06  0.60710885421585D-06  0.61324506753690D-06  0.61917926291977D-06
 0.65997500000000D+02  0.53398198684742D-06  0.54168003410256D-06  0.54929468243579D-06  0.55681471448668D-06  0.56422910302190D-06  0.57152705978392D-06  0.57869807938884D-06  0.58573197768487D-06  0.59261892422469D-06  0.59934946874030D-06
 0.66122500000000D+02  0.50613794972510D-06  0.51397163395453D-06  0.52177534197221D-06  0.52953813247785D-06  0.53724908899866D-06  0.54489737171852D-06  0.55247226625129D-06  0.55996322846005D-06  0.56735992463624D-06  0.57465226657712D-06
 0.66247500000000D+02  0.47710359397406D-06  0.48479411273463D-06  0.49250737983458D-06  0.50023338210262D-06  0.50796197078279D-06  0.51568291180126D-06  0.52338593520128D-06  0.53106078263384D-06  0.53869725194547D-06  0.54628523809217D-06
 0.66372500000000D+02  0.44830974851121D-06  0.45558310523120D-06  0.46292850329685D-06  0.47033746739253D-06  0.47780124231460D-06  0.48531083697987D-06  0.49285706994855D-06  0.50043061526098D-06  0.50802204746197D-06  0.51562188480983D-06
 0.66497500000000D+02  0.42116116295150D-06  0.42776246301977D-06  0.43447912521379D-06  0.44130474361294D-06  0.44823251473677D-06  0.45525527085543D-06  0.46236551704670D-06  0.46955547085773D-06  0.47681710340912D-06  0.48414218081928D-06
 0.66622500000000D+02  0.39696675585722D-06  0.40267350492973D-06  0.40853074679869D-06  0.41453456660078D-06  0.42068056988263D-06  0.42696390144334D-06  0.43337926979822D-06  0.43992097633314D-06  0.44658294809928D-06  0.45335877314257D-06
 0.66747500000000D+02  0.37687547641912D-06  0.38150920835382D-06  0.38631859311659D-06  0.39130249316551D-06  0.39645925172914D-06  0.40178669445825D-06  0.40728213799183D-06  0.41294240485922D-06  0.41876384392863D-06  0.42474235545996D-06
 0.66872500000000D+02  0.36182070231995D-06  0.36525635501798D-06  0.36888160005968D-06  0.37269821033762D-06  0.37670744613880D-06  0.38091003823172D-06  0.38530617840064D-06  0.38989551731333D-06  0.39467716932501D-06  0.39964972358275D-06
 0.66997500000000D+02  0.35247567018458D-06  0.35464824343336D-06  0.35701247565590D-06  0.35957302123979D-06  0.36233407543382D-06  0.36529933903903D-06  0.36847199020920D-06  0.37185466377974D-06  0.37544943821882D-06  0.37925782999229D-06
 0.67122500000000D+02  0.34922190111107D-06  0.35013006286018D-06  0.35122005865549D-06  0.35249923387608D-06  0.35397457219454D-06  0.35565264364448D-06  0.35753955856353D-06  0.35964092837707D-06  0.36196183385854D-06  0.36450680116925D-06
 0.67247500000000D+02  0.35213195750455D-06  0.35183840766299D-06  0.35170559329081D-06  0.35174320859575D-06  0.35196072126501D-06  0.35236730720425D-06  0.35297178908874D-06  0.35378258019125D-06  0.35480763465979D-06  0.35605440509306D-06
 0.67372500000000D+02  0.36096718170915D-06  0.35959573243090D-06  0.35835386994094D-06  0.35725316233184D-06  0.35630511497966D-06  0.35552109654838D-06  0.35491226606954D-06  0.35448950295665D-06  0.35426334159941D-06  0.35424391190662D-06
 0.67497500000000D+02  0.37519036732717D-06  0.37291985473132D-06  0.37073949633870D-06  0.36866215335389D-06  0.36670080529561D-06  0.36486847280412D-06  0.36317813834796D-06  0.36164266692861D-06  0.36027472877854D-06  0.35908672585897D-06
 0.67622500000000D+02  0.39399264865108D-06  0.39104795117231D-06  0.38814790904546D-06  0.38530602362111D-06  0.38253610003182D-06  0.37985217282434D-06  0.37726842616641D-06  0.37479911077409D-06  0.37245845973667D-06  0.37026060534563D-06
 0.67747500000000D+02  0.41633330279221D-06  0.41297390049520D-06  0.40961014316718D-06  0.40625548554838D-06  0.40292386284349D-06  0.39962962515943D-06  0.39638746336178D-06  0.39321232833485D-06  0.39011934580472D-06  0.38712372895228D-06
 0.67872500000000D+02  0.44099066695643D-06  0.43749732397872D-06  0.43394986406055D-06  0.43036101554656D-06  0.42674414247162D-06  0.42311319320384D-06  0.41948263783093D-06  0.41586739591228D-06  0.41228275652947D-06  0.40874429277878D-06
 0.67997500000000D+02  0.46662198024660D-06  0.46328225511274D-06  0.45984072125601D-06  0.45630874817788D-06  0.45269846365155D-06  0.44902272088805D-06  0.44529505252531D-06  0.44152961252728D-06  0.43774110750345D-06  0.43394471930203D-06
 0.68122500000000D+02  0.49182964162165D-06  0.48892301270996D-06  0.48587168712532D-06  0.48268512754953D-06  0.47937363599231D-06  0.47594834230707D-06  0.47242117857299D-06  0.46880483976987D-06  0.46511273167356D-06  0.46135890734820D-06
 0.68247500000000D+02  0.51523109647126D-06  0.51301452083418D-06  0.51061766099006D-06  0.50804764059137D-06  0.50531245623387D-06  0.50242098838522D-06  0.49938299830428D-06  0.49620911065696D-06  0.49291078206676D-06  0.48950025635289D-06
 0.68372500000000D+02  0.53552929566126D-06  0.53422399391508D-06  0.53271223895416D-06  0.53099852232840D-06  0.52908819220152D-06  0.52698748588537D-06  0.52470354958321D-06  0.52224444433918D-06  0.51961913770397D-06  0.51683748115839D-06
 0.68497500000000D+02  0.55158041916203D-06  0.55136060068303D-06  0.55091919302679D-06  0.55025791575788D-06  0.54937927987520D-06  0.54828663934583D-06  0.54698423206245D-06  0.54547720860000D-06  0.54377164758757D-06  0.54187455700985D-06
 0.68622500000000D+02  0.56245537682743D-06  0.56343949833167D-06  0.56419893865631D-06  0.56473266279729D-06  0.56504031775363D-06  0.56512229889427D-06  0.56497980876362D-06  0.56461490623005D-06  0.56403054420721D-06  0.56323059459229D-06
 0.68747500000000D+02  0.56749158657534D-06  0.56973658730954D-06  0.57176619953059D-06  0.57357680265311D-06  0.57516531213049D-06  0.57652925531371D-06  0.57766684328604D-06  0.57857703630786D-06  0.57925960068414D-06  0.57971515515552D-06
 0.68872500000000D+02  0.56633178544065D-06  0.56983057751427D-06  0.57313530221584D-06  0.57624005913204D-06  0.57913931158927D-06  0.58182796598339D-06  0.58430145081303D-06  0.58655579301148D-06  0.58858768918632D-06  0.59039456951010D-06
 0.68997500000000D+02  0.55894721089154D-06  0.56362953428430D-06  0.56815010355236D-06  0.57250115840021D-06  0.57667511547303D-06  0.58066464501268D-06  0.58446275078356D-06  0.58806285106100D-06  0.59145885832430D-06  0.59464525526514D-06
 0.69122500000000D+02  0.54564338000471D-06  0.55137996427388D-06  0.55699644310792D-06  0.56248370184625D-06  0.56783261397627D-06  0.57303410940907D-06  0.57807924909651D-06  0.58295930419425D-06  0.58766583768170D-06  0.59219078615622D-06
 0.69247500000000D+02  0.52704779094642D-06  0.53365760165399D-06  0.54019611284025D-06  0.54665341390988D-06  0.55301940381012D-06  0.55928384617195D-06  0.56543643308542D-06  0.57146685629756D-06  0.57736488421856D-06  0.58312044279135D-06
 0.69372500000000D+02  0.50408002250333D-06  0.51134021141090D-06  0.51858249401860D-06  0.52579674062165D-06  0.53297247356205D-06  0.54009890584620D-06  0.54716498970760D-06  0.55415947459558D-06  0.56107097360670D-06  0.56788803694657D-06
 0.69497500000000D+02  0.47790576698330D-06  0.48556379610099D-06  0.49325908878994D-06  0.50098185730629D-06  0.50872183844159D-06  0.51646831386607D-06  0.52421014064256D-06  0.53193579211876D-06  0.53963340893378D-06  0.54729085939868D-06
 0.69622500000000D+02  0.44987720886472D-06  0.45766448998019D-06  0.46554309102487D-06  0.47350407989438D-06  0.48153795773805D-06  0.48963466102362D-06  0.49778357291754D-06  0.50597354487228D-06  0.51419292888796D-06  0.52242962044651D-06
 0.69747500000000D+02  0.42146283651318D-06  0.42910913415027D-06  0.43689688598984D-06  0.44481845462345D-06  0.45286558412564D-06  0.46102938551724D-06  0.46930032972127D-06  0.47766824947068D-06  0.48612235130041D-06  0.49465123834942D-06
 0.69872500000000D+02  0.39417027702668D-06  0.40141807702041D-06  0.40885096805868D-06  0.41646295051102D-06  0.42424739421409D-06  0.43219701046740D-06  0.44030382893730D-06  0.44855918132104D-06  0.45695369343224D-06  0.46547728707216D-06
 0.69997500000000D+02  0.36946611263728D-06  0.37608416736103D-06  0.38292224457955D-06  0.38997621499450D-06  0.39724134390230D-06  0.40471225395751D-06  0.41238288977690D-06  0.42024648641383D-06  0.42829554370132D-06  0.43652180831148D-06
 0.70122500000000D+02  0.34869688009930D-06  0.35449220259714D-06  0.36053204308945D-06  0.36681425721841D-06  0.37333615243603D-06  0.38009444642949D-06  0.38708522415563D-06  0.39430389546163D-06  0.40174515540194D-06  0.40940294937579D-06
 0.70247500000000D+02  0.33301553875810D-06  0.33784322192833D-06  0.34292831015690D-06  0.34827064022625D-06  0.35386958312552D-06  0.35972400321000D-06  0.36583221290229D-06  0.37219192463716D-06  0.37880020203695D-06  0.38565341248500D-06
 0.70372500000000D+02  0.32331755748041D-06  0.32708792827398D-06  0.33111641630096D-06  0.33540472320278D-06  0.33995418436939D-06  0.34476573361345D-06  0.34983986078446D-06  0.35517656355944D-06  0.36077529505453D-06  0.36663490923073D-06
 0.70497500000000D+02  0.32019036175814D-06  0.32287313286737D-06  0.32580261224489D-06  0.32898214913926D-06  0.33241483483455D-06  0.33610347691397D-06  0.34005056457303D-06  0.34425822561443D-06  0.34872817624495D-06  0.35346166523854D-06
 0.70622500000000D+02  0.32387919153943D-06  0.32550443680872D-06  0.32735351598964D-06  0.32943112385770D-06  0.33174180622862D-06  0.33428994685595D-06  0.33707974436584D-06  0.34011517918190D-06  0.34339997091025D-06  0.34693752716949D-06
 0.70747500000000D+02  0.33427149927757D-06  0.33492744949086D-06  0.33577410457286D-06  0.33681713762758D-06  0.33806217548971D-06  0.33951480005973D-06  0.34118053961600D-06  0.34306484937109D-06  0.34517308103487D-06  0.34751044167858D-06
 0.70872500000000D+02  0.35090095933854D-06  0.35072878662590D-06  0.35070562955102D-06  0.35083772930425D-06  0.35113137159607D-06  0.35159290290604D-06  0.35222873757747D-06  0.35304535440160D-06  0.35404928175909D-06  0.35524707088316D-06
 0.70997500000000D+02  0.37297105876954D-06  0.37215698061517D-06  0.37144375650261D-06  0.37083776551162D-06  0.37034550623225D-06  0.36997362711383D-06  0.36972894934532D-06  0.36961848040773D-06  0.36964941675269D-06  0.36982913447427D-06
 0.71122500000000D+02  0.39939715629607D-06  0.39816232972042D-06  0.39697609879207D-06  0.39584455300554D-06  0.39477395838571D-06  0.39377079998353D-06  0.39284181922009D-06  0.39199404388161D-06  0.39123480874275D-06  0.39057176508809D-06
 0.71247500000000D+02  0.42886485469310D-06  0.42745363352574D-06  0.42603719904608D-06  0.42462094733137D-06  0.42321048946489D-06  0.42181170332920D-06  0.42043078296111D-06  0.41907428312226D-06  0.41774915676418D-06  0.41646278321415D-06
 0.71372500000000D+02  0.45990154724419D-06  0.45856873248364D-06  0.45717793697367D-06  0.45573350127408D-06  0.45424000165369D-06  0.45270230774630D-06  0.45112564061896D-06  0.44951562895266D-06  0.44787836091438D-06  0.44622042929354D-06
 0.71497500000000D+02  0.49095711665399D-06  0.48995484306455D-06  0.48884537292310D-06  0.48763168549428D-06  0.48631700048382D-06  0.48490483787895D-06  0.48339908093431D-06  0.48180404022896D-06  0.48012451647206D-06  0.47836585958295D-06
 0.71622500000000D+02  0.52048907089820D-06  0.52005395156510D-06  0.51946827483684D-06  0.51873342008974D-06  0.51785099839524D-06  0.51682291096400D-06  0.51565141312406D-06  0.51433918213237D-06  0.51288938677368D-06  0.51130575642527D-06
 0.71747500000000D+02  0.54704700352239D-06  0.54738811068120D-06  0.54754313630141D-06  0.54751169572732D-06  0.54729361662910D-06  0.54688899287328D-06  0.54629824579197D-06  0.54552219162742D-06  0.54456211352424D-06  0.54341983607476D-06
 0.71872500000000D+02  0.56935125866843D-06  0.57063946445056D-06  0.57171546369200D-06  0.57257702202951D-06  0.57322209035273D-06  0.57364885157112D-06  0.57385577600181D-06  0.57384168468504D-06  0.57360581951099D-06  0.57314791862431D-06
 0.71997500000000D+02  0.58636110477051D-06  0.58872024504217D-06  0.59085152150470D-06  0.59275084407254D-06  0.59441427586997D-06  0.59583807117552D-06  0.59701872251530D-06  0.59795301674222D-06  0.59863809953633D-06  0.59907154733494D-06
 0.72122500000000D+02  0.59732854209942D-06  0.60082879971902D-06  0.60409653155221D-06  0.60712586416895D-06  0.60991104269195D-06  0.61244645908527D-06  0.61472668943958D-06  0.61674654057357D-06  0.61850110592498D-06  0.61998583030797D-06
 0.72247500000000D+02  0.60183497739349D-06  0.60648880268834D-06  0.61091640405419D-06  0.61511027200545D-06  0.61906298019128D-06  0.62276720406887D-06  0.62621574781233D-06  0.62940158017332D-06  0.63231787974419D-06  0.63495808974026D-06
 0.72372500000000D+02  0.59980922891193D-06  0.60557001837249D-06  0.61112126987208D-06  0.61645405450370D-06  0.62155949161607D-06  0.62642875869557D-06  0.63105310823241D-06  0.63542389257084D-06  0.63953259757294D-06  0.64337088567807D-06
 0.72497500000000D+02  0.59152650776452D-06  0.59829014358765D-06  0.60487022072807D-06  0.61125666926131D-06  0.61743943394813D-06  0.62340847678201D-06  0.62915378492846D-06  0.63466538521330D-06  0.63993336624524D-06  0.64494790911024D-06
 0.72622500000000D+02  0.57758904076443D-06  0.58519825794175D-06  0.59265764753940D-06  0.59995632930427D-06  0.60708340573701D-06  0.61402795920330D-06  0.62077905266703D-06  0.62732573523349D-06  0.63365705371100D-06  0.63976207135160D-06
 0.72747500000000D+02  0.55888983365744D-06  0.56714123987072D-06  0.57528238941735D-06  0.58330196347430D-06  0.59118859571434D-06  0.59893086610774D-06  0.60651729656072D-06  0.61393634949518D-06  0.62117643057141D-06  0.62822589679911D-06
 0.72872500000000D+02  0.53656178250892D-06  0.54521522537145D-06  0.55380163633826D-06  0.56230965814391D-06  0.57072785734160D-06  0.57904471693508D-06  0.58724862919452D-06  0.59532788958319D-06  0.60327069287507D-06  0.61106513266175D-06
 0.72997500000000D+02  0.51191500802786D-06  0.52070487711342D-06  0.52947224242475D-06  0.53820612280977D-06  0.54689543377945D-06  0.55552898092428D-06  0.56409545211519D-06  0.57258340917149D-06  0.58098127986335D-06  0.58927735128642D-06
 0.73122500000000D+02  0.48636593134722D-06  0.49501390209686D-06  0.50368280285070D-06  0.51236244255175D-06  0.52104250127956D-06  0.52971252605050D-06  0.53836192434582D-06  0.54697995576761D-06  0.55555572241619D-06  0.56407815877926D-06
 0.73247500000000D+02  0.46136213742303D-06  0.46959080246366D-06  0.47788041108911D-06  0.48622195979682D-06  0.49460629269163D-06  0.50302410078850D-06  0.51146591838228D-06  0.51992211659375D-06  0.52838289438029D-06  0.53683826749976D-06
 0.73372500000000D+02  0.43830731858410D-06  0.44585409740459D-06  0.45349627257231D-06  0.46122639237219D-06  0.46903683185475D-06  0.47691979620416D-06  0.48486732092750D-06  0.49287126869962D-06  0.50092332284642D-06  0.50901497763060D-06
 0.73497500000000D+02  0.41849042168464D-06  0.42512108833350D-06  0.43187418889521D-06  0.43874413743924D-06  0.44572515769124D-06  0.45281129045347D-06  0.45999639800130D-06  0.46727416505246D-06  0.47463809601122D-06  0.48208150833498D-06
 0.73622500000000D+02  0.40302253837476D-06  0.40854366951704D-06  0.41420537282123D-06  0.42000417539431D-06  0.42593640202731D-06  0.43199818610933D-06  0.43818547803154D-06  0.44449405049153D-06  0.45091950016419D-06  0.45745724530434D-06
 0.73747500000000D+02  0.39278423664497D-06  0.39705387948122D-06  0.40147228475049D-06  0.40603825820557D-06  0.41075039817069D-06  0.41560710891735D-06  0.42060661233937D-06  0.42574695720968D-06  0.43102602530850D-06  0.43644153375821D-06
 0.73872500000000D+02  0.38838516173083D-06  0.39132107149694D-06  0.39440341933138D-06  0.39763336150675D-06  0.40101185054240D-06  0.40453964964320D-06  0.40821734646071D-06  0.41204536539453D-06  0.41602397761134D-06  0.42015330795369D-06
 0.73997500000000D+02  0.39013701025779D-06  0.39172191623788D-06  0.39344036509086D-06  0.39529583354069D-06  0.39729160896639D-06  0.39943080326483D-06  0.40171636718401D-06  0.40415110433877D-06  0.40673768404224D-06  0.40947865203258D-06
 0.74122500000000D+02  0.39804045018968D-06  0.39832396829894D-06  0.39871802756482D-06  0.39922828960756D-06  0.39986025354862D-06  0.40061926756235D-06  0.40151054207662D-06  0.40253916388419D-06  0.40371011031721D-06  0.40502826254368D-06
 0.74247500000000D+02  0.41178615668820D-06  0.41088315715050D-06  0.41005856544306D-06  0.40931998861949D-06  0.40867491169849D-06  0.40813070522358D-06  0.40769463558972D-06  0.40737387749697D-06  0.40717552775965D-06  0.40710661957564D-06
 0.74372500000000D+02  0.43076975734242D-06  0.42885519806792D-06  0.42697923534657D-06  0.42515108519789D-06  0.42337989607689D-06  0.42167475096794D-06  0.42004467321984D-06  0.41849863562043D-06  0.41704557206402D-06  0.41569439102062D-06
 0.74497500000000D+02  0.45412005557248D-06  0.45142049067623D-06  0.44871391046827D-06  0.44601071872253D-06  0.44332131952139D-06  0.44065611276276D-06  0.43802549416652D-06  0.43543985944877D-06  0.43290961218076D-06  0.43044517469376D-06
 0.74622500000000D+02  0.48073941507363D-06  0.47752157522891D-06  0.47424753101783D-06  0.47092838552772D-06  0.46757532172276D-06  0.46419959072237D-06  0.46081250506330D-06  0.45742543680623D-06  0.45404982019678D-06  0.45069715842958D-06
 0.74747500000000D+02  0.50935468234217D-06  0.50591169520755D-06  0.50236220933095D-06  0.49871749389932D-06  0.49498898641160D-06  0.49118827365900D-06  0.48732707785674D-06  0.48341724799510D-06  0.47947075633024D-06  0.47549969977532D-06
 0.74872500000000D+02  0.53857656582777D-06  0.53521253621747D-06  0.53169321544394D-06  0.52802948752182D-06  0.52423249819174D-06  0.52031362915045D-06  0.51628447726050D-06  0.51215683901832D-06  0.50794270041961D-06  0.50365423220679D-06
 0.74997500000000D+02  0.56696503642170D-06  0.56397882852266D-06  0.56079265818399D-06  0.55741648468250D-06  0.55386062259492D-06  0.55013571043377D-06  0.54625268374749D-06  0.54222275316971D-06  0.53805738777176D-06  0.53376830392843D-06
 0.75122500000000D+02  0.59309808483754D-06  0.59076722893913D-06  0.58819836256972D-06  0.58540002346175D-06  0.58238119282842D-06  0.57915126010206D-06  0.57571999129850D-06  0.57209750168138D-06  0.56829423328343D-06  0.56432093770973D-06
 0.75247500000000D+02  0.61564104281383D-06  0.61420671157181D-06  0.61250520013479D-06  0.61054320082034D-06  0.60832792620638D-06  0.60586707209215D-06  0.60316878296791D-06  0.60024162082952D-06  0.59709453807417D-06  0.59373685509699D-06
 0.75372500000000D+02  0.63341359672052D-06  0.63306755021607D-06  0.63243591399968D-06  0.63152321105863D-06  0.63033454393066D-06  0.62887555827066D-06  0.62715240759958D-06  0.62517172019532D-06  0.62294056900663D-06  0.62046644537463D-06
 0.75497500000000D+02  0.64545155280320D-06  0.64632583614319D-06  0.64690827266321D-06  0.64720101382349D-06  0.64720682673079D-06  0.64692906076750D-06  0.64637161395876D-06  0.64553890011104D-06  0.64443581770430D-06  0.64306772144692D-06
 0.75622500000000D+02  0.65106035383572D-06  0.65322035510279D-06  0.65509520761971D-06  0.65668462566821D-06  0.65798894727941D-06  0.65900910624735D-06  0.65974660242726D-06  0.66020347136707D-06  0.66038225430146D-06  0.66028596949382D-06
 0.75747500000000D+02  0.64985735221809D-06  0.65329861020072D-06  0.65647451147320D-06  0.65938241077027D-06  0.66202026331488D-06  0.66438660419174D-06  0.66648052466137D-06  0.66830164641361D-06  0.66985009477624D-06  0.67112647188387D-06
 0.75872500000000D+02  0.64180000968800D-06  0.64644892208237D-06  0.65086479780220D-06  0.65504285101495D-06  0.65897884026555D-06  0.66266905664003D-06  0.66611030775355D-06  0.66929989844514D-06  0.67223560911671D-06  0.67491567268035D-06
 0.75997500000000D+02  0.62719761532770D-06  0.63291596131598D-06  0.63844484803515D-06  0.64377769878386D-06  0.64890839300624D-06  0.65383126396373D-06  0.65854109145161D-06  0.66303309026272D-06  0.66730289519450D-06  0.67134654345966D-06
 0.76122500000000D+02  0.60670484347116D-06  0.61329781817699D-06  0.61975423834030D-06  0.62606619797465D-06  0.63222612998399D-06  0.63822681323333D-06  0.64406137430772D-06  0.64972328442959D-06  0.65520635213221D-06  0.66050471238693D-06
 0.76247500000000D+02  0.58129649169946D-06  0.58852376539936D-06  0.59567421756569D-06  0.60273916031391D-06  0.60971010379863D-06  0.61657877169912D-06  0.62333711151482D-06  0.62997729987307D-06  0.63649174320451D-06  0.64287307427108D-06
 0.76372500000000D+02  0.55222394914998D-06  0.55981311549679D-06  0.56738908471442D-06  0.57494298826811D-06  0.58246599873078D-06  0.58994935185807D-06  0.59738436408671D-06  0.60476244537856D-06  0.61207510749790D-06  0.61931396795888D-06
 0.76497500000000D+02  0.52095519597361D-06  0.52861686069867D-06  0.53632963260160D-06  0.54408508160511D-06  0.55187465491162D-06  0.55968970311892D-06  0.56752150283057D-06  0.57536127541792D-06  0.58320020175198D-06  0.59102943287891D-06
 0.76622500000000D+02  0.48910126997988D-06  0.49654495462196D-06  0.50410142848316D-06  0.51176329903191D-06  0.51952289056783D-06  0.52737227130183D-06  0.53530327837673D-06  0.54330754026349D-06  0.55137649610660D-06  0.55950141173786D-06
 0.76747500000000D+02  0.45833304544458D-06  0.46528304324696D-06  0.47240168925214D-06  0.47968317023436D-06  0.48712124339840D-06  0.49470926107927D-06  0.50244019507345D-06  0.51030665988416D-06  0.51830093426237D-06  0.52641498054264D-06
 0.76872500000000D+02  0.43029280999459D-06  0.43650313980631D-06  0.44292924210570D-06  0.44956733316679D-06  0.45641307761369D-06  0.46346160742503D-06  0.47070754233939D-06  0.47814501088336D-06  0.48576767128847D-06  0.49356873163630D-06
 0.76997500000000D+02  0.40650551002759D-06  0.41177317369313D-06  0.41729254880601D-06  0.42306221087387D-06  0.42908009504178D-06  0.43534350642743D-06  0.44184913351814D-06  0.44859306389466D-06  0.45557080152748D-06  0.46277728490815D-06
 0.77122500000000D+02  0.38829468519132D-06  0.39247054230887D-06  0.39692102007757D-06  0.40164724076550D-06  0.40664963795686D-06  0.41192795588266D-06  0.41748125317652D-06  0.42330791047044D-06  0.42940564116058D-06  0.43577150462592D-06
 0.77247500000000D+02  0.37670802166996D-06  0.37970474168842D-06  0.38298483231155D-06  0.38655199450794D-06  0.39040923695134D-06  0.39455886290874D-06  0.39900246245099D-06  0.40374090964723D-06  0.40877436425993D-06  0.41410227734808D-06
 0.77372500000000D+02  0.37245708041845D-06  0.37425379929105D-06  0.37632812920243D-06  0.37868622182812D-06  0.38133357879266D-06  0.38427502576959D-06  0.38751469220741D-06  0.39105599666394D-06  0.39490163754214D-06  0.39905358885629D-06
 0.77497500000000D+02  0.37587505109392D-06  0.37651853249141D-06  0.37741979964325D-06  0.37858717191132D-06  0.38002840448714D-06  0.38175065055955D-06  0.38376042874799D-06  0.38606359614695D-06  0.38866532711379D-06  0.39157009773031D-06
 0.77622500000000D+02  0.38689533524897D-06  0.38649760544311D-06  0.38632497295766D-06  0.38638750081746D-06  0.38669481193716D-06  0.38725604141901D-06  0.38807979309037D-06  0.38917410099083D-06  0.39054639630863D-06  0.39220348004893D-06
 0.77747500000000D+02  0.40505243738026D-06  0.40378502685298D-06  0.40269904210182D-06  0.40180574743374D-06  0.40111612100809D-06  0.40064080042447D-06  0.40039003092780D-06  0.40037361726380D-06  0.40060088003789D-06  0.40108061722599D-06
 0.77872500000000D+02  0.42950517992162D-06  0.42759026618990D-06  0.42580456218826D-06  0.42415990307866D-06  0.42266801130163D-06  0.42134043948793D-06  0.42018851390443D-06  0.41922327970746D-06  0.41845544915411D-06  0.41789535375704D-06
 0.77997500000000D+02  0.45908083766171D-06  0.45677974310851D-06  0.45454994932968D-06  0.45240318030334D-06  0.45035122839013D-06  0.44840589915291D-06  0.44657895435647D-06  0.44488205454410D-06  0.44332670254371D-06  0.44192418915539D-06
 0.78122500000000D+02  0.49233756477157D-06  0.48993721306725D-06  0.48754766381196D-06  0.48517983651516D-06  0.48284489560466D-06  0.48055420189204D-06  0.47831925981838D-06  0.47615166186142D-06  0.47406303153306D-06  0.47206496637970D-06
 0.78247500000000D+02  0.52764154235750D-06  0.52543960132400D-06  0.52318856381549D-06  0.52089788189118D-06  0.51857741267434D-06  0.51623738092441D-06  0.51388833518193D-06  0.51154109870502D-06  0.50920671656012D-06  0.50689640030674D-06
 0.78372500000000D+02  0.56325459502075D-06  0.56154411289926D-06  0.55972834402590D-06  0.55781468003155D-06  0.55581105079462D-06  0.55372590188498D-06  0.55156816379080D-06  0.54934721384821D-06  0.54707283202485D-06  0.54475515188008D-06
 0.78497500000000D+02  0.59742755141307D-06  0.59648191288724D-06  0.59538137893607D-06  0.59413079271202D-06  0.59273563323784D-06  0.59120201042896D-06  0.58953665071696D-06  0.58774687378248D-06  0.58584056120764D-06  0.58382611811220D-06
 0.78622500000000D+02  0.62849431437704D-06  0.62855329994422D-06  0.62841685639336D-06  0.62808692298952D-06  0.62756613088601D-06  0.62685781710895D-06  0.62596602870121D-06  0.62489551705013D-06  0.62365172276706D-06  0.62224075180414D-06
 0.78747500000000D+02  0.65496148077863D-06  0.65621911874378D-06  0.65725185859519D-06  0.65805853176364D-06  0.65863867289375D-06  0.65899255271067D-06  0.65912120140588D-06  0.65902642205688D-06  0.65871079394951D-06  0.65817766602209D-06
 0.78872500000000D+02  0.67558848195763D-06  0.67818325476479D-06  0.68053611235018D-06  0.68264273493256D-06  0.68449947263368D-06  0.68610339568251D-06  0.68745233628019D-06  0.68854492115810D-06  0.68938059419040D-06  0.68995962877203D-06
 0.78997500000000D+02  0.68945367850176D-06  0.69346150284803D-06  0.69722356342444D-06  0.70073250581249D-06  0.70398157070233D-06  0.70696465856013D-06  0.70967638778265D-06  0.71211214496553D-06  0.71426812618263D-06  0.71614136848865D-06
 0.79122500000000D+02  0.69600266497688D-06  0.70143292149123D-06  0.70662674764763D-06  0.71157402124924D-06  0.71626510489412D-06  0.72069092115836D-06  0.72484302361140D-06  0.72871366200246D-06  0.73229584014279D-06  0.73558336525743D-06
 0.79247500000000D+02  0.69507617365517D-06  0.70187092317392D-06  0.70845107256751D-06  0.71480413146113D-06  0.72091795671383D-06  0.72678083344696D-06  0.73238155455035D-06  0.73770949686503D-06  0.74275469232435D-06  0.74750789249386D-06
 0.79372500000000D+02  0.68691629247898D-06  0.69495268251264D-06  0.70280745762747D-06  0.71046626770703D-06  0.71791495496343D-06  0.72513963582486D-06  0.73212678400064D-06  0.73886331294286D-06  0.74533665589815D-06  0.75153484179580D-06
 0.79497500000000D+02  0.67215106937093D-06  0.68124680360702D-06  0.69020314040757D-06  0.69900445862200D-06  0.70763516792621D-06  0.71607978669214D-06  0.72432302353971D-06  0.73234986096700D-06  0.74014563932576D-06  0.74769613935347D-06
 0.79622500000000D+02  0.65175880188956D-06  0.66168041578115D-06  0.67151168307843D-06  0.68123634914942D-06  0.69083803286378D-06  0.70030029607884D-06  0.70960671889161D-06  0.71874097936566D-06  0.72768693622589D-06  0.73642871285898D-06
 0.79747500000000D+02  0.62701430062811D-06  0.63748786030529D-06  0.64792420931466D-06  0.65830711348241D-06  0.66862006901828D-06  0.67884636010606D-06  0.68896912374232D-06  0.69897142094669D-06  0.70883631318956D-06  0.71854694264784D-06
 0.79872500000000D+02  0.59942015027476D-06  0.61014387972517D-06  0.62088466422317D-06  0.63162692867868D-06  0.64235470809959D-06  0.65305169088087D-06  0.66370127010529D-06  0.67428660245034D-06  0.68479067398872D-06  0.69519637188201D-06
 0.79997500000000D+02  0.57062654678794D-06  0.58128480304350D-06  0.59201249889057D-06  0.60279531233046D-06  0.61361844072848D-06  0.62446662864339D-06  0.63532420366794D-06  0.64617512035414D-06  0.65700301199400D-06  0.66779124971833D-06
 0.80122500000000D+02  0.54234376974188D-06  0.55262173850770D-06  0.56301673779045D-06  0.57351622249905D-06  0.58410711020946D-06  0.59477579364530D-06  0.60550816043439D-06  0.61628962065371D-06  0.62710514240858D-06  0.63793929539724D-06
 0.80247500000000D+02  0.51625180824750D-06  0.52585028363945D-06  0.53560592321587D-06  0.54550839145561D-06  0.55554679494811D-06  0.56570968081066D-06  0.57598504100961D-06  0.58636032345464D-06  0.59682245053103D-06  0.60735784548546D-06
 0.80372500000000D+02  0.49391202804214D-06  0.50256165773292D-06  0.51139885179576D-06  0.52041580981197D-06  0.52960418880397D-06  0.53895508985589D-06  0.54845904878344D-06  0.55810603196419D-06  0.56788543831688D-06  0.57778610823944D-06
 0.80497500000000D+02  0.47668586732225D-06  0.48416026945210D-06  0.49184113214626D-06  0.49972339747076D-06  0.50780151372926D-06  0.51606941327000D-06  0.52452049219665D-06  0.53314759320316D-06  0.54194299272100D-06  0.55089839347549D-06
 0.80622500000000D+02  0.46566519214306D-06  0.47179236921617D-06  0.47813222414590D-06  0.48468252444336D-06  0.49144062187023D-06  0.49840342482687D-06  0.50556737041825D-06  0.51292839738874D-06  0.52048192117616D-06  0.52822281233677D-06
 0.80747500000000D+02  0.46161806676580D-06  0.46628955694575D-06  0.47116674004155D-06  0.47625016588504D-06  0.48154007016593D-06  0.48703634489614D-06  0.49273850645087D-06  0.49864566222019D-06  0.50475647704547D-06  0.51106914070561D-06
 0.80872500000000D+02  0.46495243399087D-06  0.46812967108134D-06  0.47149256240132D-06  0.47504427387559D-06  0.47878777601329D-06  0.48272581575255D-06  0.48686088408753D-06  0.49119518024797D-06  0.49573057340500D-06  0.50046856304529D-06
 0.80997500000000D+02  0.47569883063083D-06  0.47741625531243D-06  0.47928704844956D-06  0.48131671047546D-06  0.48351067543973D-06  0.48587428709714D-06  0.48841276943287D-06  0.49113119205519D-06  0.49403443112993D-06  0.49712712675669D-06
 0.81122500000000D+02  0.49351205563007D-06  0.49387664671564D-06  0.49435149454168D-06  0.49494404962881D-06  0.49566182874709D-06  0.49651239748144D-06  0.49750334642798D-06  0.49864226107251D-06  0.49993668566114D-06  0.50139408163105D-06
 0.81247500000000D+02  0.51769080183386D-06  0.51687787354691D-06  0.51612323043170D-06  0.51543580287046D-06  0.51482471747628D-06  0.51429928761678D-06  0.51386899733897D-06  0.51354347836519D-06  0.51333248007773D-06  0.51324583267453D-06
 0.81372500000000D+02  0.54721363693725D-06  0.54545895829673D-06  0.54370415255989D-06  0.54195909493050D-06  0.54023397860686D-06  0.53853931394975D-06  0.53688592138115D-06  0.53528491733475D-06  0.53374769279404D-06  0.53228588419993D-06
 0.81497500000000D+02  0.58078926738955D-06  0.57837778049765D-06  0.57590407467490D-06  0.57337839428605D-06  0.57081141050054D-06  0.56821422902634D-06  0.56559839239916D-06  0.56297587586195D-06  0.56035907603268D-06  0.55776079176541D-06
 0.81622500000000D+02  0.61691864038971D-06  0.61417026749570D-06  0.61129688058950D-06  0.60830850345715D-06  0.60521567872110D-06  0.60202948339280D-06  0.59876154019949D-06  0.59542402351765D-06  0.59202965884579D-06  0.58859171489998D-06
 0.81747500000000D+02  0.65396609086484D-06  0.65121931285114D-06  0.64828707613830D-06  0.64517860808835D-06  0.64190372727277D-06  0.63847286557234D-06  0.63489708753743D-06  0.63118810573504D-06  0.62735829084102D-06  0.62342067532001D-06
 0.81872500000000D+02  0.69023643713693D-06  0.68783048897177D-06  0.68518397571969D-06  0.68230479475303D-06  0.67920148542572D-06  0.67588325609536D-06  0.67236001001948D-06  0.66864236884569D-06  0.66474169238002D-06  0.66067009333195D-06
 0.81997500000000D+02  0.72405471553068D-06  0.72231136756683D-06  0.72028046695362D-06  0.71796811737289D-06  0.71538109260476D-06  0.71252686666924D-06  0.70941364444332D-06  0.70605039155970D-06  0.70244686229745D-06  0.69861362412225D-06
 0.82122500000000D+02  0.75384516277858D-06  0.75305112895392D-06  0.75193311314365D-06  0.75049505683018D-06  0.74874157679784D-06  0.74667799657801D-06  0.74431037982880D-06  0.74164556462237D-06  0.73869119746815D-06  0.73545576578769D-06
 0.82247500000000D+02  0.77820611981446D-06  0.77859714205393D-06  0.77864028927448D-06  0.77833708886259D-06  0.77768972622351D-06  0.77670107583985D-06  0.77537473547352D-06  0.77371506271355D-06  0.77172721289114D-06  0.76941717722512D-06
 0.82372500000000D+02  0.79597771834204D-06  0.79772531034987D-06  0.79911508538037D-06  0.80014603730494D-06  0.80081777924395D-06  0.80113057278403D-06  0.80108536121838D-06  0.80068380628197D-06  0.79992832765218D-06  0.79882214429554D-06
 0.82497500000000D+02  0.80629947716825D-06  0.80950116728458D-06  0.81234982130826D-06  0.81484192157259D-06  0.81697451089880D-06  0.81874521882727D-06  0.82015229237793D-06  0.82119463109660D-06  0.82187182593963D-06  0.82218420134360D-06
 0.82622500000000D+02  0.80865524234659D-06  0.81332894216329D-06  0.81766918492771D-06  0.82167010588708D-06  0.82532632397655D-06  0.82863296427021D-06  0.83158568508329D-06  0.83418070976109D-06  0.83641486299620D-06  0.83828561131174D-06
 0.82747500000000D+02  0.80290325183088D-06  0.80898611354402D-06  0.81476925110369D-06  0.82024475256171D-06  0.82540509722663D-06  0.83024317389388D-06  0.83475230348959D-06  0.83892626641361D-06  0.84275933469842D-06  0.84624630891157D-06
 0.82872500000000D+02  0.78928952611320D-06  0.79664136265048D-06  0.80374000878528D-06  0.81057592589520D-06  0.81713986142812D-06  0.82342286279395D-06  0.82941629512594D-06  0.83511186340211D-06  0.84050163928227D-06  0.84557809285591D-06
 0.82997500000000D+02  0.76844333019432D-06  0.77685438470625D-06  0.78506956931770D-06  0.79307823816889D-06  0.80086991687858D-06  0.80843431224190D-06  0.81576132502456D-06  0.82284106648995D-06  0.82966387920217D-06  0.83622036252511D-06
 0.83122500000000D+02  0.74135415261438D-06  0.75055674117176D-06  0.75962897682427D-06  0.76855969746223D-06  0.77733779225853D-06  0.78595220749812D-06  0.79439195459364D-06  0.80264612100421D-06  0.81070388472544D-06  0.81855453293797D-06
 0.83247500000000D+02  0.70933050061283D-06  0.71901383094406D-06  0.72863747550926D-06  0.73819038698698D-06  0.74766144773112D-06  0.75703947214706D-06  0.76631321030615D-06  0.77547135352952D-06  0.78450254266593D-06  0.79339537975308D-06
 0.83372500000000D+02  0.67394177079078D-06  0.68376907074486D-06  0.69360914960200D-06  0.70345171195734D-06  0.71328627355120D-06  0.72310216060667D-06  0.73288850951873D-06  0.74263426757614D-06  0.75232819543102D-06  0.76195887203831D-06
 0.83497500000000D+02  0.63694544238987D-06  0.64657241862925D-06  0.65628294844319D-06  0.66606809691316D-06  0.67591862946975D-06  0.68582500853213D-06  0.69577738975950D-06  0.70576561849239D-06  0.71577922702833D-06  0.72580743342089D-06
 0.83622500000000D+02  0.60020276173623D-06  0.60929635240945D-06  0.61853914151446D-06  0.62792410113145D-06  0.63744380530858D-06  0.64709042421629D-06  0.65685571738896D-06  0.66673102648857D-06  0.67670726811438D-06  0.68677492725639D-06
 0.83747500000000D+02  0.56558685821641D-06  0.57384324292560D-06  0.58230613197824D-06  0.59097085843192D-06  0.59983227588509D-06  0.60888475020578D-06  0.61812215008031D-06  0.62753783664853D-06  0.63712465259444D-06  0.64687491115357D-06
 0.83872500000000D+02  0.53488780251113D-06  0.54204868982877D-06  0.54946224292204D-06  0.55712649162118D-06  0.56503892602712D-06  0.57319648572283D-06  0.58159554780470D-06  0.59023191382693D-06  0.59910079585439D-06  0.60819680191951D-06
 0.83997500000000D+02  0.50971947140058D-06  0.51558579913401D-06  0.52173756124567D-06  0.52817568267961D-06  0.53490051316748D-06  0.54191181370475D-06  0.54920874209403D-06  0.55678983748644D-06  0.56465300394392D-06  0.57279549314134D-06
 0.84122500000000D+02  0.49143322377487D-06  0.49587557584919D-06  0.50062117298487D-06  0.50567388431847D-06  0.51103699585175D-06  0.51671319389822D-06  0.52270454803948D-06  0.52901249338996D-06  0.53563781203878D-06  0.54258061361911D-06
 0.84247500000000D+02  0.48104331082667D-06  0.48400856395105D-06  0.48727912417035D-06  0.49086170074942D-06  0.49476244106698D-06  0.49898691072960D-06  0.50354007375991D-06  0.50842627256808D-06  0.51364920745716D-06  0.51921191546976D-06
 0.84372500000000D+02  0.47916859867723D-06  0.48068254044898D-06  0.48248813571062D-06  0.48459468055992D-06  0.48701095979043D-06  0.48974522344956D-06  0.49280516406706D-06  0.49619789422740D-06  0.49992992416652D-06  0.50400713909966D-06
 0.84497500000000D+02  0.48599451174321D-06  0.48616039557642D-06  0.48658942286699D-06  0.48729308515546D-06  0.48828244110648D-06  0.48956808946704D-06  0.49116014322926D-06  0.49306820469372D-06  0.49530134110036D-06  0.49786806048545D-06
 0.84622500000000D+02  0.50125806820397D-06  0.50025127099728D-06  0.49946588949461D-06  0.49891509879496D-06  0.49861174419386D-06  0.49856831077953D-06  0.49879689461815D-06  0.49930917530227D-06  0.50011638957497D-06  0.50122930569837D-06
 0.84747500000000D+02  0.52425750071904D-06  0.52231661900526D-06  0.52054453191361D-06  0.51895548901085D-06  0.51756353295189D-06  0.51638246632196D-06  0.51542582023105D-06  0.51470682456038D-06  0.51423837967231D-06  0.51403302932034D-06
 0.84872500000000D+02  0.55388635163544D-06  0.55130121421980D-06  0.54882423298020D-06  0.54647005386398D-06  0.54425325241288D-06  0.54218829888587D-06  0.54028952502934D-06  0.53857109255266D-06  0.53704696326163D-06  0.53573087070481D-06
 0.84997500000000D+02  0.58869028809650D-06  0.58578748582479D-06  0.58292744772985D-06  0.58012450131527D-06  0.57739304657272D-06  0.57474752085436D-06  0.57220236500370D-06  0.56977199097376D-06  0.56747075105240D-06  0.56531290870349D-06
 0.85122500000000D+02  0.62694339957807D-06  0.62407004069140D-06  0.62117277140983D-06  0.61826488437407D-06  0.61535988616860D-06  0.61247146379601D-06  0.60961345175363D-06  0.60679980010441D-06  0.60404454383303D-06  0.60136177366823D-06
 0.85247500000000D+02  0.66673957017799D-06  0.66424605894553D-06  0.66166417309326D-06  0.65900548881658D-06  0.65628192830072D-06  0.65350572992027D-06  0.65068941816894D-06  0.64784577384359D-06  0.64498780492793D-06  0.64212871852493D-06
 0.85372500000000D+02  0.70609372307049D-06  0.70431641791863D-06  0.70239181980980D-06  0.70032917746270D-06  0.69813820055630D-06  0.69582903588463D-06  0.69341224223389D-06  0.69089876458793D-06  0.68829990822402D-06  0.68562731319038D-06
 0.85497500000000D+02  0.74304729425078D-06  0.74229191475549D-06  0.74133888259876D-06  0.74019461130038D-06  0.73886606631491D-06  0.73736074927880D-06  0.73568667993782D-06  0.73385237637960D-06  0.73186683419355D-06  0.72973950514777D-06
 0.85622500000000D+02  0.77577214999916D-06  0.77629876061460D-06  0.77658846188780D-06  0.77664445534399D-06  0.77647055566577D-06  0.77607118486400D-06  0.77545136316636D-06  0.77461669719676D-06  0.77357336606192D-06  0.77232810597181D-06
 0.85747500000000D+02  0.80266727959630D-06  0.80467758319161D-06  0.80642477895899D-06  0.80790863119259D-06  0.80912954460713D-06  0.81008856975728D-06  0.81078740440442D-06  0.81122839128293D-06  0.81141451280588D-06  0.81134938330568D-06
 0.85872500000000D+02  0.82244297889221D-06  0.82607051648081D-06  0.82942308007094D-06  0.83249693539726D-06  0.83528897958437D-06  0.83779675846787D-06  0.84001847938277D-06  0.84195301969155D-06  0.84359993144917D-06  0.84495944270011D-06
 0.85997500000000D+02  0.83418792404330D-06  0.83949161484111D-06  0.84452333195263D-06  0.84927594853349D-06  0.85374292357875D-06  0.85791833101593D-06  0.86179688414841D-06  0.86537395549918D-06  0.86864559225624D-06  0.87160852765269D-06
 0.86122500000000D+02  0.83741553066063D-06  0.84437681402363D-06  0.85108376174102D-06  0.85752612209628D-06  0.86369414913501D-06  0.86957864257521D-06  0.87517098335000D-06  0.88046316459119D-06  0.88544781802471D-06  0.89011823590217D-06
 0.86247500000000D+02  0.83208725711488D-06  0.84061092555885D-06  0.84891155689575D-06  0.85697618992954D-06  0.86479225879584D-06  0.87234764194125D-06  0.87963070741117D-06  0.88663035401893D-06  0.89333604812686D-06  0.89973785592889D-06
 0.86372500000000D+02  0.81861193329954D-06  0.82853057930269D-06  0.83826947285609D-06  0.84781348484925D-06  0.85714774687173D-06  0.86625770682516D-06  0.87512918186573D-06  0.88374840804620D-06  0.89210208616339D-06  0.90017742346459D-06
 0.86497500000000D+02  0.79782162829554D-06  0.80890346934582D-06  0.81985854266361D-06  0.83067019131514D-06  0.84132186800446D-06  0.85179719436464D-06  0.86208001886011D-06  0.87215447252090D-06  0.88200502182925D-06  0.89161651820212D-06
 0.86622500000000D+02  0.77092586095651D-06  0.78288555916926D-06  0.79477839154404D-06  0.80658687975966D-06  0.81829349653892D-06  0.82988072536940D-06  0.84133112025833D-06  0.85262736466496D-06  0.86375232880799D-06  0.87468912462849D-06
 0.86747500000000D+02  0.73944699580997D-06  0.75195895429816D-06  0.76446772436863D-06  0.77695574415760D-06  0.78940524616930D-06  0.80179831413263D-06  0.81411694132248D-06  0.82634308949252D-06  0.83845874756959D-06  0.85044598929443D-06
 0.86872500000000D+02  0.70514041556588D-06  0.71785392120426D-06  0.73062834537183D-06  0.74344677611446D-06  0.75629195047237D-06  0.76914630539362D-06  0.78199203141283D-06  0.79481112832633D-06  0.80758546204745D-06  0.82029682180994D-06
 0.86997500000000D+02  0.66990356554172D-06  0.68245906746332D-06  0.69513663801374D-06  0.70792070943453D-06  0.72079523760703D-06  0.73374374439863D-06  0.74674936381907D-06  0.75979489137409D-06  0.77286283591201D-06  0.78593547319503D-06
 0.87122500000000D+02  0.63567832170082D-06  0.64772409655401D-06  0.65994687345499D-06  0.67233305197184D-06  0.68486845747800D-06  0.69753837295961D-06  0.71032757532249D-06  0.72322037579555D-06  0.73620066390451D-06  0.74925195438564D-06
 0.87247500000000D+02  0.60435142825997D-06  0.61555989000501D-06  0.62699110033997D-06  0.63863395039012D-06  0.65047669259598D-06  0.66250696079935D-06  0.67471179509935D-06  0.68707767131563D-06  0.69959053475640D-06  0.71223583785849D-06
 0.87372500000000D+02  0.57765798740675D-06  0.58774094365211D-06  0.59808067940151D-06  0.60866898020690D-06  0.61949696559251D-06  0.63055509709027D-06  0.64183319087538D-06  0.65332043508424D-06  0.66500541175665D-06  0.67687612320434D-06
 0.87497500000000D+02  0.55709305917692D-06  0.56581528118964D-06  0.57481464287988D-06  0.58408608915894D-06  0.59362391029352D-06  0.60342173840092D-06  0.61347254796016D-06  0.62376866064184D-06  0.63430175463743D-06  0.64506287853562D-06
 0.87622500000000D+02  0.54383617904895D-06  0.55102672098617D-06  0.55849981466484D-06  0.56625368092214D-06  0.57428593537088D-06  0.58259357462332D-06  0.59117296559764D-06  0.60001983838397D-06  0.60912928305658D-06  0.61849575070910D-06
 0.87747500000000D+02  0.53869290026244D-06  0.54425366618638D-06  0.55008691703546D-06  0.55619411357237D-06  0.56257619596052D-06  0.56923356160274D-06  0.57616604488049D-06  0.58337289937974D-06  0.59085278314120D-06  0.59860374739927D-06
 0.87872500000000D+02  0.54205633041627D-06  0.54596745121030D-06  0.55012575634091D-06  0.55453576000227D-06  0.55920157091804D-06  0.56412686411674D-06  0.56931485329861D-06  0.57476826441378D-06  0.58048931107046D-06  0.58647967236317D-06
 0.87997500000000D+02  0.55389023006314D-06  0.55621189379427D-06  0.55874121745415D-06  0.56148544006127D-06  0.56445153461332D-06  0.56764617635146D-06  0.57107571030936D-06  0.57474611872396D-06  0.57866298893000D-06  0.58283148237971D-06
 0.88122500000000D+02  0.57373383191612D-06  0.57460432848838D-06  0.57563046258459D-06  0.57682174194585D-06  0.57818756484537D-06  0.57973718741508D-06  0.58147968907486D-06  0.58342393652979D-06  0.58557854688509D-06  0.58795185049292D-06
 0.88247500000000D+02  0.60072734008524D-06  0.60035724164644D-06  0.60008061929390D-06  0.59990868644117D-06  0.59985271289206D-06  0.59992399362990D-06  0.60013381475496D-06  0.60049341686984D-06  0.60101395632549D-06  0.60170646484117D-06
 0.88372500000000D+02  0.63365616768653D-06  0.63231876281771D-06  0.63100541397762D-06  0.62972839608821D-06  0.62850020767449D-06  0.62733354318260D-06  0.62624126179264D-06  0.62523635282714D-06  0.62433189798403D-06  0.62354103074711D-06
 0.88497500000000D+02  0.67101132881176D-06  0.66902964322712D-06  0.66699860111958D-06  0.66493084380591D-06  0.66283939705461D-06  0.66073764855048D-06  0.65863932153880D-06  0.65655844454281D-06  0.65450931717484D-06  0.65250647219438D-06
 0.88622500000000D+02  0.71106292274838D-06  0.70879387188310D-06  0.70640155685978D-06  0.70389827261453D-06  0.70129684586889D-06  0.69861061884882D-06  0.69585342920739D-06  0.69303958585283D-06  0.69018384049370D-06  0.68730135483933D-06
 0.88747500000000D+02  0.75194326254046D-06  0.74975967495806D-06  0.74738198236486D-06  0.74482143790260D-06  0.74208995401847D-06  0.73920009302887D-06  0.73616505421612D-06  0.73299865700355D-06  0.72971531983608D-06  0.72633003449825D-06
 0.88872500000000D+02  0.79173588995591D-06  0.79000730168702D-06  0.78802028882626D-06  0.78578441988810D-06  0.78331002517745D-06  0.78060819430835D-06  0.77769077082660D-06  0.77457034337788D-06  0.77126023290658D-06  0.76777447544296D-06
 0.88997500000000D+02  0.82856651080279D-06  0.82763974795797D-06  0.82639994065665D-06  0.82485441625124D-06  0.82301133734802D-06  0.82087970598076D-06  0.81846936561814D-06  0.81579100040311D-06  0.81285613102500D-06  0.80967710665657D-06
 0.89122500000000D+02  0.86069181625423D-06  0.86087244513545D-06  0.86069785454904D-06  0.86017269082897D-06  0.85930247733910D-06  0.85809362468119D-06  0.85655343953270D-06  0.85469013153167D-06  0.85251281758823D-06  0.85003152299066D-06
 0.89247500000000D+02  0.88658225170787D-06  0.88811797151736D-06  0.88927091528419D-06  0.89004275030261D-06  0.89043602966104D-06  0.89045420763955D-06  0.89010165450849D-06  0.88938367022200D-06  0.88830649642664D-06  0.88687732615387D-06
 0.89372500000000D+02  0.90499505428310D-06  0.90806202996719D-06  0.91073478081335D-06  0.91301185705514D-06  0.91489267046130D-06  0.91637751394631D-06  0.91746758125045D-06  0.91816498630499D-06  0.91847278179787D-06  0.91839497637083D-06
 0.89497500000000D+02  0.91503428213686D-06  0.91972726297321D-06  0.92403140133335D-06  0.92794216211324D-06  0.93145581570436D-06  0.93456946079121D-06  0.93728104772546D-06  0.93958940224370D-06  0.94149424918089D-06  0.94299623572312D-06
 0.89622500000000D+02  0.91619507635139D-06  0.92252192754734D-06  0.92848206077847D-06  0.93406805750555D-06  0.93927321928538D-06  0.94409159274439D-06  0.94851799544117D-06  0.95254804254873D-06  0.95617817416874D-06  0.95940568297054D-06
 0.89747500000000D+02  0.90839001200152D-06  0.91627101868674D-06  0.92382326491048D-06  0.93103681168416D-06  0.93790232886642D-06  0.94441112136036D-06  0.95055515631116D-06  0.95632709139226D-06  0.96172030415840D-06  0.96672892232522D-06
 0.89872500000000D+02  0.89195610587520D-06  0.90122811449728D-06  0.91022345681481D-06  0.91893017928828D-06  0.92733680462024D-06  0.93543235830210D-06  0.94320639609098D-06  0.95064903264005D-06  0.95775097141395D-06  0.96450353591507D-06
 0.89997500000000D+02  0.86764185423328D-06  0.87806702037865D-06  0.88827934152591D-06  0.89826547220509D-06  0.90801239456717D-06  0.91750744448215D-06  0.92673833835644D-06  0.93569320099238D-06  0.94436059474738D-06  0.95272955016538D-06
 0.90122500000000D+02  0.83657456164171D-06  0.84785319829062D-06  0.85899152874883D-06  0.86997552226780D-06  0.88079131710120D-06  0.89142524541197D-06  0.90186385860415D-06  0.91209395345801D-06  0.92210259941165D-06  0.93187716727657D-06
 0.90247500000000D+02  0.80020915495037D-06  0.81199593889397D-06  0.82372021042504D-06  0.83536800684644D-06  0.84692537234007D-06  0.85837838096606D-06  0.86971315977413D-06  0.88091591241338D-06  0.89197294362383D-06  0.90287068496831D-06
 0.90372500000000D+02  0.76026059886649D-06  0.77218320770200D-06  0.78412261149051D-06  0.79606567560523D-06  0.80799911340998D-06  0.81990950662666D-06  0.83178332555065D-06  0.84360694946253D-06  0.85536668761126D-06  0.86704880115092D-06
 0.90497500000000D+02  0.71862287784361D-06  0.73030200297551D-06  0.74207491486752D-06  0.75393003316663D-06  0.76585547659930D-06  0.77783907995047D-06  0.78986841073533D-06  0.80193078583402D-06  0.81401328841186D-06  0.82610278548261D-06
 0.90622500000000D+02  0.67727822586074D-06  0.68834784210069D-06  0.69958220156667D-06  0.71097193169085D-06  0.72250722655253D-06  0.73417785966829D-06  0.74597319647461D-06  0.75788220666573D-06  0.76989347661933D-06  0.78199522220050D-06
 0.90747500000000D+02  0.63820082965710D-06  0.64832760107000D-06  0.65868061835329D-06  0.66925326239354D-06  0.68003837079255D-06  0.69102824563160D-06  0.70221466110954D-06  0.71358887109299D-06  0.72514161669614D-06  0.73686313407975D-06
 0.90872500000000D+02  0.60325958144896D-06  0.61216034639787D-06  0.62133646524999D-06  0.63078448070414D-06  0.64050031004787D-06  0.65047924704981D-06  0.66071596409055D-06  0.67120451444415D-06  0.68193833470119D-06  0.69291024740123D-06
 0.90997500000000D+02  0.57412461281258D-06  0.58158101694958D-06  0.58934717727009D-06  0.59742304720679D-06  0.60580790480648D-06  0.61450034794136D-06  0.62349829028218D-06  0.63279895783370D-06  0.64239888590057D-06  0.65229391642388D-06
 0.91122500000000D+02  0.55218231034725D-06  0.55805183849657D-06  0.56424925808013D-06  0.57077800916971D-06  0.57764084176451D-06  0.58483980360980D-06  0.59237622941078D-06  0.60025073115883D-06  0.60846318933553D-06  0.61701274481670D-06
 0.91247500000000D+02  0.53846329634882D-06  0.54268618017423D-06  0.54723809467333D-06  0.55212586501272D-06  0.55735564855809D-06  0.56293291476137D-06  0.56886242711551D-06  0.57514822685361D-06  0.58179361808848D-06  0.58880115412316D-06
 0.91372500000000D+02  0.53358743301473D-06  0.53618916167396D-06  0.53910420722976D-06  0.54234250563254D-06  0.54591338423726D-06  0.54982553347716D-06  0.55408698123268D-06  0.55870506958295D-06  0.56368643361379D-06  0.56903698195945D-06
 0.91497500000000D+02  0.53772923716696D-06  0.53881864998292D-06  0.54018982120563D-06  0.54185536371711D-06  0.54382737605978D-06  0.54611740596309D-06  0.54873641705665D-06  0.55169475852602D-06  0.55500213741674D-06  0.55866759326133D-06
 0.91622500000000D+02  0.55060614061862D-06  0.55036931349044D-06  0.55036866078101D-06  0.55061889974104D-06  0.55113435879180D-06  0.55192893340724D-06  0.55301604545096D-06  0.55440860585000D-06  0.55611898040069D-06  0.55815895843528D-06
 0.91747500000000D+02  0.57149080663726D-06  0.57018114414807D-06  0.56905057644874D-06  0.56811524119972D-06  0.56739103836979D-06  0.56689357948803D-06  0.56663814032148D-06  0.56663961703716D-06  0.56691248578921D-06  0.56747076557065D-06
 0.91872500000000D+02  0.59924728815695D-06  0.59717239680887D-06  0.59521112506366D-06  0.59338026823515D-06  0.59169655347634D-06  0.59017658397557D-06  0.58883678619795D-06  0.58769336044663D-06  0.58676223487686D-06  0.58605902296635D-06
 0.91997500000000D+02  0.63238932199306D-06  0.62989536883280D-06  0.62744466358786D-06  0.62505385426941D-06  0.62273970015398D-06  0.62051901306390D-06  0.61840860093617D-06  0.61642521419160D-06  0.61458549526207D-06  0.61290593148516D-06
 0.92122500000000D+02  0.66915765554210D-06  0.66661201397099D-06  0.66403805980544D-06  0.66145148574508D-06  0.65886827574818D-06  0.65630464605355D-06  0.65377698736678D-06  0.65130180895839D-06  0.64889568527042D-06  0.64657520547210D-06
 0.92247500000000D+02  0.70761213803415D-06  0.70538518875923D-06  0.70306089685238D-06  0.70065322863843D-06  0.69817661258763D-06  0.69564588314431D-06  0.69307622427428D-06  0.69048311368843D-06  0.68788226856778D-06  0.68528959346705D-06
 0.92372500000000D+02  0.74573346128547D-06  0.74418044640088D-06  0.74246712817652D-06  0.74060505134054D-06  0.73860637503856D-06  0.73648382277300D-06  0.73425063037796D-06  0.73192049314524D-06  0.72950751312045D-06  0.72702614746424D-06
 0.92497500000000D+02  0.78152892779710D-06  0.78097274308168D-06  0.78020254477091D-06  0.77922687229785D-06  0.77805500434437D-06  0.77669691821350D-06  0.77516324543455D-06  0.77346522479945D-06  0.77161465398339D-06  0.76962384081922D-06
 0.92622500000000D+02  0.81313644231445D-06  0.81385219288146D-06  0.81431213870854D-06  0.81452137214397D-06  0.81448581454225D-06  0.81421218815449D-06  0.81370798247454D-06  0.81298141622822D-06  0.81204139621142D-06  0.81089747415406D-06
 0.92747500000000D+02  0.83892104847300D-06  0.84112308817803D-06  0.84304148126187D-06  0.84467759635368D-06  0.84603367981815D-06  0.84711284274300D-06  0.84791904079151D-06  0.84845704799200D-06  0.84873242562512D-06  0.84875148740736D-06
 0.92872500000000D+02  0.85755876236976D-06  0.86139079686979D-06  0.86492659119855D-06  0.86816369347449D-06  0.87110053341464D-06  0.87373642623587D-06  0.87607156817817D-06  0.87810702450100D-06  0.87984471096442D-06  0.88128736991481D-06
 0.92997500000000D+02  0.86810319461717D-06  0.87363186446678D-06  0.87886746134405D-06  0.88380380114887D-06  0.88843553900708D-06  0.89275819092258D-06  0.89676814630076D-06  0.90046267187889D-06  0.90383990782396D-06  0.90689885693658D-06
 0.93122500000000D+02  0.87003148664936D-06  0.87724367281319D-06  0.88418142330273D-06  0.89083509065912D-06  0.89719577937077D-06  0.90325538498029D-06  0.90900662391561D-06  0.91444305419219D-06  0.91955908740870D-06  0.92434999269618D-06
 0.93247500000000D+02  0.86326735665694D-06  0.87207127566807D-06  0.88063379582481D-06  0.88894224172305D-06  0.89698456182008D-06  0.90474938349818D-06  0.91222605937109D-06  0.91940470455042D-06  0.92627622489304D-06  0.93283233653232D-06
 0.93372500000000D+02  0.84818044855979D-06  0.85841043400879D-06  0.86844466758376D-06  0.87826802518209D-06  0.88786584441790D-06  0.89722399297337D-06  0.90632892937876D-06  0.91516775550649D-06  0.92372826037080D-06  0.93199895512690D-06
 0.93497500000000D+02  0.82556256853683D-06  0.83698727318809D-06  0.84827207055912D-06  0.85940008076880D-06  0.87035469852601D-06  0.88111967106629D-06  0.89167917030481D-06  0.90201785810065D-06  0.91212094380685D-06  0.92197423357567D-06
 0.93622500000000D+02  0.79658264689443D-06  0.80891624898211D-06  0.82117307501470D-06  0.83333525999997D-06  0.84538501231846D-06  0.85730469674782D-06  0.86907691396310D-06  0.88068457510101D-06  0.89211097019962D-06  0.90333982958552D-06
 0.93747500000000D+02  0.76272328466377D-06  0.77563914803895D-06  0.78854539111120D-06  0.80142397250013D-06  0.81425672092212D-06  0.82702541833211D-06  0.83971188208936D-06  0.85229804454562D-06  0.86476602859885D-06  0.87709821795408D-06
 0.93872500000000D+02  0.72570249897053D-06  0.73884862739761D-06  0.75205286515575D-06  0.76529780002250D-06  0.77856569692092D-06  0.79183857611795D-06  0.80509829306115D-06  0.81832661820404D-06  0.83150531522044D-06  0.84461621612368D-06
 0.93997500000000D+02  0.68738479383186D-06  0.70040034391267D-06  0.71353883800944D-06  0.72678425497269D-06  0.74012008006387D-06  0.75352937346671D-06  0.76699484287843D-06  0.78049891863406D-06  0.79402382976711D-06  0.80755167942880D-06
 0.94122500000000D+02  0.64968601618228D-06  0.66221809870424D-06  0.67493174863451D-06  0.68781301674885D-06  0.70084732228280D-06  0.71401950772517D-06  0.72731389972719D-06  0.74071437482986D-06  0.75420442856560D-06  0.76776724641001D-06
 0.94247500000000D+02  0.61447666857823D-06  0.62619667689576D-06  0.63814766438348D-06  0.65031832110733D-06  0.66269660891153D-06  0.67526979951684D-06  0.68802452016684D-06  0.70094680589586D-06  0.71402215726637D-06  0.72723560225255D-06
 0.94372500000000D+02  0.58348844997379D-06  0.59410720099339D-06  0.60499459569076D-06  0.61614239145031D-06  0.62754156781413D-06  0.63918234621388D-06  0.65105421793776D-06  0.66314597986096D-06  0.67544577719001D-06  0.68794115222835D-06
 0.94497500000000D+02  0.55822872809221D-06  0.56750977451649D-06  0.57708343709407D-06  0.58694481101099D-06  0.59708821373214D-06  0.60750718613959D-06  0.61819450177838D-06  0.62914218422952D-06  0.64034153233199D-06  0.65178315268909D-06
 0.94622500000000D+02  0.53990731555846D-06  0.54767787348926D-06  0.55575007031309D-06  0.56412244196200D-06  0.57279279590189D-06  0.58175819490525D-06  0.59101494799975D-06  0.60055860908937D-06  0.61038398345998D-06  0.62048514208611D-06
 0.94747500000000D+02  0.52937925377196D-06  0.53553827858280D-06  0.54199250509045D-06  0.54874384375028D-06  0.55579357112557D-06  0.56314229885976D-06  0.57078994818101D-06  0.57873573084626D-06  0.58697813719465D-06  0.59551493171041D-06
 0.94872500000000D+02  0.52710631395626D-06  0.53162934948894D-06  0.53642594808667D-06  0.54150116588565D-06  0.54685955833966D-06  0.55250513805623D-06  0.55844133597471D-06  0.56467096709195D-06  0.57119620178148D-06  0.57801854354002D-06
