0.000001	0.600000	1.000000	1.000000	325.571493	1.000000	0.000000
0.000770	0.600000	1.000000	1.000000	325.571493	1.000000	0.000000
0.003063	0.600000	1.000000	1.000000	325.571493	1.000000	0.000000
0.006834	0.600000	1.000000	1.000000	325.571493	1.000000	0.000000
0.012007	0.600000	1.000000	1.000000	325.571493	1.000000	0.000000
0.018483	0.600000	1.000000	1.000000	325.571493	1.000000	0.000000
0.026142	0.600000	1.000000	1.000000	325.571493	1.000000	0.000000
0.034850	0.600000	1.000000	1.000000	325.571493	1.000000	0.000000
0.044462	0.600000	1.000000	1.000000	325.571493	1.000000	0.000000
0.054832	0.600000	1.000000	1.000000	325.571493	1.000000	0.000000
0.065813	0.600000	1.000000	1.000000	325.571493	1.000000	0.000000
0.077262	0.600000	1.000000	1.000000	325.571493	1.000000	0.000000
0.089045	0.600000	1.000000	1.000000	325.571493	1.000000	0.000000
0.101039	0.600000	1.000000	1.000000	325.571493	1.000000	0.000000
0.113134	0.600000	1.000000	1.000000	325.571493	1.000000	0.000000
0.125231	0.600000	1.000000	1.000000	325.571493	1.000000	0.000000
0.137246	0.600000	1.000000	1.000000	325.571493	1.000000	0.000000
0.149107	0.600000	1.000000	1.000000	325.571493	1.000000	0.000000
0.160756	0.600000	1.000000	1.000000	325.571493	1.000000	0.000000
0.172144	0.600000	1.000000	1.000000	325.571493	1.000000	0.000000
0.183234	0.600000	1.000000	1.000000	325.571493	1.000000	0.000000
0.193999	0.600000	1.000000	1.000000	325.571493	1.000000	0.000000
0.204419	0.600000	1.000000	1.000000	325.571493	1.000000	0.000000
0.214480	0.600000	1.000000	1.000000	325.571493	1.000000	0.000000
0.224175	0.600000	1.000000	1.000000	325.571493	1.000000	0.000000
0.233502	0.600000	1.000000	1.000000	325.571493	1.000000	0.000000
0.242464	0.600000	1.000000	1.000000	325.571493	1.000000	0.000000
0.251064	0.600000	1.000000	1.000000	325.571493	1.000000	0.000000
0.259311	0.600000	1.000000	1.000000	325.571493	1.000000	0.000000
0.267214	0.600000	1.000000	1.000000	325.571493	1.000000	0.000000
0.274784	0.600000	1.000000	1.000000	325.571493	1.000000	0.000000
0.282033	0.600000	1.000000	1.000000	325.571493	1.000000	0.000000
0.288974	0.600000	1.000000	1.000000	325.571493	1.000000	0.000000
0.295620	0.600000	1.000000	1.000000	325.571493	1.000000	0.000000
0.301985	0.600000	1.000000	1.000000	325.571493	1.000000	0.000000
0.308081	0.600000	1.000000	1.000000	325.571493	1.000000	0.000000
0.313922	0.600000	1.000000	1.000000	325.571493	0.999999	0.000001
0.319522	0.600000	1.000000	1.000000	325.571493	0.999999	0.000001
0.324893	0.600000	1.000000	1.000000	325.571493	0.999999	0.000001
0.330047	0.600000	1.000000	1.000000	325.571493	0.999999	0.000001
0.334996	0.600000	1.000000	1.000000	325.571493	0.999998	0.000002
0.339752	0.600000	1.000000	1.000000	325.571493	0.999998	0.000002
0.344325	0.599999	1.000000	1.000000	325.571493	0.999997	0.000003
0.348727	0.599999	1.000000	1.000000	325.571493	0.999997	0.000003
0.352966	0.599999	1.000000	1.000000	325.571493	0.999996	0.000004
0.357053	0.599999	1.000000	1.000000	325.571493	0.999995	0.000005
0.360996	0.599999	1.000000	1.000000	325.571493	0.999994	0.000006
0.364805	0.599999	1.000000	1.000000	325.571493	0.999993	0.000007
0.368486	0.599998	1.000000	1.000000	325.571493	0.999992	0.000008
0.372048	0.599998	1.000000	1.000000	325.571493	0.999991	0.000009
0.375498	0.599998	1.000000	1.000000	325.571493	0.999989	0.000011
0.378843	0.599998	1.000000	1.000000	325.571493	0.999988	0.000012
0.382089	0.599997	1.000000	1.000000	325.571493	0.999986	0.000014
0.385243	0.599997	1.000000	1.000000	325.571493	0.999984	0.000016
0.388309	0.599996	1.000000	1.000000	325.571493	0.999982	0.000018
0.391295	0.599996	1.000000	1.000000	325.571493	0.999980	0.000020
0.394203	0.599996	1.000000	1.000000	325.571493	0.999978	0.000022
0.397041	0.599995	1.000000	1.000000	325.571493	0.999975	0.000025
0.399811	0.599995	1.000000	1.000000	325.571493	0.999973	0.000027
0.402519	0.599994	1.000000	1.000000	325.571493	0.999970	0.000030
0.405168	0.599993	1.000000	1.000000	325.571493	0.999967	0.000033
0.407762	0.599993	1.000000	1.000000	325.571493	0.999964	0.000036
0.410306	0.599992	1.000000	1.000000	325.571493	0.999960	0.000040
0.412802	0.599991	1.000000	1.000000	325.571493	0.999957	0.000043
0.415254	0.599991	1.000000	1.000000	325.571493	0.999953	0.000047
0.417664	0.599990	1.000000	1.000000	325.571493	0.999949	0.000051
0.420037	0.599989	1.000000	1.000000	325.571493	0.999945	0.000055
0.422374	0.599988	1.000000	1.000000	325.571493	0.999940	0.000060
0.424678	0.599987	1.000000	1.000000	325.571493	0.999936	0.000064
0.426951	0.599986	1.000000	1.000000	325.571493	0.999931	0.000069
0.429197	0.599985	1.000000	1.000000	325.571493	0.999925	0.000075
0.431417	0.599984	1.000000	1.000000	325.571493	0.999920	0.000080
0.433613	0.599983	1.000000	1.000000	325.571493	0.999914	0.000086
0.435788	0.599982	1.000000	1.000000	325.571493	0.999908	0.000092
0.437943	0.599980	1.000000	1.000000	325.571493	0.999902	0.000098
0.440080	0.599979	1.000000	1.000000	325.571493	0.999895	0.000105
0.442202	0.599977	1.000000	1.000000	325.571493	0.999888	0.000112
0.444309	0.599976	1.000000	1.000000	325.571493	0.999880	0.000120
0.446403	0.599974	1.000000	1.000000	325.571493	0.999873	0.000127
0.448486	0.599973	1.000000	1.000000	325.571493	0.999864	0.000136
0.450560	0.599971	1.000000	1.000000	325.571493	0.999856	0.000144
0.452625	0.599969	1.000000	1.000000	325.571493	0.999847	0.000153
0.454683	0.599967	1.000000	1.000000	325.571493	0.999837	0.000163
0.456735	0.599965	1.000000	1.000000	325.571493	0.999827	0.000173
0.458783	0.599963	1.000000	1.000000	325.571493	0.999817	0.000183
0.460828	0.599961	1.000000	1.000000	325.571493	0.999806	0.000194
0.462871	0.599959	1.000000	1.000000	325.571493	0.999794	0.000206
0.464912	0.599956	1.000000	1.000000	325.571493	0.999782	0.000218
0.466954	0.599954	1.000000	1.000000	325.571493	0.999769	0.000231
0.468997	0.599951	1.000000	1.000000	325.571493	0.999756	0.000244
0.471041	0.599948	1.000000	1.000000	325.571493	0.999741	0.000259
0.473089	0.599945	1.000000	1.000000	325.571493	0.999726	0.000274
0.475141	0.599942	1.000000	1.000000	325.571493	0.999711	0.000289
0.477197	0.599938	1.000000	1.000000	325.571493	0.999694	0.000306
0.479260	0.599935	1.000000	1.000000	325.571493	0.999677	0.000323
0.481328	0.599931	1.000000	1.000000	325.571493	0.999658	0.000342
0.483405	0.599927	1.000000	1.000000	325.571493	0.999639	0.000361
0.485489	0.599923	1.000000	1.000000	325.571493	0.999619	0.000381
0.487582	0.599919	1.000000	1.000000	325.571493	0.999597	0.000403
0.489685	0.599914	1.000000	1.000000	325.571493	0.999575	0.000425
0.491798	0.599910	1.000000	1.000000	325.571493	0.999551	0.000449
0.493923	0.599905	1.000000	1.000000	325.571493	0.999526	0.000474
0.496059	0.599899	1.000000	1.000000	325.571493	0.999499	0.000501
0.498208	0.599894	1.000000	1.000000	325.571493	0.999471	0.000529
0.500370	0.599888	1.000000	1.000000	325.571493	0.999442	0.000558
0.502546	0.599881	1.000000	1.000000	325.571493	0.999411	0.000589
0.504737	0.599875	1.000000	1.000000	325.571493	0.999378	0.000622
0.506942	0.599868	1.000000	1.000000	325.571493	0.999344	0.000656
0.509164	0.599860	1.000000	1.000000	325.571493	0.999307	0.000693
0.511402	0.599853	1.000000	1.000000	325.571493	0.999269	0.000731
0.513657	0.599844	1.000000	1.000000	325.571493	0.999228	0.000772
0.515929	0.599836	1.000000	1.000000	325.571493	0.999185	0.000815
0.518220	0.599826	1.000000	1.000000	325.571493	0.999140	0.000860
0.520530	0.599817	1.000000	1.000000	325.571493	0.999092	0.000908
0.522859	0.599806	1.000000	1.000000	325.571493	0.999041	0.000959
0.525208	0.599796	1.000000	1.000000	325.571493	0.998987	0.001013
0.527578	0.599784	1.000000	1.000000	325.571493	0.998930	0.001070
0.529969	0.599772	1.000000	1.000000	325.571493	0.998870	0.001130
0.532382	0.599759	1.000000	1.000000	325.571493	0.998807	0.001193
0.534817	0.599745	1.000000	1.000000	325.571493	0.998739	0.001261
0.537275	0.599731	1.000000	1.000000	325.571493	0.998668	0.001332
0.539757	0.599716	1.000000	1.000000	325.571493	0.998593	0.001407
0.542263	0.599699	1.000000	1.000000	325.571493	0.998513	0.001487
0.544793	0.599682	1.000000	1.000000	325.571493	0.998428	0.001572
0.547348	0.599664	1.000000	1.000000	325.571493	0.998338	0.001662
0.549930	0.599645	1.000000	1.000000	325.571493	0.998243	0.001757
0.552537	0.599624	1.000000	1.000000	325.571493	0.998142	0.001858
0.555172	0.599603	1.000000	1.000000	325.571493	0.998035	0.001965
0.557834	0.599579	1.000000	1.000000	325.571493	0.997922	0.002078
0.560524	0.599555	1.000000	1.000000	325.571493	0.997801	0.002199
0.563242	0.599529	1.000000	1.000000	325.571493	0.997673	0.002327
0.565990	0.599501	1.000000	1.000000	325.571493	0.997538	0.002462
0.568768	0.599472	1.000000	1.000000	325.571493	0.997393	0.002607
0.571576	0.599441	1.000000	1.000000	325.571493	0.997240	0.002760
0.574415	0.599408	1.000000	1.000000	325.571493	0.997078	0.002922
0.577286	0.599373	1.000000	1.000000	325.571493	0.996905	0.003095
0.580189	0.599335	1.000000	1.000000	325.571493	0.996721	0.003279
0.583125	0.599295	1.000000	1.000000	325.571493	0.996526	0.003474
0.586094	0.599253	1.000000	1.000000	325.571493	0.996318	0.003682
0.589097	0.599208	1.000000	1.000000	325.571493	0.996097	0.003903
0.592135	0.599160	1.000000	1.000000	325.571493	0.995862	0.004138
0.595208	0.599109	1.000000	1.000000	325.571493	0.995612	0.004388
0.598318	0.599055	1.000000	1.000000	325.571493	0.995345	0.004655
0.601463	0.598997	1.000000	1.000000	325.571493	0.995061	0.004939
0.604647	0.598935	1.000000	1.000000	325.571493	0.994759	0.005241
0.607868	0.598869	1.000000	1.000000	325.571493	0.994438	0.005562
0.611127	0.598799	1.000000	1.000000	325.571493	0.994095	0.005905
0.614426	0.598724	1.000000	1.000000	325.571493	0.993729	0.006271
0.617765	0.598644	1.000000	1.000000	325.571493	0.993339	0.006661
0.621145	0.598559	1.000000	1.000000	325.571493	0.992924	0.007076
0.624566	0.598468	1.000000	1.000000	325.571493	0.992481	0.007519
0.628029	0.598372	1.000000	1.000000	325.571493	0.992008	0.007992
0.631536	0.598268	1.000000	1.000000	325.571493	0.991503	0.008497
0.635085	0.598158	1.000000	1.000000	325.571493	0.990965	0.009035
0.638680	0.598039	1.000000	1.000000	325.571493	0.990390	0.009610
0.642319	0.597913	1.000000	1.000000	325.571493	0.989776	0.010224
0.646004	0.597779	1.000000	1.000000	325.571493	0.989120	0.010880
0.649737	0.597634	1.000000	1.000000	325.571493	0.988419	0.011581
0.653516	0.597480	1.000000	1.000000	325.571493	0.987670	0.012330
0.657344	0.597316	1.000000	1.000000	325.571493	0.986870	0.013130
0.661222	0.597139	1.000000	1.000000	325.571493	0.986015	0.013985
0.665149	0.596951	1.000000	1.000000	325.571493	0.985100	0.014900
0.669128	0.596749	1.000000	1.000000	325.571493	0.984121	0.015879
0.673158	0.596533	1.000000	1.000000	325.571493	0.983075	0.016925
0.677241	0.596302	1.000000	1.000000	325.571493	0.981955	0.018045
0.681378	0.596054	1.000000	1.000000	325.571493	0.980757	0.019243
0.685569	0.595789	1.000000	1.000000	325.571493	0.979475	0.020525
0.689816	0.595504	1.000000	1.000000	325.571493	0.978102	0.021898
0.694120	0.595200	1.000000	1.000000	325.571493	0.976633	0.023367
0.698481	0.594874	1.000000	1.000000	325.571493	0.975059	0.024941
0.702901	0.594524	1.000000	1.000000	325.571493	0.973374	0.026626
0.707380	0.594149	1.000000	1.000000	325.571493	0.971569	0.028431
0.711920	0.593747	1.000000	1.000000	325.571493	0.969636	0.030364
0.716521	0.593317	1.000000	1.000000	325.571493	0.967565	0.032435
0.721186	0.592855	1.000000	1.000000	325.571493	0.965347	0.034653
0.725914	0.592359	1.000000	1.000000	325.571493	0.962970	0.037030
0.730708	0.591828	1.000000	1.000000	325.571493	0.960424	0.039576
0.735568	0.591258	1.000000	1.000000	325.571493	0.957695	0.042305
0.740495	0.590647	1.000000	1.000000	325.571493	0.954773	0.045227
0.745491	0.589992	1.000000	1.000000	325.571493	0.951641	0.048359
0.750556	0.589289	1.000000	1.000000	325.571493	0.948287	0.051713
0.755693	0.588535	1.000000	1.000000	325.571493	0.944694	0.055306
0.760903	0.587727	1.000000	1.000000	325.571493	0.940846	0.059154
0.766186	0.586860	1.000000	1.000000	325.571493	0.936725	0.063275
0.771544	0.585931	1.000000	1.000000	325.571493	0.932314	0.067686
0.776979	0.584936	1.000000	1.000000	325.571493	0.927593	0.072407
0.782492	0.583869	1.000000	1.000000	325.571493	0.922541	0.077459
0.788084	0.582726	1.000000	1.000000	325.571493	0.917138	0.082862
0.793757	0.581501	1.000000	1.000000	325.571493	0.911361	0.088639
0.799512	0.580191	1.000000	1.000000	325.571493	0.905188	0.094812
0.805352	0.578789	1.000000	1.000000	325.571493	0.898595	0.101405
0.811277	0.577289	1.000000	1.000000	325.571493	0.891557	0.108443
0.817288	0.575685	1.000000	1.000000	325.571493	0.884049	0.115951
0.823389	0.573973	1.000000	1.000000	325.571493	0.876047	0.123953
0.829580	0.572144	1.000000	1.000000	325.571493	0.867524	0.132476
0.835863	0.570193	1.000000	1.000000	325.571493	0.858456	0.141544
0.842241	0.568114	1.000000	1.000000	325.571493	0.848816	0.151184
0.848714	0.565899	1.000000	1.000000	325.571493	0.838580	0.161420
0.855284	0.563543	1.000000	1.000000	325.571493	0.827725	0.172275
0.861954	0.561039	1.000000	1.000000	325.571493	0.816228	0.183772
0.868726	0.558381	1.000000	1.000000	325.571493	0.804070	0.195930
0.875601	0.555562	1.000000	1.000000	325.571493	0.791231	0.208769
0.882581	0.552578	1.000000	1.000000	325.571493	0.777696	0.222304
0.889670	0.549423	1.000000	1.000000	325.571493	0.763455	0.236545
0.896867	0.546091	1.000000	1.000000	325.571493	0.748499	0.251501
0.904177	0.542579	1.000000	1.000000	325.571493	0.732825	0.267175
0.911601	0.538884	1.000000	1.000000	325.571493	0.716436	0.283564
0.919141	0.535001	1.000000	1.000000	325.571493	0.699339	0.300661
0.926801	0.530930	1.000000	1.000000	325.571493	0.681549	0.318451
0.934581	0.526668	1.000000	1.000000	325.571493	0.663088	0.336912
0.942485	0.522216	1.000000	1.000000	325.571493	0.643983	0.356017
0.950516	0.517574	1.000000	1.000000	325.571493	0.624272	0.375728
0.958676	0.512743	1.000000	1.000000	325.571493	0.603998	0.396002
0.966967	0.507725	1.000000	1.000000	325.571493	0.583213	0.416787
0.975392	0.502522	1.000000	1.000000	325.571493	0.561976	0.438024
0.983955	0.497139	1.000000	1.000000	325.571493	0.540352	0.459648
0.992657	0.491578	1.000000	1.000000	325.571493	0.518416	0.481584
1.001503	0.485843	1.000000	1.000000	325.571493	0.496245	0.503755
1.010495	0.479936	1.000000	1.000000	325.571493	0.473923	0.526077
1.019636	0.473862	1.000000	1.000000	325.571493	0.451536	0.548464
1.028929	0.467623	1.000000	1.000000	325.571493	0.429173	0.570827
1.038378	0.461219	1.000000	1.000000	325.571493	0.406925	0.593075
1.047987	0.454650	1.000000	1.000000	325.571493	0.384881	0.615119
1.057758	0.447914	1.000000	1.000000	325.571493	0.363129	0.636871
1.067695	0.441009	1.000000	1.000000	325.571493	0.341754	0.658246
1.077802	0.433928	1.000000	1.000000	325.571493	0.320835	0.679165
1.088082	0.426665	1.000000	1.000000	325.571493	0.300447	0.699553
1.098541	0.419210	1.000000	1.000000	325.571493	0.280656	0.719344
1.109180	0.411553	1.000000	1.000000	325.571493	0.261523	0.738477
1.120006	0.403682	1.000000	1.000000	325.571493	0.243099	0.756901
1.131021	0.395584	1.000000	1.000000	325.571493	0.225426	0.774574
1.142230	0.387246	1.000000	1.000000	325.571493	0.208539	0.791461
1.153639	0.378656	1.000000	1.000000	325.571493	0.192464	0.807536
1.165250	0.369804	1.000000	1.000000	325.571493	0.177216	0.822784
1.177069	0.360683	1.000000	1.000000	325.571493	0.162804	0.837196
1.189102	0.351289	1.000000	1.000000	325.571493	0.149230	0.850770
1.201352	0.341623	1.000000	1.000000	325.571493	0.136487	0.863513
1.213825	0.331695	1.000000	1.000000	325.571493	0.124563	0.875437
1.226526	0.321519	1.000000	1.000000	325.571493	0.113440	0.886560
1.239462	0.311118	1.000000	1.000000	325.571493	0.103095	0.896905
1.252637	0.300526	1.000000	1.000000	325.571493	0.093502	0.906498
1.266057	0.289782	1.000000	1.000000	325.571493	0.084632	0.915368
1.279728	0.278935	1.000000	1.000000	325.571493	0.076452	0.923548
1.293656	0.268043	1.000000	1.000000	325.571493	0.068928	0.931072
1.307849	0.257167	1.000000	1.000000	325.571493	0.062026	0.937974
1.322311	0.246375	1.000000	1.000000	325.571493	0.055709	0.944291
1.337051	0.235736	1.000000	1.000000	325.571493	0.049941	0.950059
1.352074	0.225318	1.000000	1.000000	325.571493	0.044687	0.955313
1.367389	0.215189	1.000000	1.000000	325.571493	0.039912	0.960088
1.383002	0.205410	1.000000	1.000000	325.571493	0.035582	0.964418
1.398921	0.196037	1.000000	1.000000	325.571493	0.031663	0.968337
1.415155	0.187116	1.000000	1.000000	325.571493	0.028124	0.971876
1.431710	0.178685	1.000000	1.000000	325.571493	0.024935	0.975065
1.448596	0.170773	1.000000	1.000000	325.571493	0.022067	0.977933
1.465822	0.163396	1.000000	1.000000	325.571493	0.019492	0.980508
1.483395	0.156562	1.000000	1.000000	325.571493	0.017186	0.982814
1.501326	0.150272	1.000000	1.000000	325.571493	0.015124	0.984876
1.519624	0.144515	1.000000	1.000000	325.571493	0.013284	0.986716
1.538299	0.139276	1.000000	1.000000	325.571493	0.011645	0.988355
1.557361	0.134534	1.000000	1.000000	325.571493	0.010189	0.989811
1.576820	0.130264	1.000000	1.000000	325.571493	0.008896	0.991104
1.596688	0.126436	1.000000	1.000000	325.571493	0.007752	0.992248
1.616976	0.123021	1.000000	1.000000	325.571493	0.006742	0.993258
1.637695	0.119987	1.000000	1.000000	325.571493	0.005850	0.994150
1.658858	0.117301	1.000000	1.000000	325.571493	0.005066	0.994934
1.680477	0.114934	1.000000	1.000000	325.571493	0.004377	0.995623
1.702565	0.112855	1.000000	1.000000	325.571493	0.003773	0.996227
1.725135	0.111035	1.000000	1.000000	325.571493	0.003245	0.996755
1.748202	0.109447	1.000000	1.000000	325.571493	0.002784	0.997216
1.771779	0.108065	1.000000	1.000000	325.571493	0.002383	0.997617
1.795881	0.106868	1.000000	1.000000	325.571493	0.002035	0.997965
1.820524	0.105833	1.000000	1.000000	325.571493	0.001733	0.998267
1.845725	0.104940	1.000000	1.000000	325.571493	0.001472	0.998528
1.871498	0.104173	1.000000	1.000000	325.571493	0.001247	0.998753
1.897863	0.103516	1.000000	1.000000	325.571493	0.001053	0.998947
1.924836	0.102954	1.000000	1.000000	325.571493	0.000887	0.999113
1.952435	0.102475	1.000000	1.000000	325.571493	0.000745	0.999255
1.980681	0.102067	1.000000	1.000000	325.571493	0.000624	0.999376
2.009593	0.101722	1.000000	1.000000	325.571493	0.000521	0.999479
2.039192	0.101431	1.000000	1.000000	325.571493	0.000433	0.999567
2.069499	0.101185	1.000000	1.000000	325.571493	0.000359	0.999641
2.100537	0.100978	1.000000	1.000000	325.571493	0.000297	0.999703
2.132328	0.100805	1.000000	1.000000	325.571493	0.000244	0.999756
2.164898	0.100660	1.000000	1.000000	325.571493	0.000200	0.999800
2.198270	0.100540	1.000000	1.000000	325.571493	0.000164	0.999836
2.232471	0.100440	1.000000	1.000000	325.571493	0.000133	0.999867
2.267529	0.100357	1.000000	1.000000	325.571493	0.000108	0.999892
2.303471	0.100289	1.000000	1.000000	325.571493	0.000087	0.999913
2.340326	0.100233	1.000000	1.000000	325.571493	0.000070	0.999930
2.378126	0.100187	1.000000	1.000000	325.571493	0.000056	0.999944
2.416903	0.100149	1.000000	1.000000	325.571493	0.000045	0.999955
2.456688	0.100119	1.000000	1.000000	325.571493	0.000035	0.999965
2.497518	0.100094	1.000000	1.000000	325.571493	0.000028	0.999972
2.539428	0.100074	1.000000	1.000000	325.571493	0.000022	0.999978
2.582455	0.100058	1.000000	1.000000	325.571493	0.000017	0.999983
2.626640	0.100046	1.000000	1.000000	325.571493	0.000013	0.999987
2.672022	0.100035	1.000000	1.000000	325.571493	0.000010	0.999990
2.718644	0.100027	1.000000	1.000000	325.571493	0.000008	0.999992
2.766552	0.100021	1.000000	1.000000	325.571493	0.000006	0.999994
2.815791	0.100016	1.000000	1.000000	325.571493	0.000005	0.999995
2.866411	0.100012	1.000000	1.000000	325.571493	0.000003	0.999997
2.918461	0.100009	1.000000	1.000000	325.571493	0.000003	0.999997
2.971996	0.100007	1.000000	1.000000	325.571493	0.000002	0.999998
3.027071	0.100005	1.000000	1.000000	325.571493	0.000001	0.999999
3.083744	0.100004	1.000000	1.000000	325.571493	0.000001	0.999999
3.142075	0.100003	1.000000	1.000000	325.571493	0.000001	0.999999
3.202130	0.100002	1.000000	1.000000	325.571493	0.000001	0.999999
3.263973	0.100001	1.000000	1.000000	325.571493	0.000000	1.000000
3.327676	0.100001	1.000000	1.000000	325.571493	0.000000	1.000000
3.393311	0.100001	1.000000	1.000000	325.571493	0.000000	1.000000
3.460955	0.100001	1.000000	1.000000	325.571493	0.000000	1.000000
3.530688	0.100000	1.000000	1.000000	325.571493	0.000000	1.000000
3.602596	0.100000	1.000000	1.000000	325.571493	0.000000	1.000000
3.676767	0.100000	1.000000	1.000000	325.571493	0.000000	1.000000
3.753293	0.100000	1.000000	1.000000	325.571493	0.000000	1.000000
3.832273	0.100000	1.000000	1.000000	325.571493	0.000000	1.000000
3.913810	0.100000	1.000000	1.000000	325.571493	0.000000	1.000000
3.998010	0.100000	1.000000	1.000000	325.571493	0.000000	1.000000
4.084989	0.100000	1.000000	1.000000	325.571493	0.000000	1.000000
4.174864	0.100000	1.000000	1.000000	325.571493	0.000000	1.000000
4.267763	0.100000	1.000000	1.000000	325.571493	0.000000	1.000000
4.363817	0.100000	1.000000	1.000000	325.571493	0.000000	1.000000
4.463165	0.100000	1.000000	1.000000	325.571493	0.000000	1.000000
4.565954	0.100000	1.000000	1.000000	325.571493	0.000000	1.000000
4.672339	0.100000	1.000000	1.000000	325.571493	0.000000	1.000000
4.782484	0.100000	1.000000	1.000000	325.571493	0.000000	1.000000
4.896559	0.100000	1.000000	1.000000	325.571493	0.000000	1.000000
5.014747	0.100000	1.000000	1.000000	325.571493	0.000000	1.000000
5.137239	0.100000	1.000000	1.000000	325.571493	0.000000	1.000000
5.264238	0.100000	1.000000	1.000000	325.571493	0.000000	1.000000
5.395956	0.100000	1.000000	1.000000	325.571493	0.000000	1.000000
5.532621	0.100000	1.000000	1.000000	325.571493	0.000000	1.000000
5.674471	0.100000	1.000000	1.000000	325.571493	0.000000	1.000000
5.821758	0.100000	1.000000	1.000000	325.571493	0.000000	1.000000
5.974750	0.100000	1.000000	1.000000	325.571493	0.000000	1.000000
6.133729	0.100000	1.000000	1.000000	325.571493	0.000000	1.000000
6.298994	0.100000	1.000000	1.000000	325.571493	0.000000	1.000000
6.470863	0.100000	1.000000	1.000000	325.571493	0.000000	1.000000
6.649672	0.100000	1.000000	1.000000	325.571493	0.000000	1.000000
6.835775	0.100000	1.000000	1.000000	325.571493	0.000000	1.000000
7.029550	0.100000	1.000000	1.000000	325.571493	0.000000	1.000000
7.231397	0.100000	1.000000	1.000000	325.571493	0.000000	1.000000
7.441738	0.100000	1.000000	1.000000	325.571493	0.000000	1.000000
7.661025	0.100000	1.000000	1.000000	325.571493	0.000000	1.000000
7.889733	0.100000	1.000000	1.000000	325.571493	0.000000	1.000000
8.128368	0.100000	1.000000	1.000000	325.571493	0.000000	1.000000
8.377466	0.100000	1.000000	1.000000	325.571493	0.000000	1.000000
8.637596	0.100000	1.000000	1.000000	325.571493	0.000000	1.000000
8.909363	0.100000	1.000000	1.000000	325.571493	0.000000	1.000000
9.193405	0.100000	1.000000	1.000000	325.571493	0.000000	1.000000
9.490402	0.100000	1.000000	1.000000	325.571493	0.000000	1.000000
9.801073	0.100000	1.000000	1.000000	325.571493	0.000000	1.000000
10.126181	0.100000	1.000000	1.000000	325.571493	0.000000	1.000000
10.466533	0.100000	1.000000	1.000000	325.571493	0.000000	1.000000
10.822986	0.100000	1.000000	1.000000	325.571493	0.000000	1.000000
11.196442	0.100000	1.000000	1.000000	325.571493	0.000000	1.000000
11.587857	0.100000	1.000000	1.000000	325.571493	0.000000	1.000000
11.998240	0.100000	1.000000	1.000000	325.571493	0.000000	1.000000
12.428653	0.100000	1.000000	1.000000	325.571493	0.000000	1.000000
12.880216	0.100000	1.000000	1.000000	325.571493	0.000000	1.000000
13.354101	0.100000	1.000000	1.000000	325.571493	0.000000	1.000000
13.851541	0.100000	1.000000	1.000000	325.571493	0.000000	1.000000
14.373819	0.100000	1.000000	1.000000	325.571493	0.000000	1.000000
14.922274	0.100000	1.000000	1.000000	325.571493	0.000000	1.000000
15.498294	0.100000	1.000000	1.000000	325.571493	0.000000	1.000000
16.103310	0.100000	1.000000	1.000000	325.571493	0.000000	1.000000
16.738792	0.100000	1.000000	1.000000	325.571493	0.000000	1.000000
17.406238	0.100000	1.000000	1.000000	325.571493	0.000000	1.000000
18.107157	0.100000	1.000000	1.000000	325.571493	0.000000	1.000000
18.843061	0.100000	1.000000	1.000000	325.571493	0.000000	1.000000
19.615436	0.100000	1.000000	1.000000	325.571493	0.000000	1.000000
20.425720	0.100000	1.000000	1.000000	325.571493	0.000000	1.000000
21.275273	0.100000	1.000000	1.000000	325.571493	0.000000	1.000000
22.165333	0.100000	1.000000	1.000000	325.571493	0.000000	1.000000
23.096972	0.100000	1.000000	1.000000	325.571493	0.000000	1.000000
24.071039	0.100000	1.000000	1.000000	325.571493	0.000000	1.000000
25.088095	0.100000	1.000000	1.000000	325.571493	0.000000	1.000000
26.148337	0.100000	1.000000	1.000000	325.571493	0.000000	1.000000
27.251508	0.100000	1.000000	1.000000	325.571493	0.000000	1.000000
28.396798	0.100000	1.000000	1.000000	325.571493	0.000000	1.000000
29.582735	0.100000	1.000000	1.000000	325.571493	0.000000	1.000000
30.807061	0.100000	1.000000	1.000000	325.571493	0.000000	1.000000
32.066608	0.100000	1.000000	1.000000	325.571493	0.000000	1.000000
33.357162	0.100000	1.000000	1.000000	325.571493	0.000000	1.000000
34.673333	0.100000	1.000000	1.000000	325.571493	0.000000	1.000000
36.008435	0.100000	1.000000	1.000000	325.571493	0.000000	1.000000
37.354379	0.100000	1.000000	1.000000	325.571493	0.000000	1.000000
38.701602	0.100000	1.000000	1.000000	325.571493	0.000000	1.000000
40.039031	0.100000	1.000000	1.000000	325.571493	0.000000	1.000000
41.354112	0.100000	1.000000	1.000000	325.571493	0.000000	1.000000
42.632908	0.100000	1.000000	1.000000	325.571493	0.000000	1.000000
43.860276	0.100000	1.000000	1.000000	325.571493	0.000000	1.000000
45.020150	0.100000	1.000000	1.000000	325.571493	0.000000	1.000000
46.095905	0.100000	1.000000	1.000000	325.571493	0.000000	1.000000
47.070830	0.100000	1.000000	1.000000	325.571493	0.000000	1.000000
47.928669	0.100000	1.000000	1.000000	325.571493	0.000000	1.000000
48.654220	0.100000	1.000000	1.000000	325.571493	0.000000	1.000000
49.233952	0.100000	1.000000	1.000000	325.571493	0.000000	1.000000
49.656603	0.100000	1.000000	1.000000	325.571493	0.000000	1.000000
49.913705	0.100000	1.000000	1.000000	325.571493	0.000000	1.000000
50.000000	0.100000	1.000000	1.000000	325.571493	0.000000	1.000000
