0.400000 
0.132217 0.302389
1.086106 1.125603
0.886974 1.168758
1.100723 1.032169
0.919404 1.109049
0.889400 1.106017
0.891817 1.045772
1.157332 0.913808
0.894513 0.988237
0.924171 0.991433
1.197297 0.793309
0.897229 0.932903
0.900235 0.879928
0.936345 0.888987
1.231906 0.681420
0.946194 0.837676
0.903267 0.828849
0.906474 0.779795
0.904866 0.755763
1.254411 0.589643
0.909750 0.732329
0.912946 0.686544
0.888895 0.661553
1.195527 0.589061
1.042144 0.646005
1.275295 0.509169
0.916132 0.642311
0.875272 0.572785
0.919088 0.599600
0.921948 0.558240
1.286760 0.443262
0.868368 0.488392
0.924532 0.518463
1.299290 0.383814
1.225347 0.411431
0.926979 0.480103
1.304772 0.335040
0.855488 0.404226
0.929134 0.443081
0.937241 0.433999
1.312810 0.290936
0.931402 0.407198
0.843225 0.333113
1.244412 0.318136
0.931717 0.374112
1.315318 0.254315
0.832398 0.270286
0.940578 0.339967
0.920916 0.317897
1.013157 0.321863
0.897631 0.268011
0.824341 0.214006
0.961584 0.291004
1.320632 0.221455
1.265513 0.257691
1.187481 0.269513
0.876658 0.222464
1.321689 0.193748
1.282280 0.218559
1.047472 0.258368
0.978213 0.245433
0.817165 0.163061
1.325298 0.169176
0.858709 0.181192
1.295639 0.186790
0.986205 0.201929
0.813224 0.122087
0.843924 0.142971
1.325665 0.148167
1.305398 0.159720
1.388286 0.057229
1.328164 0.129763
1.065643 -0.063986
1.312352 0.136759
0.830406 0.108942
0.963619 0.163499
0.989701 0.162295
0.805734 0.085551
1.178042 -0.000000
1.328194 0.113853
1.115813 -0.000000
0.819440 0.082129
1.317382 0.117340
0.992150 0.126564
1.329943 0.100087
1.238120 -0.000000
0.799952 0.053674
1.066711 -0.000000
1.003980 0.105915
0.814386 0.056287
0.994104 0.094653
1.321079 0.100891
1.329776 0.088098
1.323838 0.086920
1.330969 0.077877
0.995685 0.066566
0.808801 0.037527
1.035408 -0.000000
0.885450 -0.000081
0.897520 -0.000049
0.909884 -0.000027
0.873908 -0.000108
0.863316 -0.000133
0.922113 -0.000008
0.853618 -0.000148
0.809064 0.029240
0.933863 0.000002
0.845188 -0.000111
0.815041 0.023988
0.837670 -0.000096
0.996968 0.042381
0.944805 0.000008
0.954695 0.000011
0.831373 0.000023
0.792851 -0.006689
0.825845 0.000031
0.963397 0.000010
1.017964 -0.000000
0.821309 0.000133
0.970854 0.000009
0.998061 0.022387
0.977105 0.000006
0.817426 0.000097
0.982234 0.000005
1.008905 -0.000000
0.814282 0.000136
0.986371 0.000003
0.989653 0.000002
1.004333 -0.000000
0.999114 0.007358
0.992221 0.000000
0.994207 -0.000000
1.002027 -0.000001
0.995725 -0.000001
1.000829 -0.000001
0.996876 -0.000001
1.000152 -0.000001
0.997744 -0.000001
0.999700 -0.000001
0.998400 -0.000001
0.999315 -0.000001
0.998904 -0.000001
1.282301 -0.000000
1.325923 0.075019
1.330555 0.068929
0.811648 0.000090
0.805197 0.007488
0.809528 0.000097
0.807770 0.000064
0.806357 0.000061
0.797222 0.001959
0.805193 0.000040
0.804252 0.000037
1.327518 0.064849
1.331107 0.061243
0.803481 0.000025
1.326907 0.057905
1.331304 0.053739
1.328742 0.056163
0.802855 0.000022
0.802345 0.000015
1.332365 0.048680
1.308496 -0.000000
0.801928 0.000013
1.329685 0.048673
0.801586 0.000010
1.332657 0.044123
1.333202 0.041097
1.330407 0.042256
0.801308 0.000008
0.801079 0.000006
1.332889 0.037726
1.330997 0.036755
1.332686 0.034853
0.800891 0.000005
0.800736 0.000004
1.332692 0.031727
1.331482 0.031978
1.332784 0.029081
0.800612 0.000003
0.800506 0.000003
0.800419 0.000003
1.321973 0.000000
1.331813 0.027851
1.332915 0.026288
1.333254 0.025962
1.332893 0.023852
1.332130 0.024341
1.332940 0.021426
1.332360 0.021256
1.333003 0.019262
0.800350 0.000002
0.800008 0.000218
0.800290 0.000002
1.332545 0.018607
1.333035 0.017153
0.800242 0.000001
0.800201 0.000001
0.800167 0.000001
0.800141 0.000001
0.800117 0.000001
0.800097 0.000001
1.332698 0.016317
1.333082 0.015264
1.339185 0.004822
1.328344 -0.000000
1.332818 0.014340
1.333112 0.013473
1.327472 0.004811
0.800083 0.000000
0.800067 0.000001
1.332917 0.012633
1.333150 0.011867
1.336734 0.000727
1.332997 0.011164
1.333176 0.010388
1.329931 0.000721
1.333062 0.009903
1.331206 -0.000000
1.333206 0.009073
1.333116 0.008829
1.333229 0.007905
1.333160 0.007925
1.333333 -0.000780
1.333251 0.006892
1.333196 0.007173
1.333268 0.006036
1.333214 0.006530
1.332449 -0.000000
1.333232 0.005948
1.333282 0.005331
1.333242 0.005378
1.333294 0.004788
1.333307 0.004168
1.333301 0.004404
1.333248 0.004840
1.332974 0.000000
1.333258 0.004332
1.333269 0.003860
1.333277 0.003415
1.333291 0.003013
1.333191 -0.000000
1.333288 0.002626
1.333300 0.002287
1.333314 0.001979
1.333304 0.001692
1.333311 0.001460
1.333333 0.001233
1.333278 0.000000
1.333324 0.001054
1.333324 0.000907
1.333326 0.000788
1.333338 0.000713
1.333329 0.000658
1.333313 0.000000
1.333326 -0.000000
1.333333 0.000000
1.333331 0.000000
0.800058 0.000000
1.333332 0.000000
0.800049 0.000000
0.800000 -0.000000
0.800040 0.000000
0.800033 0.000000
1.333333 0.000000
0.800028 0.000000
0.800023 0.000000
1.333333 0.000000
0.800001 0.000000
0.800021 0.000000
0.800014 0.000001
0.800015 -0.000002
0.800002 -0.000001
0.800012 -0.000002
0.800004 0.000002
0.800003 -0.000001
0.800005 -0.000000
0.800009 0.000003
0.800007 0.000000
1.333333 0.000000
0.800005 -0.000000
1.333333 0.000000
0.800004 0.000000
0.800004 -0.000000
1.333333 0.000000
0.800003 0.000000
0.800003 -0.000000
1.333333 -0.000000
0.800002 0.000000
1.333333 -0.000000
0.800002 -0.000000
0.800001 0.000000
1.333333 0.000000
0.800001 -0.000000
0.800001 0.000000
1.333333 -0.000000
0.800001 -0.000000
0.800001 -0.000000
1.333333 -0.000000
0.800000 0.000000
0.800000 -0.000000
1.333333 0.000000
0.800000 0.000000
0.800000 0.000000
1.333333 -0.000000
0.800000 0.000000
1.333333 0.000000
0.800000 0.000000
0.800000 0.000000
1.333333 -0.000000
0.800000 0.000000
0.800000 0.000000
1.333333 0.000000
0.800000 0.000000
0.800000 0.000000
1.333333 0.000000
0.800000 0.000000
0.800000 0.000000
1.333333 0.000000
0.800000 0.000000
1.333333 -0.000000
0.800000 -0.000000
0.800000 0.000000
1.333333 0.000000
0.800000 0.000000
1.333333 0.000000
0.800000 0.000000
0.800000 -0.000000
1.333333 -0.000000
0.800000 0.000000
1.333333 0.000000
0.800000 0.000000
0.800000 -0.000000
1.333333 -0.000000
0.800000 0.000000
1.333333 -0.000000
0.800000 0.000000
1.333333 -0.000000
0.800000 0.000000
1.333333 -0.000000
0.800000 0.000000
1.333333 0.000000
0.800000 -0.000000
0.800000 0.000000
1.333333 0.000000
0.800000 0.000000
1.333333 0.000000
0.800000 -0.000000
1.333333 0.000000
0.800000 -0.000000
1.333333 0.000000
0.800000 -0.000000
1.333333 0.000000
0.800000 0.000000
1.333333 0.000000
0.800000 -0.000000
1.333333 -0.000000
0.800000 0.000000
1.333333 0.000000
0.800000 0.000000
1.333333 0.000000
0.800000 -0.000000
1.333333 0.000000
0.800000 0.000000
1.333333 0.000000
0.800000 -0.000000
1.333333 0.000000
0.800000 0.000000
1.333333 0.000000
0.800000 0.000000
1.333333 0.000000
1.333333 0.000000
