%!PS-Adobe-3.0 EPSF-3.0
%%Title: G2.eps
%%Creator: matplotlib version 2.2.3, http://matplotlib.org/
%%CreationDate: Wed Feb 20 17:15:32 2019
%%Orientation: portrait
%%BoundingBox: 75 223 536 568
%%EndComments
%%BeginProlog
/mpldict 9 dict def
mpldict begin
/m { moveto } bind def
/l { lineto } bind def
/r { rlineto } bind def
/c { curveto } bind def
/cl { closepath } bind def
/box {
m
1 index 0 r
0 exch r
neg 0 r
cl
} bind def
/clipbox {
box
clip
newpath
} bind def
%!PS-Adobe-3.0 Resource-Font
%%Title: DejaVu Sans Oblique
%%Copyright: Copyright (c) 2003 by Bitstream, Inc. All Rights Reserved. Copyright (c) 2006 by Tavmjong Bah. All Rights Reserved. DejaVu changes are in public domain 
%%Creator: Converted from TrueType to type 3 by PPR
25 dict begin
/_d{bind def}bind def
/_m{moveto}_d
/_l{lineto}_d
/_cl{closepath eofill}_d
/_c{curveto}_d
/_sc{7 -1 roll{setcachedevice}{pop pop pop pop pop pop}ifelse}_d
/_e{exec}_d
/FontName /DejaVuSans-Oblique def
/PaintType 0 def
/FontMatrix[.001 0 0 .001 0 0]def
/FontBBox[-1016 -350 1659 1068]def
/FontType 3 def
/Encoding [ /i /r /alpha ] def
/FontInfo 10 dict dup begin
/FamilyName (DejaVu Sans) def
/FullName (DejaVu Sans Oblique) def
/Notice (Copyright (c) 2003 by Bitstream, Inc. All Rights Reserved. Copyright (c) 2006 by Tavmjong Bah. All Rights Reserved. DejaVu changes are in public domain ) def
/Weight (Oblique) def
/Version (Version 2.35) def
/ItalicAngle -11.0 def
/isFixedPitch false def
/UnderlinePosition -130 def
/UnderlineThickness 90 def
end readonly def
/CharStrings 4 dict dup begin
/.notdef 0 def
/i{278 0 35 0 273 760 _sc
183 760 _m
273 760 _l
251 646 _l
161 646 _l
183 760 _l
142 547 _m
232 547 _l
125 0 _l
35 0 _l
142 547 _l
_cl}_d
/r{411 0 35 0 463 560 _sc
446 464 _m
436 468 426 472 414 475 _c
402 477 390 479 377 479 _c
329 479 287 460 251 424 _c
215 388 192 339 180 279 _c
125 0 _l
35 0 _l
142 547 _l
232 547 _l
215 462 _l
238 493 266 517 300 534 _c
333 551 368 560 406 560 _c
415 560 424 559 434 558 _c
444 557 453 555 463 553 _c
446 464 _l
_cl}_d
/alpha{{659 0 55 -11 645 559 _sc
409 254 _m
410 367 _l
410 443 381 482 323 483 _c
279 483 244 465 218 429 _c
184 384 161 332 150 273 _c
136 201 137 148 155 114 _c
173 79 202 62 242 62 _c
285 62 325 96 362 166 _c
409 254 _l
338 559 _m
440 561 490 509 489 404 _c
489 404 514 451 565 547 _c
645 547 _l
487 250 _l
486 144 _l
486 128 490 113 499 100 _c
509 84 519 76 530 76 _c
}_e{573 76 _l
559 0 _l
504 0 _l
473 0 447 13 425 41 _c
415 55 409 76 409 104 _c
387 69 359 37 323 8 _c
305 -5 273 -11 227 -11 _c
151 -10 99 14 71 62 _c
43 112 37 183 55 273 _c
73 369 108 440 158 484 _c
213 533 273 558 338 559 _c
_cl}_e}_d
end readonly def

/BuildGlyph
 {exch begin
 CharStrings exch
 2 copy known not{pop /.notdef}if
 true 3 1 roll get exec
 end}_d

/BuildChar {
 1 index /Encoding get exch get
 1 index /BuildGlyph get exec
}_d

FontName currentdict end definefont pop
%!PS-Adobe-3.0 Resource-Font
%%Title: DejaVu Serif
%%Copyright: Copyright (c) 2003 by Bitstream, Inc. All Rights Reserved. DejaVu changes are in public domain 
%%Creator: Converted from TrueType to type 3 by PPR
25 dict begin
/_d{bind def}bind def
/_m{moveto}_d
/_l{lineto}_d
/_cl{closepath eofill}_d
/_c{curveto}_d
/_sc{7 -1 roll{setcachedevice}{pop pop pop pop pop pop}ifelse}_d
/_e{exec}_d
/FontName /DejaVuSerif def
/PaintType 0 def
/FontMatrix[.001 0 0 .001 0 0]def
/FontBBox[-770 -347 2105 1109]def
/FontType 3 def
/Encoding [ /hyphen /period /zero /one /two /three /four /five ] def
/FontInfo 10 dict dup begin
/FamilyName (DejaVu Serif) def
/FullName (DejaVu Serif) def
/Notice (Copyright (c) 2003 by Bitstream, Inc. All Rights Reserved. DejaVu changes are in public domain ) def
/Weight (Book) def
/Version (Version 2.35) def
/ItalicAngle 0.0 def
/isFixedPitch false def
/UnderlinePosition -130 def
/UnderlineThickness 90 def
end readonly def
/CharStrings 9 dict dup begin
/.notdef 0 def
/hyphen{338 0 44 230 294 306 _sc
44 306 _m
294 306 _l
294 230 _l
44 230 _l
44 306 _l
_cl}_d
/period{318 0 94 -13 224 116 _sc
94 51 _m
94 69 100 84 112 97 _c
124 109 140 116 159 116 _c
177 116 192 109 205 97 _c
217 84 224 69 224 51 _c
224 33 217 17 205 5 _c
192 -7 177 -13 159 -13 _c
140 -13 124 -7 112 5 _c
100 17 94 32 94 51 _c
_cl}_d
/zero{636 0 66 -13 570 742 _sc
318 34 _m
368 34 405 61 430 116 _c
454 170 467 253 467 364 _c
467 474 454 557 430 612 _c
405 666 368 694 318 694 _c
268 694 230 666 206 612 _c
181 557 169 474 169 364 _c
169 253 181 170 206 116 _c
230 61 268 34 318 34 _c
318 -13 _m
238 -13 176 20 132 86 _c
88 152 66 244 66 364 _c
66 483 88 576 132 642 _c
176 708 238 742 318 742 _c
397 742 459 708 503 642 _c
547 576 570 483 570 364 _c
570 244 547 152 503 86 _c
459 20 397 -13 318 -13 _c
_cl}_d
/one{636 0 122 0 494 742 _sc
142 0 _m
142 52 _l
269 52 _l
269 658 _l
122 563 _l
122 627 _l
300 742 _l
367 742 _l
367 52 _l
494 52 _l
494 0 _l
142 0 _l
_cl}_d
/two{{636 0 68 0 538 742 _sc
128 555 _m
73 555 _l
73 685 _l
107 703 142 717 178 727 _c
213 737 248 742 282 742 _c
358 742 418 723 462 687 _c
506 650 528 600 528 537 _c
528 465 478 380 378 281 _c
370 273 365 268 361 264 _c
177 80 _l
481 80 _l
481 170 _l
538 170 _l
538 0 _l
68 0 _l
68 53 _l
289 274 _l
337 322 372 367 393 408 _c
414 449 425 492 425 537 _c
}_e{425 586 412 624 386 652 _c
360 680 325 694 281 694 _c
234 694 198 682 173 659 _c
147 636 132 601 128 555 _c
_cl}_e}_d
/three{{636 0 76 -13 562 742 _sc
97 698 _m
135 712 171 723 206 731 _c
241 738 274 742 305 742 _c
376 742 432 726 472 696 _c
512 665 532 622 532 568 _c
532 524 518 487 490 458 _c
462 428 423 408 373 398 _c
433 389 479 367 512 332 _c
545 297 562 252 562 197 _c
562 129 539 77 493 41 _c
447 5 382 -13 296 -13 _c
258 -13 220 -9 184 -1 _c
148 6 112 18 76 35 _c
76 177 _l
}_e{131 177 _l
134 129 150 94 178 70 _c
206 46 246 34 298 34 _c
348 34 387 48 416 77 _c
444 106 459 146 459 196 _c
459 253 444 296 414 326 _c
384 355 341 370 284 370 _c
238 370 _l
238 420 _l
262 420 _l
319 420 362 431 390 455 _c
418 479 433 514 433 562 _c
433 604 421 637 398 660 _c
374 682 341 694 297 694 _c
253 694 218 683 194 662 _c
170 641 156 610 152 570 _c
}_e{97 570 _l
97 698 _l
_cl}_e}_d
/four{636 0 31 0 586 742 _sc
349 247 _m
349 635 _l
100 247 _l
349 247 _l
564 0 _m
232 0 _l
232 52 _l
349 52 _l
349 195 _l
31 195 _l
31 248 _l
350 742 _l
447 742 _l
447 247 _l
586 247 _l
586 195 _l
447 195 _l
447 52 _l
564 52 _l
564 0 _l
_cl}_d
/five{{636 0 85 -13 559 729 _sc
503 729 _m
503 649 _l
169 649 _l
169 440 _l
185 452 205 460 228 466 _c
250 472 276 475 304 475 _c
382 475 444 453 490 409 _c
536 365 559 306 559 231 _c
559 153 536 93 490 51 _c
444 8 379 -13 296 -13 _c
262 -13 228 -9 193 -1 _c
157 6 121 18 85 35 _c
85 177 _l
140 177 _l
143 130 158 94 184 70 _c
210 46 248 34 296 34 _c
}_e{347 34 386 51 414 85 _c
442 119 456 167 456 231 _c
456 294 442 342 415 376 _c
387 410 348 427 296 427 _c
266 427 240 421 218 411 _c
196 401 176 385 159 363 _c
117 363 _l
117 729 _l
503 729 _l
_cl}_e}_d
end readonly def

/BuildGlyph
 {exch begin
 CharStrings exch
 2 copy known not{pop /.notdef}if
 true 3 1 roll get exec
 end}_d

/BuildChar {
 1 index /Encoding get exch get
 1 index /BuildGlyph get exec
}_d

FontName currentdict end definefont pop
end
%%EndProlog
mpldict begin
75.6 223.2 translate
460.8 345.6 0 0 clipbox
gsave
0 0 m
460.8 0 l
460.8 345.6 l
0 345.6 l
cl
1.000 setgray
fill
grestore
gsave
57.6 38.016 m
414.72 38.016 l
414.72 304.128 l
57.6 304.128 l
cl
1.000 setgray
fill
grestore
0.800 setlinewidth
1 setlinejoin
0 setlinecap
[] 0 setdash
0.000 setgray
gsave
/o {
gsave
newpath
translate
0.8 setlinewidth
1 setlinejoin
0 setlinecap
0 0 m
0 -3.5 l

gsave
0.000 setgray
fill
grestore
stroke
grestore
} bind def
58.7801 38.016 o
grestore
/DejaVuSerif findfont
15.000 scalefont
setfont
gsave
54.006618 19.625375 translate
0.000000 rotate
0.000000 0.000000 m /zero glyphshow
grestore
gsave
/o {
gsave
newpath
translate
0.8 setlinewidth
1 setlinejoin
0 setlinecap
0 0 m
0 -3.5 l

gsave
0.000 setgray
fill
grestore
stroke
grestore
} bind def
128.264 38.016 o
grestore
gsave
123.490322 19.625375 translate
0.000000 rotate
0.000000 0.000000 m /one glyphshow
grestore
gsave
/o {
gsave
newpath
translate
0.8 setlinewidth
1 setlinejoin
0 setlinecap
0 0 m
0 -3.5 l

gsave
0.000 setgray
fill
grestore
stroke
grestore
} bind def
197.747 38.016 o
grestore
gsave
192.974026 19.625375 translate
0.000000 rotate
0.000000 0.000000 m /two glyphshow
grestore
gsave
/o {
gsave
newpath
translate
0.8 setlinewidth
1 setlinejoin
0 setlinecap
0 0 m
0 -3.5 l

gsave
0.000 setgray
fill
grestore
stroke
grestore
} bind def
267.231 38.016 o
grestore
gsave
262.457729 19.625375 translate
0.000000 rotate
0.000000 0.000000 m /three glyphshow
grestore
gsave
/o {
gsave
newpath
translate
0.8 setlinewidth
1 setlinejoin
0 setlinecap
0 0 m
0 -3.5 l

gsave
0.000 setgray
fill
grestore
stroke
grestore
} bind def
336.715 38.016 o
grestore
gsave
331.941433 19.625375 translate
0.000000 rotate
0.000000 0.000000 m /four glyphshow
grestore
gsave
/o {
gsave
newpath
translate
0.8 setlinewidth
1 setlinejoin
0 setlinecap
0 0 m
0 -3.5 l

gsave
0.000 setgray
fill
grestore
stroke
grestore
} bind def
406.199 38.016 o
grestore
gsave
401.425137 19.625375 translate
0.000000 rotate
0.000000 0.000000 m /five glyphshow
grestore
gsave
226.160000 -2.702750 translate
0.000000 rotate
/DejaVuSans-Oblique findfont
20.0 scalefont
setfont
0.000000 0.765625 moveto
/alpha glyphshow

/DejaVuSans-Oblique findfont
14.0 scalefont
setfont
13.183594 -2.515625 moveto
/r glyphshow


grestore
gsave
/o {
gsave
newpath
translate
0.8 setlinewidth
1 setlinejoin
0 setlinecap
0 0 m
-3.5 0 l

gsave
0.000 setgray
fill
grestore
stroke
grestore
} bind def
57.6 39.8763 o
grestore
gsave
26.740625 34.181008 translate
0.000000 rotate
0.000000 0.000000 m /zero glyphshow
9.543457 0.000000 m /period glyphshow
14.311523 0.000000 m /zero glyphshow
grestore
gsave
/o {
gsave
newpath
translate
0.8 setlinewidth
1 setlinejoin
0 setlinecap
0 0 m
-3.5 0 l

gsave
0.000 setgray
fill
grestore
stroke
grestore
} bind def
57.6 98.3292 o
grestore
gsave
26.740625 92.633863 translate
0.000000 rotate
0.000000 0.000000 m /zero glyphshow
9.543457 0.000000 m /period glyphshow
14.311523 0.000000 m /one glyphshow
grestore
gsave
/o {
gsave
newpath
translate
0.8 setlinewidth
1 setlinejoin
0 setlinecap
0 0 m
-3.5 0 l

gsave
0.000 setgray
fill
grestore
stroke
grestore
} bind def
57.6 156.782 o
grestore
gsave
26.740625 151.086718 translate
0.000000 rotate
0.000000 0.000000 m /zero glyphshow
9.543457 0.000000 m /period glyphshow
14.311523 0.000000 m /two glyphshow
grestore
gsave
/o {
gsave
newpath
translate
0.8 setlinewidth
1 setlinejoin
0 setlinecap
0 0 m
-3.5 0 l

gsave
0.000 setgray
fill
grestore
stroke
grestore
} bind def
57.6 215.235 o
grestore
gsave
26.740625 209.539573 translate
0.000000 rotate
0.000000 0.000000 m /zero glyphshow
9.543457 0.000000 m /period glyphshow
14.311523 0.000000 m /three glyphshow
grestore
gsave
/o {
gsave
newpath
translate
0.8 setlinewidth
1 setlinejoin
0 setlinecap
0 0 m
-3.5 0 l

gsave
0.000 setgray
fill
grestore
stroke
grestore
} bind def
57.6 273.688 o
grestore
gsave
26.740625 267.992428 translate
0.000000 rotate
0.000000 0.000000 m /zero glyphshow
9.543457 0.000000 m /period glyphshow
14.311523 0.000000 m /four glyphshow
grestore
gsave
18.584375 158.572000 translate
90.000000 rotate
/DejaVuSerif findfont
20.0 scalefont
setfont
0.000000 0.765625 moveto
/hyphen glyphshow

/DejaVuSans-Oblique findfont
20.0 scalefont
setfont
6.757812 0.765625 moveto
/alpha glyphshow

/DejaVuSans-Oblique findfont
14.0 scalefont
setfont
19.941406 -2.515625 moveto
/i glyphshow


grestore
2.000 setlinewidth
2 setlinecap
1.000 0.000 0.000 setrgbcolor
gsave
357.1 266.1 57.6 38.02 clipbox
73.832727 50.112 m
73.956686 50.129536 l
80.606068 59.420617 l
85.312894 66.013515 l
87.718629 69.148926 l
90.148821 72.08852 l
92.593953 74.810669 l
95.046033 77.325896 l
99.950748 81.84664 l
104.843165 85.886316 l
109.721964 89.610348 l
114.591312 93.106997 l
121.886545 98.009438 l
129.179763 102.544211 l
136.476386 106.724175 l
143.778984 110.548745 l
151.088461 114.015584 l
158.404539 117.123522 l
163.285353 118.995767 l
168.168528 120.70902 l
173.053858 122.263866 l
177.940994 123.661474 l
182.82959 124.903597 l
187.719366 125.991405 l
192.610046 126.92665 l
197.501352 127.710503 l
212.175963 129.174747 l
212.175963 129.174747 l
219.512052 129.41908 l
226.846335 129.347183 l
234.177908 128.965486 l
241.506215 128.280418 l
248.830492 127.29841 l
256.150114 126.025892 l
263.464594 124.469877 l
270.773238 122.635626 l
278.075627 120.530154 l
285.371208 118.159307 l
292.659562 115.529513 l
299.940273 112.645449 l
307.212924 109.514129 l
314.477167 106.139646 l
321.732586 102.529013 l
328.978902 98.686907 l
336.215769 94.618004 l
343.442977 90.328149 l
350.66025 85.820265 l
357.867169 81.096689 l
365.063249 76.153916 l
374.646163 69.296812 l
386.591315 60.319622 l
393.738687 54.342818 l
396.14185 52.555329 l
396.14185 52.555329 l
398.487273 50.572608 l
398.487273 50.572608 l
stroke
grestore
0 setlinecap
[12.8 3.2 2 3.2] 0 setdash
0.000 0.000 1.000 setrgbcolor
gsave
357.1 266.1 57.6 38.02 clipbox
231.844506 292.032 m
237.430787 275.568753 l
242.86622 258.771741 l
248.161225 241.707599 l
253.325185 224.42952 l
258.366019 206.985434 l
263.290537 189.426196 l
268.105758 171.823704 l
272.828982 153.879846 l
277.471883 136.150511 l
281.990826 118.50827 l
286.425206 100.186807 l
290.971942 85.385375 l
294.603855 67.104829 l
stroke
grestore
0.800 setlinewidth
0 setlinejoin
2 setlinecap
[] 0 setdash
0.000 setgray
gsave
57.6 38.016 m
57.6 304.128 l
stroke
grestore
gsave
414.72 38.016 m
414.72 304.128 l
stroke
grestore
gsave
57.6 38.016 m
414.72 38.016 l
stroke
grestore
gsave
57.6 304.128 m
414.72 304.128 l
stroke
grestore

end
showpage
