 0.13000000000000D+01
 0.60095000000000D+02  0.16465876704012D-07  0.16440349981512D-07  0.16174952498932D-07  0.15684628140080D-07  0.14998792212838D-07  0.14159130673915D-07  0.13216659115952D-07  0.12228267246427D-07  0.11252997125058D-07  0.10348303756790D-07
 0.60195000000000D+02  0.16150841157605D-07  0.16376702126973D-07  0.16365647055660D-07  0.16115961909846D-07  0.15641636736079D-07  0.14971135055641D-07  0.14145238727508D-07  0.13214150343403D-07  0.12234077990001D-07  0.11263547026366D-07
 0.60295000000000D+02  0.15603897172720D-07  0.16059738870897D-07  0.16299012812865D-07  0.16303279231325D-07  0.16069895519520D-07  0.15611879226921D-07  0.14956725814454D-07  0.14144301495140D-07  0.13223992845740D-07  0.12251334847295D-07
 0.60395000000000D+02  0.14864042249418D-07  0.15511790630877D-07  0.15979471014290D-07  0.16233082700718D-07  0.16253332336304D-07  0.16036633113351D-07  0.15595016043408D-07  0.14954997675588D-07  0.14155524690325D-07  0.13245174556719D-07
 0.60495000000000D+02  0.13984438937721D-07  0.14771937517266D-07  0.15429549878130D-07  0.15910059210946D-07  0.16178733194290D-07  0.16215412409257D-07  0.16015554599935D-07  0.15590194895601D-07  0.14964866903634D-07  0.14177603450313D-07
 0.60595000000000D+02  0.13028619023283D-07  0.13893321333921D-07  0.14688462231075D-07  0.15356982671841D-07  0.15851096362998D-07  0.16135329839310D-07  0.16188649471940D-07  0.16005550408031D-07  0.15596068492233D-07  0.14984759366760D-07
 0.60695000000000D+02  0.12065831760473D-07  0.12939338876466D-07  0.13809396182787D-07  0.14613263976891D-07  0.15293505312400D-07  0.15801757325860D-07  0.16101800363278D-07  0.16171722105626D-07  0.16005053041089D-07  0.15610834607519D-07
 0.60795000000000D+02  0.11165889612868D-07  0.11978989683699D-07  0.12855693915742D-07  0.13732216709543D-07  0.14545647351159D-07  0.15238165500114D-07  0.15760829433705D-07  0.16076671679985D-07  0.16162901064599D-07  0.16012088790757D-07
 0.60895000000000D+02  0.10393919729032D-07  0.11081733470270D-07  0.11896194468883D-07  0.12777216891352D-07  0.13661049758500D-07  0.14484606343307D-07  0.15189682697604D-07  0.15726759308522D-07  0.16058122933667D-07  0.16160109912181D-07
 0.60995000000000D+02  0.98054488765671D-08  0.10312266084675D-07  0.11000097756864D-07  0.11817035640217D-07  0.12703215225709D-07  0.13594914353495D-07  0.14428871172114D-07  0.15146501397298D-07  0.15697712002258D-07  0.16044051659711D-07
 0.61095000000000D+02  0.94422298177797D-08  0.97256408645427D-08  0.10231759567858D-07  0.10920704299888D-07  0.11740938796106D-07  0.12632811921230D-07  0.13532631141972D-07  0.14376964152066D-07  0.15106852529535D-07  0.15671638819731D-07
 0.61195000000000D+02  0.93291581453417D-08  0.93631408830374D-08  0.96458438648974D-08  0.10152323006882D-07  0.10843168535426D-07  0.11667204803864D-07  0.12564993498211D-07  0.13472876742297D-07  0.14327259285849D-07  0.15068818870369D-07
 0.61295000000000D+02  0.94725347368403D-08  0.92492470113411D-08  0.92832357040291D-08  0.95662387941496D-08  0.10073822467698D-07  0.10767032978290D-07  0.11595052151825D-07  0.12498658729823D-07  0.13414237467342D-07  0.14278041239433D-07
 0.61395000000000D+02  0.98598087731817D-08  0.93899515431673D-08  0.91680559000739D-08  0.92029946635719D-08  0.94869879663154D-08  0.99960913208142D-08  0.10691800230805D-07  0.11523656293316D-07  0.12432662757922D-07  0.13355258189572D-07
 0.61495000000000D+02  0.10460801802723D-07  0.97725461383504D-08  0.93060220498640D-08  0.90863872254843D-08  0.91229034166462D-08  0.94082466802578D-08  0.99189507422190D-08  0.10616959746082D-07  0.11452181003061D-07  0.12365852777724D-07
 0.61595000000000D+02  0.11230279084562D-07  0.10366878375381D-07  0.96842787266806D-08  0.92218725923242D-08  0.90050564169612D-08  0.90434497533362D-08  0.93301688748077D-08  0.98422215329790D-08  0.10542004099096D-07  0.11379798650644D-07
 0.61695000000000D+02  0.12111615508548D-07  0.11127937860613D-07  0.10272685147333D-07  0.95964375560435D-08  0.91386334121165D-08  0.89248728179647D-08  0.89651130742745D-08  0.92529026501674D-08  0.97657239893801D-08  0.10466432637992D-07
 0.61795000000000D+02  0.13041213419660D-07  0.11999515726269D-07  0.11026416127356D-07  0.10179918465306D-07  0.95104320652140D-08  0.90574034579393D-08  0.88466127590230D-08  0.88883433787832D-08  0.91765735468081D-08  0.96892648534041D-08
 0.61895000000000D+02  0.13953278745375D-07  0.12918593948153D-07  0.11889616782539D-07  0.10927618531120D-07  0.10090212892547D-07  0.94275998109864D-08  0.89792079717616D-08  0.87709829274114D-08  0.88135289218438D-08  0.91012558818344D-08
 0.61995000000000D+02  0.14784554654107D-07  0.13820072965160D-07  0.12799766524877D-07  0.11783960629844D-07  0.10833335740746D-07  0.10005077859729D-07  0.93491505653988D-08  0.89049482507040D-08  0.86985744796415D-08  0.87409541363348D-08
 0.62095000000000D+02  0.15478646940268D-07  0.14641441834418D-07  0.13692362836028D-07  0.12686830185479D-07  0.11684414670602D-07  0.10745171029619D-07  0.99258312168325D-08  0.92761054403367D-08  0.88353452647093D-08  0.86298107257893D-08
 0.62195000000000D+02  0.15989644641106D-07  0.15327032466419D-07  0.14505533860708D-07  0.13572220452968D-07  0.12581644696691D-07  0.11592591952363D-07  0.10664466962755D-07  0.98535314415250D-08  0.92092338200557D-08  0.87708810405443D-08
 0.62295000000000D+02  0.16284830492747D-07  0.15831570094185D-07  0.15184228389554D-07  0.14378793800338D-07  0.13461414320679D-07  0.12485748480962D-07  0.11509775141291D-07  0.10592234892342D-07  0.97889121823026D-08  0.91489928650342D-08
 0.62395000000000D+02  0.16346373893260D-07  0.16122823196855D-07  0.15683703586770D-07  0.15052014233541D-07  0.14262821726372D-07  0.13361329252337D-07  0.12400284193440D-07  0.11436847683038D-07  0.10529091577989D-07  0.97323244624428D-08
 0.62495000000000D+02  0.16171989926413D-07  0.16183252748001D-07  0.15972121746755D-07  0.15547579277072D-07  0.14931756202789D-07  0.14158780645882D-07  0.13272897712814D-07  0.12325935777452D-07  0.11374236805003D-07  0.10475208489984D-07
 0.62595000000000D+02  0.15774621053876D-07  0.16010649001791D-07  0.16032162546948D-07  0.15833970045317D-07  0.15424280253223D-07  0.14824342701516D-07  0.14067337306937D-07  0.13196546534710D-07  0.12262881669738D-07  0.11321873805480D-07
 0.62695000000000D+02  0.15181247971948D-07  0.15617813886573D-07  0.15861643071502D-07  0.15894032028808D-07  0.15709138323172D-07  0.15314386443607D-07  0.14730137560400D-07  0.13988621598053D-07  0.13132163378255D-07  0.12210769156173D-07
 0.62795000000000D+02  0.14430963286941D-07  0.15031393717284D-07  0.15473204620270D-07  0.15725582423818D-07  0.15769310274155D-07  0.15597885270895D-07  0.15217942258563D-07  0.14648954177722D-07  0.13922208321482D-07  0.13079087199525D-07
 0.62895000000000D+02  0.13572451274311D-07  0.14289991393329D-07  0.14893168863519D-07  0.15341103555230D-07  0.15602608582347D-07  0.15657943789335D-07  0.15499940987837D-07  0.15134446422311D-07  0.14580053528907D-07  0.13867124641384D-07
 0.62995000000000D+02  0.12661016847541D-07  0.13441695144228D-07  0.14159687857088D-07  0.14766622550827D-07  0.15221379052244D-07  0.15492385926251D-07  0.15559374496839D-07  0.15414512289538D-07  0.15062865956144D-07  0.14522168238160D-07
 0.63095000000000D+02  0.11755304806114D-07  0.12541160223177D-07  0.13320318838299D-07  0.14039897078254D-07  0.14651402664346D-07  0.15113462174801D-07  0.15394113337390D-07  0.15472559176954D-07  0.15340311263236D-07  0.15001675348408D-07
 0.63195000000000D+02  0.10913852056256D-07  0.11646378501762D-07  0.12429153753203D-07  0.13208032083949D-07  0.13930113716902D-07  0.14546771016727D-07  0.15016369615872D-07  0.15306555436290D-07  0.15396010192348D-07  0.15275606991584D-07
 0.63295000000000D+02  0.10191622810655D-07  0.10815274005301D-07  0.11543632805006D-07  0.12324651391024D-07  0.13104253465841D-07  0.13829505172065D-07  0.14451634387749D-07  0.14928743592687D-07  0.15228092282741D-07  0.15327856427496D-07
 0.63395000000000D+02  0.96366880279662D-08  0.10102271644618D-07  0.10721175977972D-07  0.11446748288308D-07  0.12227077440931D-07  0.13008136453226D-07  0.13736947036345D-07  0.14364589405416D-07  0.14848906805917D-07  0.15156785678592D-07
 0.63495000000000D+02  0.92872209835809D-08  0.95549995701202D-08  0.10015777658476D-07  0.10631345572547D-07  0.11355235947695D-07  0.12135652170760D-07  0.12918605330877D-07  0.13651069043200D-07  0.14283978814780D-07  0.14774930043315D-07
 0.63595000000000D+02  0.91689851088253D-08  0.92112977800041D-08  0.94747245415608D-08  0.99321086424389D-08  0.10545455316813D-07  0.11268458516068D-07  0.12049424335067D-07  0.12834398338549D-07  0.13570308758539D-07  0.14207956410814D-07
 0.63695000000000D+02  0.92934828966813D-08  0.90967108835190D-08  0.91356107196492D-08  0.93960721616010D-08  0.98511625598536D-08  0.10463076150274D-07  0.11185656024926D-07  0.11967307952423D-07  0.12754115230671D-07  0.13492970235197D-07
 0.63795000000000D+02  0.96569124838426D-08  0.92226359990748D-08  0.90238300328461D-08  0.90606559239943D-08  0.93192147930461D-08  0.97727702540865D-08  0.10383693036402D-07  0.11105973217828D-07  0.11888120738070D-07  0.12676266634858D-07
 0.63895000000000D+02  0.10240040824127D-07  0.95852744722620D-08  0.91507191289616D-08  0.89511525268571D-08  0.89869112053238D-08  0.92442776971090D-08  0.96966988692085D-08  0.10306720741757D-07  0.11028486592630D-07  0.11810621906507D-07
 0.63995000000000D+02  0.11009051038889D-07  0.10165497938810D-07  0.95125021494430D-08  0.90788629774322D-08  0.88794729727851D-08  0.89148115777398D-08  0.91713288837588D-08  0.96226545721979D-08  0.10231518067536D-07  0.10952229250491D-07
 0.64095000000000D+02  0.11917360334571D-07  0.10929687296554D-07  0.10090149210552D-07  0.94400334568165D-08  0.90081700552020D-08  0.88095315275522D-08  0.88447250754943D-08  0.91003682570300D-08  0.95502834477855D-08  0.10157399253586D-07
 0.64195000000000D+02  0.12908338621869D-07  0.11831541327281D-07  0.10850208151034D-07  0.10015707011038D-07  0.93692504045063D-08  0.89396615813327D-08  0.87419761341606D-08  0.87769287010377D-08  0.90313155373039D-08  0.94791698617135D-08
 0.64295000000000D+02  0.13918791734588D-07  0.12814784948621D-07  0.11746606479951D-07  0.10772550404863D-07  0.99437868420642D-08  0.93014133794555D-08  0.88742274432211D-08  0.86773264988582D-08  0.87115845772032D-08  0.89639968267001D-08
 0.64395000000000D+02  0.14883011810258D-07  0.13816640517826D-07  0.12723353124870D-07  0.11664653044275D-07  0.10698502399578D-07  0.98758312707018D-08  0.92376008923489D-08  0.88125801822344D-08  0.86159404226235D-08  0.86487167012917D-08
 0.64495000000000D+02  0.15737145482645D-07  0.14771864146429D-07  0.13718002649970D-07  0.12636226910350D-07  0.11587570729247D-07  0.10629620412598D-07  0.98130421545312D-08  0.91786561779260D-08  0.87552140772806D-08  0.85579833482723D-08
 0.64595000000000D+02  0.16423592240392D-07  0.15617097124254D-07  0.14665682989718D-07  0.13625069105886D-07  0.12555319549533D-07  0.11516953859437D-07  0.10567156526164D-07  0.97563229384725D-08  0.91251420773253D-08  0.87023705558615D-08
 0.64695000000000D+02  0.16895124499891D-07  0.16295244456848D-07  0.15503435914905D-07  0.14566586808756D-07  0.13539697312979D-07  0.12482185276175D-07  0.11454028354771D-07  0.10512000007632D-07  0.97062326862002D-08  0.90773056787138D-08
 0.64795000000000D+02  0.17118421014564D-07  0.16759572038653D-07  0.16174581549675D-07  0.15398132621476D-07  0.14476301280536D-07  0.13463325680470D-07  0.12417948987273D-07  0.11399595701472D-07  0.10464633957579D-07  0.96629534225181D-08
 0.64895000000000D+02  0.17076728697357D-07  0.16977214481467D-07  0.16632798109821D-07  0.16063360611651D-07  0.15302713410909D-07  0.14396080418089D-07  0.13396909472630D-07  0.12363256237751D-07  0.11353995605011D-07  0.10425108733653D-07
 0.64995000000000D+02  0.16771415791545D-07  0.16931809568268D-07  0.16845608976258D-07  0.16516293544757D-07  0.15962853001519D-07  0.15218190845909D-07  0.14326651872289D-07  0.13340879988762D-07  0.12318245006765D-07  0.11317088580297D-07
 0.65095000000000D+02  0.16222250525916D-07  0.16625023694182D-07  0.16796993701796D-07  0.16724793237825D-07  0.16411035615244D-07  0.15873787980851D-07  0.15145021375550D-07  0.14268187994392D-07  0.13295128077220D-07  0.12282540048112D-07
 0.65195000000000D+02  0.15466330356565D-07  0.16076804376137D-07  0.16488888525307D-07  0.16673151032026D-07  0.16615429789089D-07  0.16317446411762D-07  0.15796324505380D-07  0.15083090335600D-07  0.14220303080339D-07  0.13259012170789D-07
 0.65295000000000D+02  0.14555691439432D-07  0.15324287312758D-07  0.15941414268554D-07  0.16363565007607D-07  0.16560628742492D-07  0.16517629335396D-07  0.16235380246135D-07  0.15730051425483D-07  0.15031724105451D-07  0.14182076199591D-07
 0.65395000000000D+02  0.13553737618140D-07  0.14419390282412D-07  0.15191761396124D-07  0.15816343522934D-07  0.16249104657392D-07  0.16459242033180D-07  0.16430954173590D-07  0.16164139410181D-07  0.15674014831110D-07  0.14989727919161D-07
 0.65495000000000D+02  0.12530732912524D-07  0.13425235814549D-07  0.14291767166031D-07  0.15068767152146D-07  0.15701386805845D-07  0.16145062281787D-07  0.16368292952929D-07  0.16354448902193D-07  0.16102516023099D-07  0.15626770065279D-07
 0.65595000000000D+02  0.11558690690994D-07  0.12411648943235D-07  0.13304329529669D-07  0.14172646667538D-07  0.14954897972343D-07  0.15595890737468D-07  0.16050528671806D-07  0.16286614490013D-07  0.16286695131821D-07  0.16048856512834D-07
 0.65695000000000D+02  0.10706056513562D-07  0.11450064840956D-07  0.12298906559192D-07  0.13190724606859D-07  0.14061489701159D-07  0.14849358279646D-07  0.15498797968998D-07  0.15964185603517D-07  0.16212635624253D-07  0.16225885824410D-07
 0.65795000000000D+02  0.10032612030949D-07  0.10608243843018D-07  0.11346438025181D-07  0.12192171899565D-07  0.13083827032245D-07  0.13957433979309D-07  0.14751015733683D-07  0.15408709857555D-07  0.15884377964711D-07  0.16144462182065D-07
 0.65895000000000D+02  0.95850192630526D-08  0.99452203550153D-08  0.10514087419652D-07  0.11247518279478D-07  0.12090877196088D-07  0.12982787797184D-07  0.13859350504727D-07  0.14658467767554D-07  0.15323961848382D-07  0.15809197251956D-07
 0.65995000000000D+02  0.93933767840410D-08  0.95069024568615D-08  0.98602303214517D-08  0.10423415877384D-07  0.11152843436104D-07  0.11994265839239D-07  0.12886559497473D-07  0.13765909823426D-07  0.14570116095094D-07  0.15242705453548D-07
 0.66095000000000D+02  0.94690747995300D-08  0.93226895924046D-08  0.94301037251253D-08  0.97776616218988D-08  0.10335944798256D-07  0.11061822154192D-07  0.11901444845508D-07  0.12793958097559D-07  0.13675651486667D-07  0.14484242998741D-07
 0.66195000000000D+02  0.98041221065178D-08  0.94033897905558D-08  0.92524799056236D-08  0.93548911968571D-08  0.96974675810386D-08  0.10251309718082D-07  0.10973778249282D-07  0.11811438157085D-07  0.12703723420992D-07  0.13587050748178D-07
 0.66295000000000D+02  0.10371985606361D-07  0.97406029553399D-08  0.93376410369985D-08  0.91833046059812D-08  0.92814996188272D-08  0.96195566803911D-08  0.10169098829187D-07  0.10887992062927D-07  0.11723234754944D-07  0.12614572904975D-07
 0.66395000000000D+02  0.11129846326923D-07  0.10307604256132D-07  0.96768149393771D-08  0.92726945927861D-08  0.91157041724683D-08  0.92101377209674D-08  0.95438109141810D-08  0.10088879716498D-07  0.10803733560718D-07  0.11635826911693D-07
 0.66495000000000D+02  0.12022049963403D-07  0.11061625646833D-07  0.10243099604656D-07  0.96139323387000D-08  0.92093998872208D-08  0.90501941878374D-08  0.91409904754992D-08  0.94700961538058D-08  0.10010215771378D-07  0.10720283514056D-07
 0.66595000000000D+02  0.12984429161924D-07  0.11947309251764D-07  0.10993768818028D-07  0.10179931870487D-07  0.95530954068296D-08  0.91485647780284D-08  0.89872508551975D-08  0.90742124545563D-08  0.93982613132749D-08  0.99326698545763D-08
 0.66695000000000D+02  0.13949110608599D-07  0.12901008054219D-07  0.11873728501813D-07  0.10927979890429D-07  0.10119493910135D-07  0.94953695272384D-08  0.90909248389942D-08  0.89272878764294D-08  0.90099103481140D-08  0.93281252225643D-08
 0.66795000000000D+02  0.14849399034568D-07  0.13855548181573D-07  0.12819797517691D-07  0.11803196594451D-07  0.10865848677491D-07  0.10063056153818D-07  0.94416999162981D-08  0.90371054255473D-08  0.88706240653239D-08  0.89481149255665D-08
 0.66895000000000D+02  0.15624352926904D-07  0.14745049241114D-07  0.13765428447951D-07  0.12742799498202D-07  0.11737431135305D-07  0.10808784148573D-07  0.10011709386896D-07  0.93928615726903D-08  0.89875771598101D-08  0.88174433105070D-08
 0.66995000000000D+02  0.16222727077359D-07  0.15509424521466D-07  0.14645469034689D-07  0.13680786923422D-07  0.12671781573954D-07  0.11677903791622D-07  0.10757948783124D-07  0.99663061234727D-08  0.93494062578977D-08  0.89426076502967D-08
 0.67095000000000D+02  0.16606043774994D-07  0.16098244964135D-07  0.15400592866412D-07  0.14552645859984D-07  0.13603360156022D-07  0.12608198283453D-07  0.11625770293670D-07  0.10714195500341D-07  0.99274032980304D-08  0.93116103093942D-08
 0.67195000000000D+02  0.16750652949315D-07  0.16473737933627D-07  0.15981091602474D-07  0.15299719274613D-07  0.14468206732154D-07  0.13534507355677D-07  0.12553121132814D-07  0.11581807344074D-07  0.10678010565523D-07  0.98952107790434D-08
 0.67295000000000D+02  0.16648737123390D-07  0.16612789338782D-07  0.16349808477508D-07  0.15872933143762D-07  0.15208250707570D-07  0.14393344426815D-07  0.13475144731267D-07  0.12507179875355D-07  0.11546360199225D-07  0.10649467343282D-07
 0.67395000000000D+02  0.16308297536506D-07  0.16507910963482D-07  0.16484089291655D-07  0.16235671177983D-07  0.15774978839846D-07  0.15127154420475D-07  0.14328760118036D-07  0.13425695173571D-07  0.12470518853642D-07  0.11519305795596D-07
 0.67495000000000D+02  0.15752216028937D-07  0.16167212263010D-07  0.16376718125625D-07  0.16365680555039D-07  0.16132256717452D-07  0.15687927387951D-07  0.15056872227981D-07  0.14274624842402D-07  0.13386056764307D-07  0.12442772917129D-07
 0.67595000000000D+02  0.15016521853214D-07  0.15613470746009D-07  0.16035879364526D-07  0.16255980742834D-07  0.16258193879385D-07  0.16039971093517D-07  0.15611935264963D-07  0.14997296225317D-07  0.14230562650977D-07  0.13355593933927D-07
 0.67695000000000D+02  0.14148007341599D-07  0.14882426618549D-07  0.15484239231737D-07  0.15914818854466D-07  0.16146029055326D-07  0.16161738789048D-07  0.15958679404212D-07  0.15546608105369D-07  0.14947767952900D-07  0.14195658311044D-07
 0.67795000000000D+02  0.13201338577390D-07  0.14020439984437D-07  0.14757268760085D-07  0.15364763484616D-07  0.15804080467254D-07  0.16046692718359D-07  0.16075903054467D-07  0.15887713119070D-07  0.15491016057132D-07  0.14907102719429D-07
 0.67895000000000D+02  0.12235805024131D-07  0.13081650128465D-07  0.13900940817451D-07  0.14641055058605D-07  0.15254851670234D-07  0.15703249543035D-07  0.15957315053830D-07  0.15999774935637D-07  0.15825900626498D-07  0.15443733597085D-07
 0.67995000000000D+02  0.11311852018771D-07  0.12124774421568D-07  0.12968934274504D-07  0.13789339699931D-07  0.14533407029786D-07  0.15153896584396D-07  0.15611474100294D-07  0.15876788286505D-07  0.15931986850396D-07  0.15771620323708D-07
 0.68095000000000D+02  0.10487545403973D-07  0.11209685520181D-07  0.12019476814683D-07  0.12862913536625D-07  0.13685138389230D-07  0.14433589101226D-07  0.15060912710219D-07  0.15527510205278D-07  0.15803607381934D-07  0.15870778634673D-07
 0.68195000000000D+02  0.98151277892276D-08  0.10393912677275D-07  0.11111960341966D-07  0.11919603349769D-07  0.12763044022141D-07  0.13587544935839D-07  0.14340552175280D-07  0.14974588222700D-07  0.15449782399826D-07  0.15735939751350D-07
 0.68295000000000D+02  0.93378371875988D-08  0.97292251299625D-08  0.10303471936467D-07  0.11018413357258D-07  0.11824640660719D-07  0.12668552185877D-07  0.13495519907473D-07  0.14252988412248D-07  0.14893348087300D-07  0.15376455804706D-07
 0.68395000000000D+02  0.90871655032910D-08  0.92584684865319D-08  0.96453973930377D-08  0.10216078813935D-07  0.10928634797732D-07  0.11733906080457D-07  0.12578479797070D-07  0.13407830028509D-07  0.14169393039305D-07  0.14815424502718D-07
 0.68495000000000D+02  0.90807309844274D-08  0.90128329688076D-08  0.91802689821463D-08  0.95636831092700D-08  0.10131492256829D-07  0.10842098217298D-07  0.11646587639990D-07  0.12491732726612D-07  0.13323104978859D-07  0.14088129348630D-07
 0.68595000000000D+02  0.93209213037841D-08  0.90097296075312D-08  0.89390381122223D-08  0.91035112162190D-08  0.94840628941895D-08  0.10049396014939D-07  0.10758192270265D-07  0.11561784754559D-07  0.12407129498610D-07  0.13239893684294D-07
 0.68695000000000D+02  0.97944308644629D-08  0.92514330780787D-08  0.89389512943049D-08  0.88663223759887D-08  0.90284349389399D-08  0.94064699046797D-08  0.99694196035206D-08  0.10676250702580D-07  0.11478545963722D-07  0.12323446319929D-07
 0.68795000000000D+02  0.10472768356666D-07  0.97246164225005D-08  0.91821903105899D-08  0.88692229708027D-08  0.87952043745226D-08  0.89552447948198D-08  0.93307981924802D-08  0.98911557975588D-08  0.10595577518740D-07  0.11395900983037D-07
 0.68895000000000D+02  0.11313751771222D-07  0.10400854730856D-07  0.96554035472398D-08  0.91143028130241D-08  0.88013430367509D-08  0.87261639652854D-08  0.88841051529149D-08  0.92569067669423D-08  0.98141723343401D-08  0.10515465236533D-07
 0.68995000000000D+02  0.12263942581741D-07  0.11238115387986D-07  0.10330206566888D-07  0.95881635136117D-08  0.90488310205347D-08  0.87360518907062D-08  0.86596235413042D-08  0.88151306888989D-08  0.91846178236999D-08  0.97380164538935D-08
 0.69095000000000D+02  0.13261903712546D-07  0.12183186445704D-07  0.11164669792120D-07  0.10262417890825D-07  0.95241836780604D-08  0.89867439151612D-08  0.86740005362291D-08  0.85959259357835D-08  0.87483719738686D-08  0.91137085089640D-08
 0.69195000000000D+02  0.14242102203416D-07  0.13174927206590D-07  0.12105744501209D-07  0.11095178355411D-07  0.10198952874299D-07  0.94646145360736D-08  0.89288765846526D-08  0.86157173892373D-08  0.85353089700275D-08  0.86837961690447D-08
 0.69295000000000D+02  0.15139221818611D-07  0.14148161219955D-07  0.13092510431524D-07  0.12033484853099D-07  0.11031220246548D-07  0.10141084433817D-07  0.94104185469825D-08  0.88758881802754D-08  0.85615740378513D-08  0.84778774340158D-08
 0.69395000000000D+02  0.15892607529982D-07  0.15037976237117D-07  0.14060064184533D-07  0.13016554565255D-07  0.11968032122349D-07  0.10974123505123D-07  0.10089837168906D-07  0.93623220211013D-08  0.88282216581693D-08  0.85117513681641D-08
 0.69495000000000D+02  0.16450536823390D-07  0.15784152529039D-07  0.14943811961975D-07  0.13979671226304D-07  0.12948656864290D-07  0.11910698286837D-07  0.10924905313813D-07  0.10045936331077D-07  0.93207719710583D-08  0.87860672481803D-08
 0.69595000000000D+02  0.16774005717856D-07  0.16335414296872D-07  0.15683887185293D-07  0.14858476231613D-07  0.13908480812701D-07  0.12890042742710D-07  0.11862423705585D-07  0.10884221401218D-07  0.10009765097967D-07  0.92859002791533D-08
 0.69695000000000D+02  0.16839733094466D-07  0.16653192263471D-07  0.16229387193261D-07  0.15593380903627D-07  0.14783303292991D-07  0.13847566528714D-07  0.12841510976978D-07  0.11823730320902D-07  0.10852327049306D-07  0.99813327605382D-08
 0.69795000000000D+02  0.16642126973481D-07  0.16714601742658D-07  0.16542117008623D-07  0.16133793261621D-07  0.15513748536583D-07  0.14719159141223D-07  0.13797529708694D-07  0.12803393893651D-07  0.11794689514361D-07  0.10829052391455D-07
 0.69895000000000D+02  0.16194020418395D-07  0.16514381077190D-07  0.16599544909279D-07  0.16441846908678D-07  0.16049486708736D-07  0.15445605951715D-07  0.14666404450943D-07  0.13758469424848D-07  0.12775534802309D-07  0.11774907183929D-07
 0.69995000000000D+02  0.15526070039204D-07  0.16065599933843D-07  0.16396715734350D-07  0.16495336978918D-07  0.16352951025214D-07  0.15976806888839D-07  0.15389045579039D-07  0.14624876628224D-07  0.13729971659032D-07  0.12757284919234D-07
 0.70095000000000D+02  0.14684811240368D-07  0.15399032733541D-07  0.15946933069467D-07  0.16289609945467D-07  0.16402255917164D-07  0.16275483900825D-07  0.15915568065954D-07  0.15343632076745D-07  0.14593892160624D-07  0.13711119387927D-07
 0.70195000000000D+02  0.13729473595985D-07  0.14561194020232D-07  0.15281107809322D-07  0.15838219993376D-07  0.16193063800446D-07  0.16320082035002D-07  0.16208990288680D-07  0.15865069406021D-07  0.15308418456593D-07  0.14572270313236D-07
 0.70295000000000D+02  0.12727767382748D-07  0.13611141928997D-07  0.14445772547683D-07  0.15172251660130D-07  0.15739214685610D-07  0.16106612398207D-07  0.16248117508111D-07  0.16152529266840D-07  0.15824124560878D-07  0.15281982911827D-07
 0.70395000000000D+02  0.11750947820685D-07  0.12616263365258D-07  0.13499870796561D-07  0.14338310907914D-07  0.15072020598705D-07  0.15649252815435D-07  0.16029359021293D-07  0.16185223469658D-07  0.16104716036254D-07  0.15791110216749D-07
 0.70495000000000D+02  0.10868536700718D-07  0.11647349453827D-07  0.12510537362696D-07  0.13395296617484D-07  0.14238229842570D-07  0.14979610571034D-07  0.15567296516489D-07  0.15960023164271D-07  0.16129871899071D-07  0.16063779906096D-07
 0.70595000000000D+02  0.10143123055478D-07  0.10773341978247D-07  0.11548180647602D-07  0.12410171765418D-07  0.13296776307414D-07  0.14144655363222D-07  0.14893910659887D-07  0.15491990513771D-07  0.15896999624455D-07  0.16080210011814D-07
 0.70695000000000D+02  0.96256692298555D-08  0.10056172183584D-07  0.10681248883633D-07  0.11453047531356D-07  0.12314536319916D-07  0.13203441208425D-07  0.14056477460056D-07  0.14813563845340D-07  0.15421724934214D-07  0.15838425697190D-07
 0.70795000000000D+02  0.93517135624979D-08  0.95461164368947D-08  0.99711016836202D-08  0.10591963949500D-07  0.11361409093132D-07  0.12222843370624D-07  0.13114257049070D-07  0.13972411620673D-07  0.14737029681372D-07  0.15354701372357D-07
 0.70895000000000D+02  0.93387874928039D-08  0.92780564309710D-08  0.94674098445279D-08  0.98877888119641D-08  0.10505106344881D-07  0.11272629573950D-07  0.12134204947346D-07  0.13028082191591D-07  0.13891057403761D-07  0.14662645224389D-07
 0.70995000000000D+02  0.95852592112311D-08  0.92689566990971D-08  0.92044678784886D-08  0.93896565314945D-08  0.98060734644720D-08  0.10420253391526D-07  0.11186028670087D-07  0.12047683831859D-07  0.12943718292312D-07  0.13810950429538D-07
 0.71095000000000D+02  0.10070687984494D-07  0.95167653920253D-08  0.91987272961880D-08  0.91313285223206D-08  0.93129630115889D-08  0.97257931972900D-08  0.10336980261604D-07  0.11100921905944D-07  0.11962332924346D-07  0.12859950034012D-07
 0.71195000000000D+02  0.10757636231165D-07  0.10000815817980D-07  0.94477507099697D-08  0.91287786415316D-08  0.90590394490786D-08  0.92374568140345D-08  0.96468094534448D-08  0.10254886793488D-07  0.11016646003731D-07  0.11877220127822D-07
 0.71295000000000D+02  0.11594755311704D-07  0.10683669581944D-07  0.99306578783259D-08  0.93791980880864D-08  0.90598143636740D-08  0.89880282973559D-08  0.91632971427838D-08  0.95690188208682D-08  0.10173607045955D-07  0.10932567264860D-07
 0.71395000000000D+02  0.12520850746871D-07  0.11514212388980D-07  0.10609998499911D-07  0.98614846639853D-08  0.93121010277539D-08  0.89925519304519D-08  0.89187432812814D-08  0.90906695934186D-08  0.94923459839050D-08  0.10092800599559D-07
 0.71495000000000D+02  0.13469555851337D-07  0.12431705554406D-07  0.11434858082247D-07  0.10538145285589D-07  0.97945470497610D-08  0.92474367646163D-08  0.89277000802701D-08  0.88516314834768D-08  0.90197628221878D-08  0.94167185147605D-08
 0.71595000000000D+02  0.14374207896900D-07  0.13370422415981D-07  0.12344897350619D-07  0.11358413381712D-07  0.10469568080854D-07  0.97310342481829D-08  0.91861282662968D-08  0.88659219124559D-08  0.87871006655762D-08  0.89507285312965D-08
 0.71695000000000D+02  0.15172530352996D-07  0.14264467100169D-07  0.13274954609792D-07  0.12262279054752D-07  0.11286479470843D-07  0.10405605883782D-07  0.96720225684857D-08  0.91289943673134D-08  0.88077842812159D-08  0.87254671867855D-08
 0.71795000000000D+02  0.15810774461603D-07  0.15052385397052D-07  0.14159811751833D-07  0.13185061549641D-07  0.12185521052960D-07  0.11220472911114D-07  0.10347417142995D-07  0.96184157126548D-08  0.90766900423919D-08  0.87536972440394D-08
 0.71895000000000D+02  0.16247053510643D-07  0.15681229292627D-07  0.14938739650649D-07  0.14062127792797D-07  0.13102404571574D-07  0.12116040311031D-07  0.11161557801339D-07  0.10295913976417D-07  0.95708798456055D-08  0.90296415900384D-08
 0.71995000000000D+02  0.16453699814162D-07  0.16109817693239D-07  0.15559492429569D-07  0.14833378455840D-07  0.13972990358073D-07  0.13028324395943D-07  0.12054930209397D-07  0.11110578049248D-07  0.10251696292618D-07  0.95297790265490D-08
 0.72095000000000D+02  0.16418572508667D-07  0.16311031982870D-07  0.15981501827966D-07  0.15447178591921D-07  0.14737720126912D-07  0.13893593181818D-07  0.12963772825317D-07  0.12002895058243D-07  0.11067994818882D-07  0.10214991957586D-07
 0.72195000000000D+02  0.16145330561928D-07  0.16273081265495D-07  0.16178118365939D-07  0.15863492292096D-07  0.15345490130696D-07  0.14652751537490D-07  0.13824686110703D-07  0.12909253439277D-07  0.11960194843756D-07  0.11033835558341D-07
 0.72295000000000D+02  0.15652750935438D-07  0.15999755534179D-07  0.16137840286547D-07  0.16056075585875D-07  0.15756731909671D-07  0.15255162204700D-07  0.14578974874158D-07  0.13766525363357D-07  0.12864777007728D-07  0.11926606566539D-07
 0.72395000000000D+02  0.14973213440448D-07  0.15509747197771D-07  0.15864551775871D-07  0.16013674146794D-07  0.15945561916376D-07  0.15661677340726D-07  0.15176421420134D-07  0.14516370041119D-07  0.13718842118065D-07  0.12829837650474D-07
 0.72495000000000D+02  0.14150493887038D-07  0.14835159810443D-07  0.15376850899145D-07  0.15740250067916D-07  0.15900951699939D-07  0.15846748538018D-07  0.15578271284881D-07  0.15108961968945D-07  0.14464377881842D-07  0.13680834875980D-07
 0.72595000000000D+02  0.13237012152148D-07  0.14019340458684D-07  0.14706583092310D-07  0.15254317778679D-07  0.15626945290294D-07  0.15799571773369D-07  0.15759305905833D-07  0.15505932843925D-07  0.15051943795663D-07  0.14421908903271D-07
 0.72695000000000D+02  0.12290679979691D-07  0.13114175942081D-07  0.13896711422548D-07  0.14587501738923D-07  0.15142003224664D-07  0.15524296023078D-07  0.15708963198516D-07  0.15682407713706D-07  0.15443569791782D-07  0.15004016618803D-07
 0.72795000000000D+02  0.11371491979364D-07  0.12176990942420D-07  0.12998657395956D-07  0.13782441895294D-07  0.14477582560439D-07  0.15039374203802D-07  0.15431536702153D-07  0.15628100717817D-07  0.15614755362407D-07  0.15389615711920D-07
 0.72895000000000D+02  0.10538006821111D-07  0.11267185966695D-07  0.12069244226998D-07  0.12890174546059D-07  0.13676073740928D-07  0.14376162500709D-07  0.14945531114321D-07  0.15347502931176D-07  0.15555538858439D-07  0.15554625107137D-07
 0.72995000000000D+02  0.98438746099160D-08  0.10442758039499D-07  0.11167375171898D-07  0.11967114660263D-07  0.12788216130141D-07  0.13576884018172D-07  0.14282277080895D-07  0.14859239311351D-07  0.15270671324011D-07  0.15489465321062D-07
 0.73095000000000D+02  0.93345779012061D-08  0.97568580541032D-08  0.10350586471075D-07  0.11071767613051D-07  0.11870112854478D-07  0.12692073093275D-07  0.13483916485328D-07  0.14194694559884D-07  0.14778971121497D-07  0.15199215007310D-07
 0.73195000000000D+02  0.90445625248790D-08  0.92545519835506D-08  0.96716273487993D-08  0.10261307059567D-07  0.10979968836277D-07  0.11777615985620D-07  0.12600869479981D-07  0.13396014715157D-07  0.14111956264689D-07  0.14702959291505D-07
 0.73295000000000D+02  0.89949345415420D-08  0.89699632388324D-08  0.91752345860596D-08  0.95881705373233D-08  0.10174686518054D-07  0.10891508308753D-07  0.11688894527700D-07  0.12513590996748D-07  0.13311857112404D-07  0.14032424080949D-07
 0.73395000000000D+02  0.91918866272595D-08  0.89239744021380D-08  0.88952805568855D-08  0.90968411657299D-08  0.95064705783131D-08  0.10090462046038D-07  0.10805858826745D-07  0.11603133174937D-07  0.12429111567319D-07  0.13229995070590D-07
 0.73495000000000D+02  0.96259886402431D-08  0.91226537297506D-08  0.88524752244625D-08  0.88209963653870D-08  0.90196113446545D-08  0.94265136799979D-08  0.10008350823106D-07  0.10722447325296D-07  0.11519446463656D-07  0.12346219518170D-07
 0.73595000000000D+02  0.10272433414336D-07  0.95565429997059D-08  0.90527898213307D-08  0.87812066578173D-08  0.87476302213604D-08  0.89438048966682D-08  0.93482870206409D-08  0.99280489889523D-08  0.10640657910329D-07  0.11436891230340D-07
 0.73695000000000D+02  0.11092272659443D-07  0.10200899008375D-07  0.94867407118246D-08  0.89833547560301D-08  0.87109729783853D-08  0.86757218661951D-08  0.88696866540115D-08  0.92717650145355D-08  0.98492213157428D-08  0.10559829790094D-07
 0.73795000000000D+02  0.12034613530676D-07  0.11016924198546D-07  0.10129626984180D-07  0.94179153920636D-08  0.89154236794925D-08  0.86425818810272D-08  0.86058031269319D-08  0.87975000273297D-08  0.91968857519989D-08  0.97714847819726D-08
 0.73895000000000D+02  0.13039678986589D-07  0.11953956986684D-07  0.10942757741978D-07  0.10060190583020D-07  0.93513815969503D-08  0.88500427077485D-08  0.85768040106586D-08  0.85383594788853D-08  0.87274311956775D-08  0.91235213075194D-08
 0.73995000000000D+02  0.14042569577254D-07  0.12952524476967D-07  0.11875639473715D-07  0.10871536610761D-07  0.99940968144140D-08  0.92883787908704D-08  0.87881774852203D-08  0.85143241024964D-08  0.84737837372079D-08  0.86595680713744D-08
 0.74095000000000D+02  0.14977505573867D-07  0.13948094529642D-07  0.12869025500254D-07  0.11801552653312D-07  0.10804900861069D-07  0.99327208010591D-08  0.92300109872527D-08  0.87306560764606D-08  0.84556865760827D-08  0.84123263016028D-08
 0.74195000000000D+02  0.15782280797891D-07  0.14875305378388D-07  0.13858663496640D-07  0.12791132078195D-07  0.11733401576279D-07  0.10744294655035D-07  0.98772390919302D-08  0.91771840715988D-08  0.86781093672307D-08  0.84012402247709D-08
 0.74295000000000D+02  0.16402627236497D-07  0.15672403566823D-07  0.14779518241293D-07  0.13776211089712D-07  0.12720541887639D-07  0.11672628132662D-07  0.10690896218689D-07  0.98285644501028D-08  0.91305442528496D-08  0.86309137243217D-08
 0.74395000000000D+02  0.16796176294020D-07  0.16285588976024D-07  0.15570199438401D-07  0.14691990492508D-07  0.13702355530640D-07  0.12658623081580D-07  0.11620340848516D-07  0.10645553314969D-07  0.97872857569329D-08  0.90904223824838D-08
 0.74495000000000D+02  0.16935711466268D-07  0.16672952868169D-07  0.16177292736686D-07  0.15477359143331D-07  0.14614193717024D-07  0.13638324196800D-07  0.12606347165732D-07  0.11577254274090D-07  0.10608727973582D-07  0.97536176353304D-08
 0.74595000000000D+02  0.16811440371955D-07  0.16807704291888D-07  0.16559279628625D-07  0.16079216230413D-07  0.15395149695838D-07  0.14547156255610D-07  0.13584892684828D-07  0.12564235358329D-07  0.11543641689497D-07  0.10580454808641D-07
 0.74695000000000D+02  0.16432071742833D-07  0.16680413889396D-07  0.16689741849704D-07  0.16456377518125D-07  0.15992377035351D-07  0.15324354774846D-07  0.14491411247374D-07  0.13542340842153D-07  0.12532322008855D-07  0.11519305046834D-07
 0.74795000000000D+02  0.15824563174719D-07  0.16300062381692D-07  0.16559580184549D-07  0.16582761190150D-07  0.16364985932611D-07  0.15917284298433D-07  0.15265234046719D-07  0.14446964502937D-07  0.13510429045224D-07  0.12510138445089D-07
 0.74895000000000D+02  0.15032503565817D-07  0.15693761738663D-07  0.16178036450017D-07  0.16449583864171D-07  0.16487212972528D-07  0.16285327539678D-07  0.15853910990554D-07  0.15217504365137D-07  0.14413285043001D-07  0.13488397420213D-07
 0.74995000000000D+02  0.14113203039218D-07  0.14905115577506D-07  0.15572388754263D-07  0.16066356913571D-07  0.16350595424867D-07  0.16403040411905D-07  0.16217094339048D-07  0.15801689109955D-07  0.15180345105771D-07  0.14389320227707D-07
 0.75095000000000D+02  0.13133673500036D-07  0.13991294407906D-07  0.14786289154987D-07  0.15460555240430D-07  0.15964941515467D-07  0.16262304462852D-07  0.16329679148359D-07  0.16159456657737D-07  0.15759529411208D-07  0.15152428735084D-07
 0.75195000000000D+02  0.12165784326881D-07  0.13019011604069D-07  0.13876822197705D-07  0.14675930241761D-07  0.15357970889414D-07  0.15873269459578D-07  0.16183932447380D-07  0.16266078906945D-07  0.16111095918291D-07  0.15725865930257D-07
 0.75295000000000D+02  0.11280959451911D-07  0.12059686873907D-07  0.12910473060757D-07  0.13769548435691D-07  0.14573599748235D-07  0.15263962525371D-07  0.15790405296452D-07  0.16114265037280D-07  0.16210747044267D-07  0.16070260679383D-07
 0.75395000000000D+02  0.10544834780325D-07  0.11184164889313D-07  0.11958294534200D-07  0.12807747521321D-07  0.13668955321310D-07  0.14478541256732D-07  0.15177506508497D-07  0.15715039104476D-07  0.16051703351296D-07  0.16161812829958D-07
 0.75495000000000D+02  0.10012311390007D-07  0.10457408193076D-07  0.11090642150672D-07  0.11861301820367D-07  0.12710314772024D-07  0.13574278962044D-07  0.14389718693679D-07  0.15097273363466D-07  0.15645541808969D-07  0.15994332567889D-07
 0.75595000000000D+02  0.97234164138725D-08  0.99335984410644D-08  0.10371897036539D-07  0.11000168382416D-07  0.11768263539206D-07  0.12617480798038D-07  0.13484548609115D-07  0.14305861573454D-07  0.15021683077091D-07  0.15580033768934D-07
 0.75695000000000D+02  0.97003201750316D-08  0.96520548025239D-08  0.98556094749624D-08  0.10288234108948D-07  0.10912446717939D-07  0.11678629239763D-07  0.12528414667585D-07  0.13398628520699D-07  0.14225516072593D-07  0.14948969209318D-07
 0.75795000000000D+02  0.99457596543547D-08  0.96343133746113D-08  0.95804692494374D-08  0.97784961574977D-08  0.10206334980710D-07  0.10827135196600D-07  0.11591773889231D-07  0.12442183126657D-07  0.13315260762390D-07  0.14147100368867D-07
 0.75895000000000D+02  0.10442993636826D-07  0.98826116632208D-08  0.95674422302472D-08  0.95090792596364D-08  0.97024369041507D-08  0.10126117780622D-07  0.10743867707148D-07  0.11507021694132D-07  0.12357781510858D-07  0.13233107942443D-07
 0.75995000000000D+02  0.11157276434481D-07  0.10379896723453D-07  0.98183115304668D-08  0.95004253072924D-08  0.94383591883694D-08  0.96276445024709D-08  0.10047511472959D-07  0.10662264169210D-07  0.11423662206815D-07  0.12274160785184D-07
 0.76095000000000D+02  0.12038699812292D-07  0.11091337197342D-07  0.10315735345171D-07  0.97538880495581D-08  0.94340462428236D-08  0.93688314674780D-08  0.95543596004873D-08  0.99704503894897D-08  0.10581929837462D-07  0.11340959551911D-07
 0.76195000000000D+02  0.13026132126085D-07  0.11967183265177D-07  0.11024795286381D-07  0.10251838723588D-07  0.96904266558241D-08  0.93691313132983D-08  0.93010441607381D-08  0.94828285972334D-08  0.98948558167269D-08  0.10502445743047D-07
 0.76295000000000D+02  0.14051893634684D-07  0.12946699913469D-07  0.11895873806764D-07  0.10959250142389D-07  0.10189566172423D-07  0.96290311429207D-08  0.93065109877463D-08  0.92355323299045D-08  0.94132677704663D-08  0.98206079229595D-08
 0.76395000000000D+02  0.15046757627829D-07  0.13962811653080D-07  0.12868582634026D-07  0.11826592487778D-07  0.10896288441480D-07  0.10130253862431D-07  0.95707702394283D-08  0.92469660077433D-08  0.91727661396896D-08  0.93458182122813D-08
 0.76495000000000D+02  0.15944862989637D-07  0.14947050692567D-07  0.13876379566313D-07  0.12793759266244D-07  0.11761091405739D-07  0.10837417840661D-07  0.10075148479613D-07  0.95166106925877D-08  0.91911620075334D-08  0.91130914968202D-08
 0.76595000000000D+02  0.16688163094771D-07  0.15834399660418D-07  0.14851467941624D-07  0.13794659940805D-07  0.12724074245128D-07  0.11700977258408D-07  0.10783990668255D-07  0.10025330504549D-07  0.94673418814742D-08  0.91395795549487D-08
 0.76695000000000D+02  0.17230110147495D-07  0.16567661727999D-07  0.15729575171338D-07  0.14762075721093D-07  0.13719510410550D-07  0.12661154339981D-07  0.11647628699892D-07  0.10737121272722D-07  0.99816330019222D-08  0.94234997148367D-08
 0.76795000000000D+02  0.17538370009531D-07  0.17101066563399D-07  0.16454250830415D-07  0.15632379960380D-07  0.14680665198999D-07  0.13652497825984D-07  0.12606323728693D-07  0.11602112039394D-07  0.10697603584557D-07  0.99445642776071D-08
 0.76895000000000D+02  0.17596464757499D-07  0.17402916428893D-07  0.16980401605086D-07  0.16349770946613D-07  0.15544464104754D-07  0.14608667869492D-07  0.13594815219127D-07  0.12560522422119D-07  0.11565102254342D-07  0.10665837532421D-07
 0.76995000000000D+02  0.17404334066899D-07  0.17457177423083D-07  0.17276876114828D-07  0.16869742808111D-07  0.16255666677742D-07  0.15467058097901D-07  0.14547078390923D-07  0.13547207101331D-07  0.12524235148085D-07  0.11536817899274D-07
 0.77095000000000D+02  0.16977881177373D-07  0.17264012026649D-07  0.17328011740808D-07  0.17161615722674D-07  0.16770279605609D-07  0.16172916190145D-07  0.15400905053926D-07  0.14496390367330D-07  0.13509910051743D-07  0.12497438872619D-07
 0.77195000000000D+02  0.16347619411768D-07  0.16839320386389D-07  0.17134144053147D-07  0.17210044124683D-07  0.17058037904458D-07  0.16682704312228D-07  0.16101975529903D-07  0.15346209775975D-07  0.14456551604548D-07  0.13482616053042D-07
 0.77295000000000D+02  0.15556561779390D-07  0.16213404564879D-07  0.16711147401664D-07  0.17015507393532D-07  0.17103878988596D-07  0.16966535596491D-07  0.16607170340994D-07  0.16042742767127D-07  0.15302610555725D-07  0.14426945313109D-07
 0.77395000000000D+02  0.14657504763335D-07  0.15428893696293D-07  0.16089118755012D-07  0.16593852272401D-07  0.16908417552214D-07  0.17009617123132D-07  0.16886964853658D-07  0.16543272072702D-07  0.15994546996766D-07  0.15269179006440D-07
 0.77495000000000D+02  0.13709856260138D-07  0.14538074758375D-07  0.15310337950016D-07  0.15974996676214D-07  0.16487490862606D-07  0.16812710455421D-07  0.16926842747005D-07  0.16818639920119D-07  0.16490050466304D-07  0.15956166239193D-07
 0.77595000000000D+02  0.12776154999369D-07  0.13599771993803D-07  0.14426642716535D-07  0.15200923195220D-07  0.15870881526320D-07  0.16391679456737D-07  0.16727742255659D-07  0.16854632144214D-07  0.16760353676875D-07  0.16446027209432D-07
 0.77695000000000D+02  0.11918430362262D-07  0.12675916014963D-07  0.13496354846837D-07  0.14323094461268D-07  0.15100341205915D-07  0.15776229785821D-07  0.16305604925372D-07  0.16652408939978D-07  0.16791586158206D-07  0.16710425138639D-07
 0.77795000000000D+02  0.11194559258456D-07  0.11827946745407D-07  0.12580892706211D-07  0.13399420433568D-07  0.14227041486979D-07  0.15007958831833D-07  0.15690128631794D-07  0.16228051972315D-07  0.16585187301029D-07  0.16735887294850D-07
 0.77895000000000D+02  0.10654788588337D-07  0.11113204070588D-07  0.11741210051561D-07  0.12490907474940D-07  0.13308576051305D-07  0.14137836614101D-07  0.14922839083612D-07  0.15611327029299D-07  0.16157448525695D-07  0.16524197373810D-07
 0.77995000000000D+02  0.10338602890957D-07  0.10581473917479D-07  0.11034212874561D-07  0.11658125604700D-07  0.12405639243168D-07  0.13223236345593D-07  0.14054594987354D-07  0.14843772110696D-07  0.15538281315014D-07  0.16091929034218D-07
 0.78095000000000D+02  0.10272120960129D-07  0.10271870165582D-07  0.10509321793228D-07  0.10957644116769D-07  0.11578514440551D-07  0.12324635507696D-07  0.13142640565275D-07  0.13976221115350D-07  0.14769316891764D-07  0.15469215002980D-07
 0.78195000000000D+02  0.10466197086358D-07  0.10210237999125D-07  0.10205361734093D-07  0.10438603474999D-07  0.10883521493477D-07  0.11502118455602D-07  0.12247322556949D-07  0.13065872240424D-07  0.13901443006252D-07  0.14697853619901D-07
 0.78295000000000D+02  0.10915378826431D-07  0.10407256574102D-07  0.10147966765599D-07  0.10139607055212D-07  0.10369592064801D-07  0.10811829444447D-07  0.11428600868074D-07  0.12173014986241D-07  0.12991882758094D-07  0.13828853867017D-07
 0.78395000000000D+02  0.11597833251545D-07  0.10857394961644D-07  0.10347680463112D-07  0.10086123204291D-07  0.10075158693683D-07  0.10302546306949D-07  0.10742501877711D-07  0.11357543552755D-07  0.12100926534302D-07  0.12919519956185D-07
 0.78495000000000D+02  0.12476299550013D-07  0.11538834855202D-07  0.10798907981982D-07  0.10288580720350D-07  0.10025550947294D-07  0.10012563204386D-07  0.10237686431250D-07  0.10675406184920D-07  0.11288443886309D-07  0.12030184110747D-07
 0.78595000000000D+02  0.13500061672827D-07  0.12414418768489D-07  0.11479834892439D-07  0.10741316223911D-07  0.10231084629308D-07  0.99670789219551D-08  0.99523238194930D-08  0.10175164620269D-07  0.10610325806167D-07  0.11220713751229D-07
 0.78695000000000D+02  0.14607865446707D-07  0.13433617593567D-07  0.12353372275368D-07  0.11422489995133D-07  0.10686004813425D-07  0.10176279609639D-07  0.99114714587592D-08  0.98948580242755D-08  0.10115033943283D-07  0.10546944742006D-07
 0.78795000000000D+02  0.15731635508092D-07  0.14535441593361D-07  0.13369121962103D-07  0.12295030400716D-07  0.11368400685688D-07  0.10634278973138D-07  0.10125152107281D-07  0.98593744447912D-08  0.98404543749648D-08  0.10057219829424D-07
 0.78895000000000D+02  0.16800783559296D-07  0.15652149499010D-07  0.14466285406267D-07  0.13308600580083D-07  0.12241152737401D-07  0.11319035136334D-07  0.10587293738066D-07  0.10078524497457D-07  0.98112622920689D-08  0.97892331975479D-08
 0.78995000000000D+02  0.17746845458311D-07  0.16713546405887D-07  0.15577369888977D-07  0.14402510007149D-07  0.13253905488320D-07  0.12193304879496D-07  0.11275652306014D-07  0.10545984345343D-07  0.10036995077761D-07  0.97673907934612D-08
 0.79095000000000D+02  0.18508144837157D-07  0.17651607236475D-07  0.16632481624250D-07  0.15509423335122D-07  0.14345987160207D-07  0.13206627626792D-07  0.12152777978729D-07  0.11239228961756D-07  0.10511002566857D-07  0.10000886507602D-07
 0.79195000000000D+02  0.19034159305612D-07  0.18405122944085D-07  0.17563941451650D-07  0.16559654616995D-07  0.15450127060782D-07  0.14298259052019D-07  0.13168016049528D-07  0.12120515778011D-07  0.11210395921636D-07  0.10482664459988D-07
 0.79295000000000D+02  0.19289265368624D-07  0.18924045345998D-07  0.18310919427932D-07  0.17485781153237D-07  0.16496756930673D-07  0.15400903040836D-07  0.14260460472191D-07  0.13138908404173D-07  0.12097054394940D-07  0.11189388936582D-07
 0.79395000000000D+02  0.19255562594192D-07  0.19173207005371D-07  0.18823763707850D-07  0.18227272069525D-07  0.17418628706861D-07  0.16445026045549D-07  0.15362706346300D-07  0.14233256038216D-07  0.13119677742372D-07  0.12082480027935D-07
 0.79495000000000D+02  0.18934527417757D-07  0.19135117530722D-07  0.19067700120272D-07  0.18734806192589D-07  0.18155442253257D-07  0.17363484126252D-07  0.16405182794553D-07  0.15335972090946D-07  0.14216797172248D-07  0.13110200397759D-07
 0.79595000000000D+02  0.18347321199623D-07  0.18811588098675D-07  0.19025604376589D-07  0.18973955331940D-07  0.18658156496640D-07  0.18096154346935D-07  0.17320794015756D-07  0.16377390504228D-07  0.15320585173093D-07  0.14210702942992D-07
 0.79695000000000D+02  0.17533672086949D-07  0.18224010817477D-07  0.18699599926718D-07  0.18927935241280D-07  0.18892659521873D-07  0.18594242554868D-07  0.18049557996319D-07  0.17290424710056D-07  0.16361239385223D-07  0.15315876130236D-07
 0.79795000000000D+02  0.16549359477430D-07  0.17412214985661D-07  0.18111309936592D-07  0.18599178321011D-07  0.18842500049963D-07  0.18823942330559D-07  0.18542913259928D-07  0.18015216263788D-07  0.17271662339982D-07  0.16355758552490D-07
 0.79895000000000D+02  0.15462444663031D-07  0.16431931879044D-07  0.17300687873679D-07  0.18009558307269D-07  0.18510435301109D-07  0.18769147551674D-07  0.18767367519821D-07  0.18503441699714D-07  0.17992121441279D-07  0.17263241170277D-07
 0.79995000000000D+02  0.14348501146163D-07  0.15351014550755D-07  0.16323461177623D-07  0.17199193866959D-07  0.17918627245681D-07  0.18432974478853D-07  0.18707190637013D-07  0.18721950463771D-07  0.18474555791882D-07  0.17978738810848D-07
 0.80095000000000D+02  0.13285192202895D-07  0.14244668766712D-07  0.15247337493439D-07  0.16223868507233D-07  0.17107416675793D-07  0.17837927189454D-07  0.18365908743163D-07  0.18655436306976D-07  0.18686201702644D-07  0.18454495546299D-07
 0.80195000000000D+02  0.12346611223825D-07  0.13190044603859D-07  0.14147232379709D-07  0.15151219438733D-07  0.16132715608276D-07  0.17024638469748D-07  0.17766435327907D-07  0.18307900079596D-07  0.18612239354448D-07  0.18658194850330D-07
 0.80295000000000D+02  0.11597833805303D-07  0.12260605107845D-07  0.13099870195579D-07  0.14055957334895D-07  0.15062174070753D-07  0.16049230032364D-07  0.16949774327746D-07  0.17702741935797D-07  0.18257219851136D-07  0.18575577282047D-07
 0.80395000000000D+02  0.11090124115377D-07  0.11520720406374D-07  0.12178175703332D-07  0.13014471161391D-07  0.13970386554738D-07  0.14979451847498D-07  0.15972342768920D-07  0.16881421239074D-07  0.17645113198940D-07  0.18211826531386D-07
 0.80495000000000D+02  0.10857190208075D-07  0.11020927549679D-07  0.11445904514116D-07  0.12099237080124D-07  0.12933495130107D-07  0.13889869583875D-07  0.14902076875276D-07  0.15900735800407D-07  0.16817919149825D-07  0.17591567273035D-07
 0.80595000000000D+02  0.10912796567087D-07  0.10794246778595D-07  0.10952950719759D-07  0.11373479625796D-07  0.12023610054641D-07  0.12856460361010D-07  0.13813594759873D-07  0.14828888912215D-07  0.15832897061743D-07  0.16757420858804D-07
 0.80695000000000D+02  0.11249924531300D-07  0.10853857008198D-07  0.10731718762434D-07  0.10886521898807D-07  0.11303496494204D-07  0.11951039848520D-07  0.12782779510576D-07  0.13740621849056D-07  0.14758588244175D-07  0.15767179992666D-07
 0.80795000000000D+02  0.11841533697888D-07  0.11192314637173D-07  0.10794857147225D-07  0.10670208478894D-07  0.10821962807333D-07  0.11235970075469D-07  0.11881208266472D-07  0.12711779646187D-07  0.13669913437254D-07  0.14689781316774D-07
 0.80895000000000D+02  0.12642834210051D-07  0.11782361912816D-07  0.11134531849578D-07  0.10736693741255D-07  0.10610331004585D-07  0.10759582377235D-07  0.11170877682970D-07  0.11813738634447D-07  0.12642717595273D-07  0.13600363931930D-07
 0.80995000000000D+02  0.13594846720933D-07  0.12579228482680D-07  0.11723279030335D-07  0.11077767378710D-07  0.10680277328253D-07  0.10552693178770D-07  0.10699659381802D-07  0.11108147386044D-07  0.11748193593868D-07  0.12574790685902D-07
 0.81095000000000D+02  0.14628918863143D-07  0.13524198217103D-07  0.12516334617027D-07  0.11665750280976D-07  0.11023208825325D-07  0.10626495919614D-07  0.10497860265508D-07  0.10642413942414D-07  0.11047637908120D-07  0.11684067167461D-07
 0.81195000000000D+02  0.15671796464742D-07  0.14549107873918D-07  0.13455208276217D-07  0.12455852356977D-07  0.11611202654871D-07  0.10971989076346D-07  0.10576166352415D-07  0.10446311371437D-07  0.10587970409740D-07  0.10989112880376D-07
 0.81295000000000D+02  0.16650821844342D-07  0.15581376636708D-07  0.14472166167069D-07  0.13389755306108D-07  0.12399393734739D-07  0.11560960556085D-07  0.10925124072576D-07  0.10529975537965D-07  0.10398387370521D-07  0.10536315910234D-07
 0.81395000000000D+02  0.17498851275606D-07  0.16549142856914D-07  0.15495222285235D-07  0.14400082522620D-07  0.13329569152222D-07  0.12348407971473D-07  0.11516172664572D-07  0.10883442802610D-07  0.10488416545634D-07  0.10354236965667D-07
 0.81495000000000D+02  0.18158543455692D-07  0.17386106918594D-07  0.16453218601763D-07  0.15415356618546D-07  0.14334629201814D-07  0.13276148485258D-07  0.12304100878866D-07  0.11477734387057D-07  0.10847515509039D-07  0.10451726307880D-07
 0.81595000000000D+02  0.18585759155411D-07  0.18035740818711D-07  0.17280599493657D-07  0.16365028452775D-07  0.15343516040310D-07  0.14277275578811D-07  0.13230676707430D-07  0.12267354014638D-07  0.11446212721666D-07  0.10817587786947D-07
 0.81695000000000D+02  0.18751914255227D-07  0.18454614032569D-07  0.17921549433244D-07  0.17184189447623D-07  0.16286197293665D-07  0.15281064021258D-07  0.14229104747044D-07  0.13193942290303D-07  0.12238650990489D-07  0.11421781783904D-07
 0.81795000000000D+02  0.18645228616974D-07  0.18614686435871D-07  0.18333252392836D-07  0.17817644137398D-07  0.17098322373145D-07  0.16217913566929D-07  0.15228912521208D-07  0.14190739418957D-07  0.13166271211204D-07  0.12218019377406D-07
 0.81895000000000D+02  0.18270898775529D-07  0.18504517144759D-07  0.18488131713044D-07  0.18223109805797D-07  0.17725236041080D-07  0.17023954819998D-07  0.16160859240419D-07  0.15187457407257D-07  0.14162284730114D-07  0.13147479741963D-07
 0.81995000000000D+02  0.17650285260494D-07  0.18129420582073D-07  0.18375025088701D-07  0.18373409395391D-07  0.18125124042074D-07  0.17645009064688D-07  0.16961495869557D-07  0.16115157982457D-07  0.15156535103859D-07  0.14143295633287D-07
 0.82095000000000D+02  0.16819243510541D-07  0.17510660471765D-07  0.17999328729655D-07  0.18257617592434D-07  0.18271163948199D-07  0.18039684465372D-07  0.17577075291818D-07  0.16910770346860D-07  0.16080348117965D-07  0.15135407257275D-07
 0.82195000000000D+02  0.15825744430102D-07  0.16683807476744D-07  0.17382200833523D-07  0.17881196414292D-07  0.18152645920665D-07  0.18181488372783D-07  0.17966602283848D-07  0.17520954375249D-07  0.16871009348168D-07  0.16055385981154D-07
 0.82295000000000D+02  0.14726934019247D-07  0.15696400977934D-07  0.16558946562525D-07  0.17265209523403D-07  0.17775101613357D-07  0.18059924894352D-07  0.18103909354860D-07  0.17905106109923D-07  0.17475581626597D-07  0.16840872363675D-07
 0.82395000000000D+02  0.13585779697804D-07  0.14605057731926D-07  0.15576719413135D-07  0.16444733771787D-07  0.17159529291774D-07  0.17680617591177D-07  0.17978731830729D-07  0.18037397763876D-07  0.17853866351299D-07  0.17439347674474D-07
 0.82495000000000D+02  0.12467451021585D-07  0.13472168416053D-07  0.14491675190182D-07  0.15466597302137D-07  0.16340829923697D-07  0.17064544093991D-07  0.17596823528706D-07  0.17907829711027D-07  0.17980406956984D-07  0.17811049978772D-07
 0.82595000000000D+02  0.11435588221086D-07  0.12362324255808D-07  0.13365713348293D-07  0.14386574146014D-07  0.15365578141475D-07  0.16246493679326D-07  0.16979198496048D-07  0.17522337231421D-07  0.17845516092179D-07  0.17930939256121D-07
 0.82695000000000D+02  0.10548623143252D-07  0.11338623426307D-07  0.12262942905917D-07  0.13266164266082D-07  0.14289252067445D-07  0.15272866486282D-07  0.16160606242809D-07  0.16902036199761D-07  0.17455370703626D-07  0.17789697203782D-07
 0.82795000000000D+02  0.98563300318295D-08  0.10459020045299D-07  0.11246019478935D-07  0.12169091807595D-07  0.13173045603319D-07  0.14198932781270D-07  0.15187354181037D-07  0.16081711685949D-07  0.16831258010228D-07  0.17393807412795D-07
 0.82895000000000D+02  0.93967924127510D-08  0.97728932115371D-08  0.10372515094048D-07  0.11157665563343D-07  0.12080392069017D-07  0.13085671008578D-07  0.14114590473839D-07  0.15107658479726D-07  0.16008073039945D-07  0.16764797787747D-07
 0.82995000000000D+02  0.91939712602106D-08  0.93180236751600D-08  0.96914988112730D-08  0.10289162742288D-07  0.11073341237326D-07  0.11996310177770D-07  0.13003161639460D-07  0.14034981908279D-07  0.15032172299624D-07  0.15937742744559D-07
 0.83095000000000D+02  0.92560441945956D-08  0.91181653312649D-08  0.92405175256430D-08  0.96124151627855D-08  0.10208950831273D-07  0.10992717221990D-07  0.11916167634796D-07  0.12924469334514D-07  0.13958687448458D-07  0.14959125540685D-07
 0.83195000000000D+02  0.95746538084396D-08  0.91813834173680D-08  0.90431664971783D-08  0.91647894289965D-08  0.95358731544024D-08  0.10131790859707D-07  0.10915354129659D-07  0.11839152688428D-07  0.12848405790449D-07  0.13884160399216D-07
 0.83295000000000D+02  0.10125156182459D-07  0.94992993091288D-08  0.91074238308136D-08  0.89697532703421D-08  0.90913309363459D-08  0.94620445675845D-08  0.10057504390973D-07  0.10840701244515D-07  0.11764335959333D-07  0.12773677997378D-07
 0.83395000000000D+02  0.10867901384972D-07  0.10047334187761D-07  0.94248906834920D-08  0.90352047435814D-08  0.88986774025791D-08  0.90205755316179D-08  0.93910156371452D-08  0.99858083012972D-08  0.10768097868034D-07  0.11690691044743D-07
 0.83495000000000D+02  0.11750510840613D-07  0.10785983928809D-07  0.99710306540591D-08  0.93527079677659D-08  0.89657198087062D-08  0.88306175389469D-08  0.89528597025001D-08  0.93227591199636D-08  0.99163020984148D-08  0.10696779176852D-07
 0.83595000000000D+02  0.12711047085077D-07  0.11663090077211D-07  0.10706441136994D-07  0.98977299309195D-08  0.92839519436320D-08  0.88998595854499D-08  0.87661289836982D-08  0.88883830553930D-08  0.92571087644135D-08  0.98484600817433D-08
 0.83695000000000D+02  0.13681904720820D-07  0.12617001991726D-07  0.11579121282303D-07  0.10630911393744D-07  0.98287910634168D-08  0.92196774174954D-08  0.88383519106644D-08  0.87055938558768D-08  0.88271719360562D-08  0.91937396907689D-08
 0.83795000000000D+02  0.14594192147631D-07  0.13580458323490D-07  0.12527630951262D-07  0.11500336056140D-07  0.10560852286535D-07  0.97653741802951D-08  0.91607267013628D-08  0.87817047202004D-08  0.86491765458149D-08  0.87690506834330D-08
 0.83895000000000D+02  0.15382326297594D-07  0.14484956725480D-07  0.13484967882043D-07  0.12444691381635D-07  0.11428223844327D-07  0.10497462927804D-07  0.97083700272338D-08  0.91076681933769D-08  0.87301565433254D-08  0.85967890656847D-08
 0.83995000000000D+02  0.15988531286159D-07  0.15265333481614D-07  0.14382930959024D-07  0.13397147011989D-07  0.12369635254794D-07  0.11363953287920D-07  0.10441612752431D-07  0.96583376882633D-08  0.90607454422463D-08  0.86836395538828D-08
 0.84095000000000D+02  0.16366920355593D-07  0.15864243697412D-07  0.15156690397893D-07  0.14289717317762D-07  0.13318342718387D-07  0.12303532669049D-07  0.11308303587096D-07  0.10393781859563D-07  0.96154558805821D-08  0.90198416758079D-08
