0.500000 
0.298048 0.000292
0.394838 0.000297
0.990002 1.192125
0.483677 0.000556
1.140453 1.161489
1.137104 1.158987
1.007417 1.035017
1.448138 0.979004
0.570214 0.000212
1.143773 1.102648
1.147918 1.046837
1.132380 1.006017
1.023921 0.893270
1.151815 0.992341
0.652490 0.000297
1.155361 0.939655
1.129772 0.867355
1.158988 0.888345
1.039415 0.766250
1.483088 0.714137
1.162260 0.838563
1.129862 0.744235
1.165650 0.790140
1.053584 0.653369
0.726604 0.000094
1.168605 0.743211
1.506887 0.571454
1.171244 0.697419
1.133242 0.635809
1.067990 0.554535
1.173913 0.653506
1.529532 0.470308
1.176215 0.610102
0.790057 0.000126
1.138285 0.540168
1.178685 0.568836
1.545541 0.405423
1.179608 0.528758
1.082117 0.468279
1.568819 0.364121
0.841007 0.000051
1.592123 0.321938
1.183859 0.491445
1.143735 0.458851
1.407974 0.407452
1.608603 0.284054
1.170895 0.446617
1.100356 0.393110
1.198910 0.436005
1.621298 0.250811
1.630609 0.221508
0.878196 0.000050
1.637924 0.196090
1.160291 0.385418
1.142662 0.385572
1.107128 0.360543
1.242563 0.386240
1.392343 -0.136279
1.643441 0.173842
0.900612 0.000031
1.231184 0.368703
1.117028 0.330451
1.081602 0.304691
1.647798 0.154234
1.159907 0.325366
1.094318 0.279290
1.063057 0.251117
1.191577 0.304634
1.231944 0.309321
1.651407 0.136903
1.047653 0.202067
1.074429 0.232309
1.057391 0.190014
1.184622 0.257701
1.037475 0.158083
1.235837 0.259335
1.214517 0.246367
1.486801 0.124511
1.654079 0.121730
1.043425 0.150680
1.027199 0.123250
1.400083 0.147450
1.504144 0.000001
1.440503 0.000001
1.491339 0.047571
1.656336 0.108385
1.556789 0.074395
1.560588 0.000000
1.030763 0.115252
1.239412 0.213492
1.203345 0.206202
1.646834 0.090717
1.658139 0.096568
1.229159 0.198714
1.016434 0.087967
1.597109 0.055538
1.659600 0.086118
1.380763 0.000001
1.649382 0.073778
1.660793 0.076864
1.602876 0.000000
1.370598 0.047508
1.344888 0.104075
1.019952 0.086620
1.242138 0.171586
1.217234 0.163479
1.239791 0.159106
1.661749 0.068648
1.641558 0.054873
1.653796 0.057789
1.666444 0.057015
1.662565 0.061392
1.333389 0.000000
1.656583 0.049242
1.663244 0.054929
1.630598 0.000000
1.014861 0.061251
1.015042 0.060186
1.663803 0.049163
1.243966 0.133587
1.247960 0.125392
1.227828 0.126816
1.658133 0.041804
1.185640 -0.051116
1.664256 0.044057
1.008417 0.041403
1.660751 0.036790
1.664642 0.039509
1.009918 0.034968
1.254664 0.096302
1.245263 0.100008
1.300472 0.000000
1.235939 0.095102
1.109659 0.000011
1.121826 0.000031
1.097916 0.000001
1.086762 -0.000004
1.076347 -0.000011
1.134201 0.000036
1.146511 0.000051
1.066772 -0.000012
1.260221 0.075177
1.158581 0.000056
1.058079 -0.000013
1.050268 -0.000012
1.170111 0.000064
1.043362 -0.000014
1.037256 -0.000012
1.276290 0.048380
1.246510 0.070167
1.180998 0.000074
1.031933 -0.000009
1.242130 0.067995
1.190995 0.000078
1.027308 -0.000007
1.003955 0.012761
1.255731 0.058741
1.023319 -0.000007
1.200099 0.000092
1.279569 0.000000
1.019885 -0.000005
1.016943 -0.000004
1.647137 0.000000
1.661361 0.031839
1.664961 0.035463
1.679977 0.010833
1.663072 0.028019
1.665229 0.031861
1.014428 -0.000003
1.002448 0.006625
1.208172 0.000100
1.246058 0.044670
1.251524 0.040677
1.247184 0.044459
1.215283 0.000113
1.012282 -0.000002
1.010455 -0.000001
1.008901 -0.000000
1.007579 0.000001
0.999455 -0.001813
1.006456 0.000002
1.221407 0.000118
1.266999 0.000000
1.005502 0.000001
1.247087 0.026723
1.249647 0.025100
1.226652 0.000124
1.247733 0.023042
1.231062 0.000126
1.004692 0.000002
1.004003 0.000005
1.259658 0.000001
1.234753 0.000121
1.003418 0.000001
1.237797 0.000116
1.248080 0.012264
1.248781 0.011713
1.240298 0.000104
1.255421 0.000002
1.248509 0.007571
1.242334 0.000094
1.243974 0.000077
1.252971 0.000002
1.245297 0.000070
1.251534 0.000003
1.246343 0.000049
1.250648 0.000004
1.247200 0.000047
1.250066 0.000011
1.247891 0.000027
1.249634 0.000028
1.249208 0.000049
1.248441 0.000067
1.248821 -0.000076
1.663343 0.024437
1.665430 0.028671
1.002498 0.000004
1.002920 0.000004
1.002137 0.000004
1.001828 0.000004
1.001566 0.000005
1.001350 0.000002
1.001157 0.000003
1.000991 0.000004
1.000848 0.000005
1.000740 0.000002
1.665666 0.025783
1.653333 0.010800
1.664396 0.021584
1.665802 0.023258
1.664509 0.018919
1.656407 -0.000000
1.665922 0.020991
1.000632 0.000002
1.000005 0.000302
1.000544 0.000003
1.000000 0.000000
1.000473 0.000001
1.000381 0.000004
1.000363 0.000005
1.657944 0.005304
1.665199 0.016758
1.666068 0.018996
1.673721 0.001392
1.665215 0.014732
1.666144 0.017223
1.665697 0.013121
1.666187 0.015603
1.000309 0.000001
1.000266 0.000001
1.000005 0.000001
1.000218 0.000003
1.000188 0.000001
1.000011 0.000000
1.000169 0.000001
1.000023 -0.000000
1.000163 -0.000001
1.000090 0.000001
1.000112 0.000003
1.000099 0.000001
1.000026 -0.000000
1.000043 -0.000001
1.659596 0.001369
1.666343 0.014292
1.661396 -0.000000
1.665676 0.011543
1.666352 0.013045
1.000074 0.000000
1.000050 0.000001
1.000055 -0.000002
1.666007 0.010301
1.666437 0.012056
1.665978 0.009094
1.666532 0.011273
1.666663 -0.002047
1.666496 0.010640
1.666166 0.008099
1.666459 0.009921
1.000074 -0.000000
1.000014 0.000000
1.000042 0.000000
1.000033 -0.000000
1.664008 -0.000001
1.666535 0.009250
1.666226 0.007189
1.666527 0.008558
1.666335 0.006448
1.666508 0.007886
1.000028 -0.000000
1.000025 -0.000000
1.666576 0.007345
1.666345 0.005690
1.666529 0.006700
1.000022 -0.000000
1.000019 -0.000000
1.665346 0.000000
1.666459 0.005141
1.666577 0.006191
1.666440 0.004555
1.666586 0.005632
1.666528 0.004083
1.666598 0.005147
1.666512 0.003655
1.666557 0.004621
1.000016 -0.000000
1.000014 0.000000
1.000012 0.000000
1.666627 0.004258
1.666573 0.003284
1.666021 -0.000000
1.666613 0.003817
1.666544 0.002941
1.666907 0.002542
1.666598 0.002637
1.666627 0.003419
1.666609 0.002327
1.666609 0.003030
1.666630 0.001971
1.666706 0.002181
1.666628 0.001947
1.000011 -0.000000
1.000009 0.000000
1.000008 -0.000000
1.666648 0.002758
1.666356 -0.000000
1.666665 0.001666
1.000007 0.000000
1.000006 0.000000
1.666643 0.002400
1.666605 0.001739
1.666520 -0.000002
1.666603 0.001520
1.666626 0.002178
1.666636 0.001395
1.000005 0.000000
1.000004 -0.000000
1.000004 0.000000
1.666605 0.000004
1.000003 -0.000000
1.666654 0.001929
1.666653 0.000001
1.666643 0.001294
1.666656 0.001150
1.666647 0.001687
1.666654 0.001318
1.666637 0.000002
1.000003 -0.000000
1.000002 -0.000000
1.666665 0.001525
1.666653 0.000001
1.666634 0.000990
1.666632 0.000894
1.666661 0.000003
1.666678 0.000884
1.666647 0.000896
1.666680 0.001024
1.666660 0.001343
1.666650 0.000718
1.666668 0.000149
1.666659 0.000671
1.666688 0.000451
1.666661 0.000562
1.666664 0.000477
1.666657 0.000448
1.666660 0.000384
1.000002 -0.000000
1.666660 0.001227
1.666666 0.000019
1.666659 0.000596
1.666663 0.000234
1.666659 0.000221
1.666670 0.000246
1.666662 0.000258
1.666655 0.000323
1.666683 0.000193
1.666659 0.001083
1.666663 0.000153
1.666657 0.000211
1.666653 0.000211
1.000002 -0.000000
1.000001 -0.000000
1.666658 0.000140
1.666667 0.001095
1.666664 0.000001
1.666666 0.001013
1.000001 -0.000000
1.000001 -0.000000
1.666666 0.000000
1.000001 -0.000000
1.666666 -0.000000
1.000001 -0.000000
1.666667 -0.000000
1.000001 0.000000
1.666667 0.000000
1.000001 0.000000
1.666667 0.000000
1.000000 0.000000
1.666667 -0.000000
1.000000 0.000000
1.666667 -0.000000
1.000000 0.000000
1.000000 0.000000
1.666667 -0.000000
1.000000 0.000000
1.666667 0.000000
1.000000 0.000000
1.666667 0.000000
1.000000 0.000000
1.000000 0.000000
1.666667 0.000000
1.000000 -0.000000
1.666667 -0.000000
1.000000 -0.000000
1.000000 -0.000000
1.666667 0.000000
1.000000 0.000000
1.666667 -0.000000
1.000000 -0.000000
1.000000 0.000000
1.666667 -0.000000
1.000000 -0.000000
1.666667 0.000000
1.000000 0.000000
1.000000 0.000000
1.666667 -0.000000
1.000000 -0.000000
1.666667 0.000000
1.000000 0.000000
1.666667 0.000000
1.000000 0.000000
1.000000 -0.000000
1.666667 0.000000
1.000000 0.000000
1.666667 0.000000
1.000000 0.000000
1.000000 -0.000000
1.666667 -0.000000
1.000000 -0.000000
1.666667 0.000000
1.000000 0.000000
1.666667 -0.000000
1.000000 0.000000
1.666667 -0.000000
1.000000 0.000000
1.666667 0.000000
1.000000 0.000000
1.666667 0.000000
1.000000 0.000000
1.666667 0.000000
1.000000 0.000000
1.666667 -0.000000
1.000000 0.000000
1.666667 0.000000
1.000000 0.000000
1.666667 0.000000
1.000000 -0.000000
1.666667 0.000000
1.000000 -0.000000
1.666667 0.000000
1.000000 -0.000000
1.666667 0.000000
1.000000 -0.000000
1.666667 -0.000000
1.000000 -0.000000
1.666667 0.000000
1.000000 -0.000000
1.666667 -0.000000
1.000000 0.000000
1.666667 -0.000000
1.000000 0.000000
1.666667 -0.000000
1.000000 -0.000000
1.666667 -0.000000
1.000000 -0.000000
1.666667 0.000000
1.000000 0.000000
1.666667 0.000000
1.000000 0.000000
1.666667 -0.000000
1.000000 0.000000
1.666667 -0.000000
1.666667 -0.000000
1.000000 -0.000000
1.666667 0.000000
1.000000 0.000000
1.666667 0.000000
1.000000 0.000000
1.666667 0.000000
1.000000 -0.000000
1.666667 -0.000000
1.666667 0.000000
1.666667 0.000000
1.666667 0.000000
1.666667 0.000000
