0.100000	0.153459	0.006153
0.110000	0.168967	0.007400
0.110000	0.168967	0.007400
0.120000	0.184517	0.008741
0.140000	0.215757	0.011676
0.150000	0.231453	0.013257
0.160000	0.247204	0.014903
0.170000	0.263010	0.016608
0.180000	0.278875	0.018364
0.190000	0.294797	0.020165
0.200000	0.310779	0.022005
0.210000	0.326819	0.023877
0.220000	0.342917	0.025777
0.230000	0.359072	0.027699
0.270000	0.424236	0.035526
0.280000	0.440654	0.037501
0.300000	0.473629	0.041456
0.310000	0.490184	0.043433
0.320000	0.506780	0.045408
0.330000	0.523417	0.047379
0.340000	0.540094	0.049345
0.350000	0.556808	0.051307
0.360000	0.573560	0.053263
0.370000	0.590348	0.055212
0.380000	0.607172	0.057154
0.390000	0.624030	0.059089
0.400000	0.640921	0.061015
0.410000	0.657845	0.062933
0.420000	0.674802	0.064842
0.430000	0.691791	0.066741
0.440000	0.708811	0.068629
0.450000	0.725861	0.070507
0.460000	0.742941	0.072374
0.470000	0.760052	0.074229
0.480000	0.777191	0.076071
0.490000	0.794358	0.077900
0.520000	0.846026	0.083303
0.530000	0.863302	0.085075
0.540000	0.880604	0.086830
0.550000	0.897930	0.088569
0.560000	0.915282	0.090291
0.570000	0.932657	0.091996
0.580000	0.950055	0.093683
0.590000	0.967477	0.095351
0.610000	1.002385	0.098631
0.620000	1.019870	0.100241
0.630000	1.037376	0.101832
0.640000	1.054901	0.103401
0.650000	1.072445	0.104950
0.660000	1.090007	0.106478
0.670000	1.107587	0.107984
0.680000	1.125183	0.109468
0.690000	1.142796	0.110931
0.700000	1.160425	0.112371
0.710000	1.178069	0.113788
0.720000	1.195727	0.115183
0.730000	1.213398	0.116554
0.740000	1.231083	0.117903
0.750000	1.248781	0.119229
0.760000	1.266491	0.120531
0.770000	1.284212	0.121809
0.780000	1.301943	0.123065
0.790000	1.319686	0.124296
0.800000	1.337438	0.125504
0.830000	1.390747	0.128986
0.840000	1.408533	0.130100
0.850000	1.426326	0.131189
0.860000	1.444127	0.132255
0.870000	1.461933	0.133298
0.880000	1.479746	0.134317
0.890000	1.497564	0.135312
0.900000	1.515387	0.136284
0.910000	1.533215	0.137233
0.920000	1.551047	0.138159
0.940000	1.586723	0.139941
0.950000	1.604567	0.140798
0.980000	1.658113	0.143231
0.990000	1.675966	0.143998
1.010000	1.711678	0.145463
1.040000	1.765255	0.147497
1.050000	1.783115	0.148131
1.060000	1.800976	0.148744
1.080000	1.836697	0.149907
1.090000	1.854557	0.150456
1.100000	1.872417	0.150985
1.110000	1.890276	0.151492
1.120000	1.908135	0.151980
1.130000	1.925992	0.152447
1.140000	1.943848	0.152893
1.150000	1.961703	0.153319
1.160000	1.979556	0.153726
1.170000	1.997408	0.154112
1.180000	2.015258	0.154479
1.190000	2.033107	0.154826
1.200000	2.050953	0.155154
1.210000	2.068797	0.155462
1.220000	2.086639	0.155751
1.230000	2.104479	0.156021
1.240000	2.122316	0.156273
1.250000	2.140151	0.156505
1.260000	2.157983	0.156719
1.270000	2.175813	0.156915
1.280000	2.193640	0.157092
1.290000	2.211464	0.157251
1.300000	2.229285	0.157392
1.310000	2.247103	0.157514
1.320000	2.264918	0.157619
1.330000	2.282730	0.157707
1.340000	2.300539	0.157777
1.350000	2.318345	0.157829
1.360000	2.336147	0.157864
1.370000	2.353946	0.157882
1.380000	2.371741	0.157882
1.390000	2.389533	0.157866
1.400000	2.407322	0.157833
1.410000	2.425107	0.157783
1.420000	2.442888	0.157716
1.430000	2.460666	0.157633
1.440000	2.478440	0.157533
1.450000	2.496210	0.157418
1.460000	2.513977	0.157286
1.470000	2.531739	0.157137
1.480000	2.549498	0.156973
1.490000	2.567253	0.156793
1.510000	2.602752	0.156386
1.520000	2.620495	0.156159
1.540000	2.655970	0.155658
1.560000	2.691429	0.155097
1.570000	2.709152	0.154793
1.580000	2.726871	0.154475
1.590000	2.744586	0.154141
1.600000	2.762297	0.153793
1.630000	2.815404	0.152660
1.650000	2.850788	0.151832
1.660000	2.868474	0.151396
1.670000	2.886156	0.150946
1.680000	2.903833	0.150483
1.690000	2.921506	0.150005
1.700000	2.939174	0.149513
1.710000	2.956839	0.149007
1.720000	2.974498	0.148487
1.730000	2.992154	0.147954
1.740000	3.009805	0.147407
1.750000	3.027452	0.146846
1.770000	3.062733	0.145684
1.780000	3.080367	0.145083
1.790000	3.097996	0.144468
1.800000	3.115621	0.143841
1.810000	3.133242	0.143200
1.820000	3.150858	0.142546
1.850000	3.203680	0.140506
1.870000	3.238872	0.139082
1.900000	3.291627	0.136851
1.910000	3.309203	0.136082
1.920000	3.326774	0.135300
1.930000	3.344341	0.134507
1.950000	3.379461	0.132882
1.960000	3.397014	0.132052
1.970000	3.414563	0.131209
1.980000	3.432107	0.130355
1.990000	3.449647	0.129488
2.000000	3.467182	0.128609
2.010000	3.484713	0.127718
2.030000	3.519760	0.125902
2.070000	3.589800	0.122128
2.090000	3.624792	0.120171
2.110000	3.659766	0.118169
2.130000	3.694721	0.116122
2.150000	3.729658	0.114029
2.170000	3.764576	0.111893
2.190000	3.799475	0.109712
2.230000	3.869218	0.105219
2.250000	3.904061	0.102909
2.270000	3.938886	0.100555
2.290000	3.973691	0.098160
2.310000	4.008478	0.095722
2.330000	4.043246	0.093243
2.350000	4.077995	0.090723
2.370000	4.112726	0.088162
2.390000	4.147437	0.085561
2.410000	4.182130	0.082919
2.430000	4.216804	0.080238
2.450000	4.251459	0.077517
2.470000	4.286097	0.074758
2.490000	4.320717	0.071959
2.510000	4.355319	0.069121
2.530000	4.389905	0.066245
2.550000	4.424477	0.063330
2.570000	4.459035	0.060375
2.590000	4.493583	0.057381
2.610000	4.527955	0.054351
2.630000	4.562415	0.051286
2.650000	4.596845	0.048188
2.670000	4.631414	0.045071
2.690000	4.665865	0.041902
2.710000	4.700316	0.038696
2.730000	4.734492	0.035403
2.750000	4.768787	0.032117
2.770000	4.803407	0.028892
2.790000	4.837480	0.025418
2.810000	4.872037	0.022204
2.830000	4.906011	0.018536
2.850000	4.940305	0.015020
2.870000	4.974707	0.011524
