 0.80000000000000D+00
 0.60095000000000D+02  0.47945991517405D-13  0.48308210878724D-13  0.48814001002308D-13  0.49487641222391D-13  0.50351662729428D-13  0.51426262540192D-13  0.52728729905953D-13  0.54272898625579D-13  0.56068638971487D-13  0.58121397555400D-13
 0.60195000000000D+02  0.49413675971061D-13  0.49642178757147D-13  0.49982660784967D-13  0.50460948608093D-13  0.51101760438463D-13  0.51928103842312D-13  0.52960672440617D-13  0.54217254633856D-13  0.55712168238736D-13  0.57455730439941D-13
 0.60295000000000D+02  0.51073409866017D-13  0.51205759379339D-13  0.51416679829075D-13  0.51732817806111D-13  0.52180370289595D-13  0.52784481133201D-13  0.53568623174067D-13  0.54553978204221D-13  0.55758828470445D-13  0.57197970009715D-13
 0.60395000000000D+02  0.52882730207006D-13  0.52958940198804D-13  0.53079348703912D-13  0.53270674217314D-13  0.53559846469382D-13  0.53973416808114D-13  0.54536941209297D-13  0.55274347057750D-13  0.56207296754200D-13  0.57354559173665D-13
 0.60495000000000D+02  0.54795360169583D-13  0.54856873460878D-13  0.54928125989378D-13  0.55035158168719D-13  0.55204867742486D-13  0.55464448822954D-13  0.55840791280974D-13  0.56359850236931D-13  0.57045997722056D-13  0.57921368059773D-13
 0.60595000000000D+02  0.56762390406946D-13  0.56851021068562D-13  0.56915724306000D-13  0.56981129760846D-13  0.57073339250953D-13  0.57219408500523D-13  0.57446777980664D-13  0.57782660946709D-13  0.58253399402414D-13  0.58883799860379D-13
 0.60695000000000D+02  0.58733527492277D-13  0.58890393586150D-13  0.58991317430023D-13  0.59058821201761D-13  0.59117467156348D-13  0.59193394992917D-13  0.59313798422834D-13  0.59506347126502D-13  0.59798563161237D-13  0.60217163795325D-13
 0.60795000000000D+02  0.60658377628513D-13  0.60922851752064D-13  0.61101837678102D-13  0.61215107211087D-13  0.61284978692340D-13  0.61335921525316D-13  0.61394091585011D-13  0.61486801612020D-13  0.61641933690724D-13  0.61887305669113D-13
 0.60895000000000D+02  0.62487732858336D-13  0.62896437278014D-13  0.63193330442725D-13  0.63394861063405D-13  0.63520456483202D-13  0.63592204161666D-13  0.63634457536062D-13  0.63673368141635D-13  0.63736348876679D-13  0.63851479922521D-13
 0.60995000000000D+02  0.64174826944185D-13  0.64760698965441D-13  0.65212331301880D-13  0.65542361654927D-13  0.65766753066766D-13  0.65904560194568D-13  0.65977615430522D-13  0.66010134464095D-13  0.66028243764257D-13  0.66059440914967D-13
 0.61095000000000D+02  0.65676528862812D-13  0.66467980290806D-13  0.67107230551762D-13  0.67602715675973D-13  0.67966449513315D-13  0.68213880463212D-13  0.68363665604903D-13  0.68437359539860D-13  0.68459017888492D-13  0.68454725578622D-13
 0.61195000000000D+02  0.66954443451708D-13  0.67974635595733D-13  0.68829590333766D-13  0.69523258587676D-13  0.70063320907078D-13  0.70461138016112D-13  0.70731618454484D-13  0.70892998405971D-13  0.70966531067233D-13  0.70976094701621D-13
 0.61295000000000D+02  0.67975891115219D-13  0.69242143840864D-13  0.70335380738235D-13  0.71254898643950D-13  0.72003771283140D-13  0.72588894608168D-13  0.73020951064400D-13  0.73314285781566D-13  0.73486689475842D-13  0.73559096049957D-13
 0.61395000000000D+02  0.68714741585997D-13  0.70238091497564D-13  0.71586103336414D-13  0.72753369655064D-13  0.73738201393910D-13  0.74542766577934D-13  0.75173151860630D-13  0.75639337991748D-13  0.75955081519069D-13  0.76137709428912D-13
 0.61495000000000D+02  0.69152080463924D-13  0.70936999492416D-13  0.72549773466050D-13  0.73980360519726D-13  0.75222274395559D-13  0.76272812689381D-13  0.77133213853074D-13  0.77808732320005D-13  0.78308621744557D-13  0.78646031694221D-13
 0.61595000000000D+02  0.69276691524587D-13  0.71320973101041D-13  0.73201736201962D-13  0.74904492698915D-13  0.76418047151982D-13  0.77734808516148D-13  0.78851038356465D-13  0.79767023476051D-13  0.80487160837277D-13  0.81019958703954D-13
 0.61695000000000D+02  0.69085342493619D-13  0.71380158208256D-13  0.73525295188785D-13  0.75502120686597D-13  0.77294938285148D-13  0.78891374844136D-13  0.80282713361769D-13  0.81464158472215D-13  0.82435020600334D-13  0.83198821280446D-13
 0.61795000000000D+02  0.68582867001337D-13  0.71112992295777D-13  0.73512138290823D-13  0.75757935050988D-13  0.77830508268502D-13  0.79712931295998D-13  0.81391633932256D-13  0.82856753796254D-13  0.84102414743121D-13  0.85126933425820D-13
 0.61895000000000D+02  0.67782040635876D-13  0.70526243759853D-13  0.73162549201589D-13  0.75665352660213D-13  0.78011031658266D-13  0.80178450843375D-13  0.82149436032602D-13  0.83909202285413D-13  0.85446719213989D-13  0.86755013274958D-13
 0.61995000000000D+02  0.66703254269366D-13  0.69634838565571D-13  0.72485399620528D-13  0.75226684139357D-13  0.77831846863706D-13  0.80275995955786D-13  0.82536719962950D-13  0.84594581455466D-13  0.86433559656845D-13  0.88041440519267D-13
 0.62095000000000D+02  0.65373993006558D-13  0.68461478673719D-13  0.71497922206989D-13  0.74453074293432D-13  0.77297474536471D-13  0.80003022709233D-13  0.82543544941132D-13  0.84895340108119D-13  0.87037688241172D-13  0.88953318210316D-13
 0.62195000000000D+02  0.63828134066721D-13  0.67036061991570D-13  0.70225270118296D-13  0.73364217027288D-13  0.76421501566166D-13  0.79366445100931D-13  0.82169682218284D-13  0.84803745700922D-13  0.87243627493200D-13  0.89467311847686D-13
 0.62295000000000D+02  0.62105081531103D-13  0.65394918664938D-13  0.68699874386897D-13  0.71987852050727D-13  0.75226233653448D-13  0.78382457937956D-13  0.81424620276795D-13  0.84322081071096D-13  0.87046064704941D-13  0.89570244342328D-13
 0.62395000000000D+02  0.60248760052053D-13  0.63579883216370D-13  0.66960615551736D-13  0.70359056227867D-13  0.73742125340256D-13  0.77076122830950D-13  0.80327321988049D-13  0.83462585502804D-13  0.86449986865350D-13  0.89259431679951D-13
 0.62495000000000D+02  0.58306493219718D-13  0.61637226223870D-13  0.65051830699770D-13  0.68519347671781D-13  0.72007002058190D-13  0.75480727871864D-13  0.78905739939170D-13  0.82247141653147D-13  0.85470552681535D-13  0.88542750728981D-13
 0.62595000000000D+02  0.56327795226164D-13  0.59616472819261D-13  0.63022181273959D-13  0.66515625464743D-13  0.70065094065243D-13  0.73636937352385D-13  0.77196102311511D-13  0.80706716339348D-13  0.84132704968841D-13  0.87438437475450D-13
 0.62695000000000D+02  0.54363106679457D-13  0.57569138173785D-13  0.60923410557209D-13  0.64398972079286D-13  0.67965906942461D-13  0.71591753239565D-13  0.75241987551125D-13  0.78880569472657D-13  0.82470533315585D-13  0.85974620848146D-13
 0.62795000000000D+02  0.52462506845072D-13  0.55547412256960D-13  0.58809022556991D-13  0.62223349078777D-13  0.65762957493183D-13  0.69397314930068D-13  0.73093211463181D-13  0.76815251343100D-13  0.80526403302502D-13  0.84188604046251D-13
 0.62895000000000D+02  0.50674435192453D-13  0.53602827448720D-13  0.56732916020866D-13  0.60044219399141D-13  0.63512407321866D-13  0.67109567931768D-13  0.70804555150374D-13  0.74563413862069D-13  0.78349874515739D-13  0.82125911726286D-13
 0.62995000000000D+02  0.49044454885325D-13  0.51784943021482D-13  0.54748008457594D-13  0.57917131386333D-13  0.61271628979863D-13  0.64786835465844D-13  0.68434366277381D-13  0.72182466118732D-13  0.75996434983572D-13  0.79839127381353D-13
 0.63095000000000D+02  0.47614089781684D-13  0.50140080076512D-13  0.52904885292526D-13  0.55896300739264D-13  0.59097741285334D-13  0.62488329458893D-13  0.66043069375633D-13  0.69733108579833D-13  0.73526084352924D-13  0.77386550600861D-13
 0.63195000000000D+02  0.46419764630810D-13  0.48710139229127D-13  0.51250508642928D-13  0.54033226560219D-13  0.57046151209888D-13  0.60272638939871D-13  0.63691623222782D-13  0.67277783359115D-13  0.71001801982489D-13  0.74830708496338D-13
 0.63295000000000D+02  0.45491875518317D-13  0.47531531222801D-13  0.49827018675168D-13  0.52375376842740D-13  0.55169139555642D-13  0.58196234431715D-13  0.61439964680134D-13  0.64879080123322D-13  0.68487939065941D-13  0.72236759301100D-13
 0.63395000000000D+02  0.44854014283563D-13  0.46634247767282D-13  0.48670658140227D-13  0.50964976952785D-13  0.53514526527119D-13  0.56312026517559D-13  0.59345478714925D-13  0.62598138331966D-13  0.66048575836375D-13  0.69670828903058D-13
 0.63495000000000D+02  0.44522366701624D-13  0.46041096314317D-13  0.47810847537383D-13  0.49837932027783D-13  0.52124451261351D-13  0.54668015377042D-13  0.57461533663912D-13  0.60493086599278D-13  0.63745885792288D-13  0.67198322780505D-13
 0.63595000000000D+02  0.44505299784900D-13  0.45767118297907D-13  0.47269434508581D-13  0.49022910797495D-13  0.51034296468661D-13  0.53306065764391D-13  0.55836119127578D-13  0.58617559016843D-13  0.61638548703637D-13  0.64882256436525D-13
 0.63695000000000D+02  0.44803148730307D-13  0.45819205681189D-13  0.47060136616449D-13  0.48540614207614D-13  0.50271785630183D-13  0.52260838696082D-13  0.54510621262703D-13  0.57019326308717D-13  0.59780252908761D-13  0.62781646952918D-13
 0.63795000000000D+02  0.45408208940272D-13  0.46195925588445D-13  0.47188191720710D-13  0.48403247507464D-13  0.49856275791035D-13  0.51558907113500D-13  0.53518766731979D-13  0.55739076757639D-13  0.58218325131113D-13  0.60950006721567D-13
 0.63895000000000D+02  0.46304933309418D-13  0.46887557487721D-13  0.47650224866967D-13  0.48614209267434D-13  0.49798263992805D-13  0.51218078087483D-13  0.52885762262129D-13  0.54809378015951D-13  0.56992522787428D-13  0.59433977800153D-13
 0.63995000000000D+02  0.47470329727714D-13  0.47876341962497D-13  0.48434335073734D-13  0.49168005252741D-13  0.50099119933452D-13  0.51246938856964D-13  0.52627651766643D-13  0.54253846295602D-13  0.56134019609075D-13  0.58272141746877D-13
 0.64095000000000D+02  0.48874548638881D-13  0.49136934708482D-13  0.49520399789186D-13  0.50050389339019D-13  0.50751051666181D-13  0.51644638278021D-13  0.52750907433269D-13  0.54086544135951D-13  0.55664610461855D-13  0.57494035307249D-13
 0.64195000000000D+02  0.50481645640619D-13  0.50637054151851D-13  0.50880589231691D-13  0.51238727858628D-13  0.51737305198822D-13  0.52400909248529D-13  0.53252265201881D-13  0.54311622111142D-13  0.55596155652250D-13  0.57119397069335D-13
 0.64295000000000D+02  0.52250499644725D-13  0.52338306142005D-13  0.52480077469659D-13  0.52702578062261D-13  0.53032592883640D-13  0.53496331520959D-13  0.54118808817914D-13  0.54923213609756D-13  0.55930278892972D-13  0.57157664306190D-13
 0.64395000000000D+02  0.54135863144523D-13  0.54197164651555D-13  0.54277932073530D-13  0.54404465914170D-13  0.54603739646590D-13  0.54902828178598D-13  0.55328300299804D-13  0.55905585357414D-13  0.56658326623578D-13  0.57607732836101D-13
 0.64495000000000D+02  0.56089517765456D-13  0.56166083434153D-13  0.56228159614146D-13  0.56300843350493D-13  0.56410530543855D-13  0.56584383085324D-13  0.56849748367752D-13  0.57233539823196D-13  0.57761589708612D-13  0.58457986015505D-13
 0.64595000000000D+02  0.58061505588255D-13  0.58194710248656D-13  0.58280880303765D-13  0.58343200548982D-13  0.58406737994117D-13  0.58497960978128D-13  0.58644200306319D-13  0.58873059219943D-13  0.59211781836514D-13  0.59686592107802D-13
 0.64695000000000D+02  0.60001404801246D-13  0.60231172641173D-13  0.60383601780259D-13  0.60479304801814D-13  0.60541302448483D-13  0.60594606698844D-13  0.60665737029853D-13  0.60782174641016D-13  0.60971762388804D-13  0.61262062419022D-13
 0.64795000000000D+02  0.61859617108309D-13  0.62223402451478D-13  0.62482559505563D-13  0.62654534352267D-13  0.62759636343713D-13  0.62820695489004D-13  0.62862645932940D-13  0.62912038129210D-13  0.62996485308051D-13  0.63144055933816D-13
 0.64895000000000D+02  0.63588634020742D-13  0.64120465223594D-13  0.64524089550769D-13  0.64813273133368D-13  0.65005018038258D-13  0.65119302416199D-13  0.65178741570427D-13  0.65208170293877D-13  0.65234149724357D-13  0.65284409892410D-13
 0.64995000000000D+02  0.65144249702256D-13  0.65873860577133D-13  0.66455998715585D-13  0.66900330793898D-13  0.67220040135168D-13  0.67431655960344D-13  0.67554800438801D-13  0.67611851612086D-13  0.67627522950599D-13  0.67628369981897D-13
 0.65095000000000D+02  0.66486689402898D-13  0.67438760339415D-13  0.68228897000160D-13  0.68862351753853D-13  0.69348075209570D-13  0.69698638641416D-13  0.69930073219305D-13  0.70061621882999D-13  0.70115402057853D-13  0.70115988720588D-13
 0.65195000000000D+02  0.67581624674871D-13  0.68775152829496D-13  0.69797458410656D-13  0.70649177314064D-13  0.71334721516603D-13  0.71862296371526D-13  0.72243835867436D-13  0.72494849545311D-13  0.72634176706421D-13  0.72683656322165D-13
 0.65295000000000D+02  0.68401049455914D-13  0.69848864083325D-13  0.71121577911808D-13  0.72215126045553D-13  0.73129191769390D-13  0.73867317993992D-13  0.74436939944000D-13  0.74849330786028D-13  0.75119453324921D-13  0.75265724946426D-13
 0.65395000000000D+02  0.68923994660177D-13  0.70632429953228D-13  0.72167394993326D-13  0.73520159772977D-13  0.74685609532740D-13  0.75662447236006D-13  0.76453322604849D-13  0.77064877610580D-13  0.77507699165917D-13  0.77796184861641D-13
 0.65495000000000D+02  0.69137063041546D-13  0.71105796824256D-13  0.72908157724561D-13  0.74530905389554D-13  0.75964180139369D-13  0.77201791029791D-13  0.78241437699223D-13  0.79084854328709D-13  0.79737864261506D-13  0.80210349720741D-13
 0.65595000000000D+02  0.69034770684803D-13  0.71256833067527D-13  0.73324905246410D-13  0.75221506423757D-13  0.76932206241309D-13  0.78445990805625D-13  0.79755571443683D-13  0.80857623230434D-13  0.81752939869172D-13  0.82446507923436D-13
 0.65695000000000D+02  0.68619686418591D-13  0.71081638184426D-13  0.73406951286794D-13  0.75574282626646D-13  0.77564922077910D-13  0.79363226860995D-13  0.80957009088363D-13  0.82337862547812D-13  0.83501413622488D-13  0.84447497904917D-13
 0.65795000000000D+02  0.67902365604784D-13  0.70584641762272D-13  0.73152156367839D-13  0.75580180752023D-13  0.77846125172145D-13  0.79930030174037D-13  0.81815022799108D-13  0.83487723061843D-13  0.84938584241486D-13  0.86162167136841D-13
 0.65895000000000D+02  0.66901080009801D-13  0.69778489729542D-13  0.72566981769170D-13  0.75239005034225D-13  0.77768589340570D-13  0.80131880947535D-13  0.82307655545914D-13  0.84277793836099D-13  0.86027702246068D-13  0.87546677598150D-13
 0.65995000000000D+02  0.65641350670451D-13  0.68683720830261D-13  0.71666323884868D-13  0.74559421494307D-13  0.77334248487112D-13  0.79963578616388D-13  0.82422280998186D-13  0.84687852434238D-13  0.86740907560946D-13  0.88565624396075D-13
 0.66095000000000D+02  0.64155295696991D-13  0.67328241593710D-13  0.70473133219178D-13  0.73558735980679D-13  0.76554146504217D-13  0.79429373887694D-13  0.82155925147683D-13  0.84707380482881D-13  0.87059940088659D-13  0.89192938990935D-13
 0.66195000000000D+02  0.62480809680716D-13  0.65746613220578D-13  0.69017827764955D-13  0.72262451627708D-13  0.75448154577271D-13  0.78542859459247D-13  0.81515341464721D-13  0.84335831433862D-13  0.86976605125593D-13  0.89412553980196D-13
 0.66295000000000D+02  0.60660595671800D-13  0.63979168608455D-13  0.67337515758643D-13  0.70703617047749D-13  0.74044463127101D-13  0.77326622224166D-13  0.80516837686696D-13  0.83582643707662D-13  0.86492981756604D-13  0.89218812487001D-13
 0.66395000000000D+02  0.58741074455582D-13  0.62070982075481D-13  0.65475047672117D-13  0.68921981914796D-13  0.72378861379115D-13  0.75811665859199D-13  0.79185858679654D-13  0.82466998901332D-13  0.85621368926923D-13  0.88616611720413D-13
 0.66495000000000D+02  0.56771198986139D-13  0.60070718100245D-13  0.63477921660771D-13  0.66962981515078D-13  0.70493822969500D-13  0.74036618556425D-13  0.77556336041512D-13  0.81017331253370D-13  0.84383970588047D-13  0.87621277062530D-13
 0.66595000000000D+02  0.54801204255133D-13  0.58029388482763D-13  0.61397070427195D-13  0.64876576205726D-13  0.68437420950300D-13  0.72046746143050D-13  0.75669821070524D-13  0.79270600908677D-13  0.82812327976256D-13  0.86258169918024D-13
 0.66695000000000D+02  0.52881324520100D-13  0.55999049666916D-13  0.59285560485332D-13  0.62715975425620D-13  0.66262099909866D-13  0.69892795801725D-13  0.73574423252698D-13  0.77271349556643D-13  0.80946513538102D-13  0.84562039358968D-13
 0.66795000000000D+02  0.51060510647720D-13  0.54031473489811D-13  0.57197237043876D-13  0.60536278848065D-13  0.64023336571729D-13  0.67629699927547D-13  0.71323581386027D-13  0.75070562570644D-13  0.78834107101966D-13  0.82576134138574D-13
 0.66895000000000D+02  0.49385180323041D-13  0.52176825299426D-13  0.55185349113109D-13  0.58393069377769D-13  0.61778223080267D-13  0.65315173227153D-13  0.68974698730781D-13  0.72724366716016D-13  0.76528980453021D-13  0.80351097764537D-13
 0.66995000000000D+02  0.47898033034963D-13  0.50482383191595D-13  0.53301189941306D-13  0.56340993921041D-13  0.59584009152923D-13  0.63008238889009D-13  0.66587677044883D-13  0.70292596689851D-13  0.74089921358967D-13  0.77943674860046D-13
 0.67095000000000D+02  0.46636960092846D-13  0.48991331065703D-13  0.51592787492679D-13  0.54432368166922D-13  0.57496640325855D-13  0.60767721462436D-13  0.64223386942851D-13  0.67837267102724D-13  0.71579132190742D-13  0.75415261856585D-13
 0.67195000000000D+02  0.45634077500666D-13  0.47741656312161D-13  0.50103678398914D-13  0.52715841000748D-13  0.55569329616176D-13  0.58650744929871D-13  0.61942113640028D-13  0.65420988924279D-13  0.69060641481769D-13  0.72830339034734D-13
 0.67295000000000D+02  0.44914906375581D-13  0.46765180271545D-13  0.48871796683250D-13  0.51235152646288D-13  0.53851199067233D-13  0.56711274320863D-13  0.59802017769392D-13  0.63105370829960D-13  0.66598668989446D-13  0.70254823955771D-13
 0.67395000000000D+02  0.44497721827099D-13  0.46086746213246D-13  0.47928505624111D-13  0.50028018237267D-13  0.52386025855879D-13  0.54998738100919D-13  0.57857650570045D-13  0.60949446268731D-13  0.64255986006953D-13  0.67754388330957D-13
 0.67495000000000D+02  0.44393086907925D-13  0.45723585556900D-13  0.47297797468970D-13  0.49125165314899D-13  0.51211124968241D-13  0.53556766502398D-13  0.56158561354634D-13  0.59008166411746D-13  0.62092312791750D-13  0.65392781305844D-13
 0.67595000000000D+02  0.44603583518262D-13  0.45684878505574D-13  0.46995681421524D-13  0.48549549816524D-13  0.50356396961586D-13  0.52422078001267D-13  0.54748032803180D-13  0.57330997456300D-13  0.60162794026335D-13  0.63230201970011D-13
 0.67695000000000D+02  0.45123747113377D-13  0.45971520292199D-13  0.47029775515610D-13  0.48315770561707D-13  0.49843565113339D-13  0.51623542358529D-13  0.53661976363651D-13  0.55960658091339D-13  0.58516591231150D-13  0.61321762642683D-13
 0.67795000000000D+02  0.45940206858639D-13  0.46576098987477D-13  0.47399112780501D-13  0.48429697172223D-13  0.49685621421681D-13  0.51181444135338D-13  0.52928015948838D-13  0.54932029348568D-13  0.57195628059927D-13  0.59716082163735D-13
 0.67895000000000D+02  0.47032027630377D-13  0.47483085413146D-13  0.48094166627552D-13  0.48888320910577D-13  0.49886495588505D-13  0.51106965471107D-13  0.52564783309399D-13  0.54271264658656D-13  0.56233520500841D-13  0.58454045096936D-13
 0.67995000000000D+02  0.48371245108874D-13  0.48669230287731D-13  0.49097094788053D-13  0.49679832227315D-13  0.50440955420693D-13  0.51401901314872D-13  0.52581443057033D-13  0.53995122817869D-13  0.55654719282434D-13  0.57567758512800D-13
 0.68095000000000D+02  0.49923580282958D-13  0.50104158441299D-13  0.50382195550058D-13  0.50783923016248D-13  0.51334741175109D-13  0.52058614364266D-13  0.52977459447638D-13  0.54110540877503D-13  0.55473886362539D-13  0.57079732970525D-13
 0.68195000000000D+02  0.51649315109236D-13  0.51751144906570D-13  0.51916564621108D-13  0.52172305837112D-13  0.52544930397279D-13  0.53060230845042D-13  0.53742610861301D-13  0.54614457841971D-13  0.55695521399822D-13  0.57002308591346D-13
 0.68295000000000D+02  0.53504306959214D-13  0.53568053054015D-13  0.53660935822767D-13  0.53809436824383D-13  0.54040523916533D-13  0.54381072113369D-13  0.54857251591327D-13  0.55493893657625D-13  0.56313847724017D-13  0.57337340855762D-13
 0.68395000000000D+02  0.55441115948553D-13  0.55508410806241D-13  0.55570684132548D-13  0.55653423800902D-13  0.55783238012205D-13  0.55987311040277D-13  0.56292814239500D-13  0.56726281456479D-13  0.57312960695321D-13  0.58076154124554D-13
 0.68495000000000D+02  0.57410216364289D-13  0.57522597446807D-13  0.57596965448474D-13  0.57657096388616D-13  0.57728482501201D-13  0.57837836396903D-13  0.58012539870531D-13  0.58280044552984D-13  0.58667234644561D-13  0.59199764047727D-13
 0.68595000000000D+02  0.59361261261145D-13  0.59559110719722D-13  0.59687963966315D-13  0.59769210776738D-13  0.59826499751619D-13  0.59885303147679D-13  0.59972417262271D-13  0.60115403442741D-13  0.60341977984479D-13  0.60679363160907D-13
 0.68695000000000D+02  0.61244367941910D-13  0.61565881869713D-13  0.61790215317630D-13  0.61935758375007D-13  0.62023635521600D-13  0.62077341812523D-13  0.62122307248724D-13  0.62185392179115D-13  0.62294319746772D-13  0.62477057250216D-13
 0.68795000000000D+02  0.63011391504051D-13  0.63491605051796D-13  0.63849971687432D-13  0.64101344933433D-13  0.64263709161685D-13  0.64357895999986D-13  0.64407223427045D-13  0.64437058157211D-13  0.64474304891121D-13  0.64546833665423D-13
 0.68895000000000D+02  0.64617153939563D-13  0.65287047173096D-13  0.65814574062271D-13  0.66210604916732D-13  0.66489448188132D-13  0.66668653944908D-13  0.66768736508822D-13  0.66812814651742D-13  0.66826170402031D-13  0.66835736840257D-13
 0.68995000000000D+02  0.66020597410140D-13  0.66906304729842D-13  0.67633796579875D-13  0.68209615026569D-13  0.68643950597589D-13  0.68950537489658D-13  0.69146466442092D-13  0.69251911555846D-13  0.69289769573418D-13  0.69285220989184D-13
 0.69095000000000D+02  0.67185832256578D-13  0.68307975555862D-13  0.69261128664896D-13  0.70047270790244D-13  0.70672137591375D-13  0.71145210487926D-13  0.71479624194444D-13  0.71691986752244D-13  0.71802108097789D-13  0.71832645426791D-13
 0.69195000000000D+02  0.68083052990584D-13  0.69456215571684D-13  0.70654962224009D-13  0.71676591079581D-13  0.72522159627480D-13  0.73196568120969D-13  0.73708563825805D-13  0.74070658493181D-13  0.74298952723631D-13  0.74412874314998D-13
 0.69295000000000D+02  0.68689298889972D-13  0.70321653560407D-13  0.71779653597596D-13  0.73055917264750D-13  0.74146719913524D-13  0.75052169109650D-13  0.75776305223782D-13  0.76327118124076D-13  0.76716471394723D-13  0.76959939978075D-13
 0.69395000000000D+02  0.68989039788109D-13  0.70882140622914D-13  0.72606433163164D-13  0.74149976397925D-13  0.75504281563673D-13  0.76664574268462D-13  0.77629988630362D-13  0.78403682483725D-13  0.78992862985742D-13  0.79408727304443D-13
 0.69495000000000D+02  0.68974572113556D-13  0.71123315188052D-13  0.73114139376223D-13  0.74930781293026D-13  0.76560127613275D-13  0.77992557242092D-13  0.79222223836315D-13  0.80247266350605D-13  0.81069935020182D-13  0.81696636219342D-13
 0.69595000000000D+02  0.68646215081767D-13  0.71038969164708D-13  0.73289758518276D-13  0.75378344532167D-13  0.77287246841477D-13  0.79002156529935D-13  0.80512299613450D-13  0.81810737353145D-13  0.82894589091717D-13  0.83765179777339D-13
 0.69695000000000D+02  0.68012302043462D-13  0.70631205901591D-13  0.73128756384152D-13  0.75481188180998D-13  0.77667022799004D-13  0.79667541956189D-13  0.81467222525895D-13  0.83054118768420D-13  0.84420176073956D-13  0.85561477073807D-13
 0.69795000000000D+02  0.67088967223871D-13  0.69910385936834D-13  0.72635193454882D-13  0.75236636212316D-13  0.77689708462676D-13  0.79971673479997D-13  0.82062558618688D-13  0.83945609521443D-13  0.85607686534732D-13  0.87039602867154D-13
 0.69895000000000D+02  0.65899733310167D-13  0.68894861937431D-13  0.71821620631565D-13  0.74650882186887D-13  0.77354674412083D-13  0.79906735541163D-13  0.82283056514359D-13  0.84462395366423D-13  0.86426745983886D-13  0.88161759469163D-13
 0.69995000000000D+02  0.64474910428235D-13  0.67610509609908D-13  0.70708758208574D-13  0.73738830479875D-13  0.76670424207309D-13  0.79474335867565D-13  0.82123036028059D-13  0.84591230563093D-13  0.86856389569834D-13  0.88899241004972D-13
 0.70095000000000D+02  0.62850821864858D-13  0.66090066571506D-13  0.69324966297987D-13  0.72523715123805D-13  0.75654376591620D-13  0.78685463684270D-13  0.81586532397217D-13  0.84328775219752D-13  0.86885596472589D-13  0.89233165450049D-13
 0.70195000000000D+02  0.61068876314614D-13  0.64372296072978D-13  0.67705520240284D-13  0.71036506016500D-13  0.74332420097415D-13  0.77560208408017D-13  0.80687192460558D-13  0.83681679711176D-13  0.86513570375754D-13  0.89154955783286D-13
 0.70295000000000D+02  0.59174510348840D-13  0.62500996934997D-13  0.65891709513524D-13  0.69315117670052D-13  0.72738251444786D-13  0.76127246026821D-13  0.79447925454300D-13  0.82666414035430D-13  0.85749758881205D-13  0.88666558001245D-13
 0.70395000000000D+02  0.57216028116621D-13  0.60523884985919D-13  0.63929783157997D-13  0.67403440716327D-13  0.70912514641301D-13  0.74423106296295D-13  0.77900317358763D-13  0.81308846484585D-13  0.84613611393103D-13  0.87780390455669D-13
 0.70495000000000D+02  0.55243367909633D-13  0.58491374568732D-13  0.61869768650740D-13  0.65350220907561D-13  0.68901762778115D-13  0.72491239479959D-13  0.76083823765953D-13  0.79643582404196D-13  0.83134081672886D-13  0.86519025833518D-13
 0.70595000000000D+02  0.53306827086899D-13  0.56455291235027D-13  0.59764194394373D-13  0.63207814242295D-13  0.66757269041843D-13  0.70380906477268D-13  0.74044761893338D-13  0.77713079941712D-13  0.81348887784286D-13  0.84914613921890D-13
 0.70695000000000D+02  0.51455777914609D-13  0.54467548498440D-13  0.57666748444420D-13  0.61030850007989D-13  0.64533717308693D-13  0.68145920689756D-13  0.71835127496051D-13  0.75566565377628D-13  0.79303548340632D-13  0.83008059915562D-13
 0.70795000000000D+02  0.49737407103796D-13  0.52578822434115D-13  0.55630907725569D-13  0.58874835881374D-13  0.62287805759449D-13  0.65843273758040D-13  0.69511266898266D-13  0.73258775749546D-13  0.77050219677516D-13  0.80847979264194D-13
 0.70895000000000D+02  0.48195511219760D-13  0.50837257961434D-13  0.53708572737943D-13  0.56794740705487D-13  0.60076799172686D-13  0.63531680264273D-13  0.67132438060442D-13  0.70848560887057D-13  0.74646363655955D-13  0.78489455760110D-13
 0.70995000000000D+02  0.46869378708153D-13  0.49287239833838D-13  0.51948742610528D-13  0.54843591130198D-13  0.57957066862324D-13  0.61270078560913D-13  0.64759297428683D-13  0.68397380562078D-13  0.72153280124145D-13  0.75992634590080D-13
 0.71095000000000D+02  0.45792787070294D-13  0.47968259703766D-13  0.50396264324190D-13  0.53071117945951D-13  0.55982643590358D-13  0.59116126004665D-13  0.62452351203974D-13  0.65967735133530D-13  0.69634541519074D-13  0.73421186287013D-13
 0.71195000000000D+02  0.44993140781159D-13  0.46913908175385D-13  0.49090688028562D-13  0.51522486667575D-13  0.54203850196593D-13  0.57124727015439D-13  0.60270410574509D-13  0.63621569759342D-13  0.67154369584461D-13  0.70840680811663D-13
 0.71295000000000D+02  0.44490771951895D-13  0.46151017566148D-13  0.48065257664686D-13  0.50237144769341D-13  0.52666009159108D-13  0.55346631540039D-13  0.58269090350796D-13  0.61418692919904D-13  0.64775995655272D-13  0.68316913286137D-13
 0.71395000000000D+02  0.44298421585676D-13  0.45698977251383D-13  0.47346062648702D-13  0.49247814989687D-13  0.51408287871153D-13  0.53827139700064D-13  0.56499389333027D-13  0.59415249628648D-13  0.62560046374436D-13  0.65914224131535D-13
 0.71495000000000D+02  0.44420914666358D-13  0.45569239061867D-13  0.46951372259501D-13  0.48579660391249D-13  0.50462699154703D-13  0.52604945688827D-13  0.55006388651205D-13  0.57662288306657D-13  0.60562996054151D-13  0.63693856500541D-13
 0.71595000000000D+02  0.44855037370891D-13  0.45765025354131D-13  0.46891169709949D-13  0.48249642475031D-13  0.49853284512087D-13  0.51711150422459D-13  0.53828101303620D-13  0.56204457904700D-13  0.58835725189497D-13  0.61712392939096D-13
 0.71695000000000D+02  0.45589619535209D-13  0.46281247200259D-13  0.47166897785334D-13  0.48266088718778D-13  0.49595500948539D-13  0.51168468137199D-13  0.52994502255179D-13  0.55078868528279D-13  0.57422221919304D-13  0.60020311184563D-13
 0.71795000000000D+02  0.46605820261280D-13  0.47104634779663D-13  0.47771422533434D-13  0.48628480564500D-13  0.49695826999861D-13  0.50990647169167D-13  0.52526763842775D-13  0.54314144643855D-13  0.56358459577425D-13  0.58660695962898D-13
 0.71895000000000D+02  0.47877609364884D-13  0.48214076636843D-13  0.48689215925073D-13  0.49327467254368D-13  0.50151598003516D-13  0.51182119681961D-13  0.52436715988653D-13  0.53929695023739D-13  0.55671478979288D-13  0.57668139662039D-13
 0.71995000000000D+02  0.49372432362443D-13  0.49581159135116D-13  0.49896752813895D-13  0.50345105150568D-13  0.50951074800895D-13  0.51737889261544D-13  0.52726544979564D-13  0.53935218049279D-13  0.55378698858473D-13  0.57067859934336D-13
 0.72095000000000D+02  0.51052042009155D-13  0.51170892323663D-13  0.51363112052225D-13  0.51655316419574D-13  0.52073744101726D-13  0.52643659226156D-13  0.53388738476638D-13  0.54330454978876D-13  0.55487472039394D-13  0.56875056740028D-13
 0.72195000000000D+02  0.52873475149376D-13  0.52942603675246D-13  0.53050766406405D-13  0.53224555361329D-13  0.53490842829827D-13  0.53876198356191D-13  0.54406278134503D-13  0.55105197453572D-13  0.55994898654253D-13  0.57094525227665D-13
 0.72295000000000D+02  0.54790149932001D-13  0.54850976866382D-13  0.54916541093770D-13  0.55012665362045D-13  0.55166093052921D-13  0.55403934690777D-13  0.55753074888561D-13  0.56239549020756D-13  0.56887901146228D-13  0.57720534312127D-13
 0.72395000000000D+02  0.56753055372499D-13  0.56847209070262D-13  0.56912716458185D-13  0.56973904581756D-13  0.57056628723645D-13  0.57187762218275D-13  0.57394635777230D-13  0.57704433972201D-13  0.58143559114922D-13  0.58736974023768D-13
 0.72495000000000D+02  0.58712002887056D-13  0.58880257209181D-13  0.58988246622097D-13  0.59058114179303D-13  0.59114090561667D-13  0.59182039854723D-13  0.59288945258653D-13  0.59462340481324D-13  0.59729695425715D-13  0.60117767837331D-13
 0.72595000000000D+02  0.60616907842730D-13  0.60898141344368D-13  0.61090062994180D-13  0.61211999238780D-13  0.61285861113735D-13  0.61335757196127D-13  0.61387538508697D-13  0.61468279046939D-13  0.61605698591596D-13  0.61827539422615D-13
 0.72695000000000D+02  0.62419068400861D-13  0.62849271924088D-13  0.63164429347951D-13  0.63380489685732D-13  0.63516408449610D-13  0.63593837272890D-13  0.63636739288207D-13  0.63670931758311D-13  0.63723560407557D-13  0.63822516763971D-13
 0.72795000000000D+02  0.64072408999248D-13  0.64683767002615D-13  0.65158313872774D-13  0.65508146441910D-13  0.65748704179403D-13  0.65898543037022D-13  0.65979030767310D-13  0.66013963028538D-13  0.66029102327040D-13  0.66051650538338D-13
 0.72895000000000D+02  0.65534656720533D-13  0.66354725798516D-13  0.67020743167327D-13  0.67540576915594D-13  0.67925679582587D-13  0.68190951664990D-13  0.68354524300780D-13  0.68437458323745D-13  0.68463359256319D-13  0.68457918176116D-13
 0.72995000000000D+02  0.66768420507626D-13  0.67819426074747D-13  0.68704103607565D-13  0.69425823689126D-13  0.69991682669175D-13  0.70412459029383D-13  0.70702488648216D-13  0.70879454149548D-13  0.70964085428122D-13  0.70979780294231D-13
 0.73095000000000D+02  0.67742145668469D-13  0.69040414767333D-13  0.70165356864730D-13  0.71115690951746D-13  0.71893898973378D-13  0.72506275925191D-13  0.72962900590813D-13  0.73277520227372D-13  0.73467343902225D-13  0.73552752306293D-13
 0.73195000000000D+02  0.68430919298736D-13  0.69986464015104D-13  0.71367138540208D-13  0.72566974816195D-13  0.73583699809159D-13  0.74418877850735D-13  0.75077977352454D-13  0.75570353461794D-13  0.75909139107782D-13  0.76111051078965D-13
 0.73295000000000D+02  0.68817106060474D-13  0.70633368180780D-13  0.72278711867751D-13  0.73742566111445D-13  0.75017883571270D-13  0.76101371332955D-13  0.76993651700811D-13  0.77699343000706D-13  0.78227050744575D-13  0.78589274591163D-13
 0.73395000000000D+02  0.68890798089237D-13  0.70964561515961D-13  0.72876752134331D-13  0.74612397499169D-13  0.76159778396897D-13  0.77510741920761D-13  0.78660952071644D-13  0.79610066430898D-13  0.80361827327075D-13  0.80924071712369D-13
 0.73495000000000D+02  0.68650067550631D-13  0.70971540705043D-13  0.73145941794404D-13  0.75154210735818D-13  0.76980178042507D-13  0.78610951993388D-13  0.80037252488417D-13  0.81253678913608D-13  0.82258898687681D-13  0.83055759470238D-13
 0.73595000000000D+02  0.68101015407540D-13  0.70654081508041D-13  0.73079361088362D-13  0.75354124494616D-13  0.77458087088046D-13  0.79373860365790D-13  0.81087360376836D-13  0.82588159802285D-13  0.83869768827679D-13  0.84929846519960D-13
 0.73695000000000D+02  0.67257615162991D-13  0.70020243981798D-13  0.72678664200231D-13  0.75206988255466D-13  0.77581256448382D-13  0.79779940222452D-13  0.81784414514510D-13  0.83579384927485D-13  0.85153253563364D-13  0.86498423925066D-13
 0.73795000000000D+02  0.66141355578007D-13  0.69086166158275D-13  0.71954036468253D-13  0.74716513235453D-13  0.77346495526183D-13  0.79818777059083D-13  0.82110570203817D-13  0.84201997187813D-13  0.86076531381765D-13  0.87721387750382D-13
 0.73895000000000D+02  0.64780691495879D-13  0.67875651459789D-13  0.70923933754160D-13  0.73895177028233D-13  0.76759753044770D-13  0.79489333927894D-13  0.82057454187741D-13  0.84440053236751D-13  0.86615980693242D-13  0.88567462266098D-13
 0.73995000000000D+02  0.63210316803607D-13  0.66419560396585D-13  0.69614610639594D-13  0.72763904400862D-13  0.75835964508045D-13  0.78799977223638D-13  0.81626377706152D-13  0.84287429771754D-13  0.86757782124490D-13  0.89014997656800D-13
 0.74095000000000D+02  0.61470278102976D-13  0.64755022088298D-13  0.68059449509234D-13  0.71351532413333D-13  0.74598670195790D-13  0.77768262362981D-13  0.80828302264253D-13  0.83747979068445D-13  0.86498270495261D-13  0.89052521890147D-13
 0.74195000000000D+02  0.59604951731858D-13  0.62924485750564D-13  0.66298107662656D-13  0.69694073532792D-13  0.73079413463510D-13  0.76420484842392D-13  0.79683558998852D-13  0.82835429803385D-13  0.85844027512364D-13  0.88679032678562D-13
 0.74295000000000D+02  0.57661910266483D-13  0.60974636374300D-13  0.64375504241601D-13  0.67833795570864D-13  0.71316934726168D-13  0.74791008152518D-13  0.78221328820501D-13  0.81573035711018D-13  0.84811712832643D-13  0.87904022103476D-13
 0.74395000000000D+02  0.55690707457988D-13  0.58955202293274D-13  0.62340672848278D-13  0.65818141947447D-13  0.69356181721130D-13  0.72921385725850D-13  0.76478896619352D-13  0.79992981058598D-13  0.83427637824479D-13  0.86747233295772D-13
 0.74495000000000D+02  0.53741612639000D-13  0.56917685096731D-13  0.60245509159289D-13  0.63698519859207D-13  0.67247161334525D-13  0.70859299353491D-13  0.74500698593083D-13  0.78135558132756D-13  0.81727092925265D-13  0.85238155404773D-13
 0.74595000000000D+02  0.51864326924977D-13  0.54914044326844D-13  0.58143445521112D-13  0.61528987302357D-13  0.65043662317897D-13  0.68657341191358D-13  0.72337187038200D-13  0.76048137753908D-13  0.79753445783038D-13  0.83415269767447D-13
 0.74695000000000D+02  0.50106713997991D-13  0.52995370554511D-13  0.56088086377781D-13  0.59364872481189D-13  0.62801881516066D-13  0.66371670467039D-13  0.70043541605988D-13  0.73783959120440D-13  0.77557033223364D-13  0.81325066539955D-13
 0.74795000000000D+02  0.48513577886018D-13  0.51210580722148D-13  0.54131839381216D-13  0.57261360860189D-13  0.60578988688939D-13  0.64060579194564D-13  0.67678259942359D-13  0.71400769897712D-13  0.75193875347692D-13  0.79020856913361D-13
 0.74895000000000D+02  0.47125518948859D-13  0.49605169071186D-13  0.52324577143806D-13  0.55272085943630D-13  0.58431666577020D-13  0.61783003524716D-13  0.65301663707107D-13  0.68959351289180D-13  0.72724244611429D-13  0.76561411254640D-13
 0.74995000000000D+02  0.45977897283293D-13  0.48220045550210D-13  0.50712363808312D-13  0.53447759770788D-13  0.56414663492037D-13  0.59597018744502D-13  0.62974358125006D-13  0.66521965760691D-13  0.70211126432166D-13  0.74009457959117D-13
 0.75095000000000D+02  0.45099930016164D-13  0.47090491363814D-13  0.49336278952510D-13  0.51834878099258D-13  0.54579395394005D-13  0.57558356355743D-13  0.60755684404344D-13  0.64150767059943D-13  0.67718610645887D-13  0.71430081356885D-13
 0.75195000000000D+02  0.44513945534286D-13  0.46245258329570D-13  0.48231368858036D-13  0.50474533339467D-13  0.52972633151468D-13  0.55718981098357D-13  0.58702204538326D-13  0.61906213131624D-13  0.65310254891012D-13  0.68889059591902D-13
 0.75295000000000D+02  0.44234813691530D-13  0.45705835037420D-13  0.47425751918590D-13  0.49401365549347D-13  0.51635308504880D-13  0.54125764252776D-13  0.56866257176571D-13  0.59845522451320D-13  0.63047461712365D-13  0.66451184922289D-13
 0.75395000000000D+02  0.44269566538040D-13  0.45485898545640D-13  0.46939901025342D-13  0.48642678270261D-13  0.50601469219578D-13  0.52819287096400D-13  0.55294621438595D-13  0.58021213190174D-13  0.60987910822389D-13  0.64178609334966D-13
 0.75495000000000D+02  0.44617219249317D-13  0.45590965608716D-13  0.46786121247449D-13  0.48217741774143D-13  0.49897410102594D-13  0.51832805063757D-13  0.54027322784347D-13  0.56479762506036D-13  0.59184086544890D-13  0.62129257716461D-13
 0.75595000000000D+02  0.45268795818259D-13  0.46018252335782D-13  0.46968236137995D-13  0.48137301505049D-13  0.49541002064426D-13  0.51191399054028D-13  0.53096611428340D-13  0.55260420188865D-13  0.57681938033909D-13  0.60355349092181D-13
 0.75695000000000D+02  0.46207558842435D-13  0.46756745853908D-13  0.47481490667483D-13  0.48403304258109D-13  0.49541236348149D-13  0.50911335548220D-13  0.52526139376271D-13  0.54394206946245D-13  0.56519706468841D-13  0.58902063683426D-13
 0.75795000000000D+02  0.47409437525701D-13  0.47787486134750D-13  0.48312673253955D-13  0.49008849078427D-13  0.49897995553020D-13  0.50999651864125D-13  0.52330357088824D-13  0.53903122899048D-13  0.55726949162858D-13  0.57806389806015D-13
 0.75895000000000D+02  0.48843642951103D-13  0.49084050774713D-13  0.49440453762362D-13  0.49938364123542D-13  0.50602057288233D-13  0.51453977126930D-13  0.52514145166809D-13  0.53799586487860D-13  0.55323785493117D-13  0.57096180041345D-13
 0.75995000000000D+02  0.50473454900029D-13  0.50613230335203D-13  0.50835928829127D-13  0.51168004961878D-13  0.51635330352093D-13  0.52262593513820D-13  0.53072690448641D-13  0.54086118105063D-13  0.55320383896124D-13  0.56789440766837D-13
 0.76095000000000D+02  0.52257160112453D-13  0.52335876983321D-13  0.52463360572407D-13  0.52666264123720D-13  0.52971317393857D-13  0.53404736195576D-13  0.53991609669160D-13  0.54755276516363D-13  0.55716703014483D-13  0.56893873173695D-13
 0.76195000000000D+02  0.54149118016459D-13  0.54207904748528D-13  0.54281089809756D-13  0.54394776325438D-13  0.54575792231385D-13  0.54851124303160D-13  0.55247317507175D-13  0.55789849679069D-13  0.56502493589613D-13  0.57406677477523D-13
 0.76295000000000D+02  0.56100926700506D-13  0.56181415840051D-13  0.56242600449063D-13  0.56309298790188D-13  0.56407674515323D-13  0.56564709347961D-13  0.56807629609162D-13  0.57163295067992D-13  0.57657561035179D-13  0.58314625305379D-13
 0.76395000000000D+02  0.58062659342270D-13  0.58205924251592D-13  0.58297707859312D-13  0.58360841617082D-13  0.58420079390236D-13  0.58501621971096D-13  0.58632585176893D-13  0.58840418248996D-13  0.59152281968558D-13  0.59594398393471D-13
 0.76495000000000D+02  0.59984139508956D-13  0.60229645396203D-13  0.60393840863025D-13  0.60496919320035D-13  0.60561515334089D-13  0.60612292832042D-13  0.60675468100455D-13  0.60778272357509D-13  0.60948361492903D-13  0.61213184928190D-13
 0.76595000000000D+02  0.61816222752057D-13  0.62200818828565D-13  0.62477384602763D-13  0.62662891564769D-13  0.62777199574091D-13  0.62842718999631D-13  0.62884000548009D-13  0.62927255499392D-13  0.62999811875693D-13  0.63129518283930D-13
 0.76695000000000D+02  0.63512051760139D-13  0.64069030267511D-13  0.64495049980478D-13  0.64803358856334D-13  0.65010457475847D-13  0.65135843493047D-13  0.65201678519591D-13  0.65232378038166D-13  0.65254127617706D-13  0.65294336722103D-13
 0.76795000000000D+02  0.65028253010536D-13  0.65786499150572D-13  0.66395234690737D-13  0.66863577527820D-13  0.67204170160277D-13  0.67433012732081D-13  0.67569215247031D-13  0.67634667394704D-13  0.67653626892775D-13  0.67652236975046D-13
 0.76895000000000D+02  0.66326044357356D-13  0.67309298834186D-13  0.68129341084342D-13  0.68790857889193D-13  0.69302233373215D-13  0.69675474668234D-13  0.69926055568801D-13  0.70072674474132D-13  0.70136925091373D-13  0.70142889689460D-13
 0.76995000000000D+02  0.67372225270326D-13  0.68598478275574D-13  0.69653017202602D-13  0.70535909826255D-13  0.71250990347002D-13  0.71805879331656D-13  0.72211922597647D-13  0.72484043239949D-13  0.72640502828287D-13  0.72702580572664D-13
 0.77095000000000D+02  0.68140024438262D-13  0.69621056550943D-13  0.70927289286461D-13  0.72054101482765D-13  0.73000602058923D-13  0.73769743469536D-13  0.74368357176505D-13  0.74807103344012D-13  0.75100328362946D-13  0.75265837876417D-13
 0.77195000000000D+02  0.68609783095560D-13  0.70350864814879D-13  0.71919556838642D-13  0.73306598879884D-13  0.74506319891193D-13  0.75516841870455D-13  0.76340210804938D-13  0.76982445134186D-13  0.77453492992356D-13  0.77767104649282D-13
 0.77295000000000D+02  0.68769456626919D-13  0.70769214204242D-13  0.72604424829917D-13  0.74261357369788D-13  0.75729628190838D-13  0.77002489842971D-13  0.78077053909084D-13  0.78954436814170D-13  0.79639817646874D-13  0.80142413046208D-13
 0.77395000000000D+02  0.68614921647731D-13  0.70865372636786D-13  0.72964351802357D-13  0.74893939606765D-13  0.76639227551888D-13  0.78188684097552D-13  0.79534463491991D-13  0.80672645010072D-13  0.81603389656846D-13  0.82331017932720D-13
 0.77495000000000D+02  0.68150080726707D-13  0.70636838336589D-13  0.72990097326374D-13  0.75188139152376D-13  0.77211833712133D-13  0.79045072898315D-13  0.80675157283103D-13  0.82093122467721D-13  0.83293990444308D-13  0.84276948062587D-13
 0.77595000000000D+02  0.67386762086879D-13  0.70089403110777D-13  0.72680957394192D-13  0.75136393797718D-13  0.77432771668256D-13  0.79549730712835D-13  0.81469945426910D-13  0.83179529999841D-13  0.84668377682431D-13  0.85930435215453D-13
 0.77695000000000D+02  0.66344416858925D-13  0.69237003772633D-13  0.72044781749342D-13  0.74739978058199D-13  0.77296349845720D-13  0.79689717583307D-13  0.81898475411777D-13  0.83904064036630D-13  0.85691389184628D-13  0.87249184800685D-13
 0.77795000000000D+02  0.65049621632909D-13  0.68101365518025D-13  0.71097772721610D-13  0.74008969937292D-13  0.76806004779422D-13  0.79461408942855D-13  0.81949751221904D-13  0.84248166098892D-13  0.86336840339822D-13  0.88199455485363D-13
 0.77895000000000D+02  0.63535399028540D-13  0.66711446377049D-13  0.69864070717923D-13  0.72961992821412D-13  0.75974212623771D-13  0.78870587466016D-13  0.81622413463621D-13  0.84202996083426D-13  0.86588192184145D-13  0.88756920284024D-13
 0.77995000000000D+02  0.61840373652521D-13  0.65102696944653D-13  0.68375136969338D-13  0.71625739111504D-13  0.74822169766872D-13  0.77932294622019D-13  0.80924773324113D-13  0.83769657283855D-13  0.86438973057880D-13  0.88907287130666D-13
 0.78095000000000D+02  0.60007785015579D-13  0.63316154312858D-13  0.66668949313563D-13  0.70034287771750D-13  0.73379250720750D-13  0.76670445737956D-13  0.79874599510045D-13  0.82959167412518D-13  0.85892943090572D-13  0.88646663096993D-13
 0.78195000000000D+02  0.58084382634111D-13  0.61397393361916D-13  0.64789031568592D-13  0.68228233239808D-13  0.71682257147924D-13  0.75117218419354D-13  0.78498663624140D-13  0.81792176378291D-13  0.84963997326521D-13  0.87981652968566D-13
 0.78295000000000D+02  0.56119231548932D-13  0.59395362210204D-13  0.62783341303805D-13  0.66253647961690D-13  0.69774477219022D-13  0.73312229963924D-13  0.76832055608197D-13  0.80298438045020D-13  0.83675809979637D-13  0.86929189675471D-13
 0.78395000000000D+02  0.54162458780105D-13  0.57361131579817D-13  0.60703044431192D-13  0.64160905064343D-13  0.67704579340640D-13  0.71301524792976D-13  0.74917286753569D-13  0.78516049479991D-13  0.82061228920040D-13  0.85516100923505D-13
 0.78495000000000D+02  0.52263972743908D-13  0.55346590031577D-13  0.58601207928954D-13  0.62003391251347D-13  0.65525368523310D-13  0.69136397776790D-13  0.72803203205022D-13  0.76490477140657D-13  0.80161435875612D-13  0.83778423110727D-13
 0.78595000000000D+02  0.50472188347442D-13  0.53403118403736D-13  0.56531444098667D-13  0.59836142810182D-13  0.63292437167971D-13  0.66872083521440D-13  0.70543737723026D-13  0.74273394888939D-13  0.78024893816226D-13  0.81760480070121D-13
 0.78695000000000D+02  0.48832790330136D-13  0.51580277318051D-13  0.54546540992747D-13  0.57714439581636D-13  0.61062744745665D-13  0.64566345108017D-13  0.68196531599632D-13  0.71921363527263D-13  0.75706108423775D-13  0.79513750186748D-13
 0.78795000000000D+02  0.47387566443077D-13  0.49924541281680D-13  0.52697113999809D-13  0.55692392813189D-13  0.58893162660075D-13  0.62277998343103D-13  0.65821461938891D-13  0.69494385596574D-13  0.73264235298272D-13  0.77095550843103D-13
 0.78895000000000D+02  0.46173340271269D-13  0.48478111721718D-13  0.51030313033006D-13  0.53821562971574D-13  0.56839021469623D-13  0.60065409225597D-13  0.63479111929386D-13  0.67054372361210D-13  0.70761568488530D-13  0.74567573811177D-13
 0.78995000000000D+02  0.45221030956177D-13  0.47277839271426D-13  0.49588618344502D-13  0.52149642821820D-13  0.54952697582626D-13  0.57985003017420D-13  0.61229223191872D-13  0.64663562147235D-13  0.68261948964954D-13  0.71994309014949D-13
 0.79095000000000D+02  0.44554863831543D-13  0.46354282834417D-13  0.48408755723851D-13  0.50719239410659D-13  0.53282275527607D-13  0.56089823006483D-13  0.59129169741497D-13  0.62382930442481D-13  0.65829133694895D-13  0.69441396935654D-13
 0.79195000000000D+02  0.44191752127691D-13  0.45730929456607D-13  0.47520758786842D-13  0.49566786064039D-13  0.51870319967476D-13  0.54428175777752D-13  0.57232492549815D-13  0.60270632375784D-13  0.63525166985780D-13  0.66973951752199D-13
 0.79295000000000D+02  0.44140865527323D-13  0.45423594925206D-13  0.46947202301904D-13  0.48721612185767D-13  0.50752788820696D-13  0.53042397595117D-13  0.55587532140809D-13  0.58380517364171D-13  0.61408795701948D-13  0.64654898054202D-13
 0.79395000000000D+02  0.44403396581090D-13  0.45440020394650D-13  0.46702626129562D-13  0.48205194611685D-13  0.49958115246190D-13  0.51967773400074D-13  0.54236194147426D-13  0.56760753870699D-13  0.59533968838959D-13  0.62543363616527D-13
 0.79495000000000D+02  0.44972530935880D-13  0.45779675329834D-13  0.46793164478495D-13  0.48030609633878D-13  0.49506481933720D-13  0.51231636032408D-13  0.53212879355285D-13  0.55452599399758D-13  0.57948459782319D-13  0.60693169290543D-13
 0.79595000000000D+02  0.45833622121843D-13  0.46433771785154D-13  0.47216389934452D-13  0.48202199680923D-13  0.49409306227360D-13  0.50852668672591D-13  0.52543605555437D-13  0.54489347142916D-13  0.56692646440874D-13  0.59151454584853D-13
 0.79695000000000D+02  0.46964566418175D-13  0.47385489638683D-13  0.47961376230055D-13  0.48715463154151D-13  0.49668949222026D-13  0.50840428312907D-13  0.52245343626122D-13  0.53895476172467D-13  0.55798480408916D-13  0.57957474039938D-13
 0.79795000000000D+02  0.48336368206126D-13  0.48610407011626D-13  0.49008978134676D-13  0.49557170217206D-13  0.50278656249335D-13  0.51195102416660D-13  0.52325584789436D-13  0.53686026877335D-13  0.55288671478630D-13  0.57141595135403D-13
 0.79895000000000D+02  0.49913881351014D-13  0.50077124861653D-13  0.50332321296982D-13  0.50705701562642D-13  0.51222730255873D-13  0.51907504966201D-13  0.52782150082208D-13  0.53866217580193D-13  0.55176108320097D-13  0.56724523316945D-13
 0.79995000000000D+02  0.51656707657914D-13  0.51748069778272D-13  0.51897489509605D-13  0.52131601482730D-13  0.52476933625888D-13  0.52959311983315D-13  0.53603246891763D-13  0.54431312112353D-13  0.55463530110483D-13  0.56716773924861D-13
 0.80095000000000D+02  0.53520229433291D-13  0.53580454456021D-13  0.53664391822522D-13  0.53798331097412D-13  0.54009108163704D-13  0.54323530486200D-13  0.54767771094450D-13  0.55366741711309D-13  0.56143457481885D-13  0.57118404495697D-13
 0.80195000000000D+02  0.55456749759978D-13  0.55527371293416D-13  0.55587787337740D-13  0.55663202479954D-13  0.55779997378222D-13  0.55965188882774D-13  0.56245847059200D-13  0.56648478108223D-13  0.57198384532046D-13  0.57919014255120D-13
 0.80295000000000D+02  0.57416711343012D-13  0.57538991165516D-13  0.57618441490179D-13  0.57678469800560D-13  0.57744250044738D-13  0.57842231142950D-13  0.57999591700705D-13  0.58243648254861D-13  0.58601226972789D-13  0.59098010793451D-13
 0.80395000000000D+02  0.59349962779008D-13  0.59563836732765D-13  0.59704384261424D-13  0.59792549597997D-13  0.59851579389836D-13  0.59906591887569D-13  0.59984083042609D-13  0.60111374965626D-13  0.60316014947445D-13  0.60625137089697D-13
 0.80495000000000D+02  0.61207039892862D-13  0.61550097747023D-13  0.61792238170420D-13  0.61951338991496D-13  0.62048048271010D-13  0.62105424911521D-13  0.62148508527181D-13  0.62203821978492D-13  0.62298812797940D-13  0.62461245399283D-13
 0.80595000000000D+02  0.62940429403170D-13  0.63446954745678D-13  0.63828582104811D-13  0.64099598144556D-13  0.64277447505533D-13  0.64382453740981D-13  0.64437463717569D-13  0.64467416716691D-13  0.64498842264143D-13  0.64559298214669D-13
 0.80695000000000D+02  0.64505782631605D-13  0.65205877313489D-13  0.65761316143974D-13  0.66182361652871D-13  0.66482732124967D-13  0.66679409709256D-13  0.66792368199081D-13  0.66844219494672D-13  0.66859780401309D-13  0.66865570707426D-13
 0.80795000000000D+02  0.65863048250028D-13  0.66781863744382D-13  0.67540992502811D-13  0.68146342792470D-13  0.68607478853915D-13  0.68937520802024D-13  0.69152962494616D-13  0.69273404173007D-13  0.69321199039031D-13  0.69321023913683D-13
 0.80895000000000D+02  0.66977495129949D-13  0.68134590435116D-13  0.69122078594266D-13  0.69941294750020D-13  0.70597327571943D-13  0.71099013227892D-13  0.71458847742420D-13  0.71692812422847D-13  0.71820108991285D-13  0.71862813563884D-13
 0.80995000000000D+02  0.67820599169312D-13  0.69229441651321D-13  0.70464119945800D-13  0.71521294059979D-13  0.72401369930147D-13  0.73108587347588D-13  0.73651028794525D-13  0.74040541883339D-13  0.74292569554228D-13  0.74425895994351D-13
 0.81095000000000D+02  0.68370771449702D-13  0.70038393365171D-13  0.71532773266258D-13  0.72845913464303D-13  0.73973449647746D-13  0.74914830253261D-13  0.75673421309424D-13  0.76256527632816D-13  0.76675322164218D-13  0.76944690100958D-13
 0.81195000000000D+02  0.68613909133779D-13  0.70540728594890D-13  0.72300683279428D-13  0.73881254238550D-13  0.75273341274443D-13  0.76471528911539D-13  0.77474284335356D-13  0.78284076568383D-13  0.78907406475202D-13  0.79354752867338D-13
 0.81295000000000D+02  0.68543755044110D-13  0.70723565984007D-13  0.72748180934520D-13  0.74600811621243D-13  0.76267777312879D-13  0.77738850328475D-13  0.79007541787532D-13  0.80071315494615D-13  0.80931717567349D-13  0.81594425657555D-13
 0.81395000000000D+02  0.68162056754463D-13  0.70582188132524D-13  0.72863785169898D-13  0.74986151249558D-13  0.76931297472668D-13  0.78684358595883D-13  0.80233959065148D-13  0.81572515929768D-13  0.82696464506128D-13  0.83606409214380D-13
 0.81495000000000D+02  0.67478521148006D-13  0.70120161310474D-13  0.72644495428002D-13  0.75027379335132D-13  0.77246898374120D-13  0.79283842849495D-13  0.81122144759113D-13  0.82749261791212D-13  0.84156492994404D-13  0.85339227129535D-13
 0.81595000000000D+02  0.66510565622882D-13  0.69349243515761D-13  0.72095867467777D-13  0.74723394585706D-13  0.77206467119941D-13  0.79521935002963D-13  0.81649351873976D-13  0.83571430139921D-13  0.85274438335616D-13  0.86748540405019D-13
 0.81695000000000D+02  0.65282872321102D-13  0.68289083246280D-13  0.71231870559239D-13  0.74081915456680D-13  0.76810987676924D-13  0.79392501494652D-13  0.81802058112828D-13  0.84017959943985D-13  0.86021679264973D-13  0.87798279532056D-13
 0.81795000000000D+02  0.63826756789004D-13  0.66966716703155D-13  0.70074529731011D-13  0.73119282058573D-13  0.76070514815837D-13  0.78898799059284D-13  0.81576310420806D-13  0.84077389240453D-13  0.86379068296959D-13  0.88461565179535D-13
 0.81895000000000D+02  0.62179367218250D-13  0.65415876291087D-13  0.68653362233228D-13  0.71860037804793D-13  0.75003916298058D-13  0.78053390566661D-13  0.80977825007109D-13  0.83748146994604D-13  0.86337419950844D-13  0.88721393987871D-13
 0.81995000000000D+02  0.60382734744221D-13  0.63676128102120D-13  0.67004622634766D-13  0.70336301511601D-13  0.73638389919736D-13  0.76877823100876D-13  0.80021840313426D-13  0.83038592224486D-13  0.85897744404856D-13  0.88571071968977D-13
 0.82095000000000D+02  0.58482699082827D-13  0.61791860437328D-13  0.65170375861544D-13  0.68586946014886D-13  0.72008767776757D-13  0.75402076528935D-13  0.78732726709213D-13  0.81966799416194D-13  0.85071220635574D-13  0.88014384464513D-13
 0.82195000000000D+02  0.56527736969843D-13  0.59811149225536D-13  0.63197421876924D-13  0.66656604309866D-13  0.70156625549330D-13  0.73663796671915D-13  0.77143362910059D-13  0.80560095737383D-13  0.83878909755698D-13  0.87065498347546D-13
 0.82295000000000D+02  0.54567723347421D-13  0.57784529341452D-13  0.61136099493873D-13  0.64594528624210D-13  0.68129219584676D-13  0.71707332694448D-13  0.75294295075589D-13  0.78854361897504D-13  0.82351215900663D-13  0.85748598994681D-13
 0.82395000000000D+02  0.52652656957248D-13  0.55763703227255D-13  0.59038999894693D-13  0.62453331590062D-13  0.65978278953208D-13  0.69582603328691D-13  0.73232700095256D-13  0.76893114541491D-13  0.80527108463520D-13  0.84097271331811D-13
 0.82495000000000D+02  0.50831382905435D-13  0.53800219820121D-13  0.56959622738496D-13  0.60287641690318D-13  0.63758683355848D-13  0.67343820919243D-13  0.71011179571788D-13  0.74726393644572D-13  0.78453125573631D-13  0.82153640793940D-13
 0.82595000000000D+02  0.49150344837798D-13  0.51944157542859D-13  0.54951009200301D-13  0.58152707342094D-13  0.61527060673385D-13  0.65048105904538D-13  0.68686415334965D-13  0.72409483356624D-13  0.76182184302502D-13  0.79967296171621D-13
 0.82695000000000D+02  0.47652398604178D-13  0.50242845006847D-13  0.53064386871094D-13  0.56102985289596D-13  0.59340339998844D-13  0.62754027145602D-13  0.66317720852514D-13  0.70001498997396D-13  0.73772228016482D-13  0.77594021886983D-13
 0.82795000000000D+02  0.46375717716229D-13  0.48739652108849D-13  0.51347861140787D-13  0.54190749375804D-13  0.57254297128042D-13  0.60520105403945D-13  0.63965525560322D-13  0.67563876320174D-13  0.71284745454647D-13  0.75094372109139D-13
 0.82895000000000D+02  0.45352818554836D-13  0.47472882401187D-13  0.49845186493918D-13  0.52464755237471D-13  0.55322129672746D-13  0.58403318208257D-13  0.61689830843605D-13  0.65158801653962D-13  0.68783199384356D-13  0.72532123157225D-13
 0.82995000000000D+02  0.44609730220807D-13  0.46474795024077D-13  0.48594649102124D-13  0.50968995034485D-13  0.53593098200048D-13  0.56457644310611D-13  0.59548677120684D-13  0.62847623039781D-13  0.66331404992911D-13  0.69972643746034D-13
 0.83095000000000D+02  0.44165330223937D-13  0.45770781175842D-13  0.47628089250238D-13  0.49741574019816D-13  0.52111268110121D-13  0.54732684917650D-13  0.57596661193509D-13  0.60689282957355D-13  0.63991899452857D-13  0.67481224724376D-13
 0.83195000000000D+02  0.44030862965513D-13  0.45378716145671D-13  0.46970088557271D-13  0.48813737639275D-13  0.50914384386129D-13  0.53272396916578D-13  0.55883541741067D-13  0.58738812682259D-13  0.61824344318505D-13  0.65121410986325D-13
 0.83295000000000D+02  0.44209653296434D-13  0.45308503445438D-13  0.46637342740602D-13  0.48209074001056D-13  0.50032907950796D-13  0.52113970449883D-13  0.54452968576017D-13  0.57045926735012D-13  0.59884001567240D-13  0.62953378174458D-13
 0.83395000000000D+02  0.44697022447091D-13  0.45561822666639D-13  0.46638235928924D-13  0.47942912071902D-13  0.49489238231535D-13  0.51286879500267D-13  0.53341368118779D-13  0.55653753322584D-13  0.58220322212954D-13  0.61032395644058D-13
 0.83495000000000D+02  0.45480408453472D-13  0.46132087481449D-13  0.46972627377980D-13  0.48021930954044D-13  0.49297141775636D-13  0.50812129722872D-13  0.52577013547817D-13  0.54597733194635D-13  0.56875683538899D-13  0.59407414948065D-13
 0.83595000000000D+02  0.46539687978997D-13  0.47004614836531D-13  0.47631856014586D-13  0.48443990202454D-13  0.49461401490652D-13  0.50701722719170D-13  0.52179303362404D-13  0.53904715030166D-13  0.55884307196650D-13  0.58119819891157D-13
 0.83695000000000D+02  0.47847691286579D-13  0.48157000992091D-13  0.48598962667781D-13  0.49198185493137D-13  0.49977695446965D-13  0.50958350414786D-13  0.52158266765908D-13  0.53592270445250D-13  0.55271385793589D-13  0.57202370069715D-13
 0.83795000000000D+02  0.49370897181677D-13  0.49559694774443D-13  0.49849124283769D-13  0.50265128194645D-13  0.50832708313507D-13  0.51575327323303D-13  0.52514308480006D-13  0.53668246097861D-13  0.55052440261350D-13  0.56678364868018D-13
 0.83895000000000D+02  0.51070290150556D-13  0.51176753373109D-13  0.51350289005759D-13  0.51617441674008D-13  0.52004472553441D-13  0.52536762399843D-13  0.53238199481651D-13  0.54130564305458D-13  0.55232924398216D-13  0.56561049245841D-13
 0.83995000000000D+02  0.52902357775899D-13  0.52966761351564D-13  0.53063995869375D-13  0.53220461631329D-13  0.53462930636319D-13  0.53817966066857D-13  0.54311313871157D-13  0.54967277240056D-13  0.55808086660687D-13  0.56853276472447D-13
 0.84095000000000D+02  0.54820202930244D-13  0.54883889373067D-13  0.54946358149741D-13  0.55033122545950D-13  0.55170703876939D-13  0.55386081986481D-13  0.55706105791769D-13  0.56156873286452D-13  0.56763092705122D-13  0.57547436394923D-13
 0.84195000000000D+02  0.56774742318045D-13  0.56879065576108D-13  0.56949185217976D-13  0.57009007564494D-13  0.57084048233361D-13  0.57200927412534D-13  0.57386814188930D-13  0.57668827707397D-13  0.58073405517831D-13  0.58625651042866D-13
 0.84295000000000D+02  0.58715960734351D-13  0.58901229658822D-13  0.59021214229099D-13  0.59097534988325D-13  0.59153972622282D-13  0.59216020627645D-13  0.59310377377651D-13  0.59464383519127D-13  0.59705413391512D-13  0.60060232540462D-13
 0.84395000000000D+02  0.60594188988389D-13  0.60898637622014D-13  0.61109420160537D-13  0.61245251031519D-13  0.61327491160982D-13  0.61379769193477D-13  0.61427534027713D-13  0.61497542600918D-13  0.61617289675406D-13  0.61814391595809D-13
 0.84495000000000D+02  0.62361372839891D-13  0.62820183829952D-13  0.63160370722202D-13  0.63397195809025D-13  0.63548977327213D-13  0.63636788636596D-13  0.63684082416035D-13  0.63716241693255D-13  0.63760062307395D-13  0.63843178437092D-13
 0.84595000000000D+02  0.63972300529776D-13  0.64616706609841D-13  0.65121591516508D-13  0.65498307647534D-13  0.65761585428626D-13  0.65929317864024D-13  0.66022265755097D-13  0.66063683218150D-13  0.66078865779373D-13  0.66094632129202D-13
 0.84695000000000D+02  0.65385757548815D-13  0.66242244035824D-13  0.66942906568999D-13  0.67494829836460D-13  0.67908703057831D-13  0.68198695135624D-13  0.68382248189221D-13  0.68479786902750D-13  0.68514343529330D-13  0.68511108883867D-13
 0.84795000000000D+02  0.66565579150608D-13  0.67655207820364D-13  0.68577719983923D-13  0.69335683878197D-13  0.69935397421737D-13  0.70386856877922D-13  0.70703643738640D-13  0.70902725104956D-13  0.71004164913762D-13  0.71030755406943D-13
 0.84895000000000D+02  0.67481573731246D-13  0.68819445332116D-13  0.69984205987679D-13  0.70973774157109D-13  0.71789818594499D-13  0.72437821044897D-13  0.72927059123463D-13  0.73270502605843D-13  0.73484617990530D-13  0.73589089624827D-13
 0.84995000000000D+02  0.68110293500302D-13  0.69705162621182D-13  0.71126376967814D-13  0.72367190703264D-13  0.73424523848241D-13  0.74299117130469D-13  0.74995611049931D-13  0.75522540502713D-13  0.75892237409934D-13  0.76120648392567D-13
 0.85095000000000D+02  0.68435632772182D-13  0.70289684886829D-13  0.71975002236035D-13  0.73480279334783D-13  0.74797689236376D-13  0.75923126304619D-13  0.76856379198455D-13  0.77601223737041D-13  0.78165425819871D-13  0.78560660079433D-13
 0.85195000000000D+02  0.68449238613323D-13  0.70558034978559D-13  0.72508354060606D-13  0.74284551854815D-13  0.75874177489198D-13  0.77268297445489D-13  0.78461757800011D-13  0.79453372725629D-13  0.80246027361985D-13  0.80846699297021D-13
 0.85295000000000D+02  0.68150723376789D-13  0.70503315172662D-13  0.72712761929155D-13  0.74759413068798D-13  0.76626434956344D-13  0.78300208014627D-13  0.79770671282466D-13  0.81031601506928D-13  0.82080813065013D-13  0.82920281496535D-13
 0.85395000000000D+02  0.67547673718587D-13  0.70126882494230D-13  0.72582960904365D-13  0.74892686070192D-13  0.77035194701753D-13  0.78992442690475D-13  0.80749622945187D-13  0.82295527717952D-13  0.83622840197300D-13  0.84728356703523D-13
 0.85495000000000D+02  0.66655455890204D-13  0.69438313130464D-13  0.72122225197247D-13  0.74680922398728D-13  0.77089967811851D-13  0.79327267334634D-13  0.81373549889830D-13  0.83212803506464D-13  0.84832650864842D-13  0.86224664240402D-13
 0.85595000000000D+02  0.65496822306491D-13  0.68455156870030D-13  0.71342283571114D-13  0.74129489172684D-13  0.76789310390372D-13  0.79296081097135D-13  0.81626462388498D-13  0.83759941061410D-13  0.85679279251977D-13  0.87370913843137D-13
 0.85695000000000D+02  0.64101329464086D-13  0.67202487867462D-13  0.70263018763697D-13  0.73252430995460D-13  0.76140859445157D-13  0.78899635136945D-13  0.81501851380462D-13  0.83922911694893D-13  0.86141041793867D-13  0.88137763017560D-13
 0.85795000000000D+02  0.62504582103715D-13  0.65712263234079D-13  0.68911958632543D-13  0.72072110191143D-13  0.75161136777181D-13  0.78148012397551D-13  0.81002853714551D-13  0.83697503197067D-13  0.86206090118514D-13  0.88505565689637D-13
 0.85895000000000D+02  0.60747322946693D-13  0.64022505864770D-13  0.67323572048787D-13  0.70618634586643D-13  0.73875125909176D-13  0.77060368982301D-13  0.80142170944448D-13  0.83089426363016D-13  0.85872712659313D-13  0.88464873049498D-13
 0.85995000000000D+02  0.58874391278739D-13  0.62176332398061D-13  0.65538387550839D-13  0.68929087484677D-13  0.72315632889013D-13  0.75664443764445D-13  0.78941743780484D-13  0.82114167999966D-13  0.85149377262046D-13  0.88016673822148D-13
 0.86095000000000D+02  0.56933577001964D-13  0.60220851160580D-13  0.63601957294987D-13  0.67046579523509D-13  0.70522447323422D-13  0.73995848787109D-13  0.77432190543295D-13  0.80796594200106D-13  0.84054513728444D-13  0.87172367856511D-13
 0.86195000000000D+02  0.54974399443100D-13  0.58205958265509D-13  0.61563692789179D-13  0.65019146667116D-13  0.68541325099335D-13  0.72097158607356D-13  0.75652023992697D-13  0.79170314043670D-13  0.82616041882636D-13  0.85953473738722D-13
 0.86295000000000D+02  0.53046842124650D-13  0.56183062633073D-13  0.59475602168436D-13  0.62898522497039D-13  0.66422818802886D-13  0.70016821873028D-13  0.73646666565415D-13  0.77276820015700D-13  0.80870657247224D-13  0.84391077930783D-13
 0.86395000000000D+02  0.51200075826541D-13  0.54203772513231D-13  0.57390961282025D-13  0.60738816184792D-13  0.64220985733618D-13  0.67807922959837D-13  0.71467289203240D-13  0.75164427122245D-13  0.78862892606349D-13  0.82525039538367D-13
 0.86495000000000D+02  0.49481202560755D-13  0.52318577070160D-13  0.55362952549580D-13  0.58595129929263D-13  0.61992006534541D-13  0.65526825323328D-13  0.69169503457289D-13  0.72887037831879D-13  0.76643979456141D-13  0.80402971052657D-13
 0.86595000000000D+02  0.47934052542774D-13  0.50575556709936D-13  0.53443306362717D-13  0.56522151186009D-13  0.59792749737931D-13  0.63231731238059D-13  0.66811940298979D-13  0.70502764415188D-13  0.74270538452227D-13  0.78079021131627D-13
 0.86695000000000D+02  0.46598064885600D-13  0.49019155094114D-13  0.51680979739311D-13  0.54572755655115D-13  0.57679318904052D-13  0.60981194727865D-13  0.64454751958572D-13  0.68072443894503D-13  0.71803132329361D-13  0.75612490540068D-13
 0.86795000000000D+02  0.45507280599371D-13  0.47689044201631D-13  0.50120905981509D-13  0.52796656715202D-13  0.55705619470269D-13  0.58832625682173D-13  0.62158075073890D-13  0.65658083555612D-13  0.69304718278014D-13  0.73066316626193D-13
 0.86895000000000D+02  0.44689473607106D-13  0.46619111420352D-13  0.48802847270178D-13  0.51239135800205D-13  0.53921981920181D-13  0.56840823373801D-13  0.59980494415209D-13  0.63321276742473D-13  0.66839039327303D-13  0.70505465067158D-13
 0.86995000000000D+02  0.44165441958219D-13  0.45836594528508D-13  0.47760379494619D-13  0.49939886143335D-13  0.52373876439254D-13  0.55056576838034D-13  0.57977546432621D-13  0.61121629410027D-13  0.64468995837292D-13  0.67995269980615D-13
 0.87095000000000D+02  0.43948477326358D-13  0.45361386645146D-13  0.47020035234424D-13  0.48931999412220D-13  0.51100751881969D-13  0.53525367860326D-13  0.56200300849946D-13  0.59115237630118D-13  0.62255038706797D-13  0.65599764813983D-13
 0.87195000000000D+02  0.44044026321472D-13  0.45205528884080D-13  0.46600626766966D-13  0.48241121104929D-13  0.50135028695559D-13  0.52286209694476D-13  0.54694056530966D-13  0.57353254938669D-13  0.60253625342703D-13  0.63380046653841D-13
 0.87295000000000D+02  0.44449552244219D-13  0.45372903648722D-13  0.46512766372488D-13  0.47884796262055D-13  0.49501271508439D-13  0.51370651161629D-13  0.53497184920277D-13  0.55880586112331D-13  0.58515777828079D-13  0.61392715738740D-13
 0.87395000000000D+02  0.45154600789305D-13  0.45859136378069D-13  0.46758596166635D-13  0.47872022185506D-13  0.49215562498184D-13  0.50801971551710D-13  0.52640150587138D-13  0.54734740728674D-13  0.57085780110426D-13  0.59688430032178D-13
 0.87495000000000D+02  0.46141067993951D-13  0.46651708228149D-13  0.47331734336434D-13  0.48203019564620D-13  0.49285091522055D-13  0.50594586871186D-13  0.52144733872707D-13  0.53944875778226D-13  0.56000047475368D-13  0.58310611767694D-13
 0.87595000000000D+02  0.47383663561663D-13  0.47730276784433D-13  0.48217439126745D-13  0.48869227829626D-13  0.49707973453687D-13  0.50753682579097D-13  0.52023475474757D-13  0.53531051763645D-13  0.55286197165865D-13  0.57294338990916D-13
 0.87695000000000D+02  0.48850557701828D-13  0.49067196586943D-13  0.49392986361522D-13  0.49853524823898D-13  0.50473297364314D-13  0.51275082165473D-13  0.52279357131556D-13  0.53503721264457D-13  0.54962343865180D-13  0.56665450393197D-13
 0.87795000000000D+02  0.50504194939671D-13  0.50628226146802D-13  0.50828250829953D-13  0.51130665156275D-13  0.51561406263977D-13  0.52145354900290D-13  0.52905726533093D-13  0.53863463004572D-13  0.55036638014619D-13  0.56439886279335D-13
 0.87895000000000D+02  0.52302254088533D-13  0.52373403371107D-13  0.52486476661086D-13  0.52667926009094D-13  0.52944400228755D-13  0.53342159971242D-13  0.53886468347759D-13  0.54600968186238D-13  0.55507058731248D-13  0.56623282476901D-13
 0.87995000000000D+02  0.54198729845859D-13  0.54258067013846D-13  0.54325216984962D-13  0.54425943879638D-13  0.54586850034614D-13  0.54834818190505D-13  0.55196416965214D-13  0.55697279408528D-13  0.56361466585070D-13  0.57210827531059D-13
 0.88095000000000D+02  0.56145108370970D-13  0.56233998043762D-13  0.56297418856826D-13  0.56359720857424D-13  0.56446703042715D-13  0.56585096638741D-13  0.56802000382224D-13  0.57124276035902D-13  0.57577914855729D-13  0.58187386801440D-13
 0.88195000000000D+02  0.58091606805883D-13  0.58250651760634D-13  0.58352625713846D-13  0.58419774712048D-13  0.58476358172267D-13  0.58548186176993D-13  0.58662098755288D-13  0.58845393587535D-13  0.59125211285687D-13  0.59527890258685D-13
 0.88295000000000D+02  0.59988445071166D-13  0.60256449177446D-13  0.60438266635527D-13  0.60553403396414D-13  0.60623882480839D-13  0.60673846832962D-13  0.60729095662486D-13  0.60816558741861D-13  0.60963715948631D-13  0.61197974041825D-13
 0.88395000000000D+02  0.61787117448794D-13  0.62200094676305D-13  0.62500999466047D-13  0.62706031651773D-13  0.62834338258505D-13  0.62907691783013D-13  0.62950095197173D-13  0.62987316045477D-13  0.63046354822220D-13  0.63154859356259D-13
 0.88495000000000D+02  0.63441631473879D-13  0.64031886279329D-13  0.64488073485425D-13  0.64822605308436D-13  0.65051186723664D-13  0.65192577114855D-13  0.65268273783469D-13  0.65302117521835D-13  0.65319823146995D-13  0.65348446231108D-13
 0.88595000000000D+02  0.64909682496764D-13  0.65704985068919D-13  0.66348676821706D-13  0.66848997662474D-13  0.67217732456481D-13  0.67470061858226D-13  0.67624332166174D-13  0.67701742217696D-13  0.67725947808852D-13  0.67722594169227D-13
 0.88695000000000D+02  0.66153733924408D-13  0.67176611339883D-13  0.68035234190783D-13  0.68733392005144D-13  0.69278571670436D-13  0.69681900981063D-13  0.69958010473451D-13  0.70124809410455D-13  0.70203173924533D-13  0.70216556952919D-13
 0.88795000000000D+02  0.67141975563226D-13  0.68409136941768D-13  0.69504621823870D-13  0.70427604995676D-13  0.71181007329525D-13  0.71771533211872D-13  0.72209627644651D-13  0.72509346811716D-13  0.72688137641469D-13  0.72766534935158D-13
 0.88895000000000D+02  0.67849135602515D-13  0.69371045925453D-13  0.70719268562391D-13  0.71888317083789D-13  0.72876394970498D-13  0.73685525686557D-13  0.74321605898758D-13  0.74794373702884D-13  0.75117284966094D-13  0.75307305150026D-13
 0.88995000000000D+02  0.68257125518809D-13  0.70037738975396D-13  0.71648115011771D-13  0.73078178567014D-13  0.74321384864353D-13  0.75374938526060D-13  0.76239941306654D-13  0.76921458562727D-13  0.77428495264305D-13  0.77773887593615D-13
 0.89095000000000D+02  0.68355501451112D-13  0.70392161101909D-13  0.72267406274795D-13  0.73966763048651D-13  0.75479028803516D-13  0.76796574501265D-13  0.77915582912547D-13  0.78836211404154D-13  0.79562667964044D-13  0.80103205108199D-13
 0.89195000000000D+02  0.68141730286105D-13  0.70425236584212D-13  0.72561298038877D-13  0.74531343963640D-13  0.76319723263153D-13  0.77914081881386D-13  0.79305685190983D-13  0.80489672710891D-13  0.81465231935777D-13  0.82235694471628D-13
 0.89295000000000D+02  0.67621253681137D-13  0.70136100079539D-13  0.72522260561030D-13  0.74757474361836D-13  0.76821964868039D-13  0.78698882316216D-13  0.80374701865820D-13  0.81839563511169D-13  0.83087539007457D-13  0.84116827546125D-13
 0.89395000000000D+02  0.66807348413769D-13  0.69532118020384D-13  0.72151270257687D-13  0.74639355165555D-13  0.76972898893579D-13  0.79130900075207D-13  0.81095293173686D-13  0.82851364677294D-13  0.84388106035608D-13  0.85698503643857D-13
 0.89495000000000D+02  0.65720786647869D-13  0.68628699778098D-13  0.71457784031800D-13  0.74179982522222D-13  0.76768646818001D-13  0.79199074043074D-13  0.81449023422928D-13  0.83499197906054D-13  0.85333673827377D-13  0.86940277561721D-13
 0.89595000000000D+02  0.64389304814984D-13  0.67448903439738D-13  0.70459497018503D-13  0.73391070515503D-13  0.76214404587422D-13  0.78901639422544D-13  0.81426831058164D-13  0.83766485903800D-13  0.85900055890653D-13  0.87810391940275D-13
 0.89695000000000D+02  0.62846894695413D-13  0.66022846289046D-13  0.69181889961153D-13  0.72292751235381D-13  0.75324309112001D-13  0.78246171978105D-13  0.81029259253206D-13  0.83646374942295D-13  0.86072755360942D-13  0.88286587604053D-13
 0.89795000000000D+02  0.61132934821362D-13  0.64386935067957D-13  0.67657577800698D-13  0.70913059892718D-13  0.74121076430317D-13  0.77249393719801D-13  0.80266441172678D-13  0.83141909022644D-13  0.85847334377384D-13  0.88356671214654D-13
 0.89895000000000D+02  0.59291184399167D-13  0.62582935694612D-13  0.65925476135766D-13  0.69287218151822D-13  0.72635420809292D-13  0.75936745018341D-13  0.79157840308840D-13  0.82265951229964D-13  0.85229526504778D-13  0.88018825769048D-13
 0.89995000000000D+02  0.57368665454714D-13  0.60656906210385D-13  0.64029806859174D-13  0.67456734005346D-13  0.70905269639634D-13  0.74341734106433D-13  0.77731752554755D-13  0.81040854318412D-13  0.84235089362165D-13  0.87281656045065D-13
 0.90095000000000D+02  0.55414461756750D-13  0.58658020217220D-13  0.62018968379981D-13  0.65468341197848D-13  0.68974794199146D-13  0.72505080604318D-13  0.76024582758319D-13  0.79497888969999D-13  0.82889401253736D-13  0.86163967866253D-13
 0.90195000000000D+02  0.53478465193905D-13  0.56637310858999D-13  0.59944299294248D-13  0.63372805298157D-13  0.66893281055324D-13  0.70473674964735D-13  0.74079914258596D-13  0.77676444357584D-13  0.81226812134957D-13  0.84694286856364D-13
 0.90295000000000D+02  0.51610101619018D-13  0.54646367425394D-13  0.57858767084232D-13  0.61223626921846D-13  0.64713872944402D-13  0.68299380430050D-13  0.71947395189482D-13  0.75623021454701D-13  0.79289765518879D-13  0.82910129005834D-13
 0.90395000000000D+02  0.49857068694688D-13  0.52736017862239D-13  0.55815615335733D-13  0.59075675226924D-13  0.62492211292852D-13  0.66037708111995D-13  0.69681470011200D-13  0.73390044824113D-13  0.77127713774505D-13  0.80857041709007D-13
 0.90495000000000D+02  0.48264117963726D-13  0.50955030828308D-13  0.53867004018169D-13  0.56983786581725D-13  0.60285015054224D-13  0.63746399040015D-13  0.67339988678254D-13  0.71034523248455D-13  0.74795854541545D-13  0.78587439789518D-13
 0.90595000000000D+02  0.46871912235373D-13  0.49348870435343D-13  0.52062677544857D-13  0.55001364188608D-13  0.58148632155580D-13  0.61483949394961D-13  0.64982728972520D-13  0.68616593421738D-13  0.72353720549632D-13  0.76159266262740D-13
 0.90695000000000D+02  0.45715987452001D-13  0.47958535459422D-13  0.50448694617665D-13  0.53179014418305D-13  0.56137600542253D-13  0.59308116590621D-13  0.62669869742550D-13  0.66197983901851D-13  0.69863658868643D-13  0.73634512055155D-13
 0.90795000000000D+02  0.44825845530741D-13  0.46819512651712D-13  0.49066252279015D-13  0.51563254668265D-13  0.54303255560005D-13  0.57274444349514D-13  0.60460454038618D-13  0.63840438555142D-13  0.67389238435057D-13  0.71077632496937D-13
 0.90895000000000D+02  0.44224201328487D-13  0.45960870860755D-13  0.47950634185553D-13  0.50195325728433D-13  0.52692419226151D-13  0.55434844429504D-13  0.58410881385762D-13  0.61604139753310D-13  0.64993626525416D-13  0.68553901034442D-13
 0.90995000000000D+02  0.43926402942511D-13  0.45404519081214D-13  0.47130309943461D-13  0.49110138966273D-13  0.51346204846644D-13  0.53836271206866D-13  0.56573467688065D-13  0.59546171583779D-13  0.62737975635455D-13  0.66127742206748D-13
 0.91095000000000D+02  0.43940040132887D-13  0.45164647357434D-13  0.46626208486363D-13  0.48335385197916D-13  0.50298967487717D-13  0.52519522946580D-13  0.54995109525847D-13  0.57719062307861D-13  0.60679861952374D-13  0.63861086454261D-13
 0.91195000000000D+02  0.44264750850150D-13  0.45247364801175D-13  0.46451184031935D-13  0.47890827982073D-13  0.49577427084068D-13  0.51518200352757D-13  0.53716086937948D-13  0.56169443272721D-13  0.58871815285085D-13  0.61811788764459D-13
 0.91295000000000D+02  0.44892230794583D-13  0.45650543950576D-13  0.46609688236031D-13  0.47787799363406D-13  0.49199986555780D-13  0.50857848973753D-13  0.52769035242074D-13  0.54936858505534D-13  0.57359977977176D-13  0.60032151524575D-13
 0.91395000000000D+02  0.45806445751278D-13  0.46363875430261D-13  0.47097656899026D-13  0.48028910922811D-13  0.49176262326052D-13  0.50555307340473D-13  0.52178112127666D-13  0.54052755367490D-13  0.56182927029634D-13  0.58567589285360D-13
 0.91495000000000D+02  0.46984041269962D-13  0.47369131504812D-13  0.47902614102416D-13  0.48607987495366D-13  0.49506839208440D-13  0.50618277462517D-13  0.51958381268342D-13  0.53539682019867D-13  0.55370689489730D-13  0.57455469512330D-13
 0.91595000000000D+02  0.48394939222534D-13  0.48640631786629D-13  0.49003991104215D-13  0.49510225232990D-13  0.50183255904322D-13  0.51045128629310D-13  0.52115428171835D-13  0.53410712172453D-13  0.54943976225307D-13  0.56724158903843D-13
 0.91695000000000D+02  0.50003106002798D-13  0.50145899200404D-13  0.50373651840880D-13  0.50712569962978D-13  0.51188221464881D-13  0.51824939507323D-13  0.52645218055794D-13  0.53669111780859D-13  0.54913653626347D-13  0.56392299604173D-13
 0.91795000000000D+02  0.51767472753616D-13  0.51846489451833D-13  0.51976611611222D-13  0.52184306171617D-13  0.52496057177142D-13  0.52937777441866D-13  0.53534199359218D-13  0.54308256182012D-13  0.55280466700371D-13  0.56468333768507D-13
 0.91895000000000D+02  0.53642984128215D-13  0.53698972821366D-13  0.53771930588496D-13  0.53887841567426D-13  0.54073352580932D-13  0.54355207818011D-13  0.54759650229365D-13  0.55311799763911D-13  0.56035020610072D-13  0.56950288595434D-13
 0.91995000000000D+02  0.55581748813522D-13  0.55656043217858D-13  0.55713759346376D-13  0.55779667188193D-13  0.55879818859682D-13  0.56041020464372D-13  0.56290259122850D-13  0.56654093819840D-13  0.57158021104270D-13  0.57825827292954D-13
 0.92095000000000D+02  0.57534262447629D-13  0.57667726180696D-13  0.57752509706477D-13  0.57811468537335D-13  0.57869317812017D-13  0.57952154545378D-13  0.58086924685374D-13  0.58300841903199D-13  0.58620767685295D-13  0.59072564655724D-13
 0.92195000000000D+02  0.59450671716990D-13  0.59682654995189D-13  0.59836121018436D-13  0.59931359382236D-13  0.59991040131609D-13  0.60039798323516D-13  0.60103754479594D-13  0.60209975938542D-13  0.60385886905806D-13  0.60658639177650D-13
 0.92295000000000D+02  0.61282047368731D-13  0.61649382348881D-13  0.61911389549602D-13  0.62085206718500D-13  0.62190802913925D-13  0.62250635711837D-13  0.62289237057513D-13  0.62332730711865D-13  0.62408287060506D-13  0.62543527077036D-13
 0.92395000000000D+02  0.62981633646350D-13  0.63517694050208D-13  0.63925327052067D-13  0.64218013079065D-13  0.64412433267487D-13  0.64528207792636D-13  0.64587557451772D-13  0.64614889302258D-13  0.64636309889457D-13  0.64679077438646D-13
 0.92495000000000D+02  0.64506042258750D-13  0.65239891278729D-13  0.65826513831128D-13  0.66275320905099D-13  0.66599202711521D-13  0.66814354545986D-13  0.66940022502088D-13  0.66998167656629D-13  0.67013049883896D-13  0.67010742035528D-13
 0.92595000000000D+02  0.65816360407785D-13  0.66772008639250D-13  0.67566411780050D-13  0.68204603133624D-13  0.68695275747305D-13  0.69050699986554D-13  0.69286559631912D-13  0.69421702960399D-13  0.69477807510418D-13  0.69478968427217D-13
 0.92695000000000D+02  0.66879144591971D-13  0.68074936930117D-13  0.69100603867745D-13  0.69956604509228D-13  0.70647135630007D-13  0.71180142800946D-13  0.71567250817776D-13  0.71823607810296D-13  0.71967639254267D-13  0.72020720766590D-13
 0.92795000000000D+02  0.67667274817875D-13  0.69115421966895D-13  0.70389928442512D-13  0.71486599384809D-13  0.72404950950433D-13  0.73148314438718D-13  0.73723862597258D-13  0.74142550518010D-13  0.74418964913916D-13  0.74571089491155D-13
 0.92895000000000D+02  0.68160647411602D-13  0.69866913964697D-13  0.71401479398566D-13  0.72755533907194D-13  0.73923848146820D-13  0.74904967441688D-13  0.75701333063962D-13  0.76319321208291D-13  0.76769191120238D-13  0.77064948808822D-13
 0.92995000000000D+02  0.68346688739862D-13  0.70310245794635D-13  0.72109446674149D-13  0.73731023433171D-13  0.75165057467209D-13  0.76405258576810D-13  0.77449177896556D-13  0.78298343738998D-13  0.78958309641250D-13  0.79438619670812D-13
 0.93095000000000D+02  0.68220676718578D-13  0.70434122795340D-13  0.72495775623389D-13  0.74388179714876D-13  0.76096903131680D-13  0.77610894022322D-13  0.78922779535633D-13  0.80029094854214D-13  0.80930429678337D-13  0.81631495786305D-13
 0.93195000000000D+02  0.67785861890247D-13  0.70235411627646D-13  0.72550628424703D-13  0.74710246736383D-13  0.76695612418579D-13  0.78491107376479D-13  0.80084526604086D-13  0.81467394349486D-13  0.82635205045385D-13  0.83587591178046D-13
 0.93295000000000D+02  0.67053384964625D-13  0.69719220787037D-13  0.72272635738777D-13  0.74689028964924D-13  0.76945923018503D-13  0.79023445523379D-13  0.80904774487825D-13  0.82576533319974D-13  0.84029119805380D-13  0.85256969781427D-13
 0.93395000000000D+02  0.66041992910147D-13  0.68898770703633D-13  0.71668932180064D-13  0.74325101075975D-13  0.76841473146382D-13  0.79194342292392D-13  0.81362602556415D-13  0.83328211693834D-13  0.85076599551194D-13  0.86597020600306D-13
 0.93495000000000D+02  0.64777560823674D-13  0.67795056727859D-13  0.70754974681150D-13  0.73627793786463D-13  0.76384964444287D-13  0.78999465261502D-13  0.81446348691441D-13  0.83703261118983D-13  0.85750919966281D-13  0.87573545874182D-13
 0.93595000000000D+02  0.63292431762439D-13  0.66436313584725D-13  0.69554148368562D-13  0.72614956142370D-13  0.75588093504261D-13  0.78443826842549D-13  0.81153907471769D-13  0.83692134747670D-13  0.86034889473311D-13  0.88161634482763D-13
 0.93695000000000D+02  0.61624591368113D-13  0.64857294945997D-13  0.68097169990503D-13  0.71312500310629D-13  0.74471253743703D-13  0.77541656800203D-13  0.80492784394555D-13  0.83295151410170D-13  0.85921288542455D-13  0.88346298293602D-13
 0.93795000000000D+02  0.59816698330238D-13  0.63098386488365D-13  0.66421304103445D-13  0.69753740474895D-13  0.73063015225174D-13  0.76316039443178D-13  0.79479904735168D-13  0.82522487935074D-13  0.85413054439234D-13  0.88122855206589D-13
 0.93895000000000D+02  0.57914995417376D-13  0.61204575056545D-13  0.64569412003596D-13  0.67978542689225D-13  0.71399395678637D-13  0.74798324730645D-13  0.78141181909332D-13  0.81393919799223D-13  0.84523206686239D-13  0.87497049111524D-13
 0.93995000000000D+02  0.55968128855260D-13  0.59224300224722D-13  0.62588857659209D-13  0.66032307368865D-13  0.69522941312619D-13  0.73027328305739D-13  0.76510856337222D-13  0.79938316711480D-13  0.83274515128229D-13  0.86484903686885D-13
 0.94095000000000D+02  0.54025906174260D-13  0.57208217554140D-13  0.60530298551490D-13  0.63964810370169D-13  0.67481640855846D-13  0.71048340854709D-13  0.74630621665421D-13  0.78192905987638D-13  0.81698919057349D-13  0.85112313758403D-13
 0.94195000000000D+02  0.52138024223668D-13  0.55207905102274D-13  0.58446392272357D-13  0.61828932223098D-13  0.65327700528676D-13  0.68911972057134D-13  0.72548560629375D-13  0.76202322499150D-13  0.79836712207125D-13  0.83414384631911D-13
 0.94295000000000D+02  0.50352799817387D-13  0.53274546192316D-13  0.56390451881470D-13  0.59679307937673D-13  0.63116211195501D-13  0.66672858615751D-13  0.70317917697884D-13  0.74017469425251D-13  0.77735514398520D-13  0.81434536245568D-13
 0.94395000000000D+02  0.48715935414802D-13  0.51457622063361D-13  0.54415084337740D-13  0.57570931837128D-13  0.60903741704603D-13  0.64388269326041D-13  0.67995739808397D-13  0.71694218867284D-13  0.75449056066190D-13  0.79223394987960D-13
 0.94495000000000D+02  0.47269351353220D-13  0.49803647776035D-13  0.52570846758452D-13  0.55557753023512D-13  0.58746894310238D-13  0.62116642777139D-13  0.65641419871213D-13  0.69291985472771D-13  0.73035806669545D-13  0.76837501447725D-13
 0.94595000000000D+02  0.46050114456705D-13  0.48354983651270D-13  0.50904954810707D-13  0.53691297326575D-13  0.56700859044830D-13  0.59916094999736D-13  0.63315180206020D-13  0.66872209460565D-13  0.70557481979269D-13  0.74337867058981D-13
 0.94695000000000D+02  0.45089490393392D-13  0.47148752599269D-13  0.49460076216478D-13  0.52019350917586D-13  0.54818003942083D-13  0.57842935149169D-13  0.61076534612141D-13  0.64496787754657D-13  0.68077468324197D-13  0.71788416465185D-13
 0.94795000000000D+02  0.44412144001660D-13  0.46215891000241D-13  0.48273240187522D-13  0.50584739203061D-13  0.53146537103637D-13  0.55950227113127D-13  0.58982768324900D-13  0.62226493263557D-13  0.65659204006794D-13  0.69254355343736D-13
 0.94895000000000D+02  0.44035508035202D-13  0.45580357396568D-13  0.47374890654731D-13  0.49424232188980D-13  0.51729274775495D-13  0.54286433768207D-13  0.57087474660519D-13  0.60119422650714D-13  0.63364559193755D-13  0.66800505340108D-13
 0.94995000000000D+02  0.43969336483873D-13  0.45258519234425D-13  0.46788107493252D-13  0.48567604285502D-13  0.50602546902284D-13  0.52894178507459D-13  0.55439185712183D-13  0.58229512220908D-13  0.61252255633293D-13  0.64489648605019D-13
 0.95095000000000D+02  0.44215453920551D-13  0.45258733353806D-13  0.46528015663028D-13  0.48036872587183D-13  0.49795268125934D-13  0.51809155675487D-13  0.54080132066858D-13  0.56605159816351D-13  0.59376366541082D-13  0.62380924189272D-13
 0.95195000000000D+02  0.44767707323906D-13  0.45581130984937D-13  0.46601397393406D-13  0.47845733114599D-13  0.49328197979575D-13  0.51059217754533D-13  0.53045163227063D-13  0.55287987918054D-13  0.57784934958171D-13  0.60528317234474D-13
 0.95295000000000D+02  0.45612121660362D-13  0.46217612792101D-13  0.47006517362014D-13  0.47999209455652D-13  0.49213409204702D-13  0.50663662640603D-13  0.52360856327493D-13  0.54311779551683D-13  0.56518745868107D-13  0.58979279537067D-13
 0.95395000000000D+02  0.46727255307268D-13  0.47152054145781D-13  0.47733165384307D-13  0.48493522827472D-13  0.49453977812568D-13  0.50632739247866D-13  0.52044835937429D-13  0.53701614194046D-13  0.55610283443855D-13  0.57773516717980D-13
 0.95495000000000D+02  0.48084746296095D-13  0.48360715437371D-13  0.48762915579253D-13  0.49316186930615D-13  0.50043902854723D-13  0.50967384111924D-13  0.52105322358328D-13  0.53473225778524D-13  0.55082900077385D-13  0.56941972985750D-13
 0.95595000000000D+02  0.49650035479548D-13  0.49812847014400D-13  0.50069595450286D-13  0.50446325230248D-13  0.50968258006531D-13  0.51659195770101D-13  0.52540919998794D-13  0.53632599235089D-13  0.54950218446294D-13  0.56506039445235D-13
 0.95695000000000D+02  0.51383248204341D-13  0.51471473341890D-13  0.51619952959593D-13  0.51855202620406D-13  0.52203571151013D-13  0.52690647629667D-13  0.53340651284803D-13  0.54175815917031D-13  0.55215781929784D-13  0.56477006205187D-13
 0.95795000000000D+02  0.53240212017470D-13  0.53294336414085D-13  0.53374504615032D-13  0.53506957952009D-13  0.53718422329117D-13  0.54035533947674D-13  0.54484235297587D-13  0.55089151917186D-13  0.55872962352234D-13  0.56855772321174D-13
 0.95895000000000D+02  0.55173584451932D-13  0.55234974367430D-13  0.55288542961525D-13  0.55359518772903D-13  0.55474244845112D-13  0.55659637594023D-13  0.55942604084717D-13  0.56349426823062D-13  0.56905127467651D-13  0.57632821033954D-13
 0.95995000000000D+02  0.57134062116889D-13  0.57243907784580D-13  0.57313277791072D-13  0.57365674969730D-13  0.57426309124508D-13  0.57521602604351D-13  0.57678643521058D-13  0.57924594067325D-13  0.58286063969800D-13  0.58788460994871D-13
 0.96095000000000D+02  0.59071640229689D-13  0.59269903418860D-13  0.59397081961739D-13  0.59474283936067D-13  0.59524864249259D-13  0.59573989295943D-13  0.59648139860203D-13  0.59774557860714D-13  0.59980645289763D-13  0.60293327381752D-13
 0.96195000000000D+02  0.60936890426618D-13  0.61261283079824D-13  0.61486810033946D-13  0.61631576523040D-13  0.61716408060472D-13  0.61764485051626D-13  0.61800907860150D-13  0.61852195906077D-13  0.61945727191431D-13  0.62109130173985D-13
 0.96295000000000D+02  0.62682224209268D-13  0.63167244254509D-13  0.63529156060709D-13  0.63782530443764D-13  0.63945053425685D-13  0.64037239893004D-13  0.64082071723606D-13  0.64104561832569D-13  0.64131248355555D-13  0.64189630543368D-13
 0.96395000000000D+02  0.64263109736947D-13  0.64939158725822D-13  0.65472015855545D-13  0.65872276067895D-13  0.66153955800336D-13  0.66334292767187D-13  0.66433466182113D-13  0.66474236692585D-13  0.66481507903093D-13  0.66481820488836D-13
 0.96495000000000D+02  0.65639210853920D-13  0.66531815997782D-13  0.67265818933620D-13  0.67847498701939D-13  0.68286765634858D-13  0.68597052142514D-13  0.68795121974155D-13  0.68900795048090D-13  0.68936587282573D-13  0.68927275647341D-13
 0.96595000000000D+02  0.66775419213945D-13  0.67904579733566D-13  0.68864796082364D-13  0.69657801526707D-13  0.70289068530423D-13  0.70767793108383D-13  0.71106797799664D-13  0.71322348235436D-13  0.71433880249793D-13  0.71463646782635D-13
 0.96695000000000D+02  0.67642753083676D-13  0.69022427621397D-13  0.70228150148154D-13  0.71256994353924D-13  0.72109776344960D-13  0.72791132738598D-13  0.73309519632514D-13  0.73677125413738D-13  0.73909691895978D-13  0.74026251901974D-13
 0.96795000000000D+02  0.68219099801901D-13  0.69856848049300D-13  0.71321100084824D-13  0.72604275244812D-13  0.73702433689372D-13  0.74615446018062D-13  0.75347088069981D-13  0.75905052022631D-13  0.76300865903696D-13  0.76549728368586D-13
 0.96895000000000D+02  0.68489782857073D-13  0.70386570617365D-13  0.72115771535363D-13  0.73665274756892D-13  0.75026406400857D-13  0.76194186135998D-13  0.77167515199389D-13  0.77949285326222D-13  0.78546398474141D-13  0.78969702831664D-13
 0.96995000000000D+02  0.68447939019693D-13  0.70598111752625D-13  0.72591911128281D-13  0.74412936082422D-13  0.76047921581642D-13  0.77487075377299D-13  0.78724354247357D-13  0.79757667800548D-13  0.80588997694189D-13  0.81224436325321D-13
 0.97095000000000D+02  0.68094695814831D-13  0.70486121409095D-13  0.72737406165370D-13  0.74828208523887D-13  0.76740932571095D-13  0.78461136135552D-13  0.79977888001179D-13  0.81284061204937D-13  0.82376548489173D-13  0.83256402506104D-13
 0.97195000000000D+02  0.67439144719854D-13  0.70053521913737D-13  0.72548596343383D-13  0.74900536512418D-13  0.77087786681146D-13  0.79091535643251D-13  0.80896145585828D-13  0.82489527210544D-13  0.83863445703148D-13  0.85013758689988D-13
 0.97295000000000D+02  0.66498110693076D-13  0.69311435328579D-13  0.72030369461969D-13  0.74628131592710D-13  0.77079678555684D-13  0.79362222763267D-13  0.81455721552627D-13  0.83343324365305D-13  0.85011761201801D-13  0.86451672071840D-13
 0.97395000000000D+02  0.65295723847245D-13  0.68278901104503D-13  0.71196038588558D-13  0.74018020339857D-13  0.76716877485907D-13  0.79266340489884D-13  0.81642376275651D-13  0.83823695854153D-13  0.85792215119202D-13  0.87533467194161D-13
 0.97495000000000D+02  0.63862804144270D-13  0.66982391165114D-13  0.70067003736934D-13  0.73085866898104D-13  0.76008722786091D-13  0.78806403532624D-13  0.81451402231032D-13  0.83918427847688D-13  0.86184926360726D-13  0.88231565284102D-13
 0.97595000000000D+02  0.62236074774878D-13  0.65455134742667D-13  0.68672206627331D-13  0.71855574592707D-13  0.74973387260358D-13  0.77994236355529D-13  0.80887746710572D-13  0.83625164085713D-13  0.86179923103796D-13  0.88528191382554D-13
 0.97695000000000D+02  0.60457224276287D-13  0.63736270159366D-13  0.67047392390962D-13  0.70358676716688D-13  0.73637414719704D-13  0.76850673165625D-13  0.79965887741865D-13  0.82951468565023D-13  0.85777400162137D-13  0.88415831111457D-13
 0.97795000000000D+02  0.58571841319916D-13  0.61869845181839D-13  0.65234197025655D-13  0.68633531989748D-13  0.72035043287986D-13  0.75405027430357D-13  0.78709466293847D-13  0.81914634634898D-13  0.84987716542034D-13  0.87897425314585D-13
 0.97895000000000D+02  0.56628249370133D-13  0.59903691460312D-13  0.63279083874802D-13  0.66724345188956D-13  0.70207331718187D-13  0.73694344399455D-13  0.77150684078113D-13  0.80541245284620D-13  0.83831133155701D-13  0.86986297499922D-13
 0.97995000000000D+02  0.54676270989955D-13  0.57888201797382D-13  0.61232156274691D-13  0.64680037931770D-13  0.68201110985672D-13  0.71762455661110D-13  0.75329482253184D-13  0.78866495769573D-13  0.82337297298034D-13  0.85705815837758D-13
 0.98095000000000D+02  0.52765953384168D-13  0.55875041491047D-13  0.59145876695989D-13  0.62552998436593D-13  0.66067787903989D-13  0.69658859833241D-13  0.73292521947704D-13  0.76933295803214D-13  0.80544486968969D-13  0.84088798253469D-13
 0.98195000000000D+02  0.50946287777494D-13  0.53915826698419D-13  0.57073725111746D-13  0.60397742195553D-13  0.63862031306226D-13  0.67437457948239D-13  0.71091992595719D-13  0.74791174185957D-13  0.78498634268886D-13  0.82176675724327D-13
 0.98295000000000D+02  0.49263955398882D-13  0.52060803626208D-13  0.55068830894780D-13  0.58269517788422D-13  0.61640374353331D-13  0.65155175819342D-13  0.68784278492529D-13  0.72495013804150D-13  0.76252152751603D-13  0.80018435077570D-13
 0.98395000000000D+02  0.47762132177631D-13  0.50357562349047D-13  0.53182613240944D-13  0.56222893486407D-13  0.59459768692333D-13  0.62870508582917D-13  0.66428517619917D-13  0.70103649283054D-13  0.73862598643649D-13  0.77669368233978D-13
 0.98495000000000D+02  0.46479382769318D-13  0.48849818186486D-13  0.51463464913156D-13  0.54310360802893D-13  0.57376127436228D-13  0.60642024618467D-13  0.64085089561126D-13  0.67678363105390D-13  0.71391200100643D-13  0.75189659802571D-13
 0.98595000000000D+02  0.45448672256958D-13  0.47576291855737D-13  0.49955513008825D-13  0.52580990731646D-13  0.55442894240758D-13  0.58526867105105D-13  0.61814071157362D-13  0.65281318620872D-13  0.68901292062505D-13  0.72642849080537D-13
 0.98695000000000D+02  0.44696520873059D-13  0.46569717103195D-13  0.48697488497676D-13  0.51079177081401D-13  0.53709675103095D-13  0.56579291551809D-13  0.59673699401242D-13  0.62973970004700D-13  0.66456696701362D-13  0.70094205741339D-13
 0.98795000000000D+02  0.44242323437768D-13  0.45856001267346D-13  0.47721733507459D-13  0.49843499102723D-13  0.52220967919523D-13  0.54849276736419D-13  0.57718880896288D-13  0.60815489831833D-13  0.64120090866771D-13  0.67609060720165D-13
 0.98895000000000D+02  0.44097851000085D-13  0.45453560321518D-13  0.47053371821942D-13  0.48905732564495D-13  0.51015022353599D-13  0.53381244627335D-13  0.55999786038730D-13  0.58861254502652D-13  0.61951402285376D-13  0.65251134971687D-13
 0.98995000000000D+02  0.44266947510729D-13  0.45372845486851D-13  0.46709663888456D-13  0.48290034650631D-13  0.50122859246075D-13  0.52212922089443D-13  0.54560563927887D-13  0.57161426294653D-13  0.60006275556577D-13  0.63080908850130D-13
 0.99095000000000D+02  0.44745429365640D-13  0.45616073607513D-13  0.46699562917342D-13  0.48012323609054D-13  0.49567474727333D-13  0.51374373562112D-13  0.53438210938695D-13  0.55759668360730D-13  0.58334647219833D-13  0.61154073843139D-13
 0.99195000000000D+02  0.45521190466018D-13  0.46177168266950D-13  0.47023483513519D-13  0.48079869107877D-13  0.49363249476129D-13  0.50887229534222D-13  0.52661621972518D-13  0.54692025609597D-13  0.56979466397157D-13  0.59520106304210D-13
