%!PS-Adobe-3.0 EPSF-3.0
%%Title: S075h07HO.eps
%%Creator: matplotlib version 2.2.3, http://matplotlib.org/
%%CreationDate: Fri Dec 28 14:28:27 2018
%%Orientation: portrait
%%BoundingBox: 75 223 536 568
%%EndComments
%%BeginProlog
/mpldict 9 dict def
mpldict begin
/m { moveto } bind def
/l { lineto } bind def
/r { rlineto } bind def
/c { curveto } bind def
/cl { closepath } bind def
/box {
m
1 index 0 r
0 exch r
neg 0 r
cl
} bind def
/clipbox {
box
clip
newpath
} bind def
%!PS-Adobe-3.0 Resource-Font
%%Title: DejaVu Sans Oblique
%%Copyright: Copyright (c) 2003 by Bitstream, Inc. All Rights Reserved. Copyright (c) 2006 by Tavmjong Bah. All Rights Reserved. DejaVu changes are in public domain 
%%Creator: Converted from TrueType to type 3 by PPR
25 dict begin
/_d{bind def}bind def
/_m{moveto}_d
/_l{lineto}_d
/_cl{closepath eofill}_d
/_c{curveto}_d
/_sc{7 -1 roll{setcachedevice}{pop pop pop pop pop pop}ifelse}_d
/_e{exec}_d
/FontName /DejaVuSans-Oblique def
/PaintType 0 def
/FontMatrix[.001 0 0 .001 0 0]def
/FontBBox[-1016 -350 1659 1068]def
/FontType 3 def
/Encoding [ /i /r /alpha ] def
/FontInfo 10 dict dup begin
/FamilyName (DejaVu Sans) def
/FullName (DejaVu Sans Oblique) def
/Notice (Copyright (c) 2003 by Bitstream, Inc. All Rights Reserved. Copyright (c) 2006 by Tavmjong Bah. All Rights Reserved. DejaVu changes are in public domain ) def
/Weight (Oblique) def
/Version (Version 2.35) def
/ItalicAngle -11.0 def
/isFixedPitch false def
/UnderlinePosition -130 def
/UnderlineThickness 90 def
end readonly def
/CharStrings 4 dict dup begin
/.notdef 0 def
/i{278 0 35 0 273 760 _sc
183 760 _m
273 760 _l
251 646 _l
161 646 _l
183 760 _l
142 547 _m
232 547 _l
125 0 _l
35 0 _l
142 547 _l
_cl}_d
/r{411 0 35 0 463 560 _sc
446 464 _m
436 468 426 472 414 475 _c
402 477 390 479 377 479 _c
329 479 287 460 251 424 _c
215 388 192 339 180 279 _c
125 0 _l
35 0 _l
142 547 _l
232 547 _l
215 462 _l
238 493 266 517 300 534 _c
333 551 368 560 406 560 _c
415 560 424 559 434 558 _c
444 557 453 555 463 553 _c
446 464 _l
_cl}_d
/alpha{{659 0 55 -11 645 559 _sc
409 254 _m
410 367 _l
410 443 381 482 323 483 _c
279 483 244 465 218 429 _c
184 384 161 332 150 273 _c
136 201 137 148 155 114 _c
173 79 202 62 242 62 _c
285 62 325 96 362 166 _c
409 254 _l
338 559 _m
440 561 490 509 489 404 _c
489 404 514 451 565 547 _c
645 547 _l
487 250 _l
486 144 _l
486 128 490 113 499 100 _c
509 84 519 76 530 76 _c
}_e{573 76 _l
559 0 _l
504 0 _l
473 0 447 13 425 41 _c
415 55 409 76 409 104 _c
387 69 359 37 323 8 _c
305 -5 273 -11 227 -11 _c
151 -10 99 14 71 62 _c
43 112 37 183 55 273 _c
73 369 108 440 158 484 _c
213 533 273 558 338 559 _c
_cl}_e}_d
end readonly def

/BuildGlyph
 {exch begin
 CharStrings exch
 2 copy known not{pop /.notdef}if
 true 3 1 roll get exec
 end}_d

/BuildChar {
 1 index /Encoding get exch get
 1 index /BuildGlyph get exec
}_d

FontName currentdict end definefont pop
%!PS-Adobe-3.0 Resource-Font
%%Title: DejaVu Serif
%%Copyright: Copyright (c) 2003 by Bitstream, Inc. All Rights Reserved. DejaVu changes are in public domain 
%%Creator: Converted from TrueType to type 3 by PPR
25 dict begin
/_d{bind def}bind def
/_m{moveto}_d
/_l{lineto}_d
/_cl{closepath eofill}_d
/_c{curveto}_d
/_sc{7 -1 roll{setcachedevice}{pop pop pop pop pop pop}ifelse}_d
/_e{exec}_d
/FontName /DejaVuSerif def
/PaintType 0 def
/FontMatrix[.001 0 0 .001 0 0]def
/FontBBox[-770 -347 2105 1109]def
/FontType 3 def
/Encoding [ /hyphen /period /zero /one /two /three /four /five /six ] def
/FontInfo 10 dict dup begin
/FamilyName (DejaVu Serif) def
/FullName (DejaVu Serif) def
/Notice (Copyright (c) 2003 by Bitstream, Inc. All Rights Reserved. DejaVu changes are in public domain ) def
/Weight (Book) def
/Version (Version 2.35) def
/ItalicAngle 0.0 def
/isFixedPitch false def
/UnderlinePosition -130 def
/UnderlineThickness 90 def
end readonly def
/CharStrings 10 dict dup begin
/.notdef 0 def
/hyphen{338 0 44 230 294 306 _sc
44 306 _m
294 306 _l
294 230 _l
44 230 _l
44 306 _l
_cl}_d
/period{318 0 94 -13 224 116 _sc
94 51 _m
94 69 100 84 112 97 _c
124 109 140 116 159 116 _c
177 116 192 109 205 97 _c
217 84 224 69 224 51 _c
224 33 217 17 205 5 _c
192 -7 177 -13 159 -13 _c
140 -13 124 -7 112 5 _c
100 17 94 32 94 51 _c
_cl}_d
/zero{636 0 66 -13 570 742 _sc
318 34 _m
368 34 405 61 430 116 _c
454 170 467 253 467 364 _c
467 474 454 557 430 612 _c
405 666 368 694 318 694 _c
268 694 230 666 206 612 _c
181 557 169 474 169 364 _c
169 253 181 170 206 116 _c
230 61 268 34 318 34 _c
318 -13 _m
238 -13 176 20 132 86 _c
88 152 66 244 66 364 _c
66 483 88 576 132 642 _c
176 708 238 742 318 742 _c
397 742 459 708 503 642 _c
547 576 570 483 570 364 _c
570 244 547 152 503 86 _c
459 20 397 -13 318 -13 _c
_cl}_d
/one{636 0 122 0 494 742 _sc
142 0 _m
142 52 _l
269 52 _l
269 658 _l
122 563 _l
122 627 _l
300 742 _l
367 742 _l
367 52 _l
494 52 _l
494 0 _l
142 0 _l
_cl}_d
/two{{636 0 68 0 538 742 _sc
128 555 _m
73 555 _l
73 685 _l
107 703 142 717 178 727 _c
213 737 248 742 282 742 _c
358 742 418 723 462 687 _c
506 650 528 600 528 537 _c
528 465 478 380 378 281 _c
370 273 365 268 361 264 _c
177 80 _l
481 80 _l
481 170 _l
538 170 _l
538 0 _l
68 0 _l
68 53 _l
289 274 _l
337 322 372 367 393 408 _c
414 449 425 492 425 537 _c
}_e{425 586 412 624 386 652 _c
360 680 325 694 281 694 _c
234 694 198 682 173 659 _c
147 636 132 601 128 555 _c
_cl}_e}_d
/three{{636 0 76 -13 562 742 _sc
97 698 _m
135 712 171 723 206 731 _c
241 738 274 742 305 742 _c
376 742 432 726 472 696 _c
512 665 532 622 532 568 _c
532 524 518 487 490 458 _c
462 428 423 408 373 398 _c
433 389 479 367 512 332 _c
545 297 562 252 562 197 _c
562 129 539 77 493 41 _c
447 5 382 -13 296 -13 _c
258 -13 220 -9 184 -1 _c
148 6 112 18 76 35 _c
76 177 _l
}_e{131 177 _l
134 129 150 94 178 70 _c
206 46 246 34 298 34 _c
348 34 387 48 416 77 _c
444 106 459 146 459 196 _c
459 253 444 296 414 326 _c
384 355 341 370 284 370 _c
238 370 _l
238 420 _l
262 420 _l
319 420 362 431 390 455 _c
418 479 433 514 433 562 _c
433 604 421 637 398 660 _c
374 682 341 694 297 694 _c
253 694 218 683 194 662 _c
170 641 156 610 152 570 _c
}_e{97 570 _l
97 698 _l
_cl}_e}_d
/four{636 0 31 0 586 742 _sc
349 247 _m
349 635 _l
100 247 _l
349 247 _l
564 0 _m
232 0 _l
232 52 _l
349 52 _l
349 195 _l
31 195 _l
31 248 _l
350 742 _l
447 742 _l
447 247 _l
586 247 _l
586 195 _l
447 195 _l
447 52 _l
564 52 _l
564 0 _l
_cl}_d
/five{{636 0 85 -13 559 729 _sc
503 729 _m
503 649 _l
169 649 _l
169 440 _l
185 452 205 460 228 466 _c
250 472 276 475 304 475 _c
382 475 444 453 490 409 _c
536 365 559 306 559 231 _c
559 153 536 93 490 51 _c
444 8 379 -13 296 -13 _c
262 -13 228 -9 193 -1 _c
157 6 121 18 85 35 _c
85 177 _l
140 177 _l
143 130 158 94 184 70 _c
210 46 248 34 296 34 _c
}_e{347 34 386 51 414 85 _c
442 119 456 167 456 231 _c
456 294 442 342 415 376 _c
387 410 348 427 296 427 _c
266 427 240 421 218 411 _c
196 401 176 385 159 363 _c
117 363 _l
117 729 _l
503 729 _l
_cl}_e}_d
/six{{636 0 67 -13 573 742 _sc
327 34 _m
373 34 408 50 433 84 _c
457 118 470 166 470 230 _c
470 293 457 341 433 375 _c
408 409 373 426 327 426 _c
280 426 244 409 220 377 _c
196 344 184 297 184 236 _c
184 171 196 121 221 86 _c
245 51 281 34 327 34 _c
168 401 _m
190 425 215 444 243 456 _c
271 468 302 474 338 474 _c
410 474 468 452 510 408 _c
552 364 573 305 573 230 _c
}_e{573 156 550 97 505 53 _c
459 9 399 -13 323 -13 _c
241 -13 177 17 133 78 _c
89 139 67 227 67 341 _c
67 468 93 567 145 637 _c
197 707 271 742 367 742 _c
393 742 420 739 448 735 _c
476 730 505 723 535 713 _c
535 593 _l
480 593 _l
476 625 463 650 442 668 _c
421 685 393 694 357 694 _c
293 694 246 670 215 622 _c
184 574 168 500 168 401 _c
_cl}_e}_d
end readonly def

/BuildGlyph
 {exch begin
 CharStrings exch
 2 copy known not{pop /.notdef}if
 true 3 1 roll get exec
 end}_d

/BuildChar {
 1 index /Encoding get exch get
 1 index /BuildGlyph get exec
}_d

FontName currentdict end definefont pop
end
%%EndProlog
mpldict begin
75.6 223.2 translate
460.8 345.6 0 0 clipbox
gsave
0 0 m
460.8 0 l
460.8 345.6 l
0 345.6 l
cl
1.000 setgray
fill
grestore
gsave
57.6 38.016 m
414.72 38.016 l
414.72 304.128 l
57.6 304.128 l
cl
1.000 setgray
fill
grestore
0.800 setlinewidth
1 setlinejoin
0 setlinecap
[] 0 setdash
0.000 setgray
gsave
/o {
gsave
newpath
translate
0.8 setlinewidth
1 setlinejoin
0 setlinecap
0 0 m
0 -3.5 l

gsave
0.000 setgray
fill
grestore
stroke
grestore
} bind def
151.172 38.016 o
grestore
/DejaVuSerif findfont
15.000 scalefont
setfont
gsave
146.398918 19.625375 translate
0.000000 rotate
0.000000 0.000000 m /one glyphshow
grestore
gsave
/o {
gsave
newpath
translate
0.8 setlinewidth
1 setlinejoin
0 setlinecap
0 0 m
0 -3.5 l

gsave
0.000 setgray
fill
grestore
stroke
grestore
} bind def
250.225 38.016 o
grestore
gsave
245.451078 19.625375 translate
0.000000 rotate
0.000000 0.000000 m /two glyphshow
grestore
gsave
/o {
gsave
newpath
translate
0.8 setlinewidth
1 setlinejoin
0 setlinecap
0 0 m
0 -3.5 l

gsave
0.000 setgray
fill
grestore
stroke
grestore
} bind def
349.277 38.016 o
grestore
gsave
344.503237 19.625375 translate
0.000000 rotate
0.000000 0.000000 m /three glyphshow
grestore
gsave
226.160000 -2.702750 translate
0.000000 rotate
/DejaVuSans-Oblique findfont
20.0 scalefont
setfont
0.000000 0.765625 moveto
/alpha glyphshow

/DejaVuSans-Oblique findfont
14.0 scalefont
setfont
13.183594 -2.515625 moveto
/r glyphshow


grestore
gsave
/o {
gsave
newpath
translate
0.8 setlinewidth
1 setlinejoin
0 setlinecap
0 0 m
-3.5 0 l

gsave
0.000 setgray
fill
grestore
stroke
grestore
} bind def
57.6 48.0291 o
grestore
gsave
26.740625 42.333782 translate
0.000000 rotate
0.000000 0.000000 m /zero glyphshow
9.543457 0.000000 m /period glyphshow
14.311523 0.000000 m /zero glyphshow
grestore
gsave
/o {
gsave
newpath
translate
0.8 setlinewidth
1 setlinejoin
0 setlinecap
0 0 m
-3.5 0 l

gsave
0.000 setgray
fill
grestore
stroke
grestore
} bind def
57.6 85.9484 o
grestore
gsave
26.740625 80.253050 translate
0.000000 rotate
0.000000 0.000000 m /zero glyphshow
9.543457 0.000000 m /period glyphshow
14.311523 0.000000 m /one glyphshow
grestore
gsave
/o {
gsave
newpath
translate
0.8 setlinewidth
1 setlinejoin
0 setlinecap
0 0 m
-3.5 0 l

gsave
0.000 setgray
fill
grestore
stroke
grestore
} bind def
57.6 123.868 o
grestore
gsave
26.740625 118.172318 translate
0.000000 rotate
0.000000 0.000000 m /zero glyphshow
9.543457 0.000000 m /period glyphshow
14.311523 0.000000 m /two glyphshow
grestore
gsave
/o {
gsave
newpath
translate
0.8 setlinewidth
1 setlinejoin
0 setlinecap
0 0 m
-3.5 0 l

gsave
0.000 setgray
fill
grestore
stroke
grestore
} bind def
57.6 161.787 o
grestore
gsave
26.740625 156.091586 translate
0.000000 rotate
0.000000 0.000000 m /zero glyphshow
9.543457 0.000000 m /period glyphshow
14.311523 0.000000 m /three glyphshow
grestore
gsave
/o {
gsave
newpath
translate
0.8 setlinewidth
1 setlinejoin
0 setlinecap
0 0 m
-3.5 0 l

gsave
0.000 setgray
fill
grestore
stroke
grestore
} bind def
57.6 199.706 o
grestore
gsave
26.740625 194.010854 translate
0.000000 rotate
0.000000 0.000000 m /zero glyphshow
9.543457 0.000000 m /period glyphshow
14.311523 0.000000 m /four glyphshow
grestore
gsave
/o {
gsave
newpath
translate
0.8 setlinewidth
1 setlinejoin
0 setlinecap
0 0 m
-3.5 0 l

gsave
0.000 setgray
fill
grestore
stroke
grestore
} bind def
57.6 237.625 o
grestore
gsave
26.740625 231.930122 translate
0.000000 rotate
0.000000 0.000000 m /zero glyphshow
9.543457 0.000000 m /period glyphshow
14.311523 0.000000 m /five glyphshow
grestore
gsave
/o {
gsave
newpath
translate
0.8 setlinewidth
1 setlinejoin
0 setlinecap
0 0 m
-3.5 0 l

gsave
0.000 setgray
fill
grestore
stroke
grestore
} bind def
57.6 275.545 o
grestore
gsave
26.740625 269.849390 translate
0.000000 rotate
0.000000 0.000000 m /zero glyphshow
9.543457 0.000000 m /period glyphshow
14.311523 0.000000 m /six glyphshow
grestore
gsave
18.584375 158.572000 translate
90.000000 rotate
/DejaVuSerif findfont
20.0 scalefont
setfont
0.000000 0.765625 moveto
/hyphen glyphshow

/DejaVuSans-Oblique findfont
20.0 scalefont
setfont
6.757812 0.765625 moveto
/alpha glyphshow

/DejaVuSans-Oblique findfont
14.0 scalefont
setfont
19.941406 -2.515625 moveto
/i glyphshow


grestore
2.000 setlinewidth
2 setlinecap
1.000 0.000 0.000 setrgbcolor
gsave
357.1 266.1 57.6 38.02 clipbox
76.425814 50.112 m
79.492171 50.573098 l
82.565067 51.051639 l
85.644004 51.541936 l
88.728488 52.039816 l
91.817925 52.541487 l
94.911918 53.043918 l
98.009973 53.545211 l
101.111593 54.044607 l
104.216482 54.540591 l
107.324441 55.032404 l
110.435174 55.520425 l
113.548483 56.003517 l
116.664367 56.481679 l
119.782628 56.95529 l
122.903266 57.423214 l
126.026182 57.886208 l
129.151377 58.343894 l
132.278751 58.795892 l
135.408403 59.242201 l
138.540234 59.682444 l
141.674145 60.116999 l
144.810335 60.544728 l
147.948604 60.96639 l
151.089053 61.381227 l
154.231582 61.788859 l
157.376191 62.189287 l
160.52288 62.58251 l
163.671649 62.967769 l
166.822498 63.345066 l
169.975328 63.7144 l
173.130041 64.075012 l
176.286734 64.426903 l
179.445408 64.769693 l
182.605766 65.103383 l
185.768106 65.427213 l
188.93203 65.741564 l
192.097836 66.046056 l
195.265127 66.340309 l
198.434103 66.624324 l
201.604664 66.897722 l
204.77671 67.160124 l
207.950143 67.411528 l
211.124963 67.651937 l
214.30107 67.880969 l
217.478367 68.098246 l
220.65695 68.304148 l
223.836624 68.498295 l
227.017288 68.680307 l
230.198942 68.850565 l
233.381488 69.008688 l
236.564826 69.154298 l
239.748957 69.287774 l
242.93388 69.408736 l
246.119298 69.517185 l
249.305311 69.613121 l
252.491819 69.696164 l
255.678723 69.767073 l
258.866024 69.82509 l
262.053522 69.870214 l
265.241219 69.902824 l
268.429113 69.922922 l
271.617008 69.929747 l
274.805002 69.924438 l
277.992797 69.868318 l
281.180494 69.875143 l
281.180494 69.875143 l
284.367992 69.831915 l
287.555194 69.775795 l
290.742098 69.707161 l
293.928507 69.626014 l
297.11452 69.532353 l
300.299938 69.426558 l
303.484861 69.308629 l
306.668992 69.178187 l
309.852528 69.03599 l
313.035272 68.881658 l
316.217125 68.715193 l
319.398086 68.537351 l
322.578155 68.347755 l
325.757135 68.146404 l
328.935125 67.933677 l
332.112025 67.709574 l
335.287736 67.474474 l
338.46216 67.227999 l
341.635395 66.970907 l
344.807342 66.703196 l
347.977902 66.42449 l
351.146977 66.135545 l
354.314665 65.836362 l
357.480867 65.526562 l
360.645485 65.207281 l
363.808617 64.877763 l
366.970064 64.538765 l
370.129828 64.190287 l
373.287908 63.832708 l
376.444304 63.465649 l
379.598818 63.089869 l
382.751649 62.704989 l
385.902597 62.311766 l
389.051663 61.909822 l
392.198748 61.499915 l
395.344051 61.081665 l
398.487273 60.655832 l
stroke
grestore
1.000 setlinewidth
2 setlinejoin
0 setlinecap
gsave
357.1 266.1 57.6 38.02 clipbox
/o {
gsave
newpath
translate
1.0 setlinewidth
2 setlinejoin
0 setlinecap
0 3 m
-0.673542 0.927051 l
-2.85317 0.927051 l
-1.089814 -0.354102 l
-1.763356 -2.427051 l
-0 -1.145898 l
1.763356 -2.427051 l
1.089814 -0.354102 l
2.85317 0.927051 l
0.673542 0.927051 l
cl

gsave
1.000 0.000 0.000 setrgbcolor
fill
grestore
stroke
grestore
} bind def
76.4258 50.112 o
79.4922 50.5731 o
82.5651 51.0516 o
85.644 51.5419 o
88.7285 52.0398 o
91.8179 52.5415 o
94.9119 53.0439 o
98.01 53.5452 o
101.112 54.0446 o
104.216 54.5406 o
107.324 55.0324 o
110.435 55.5204 o
113.548 56.0035 o
116.664 56.4817 o
119.783 56.9553 o
122.903 57.4232 o
126.026 57.8862 o
129.151 58.3439 o
132.279 58.7959 o
135.408 59.2422 o
138.54 59.6824 o
141.674 60.117 o
144.81 60.5447 o
147.949 60.9664 o
151.089 61.3812 o
154.232 61.7889 o
157.376 62.1893 o
160.523 62.5825 o
163.672 62.9678 o
166.822 63.3451 o
169.975 63.7144 o
173.13 64.075 o
176.287 64.4269 o
179.445 64.7697 o
182.606 65.1034 o
185.768 65.4272 o
188.932 65.7416 o
192.098 66.0461 o
195.265 66.3403 o
198.434 66.6243 o
201.605 66.8977 o
204.777 67.1601 o
207.95 67.4115 o
211.125 67.6519 o
214.301 67.881 o
217.478 68.0982 o
220.657 68.3041 o
223.837 68.4983 o
227.017 68.6803 o
230.199 68.8506 o
233.381 69.0087 o
236.565 69.1543 o
239.749 69.2878 o
242.934 69.4087 o
246.119 69.5172 o
249.305 69.6131 o
252.492 69.6962 o
255.679 69.7671 o
258.866 69.8251 o
262.054 69.8702 o
265.241 69.9028 o
268.429 69.9229 o
271.617 69.9297 o
274.805 69.9244 o
277.993 69.8683 o
281.18 69.8751 o
281.18 69.8751 o
284.368 69.8319 o
287.555 69.7758 o
290.742 69.7072 o
293.929 69.626 o
297.115 69.5324 o
300.3 69.4266 o
303.485 69.3086 o
306.669 69.1782 o
309.853 69.036 o
313.035 68.8817 o
316.217 68.7152 o
319.398 68.5374 o
322.578 68.3478 o
325.757 68.1464 o
328.935 67.9337 o
332.112 67.7096 o
335.288 67.4745 o
338.462 67.228 o
341.635 66.9709 o
344.807 66.7032 o
347.978 66.4245 o
351.147 66.1355 o
354.315 65.8364 o
357.481 65.5266 o
360.645 65.2073 o
363.809 64.8778 o
366.97 64.5388 o
370.13 64.1903 o
373.288 63.8327 o
376.444 63.4656 o
379.599 63.0899 o
382.752 62.705 o
385.903 62.3118 o
389.052 61.9098 o
392.199 61.4999 o
395.344 61.0817 o
398.487 60.6558 o
grestore
2.000 setlinewidth
1 setlinejoin
2 setlinecap
0.000 0.000 1.000 setrgbcolor
gsave
357.1 266.1 57.6 38.02 clipbox
73.832727 54.738151 m
78.232228 58.47244 l
82.651539 63.062947 l
87.096009 68.526734 l
91.57386 74.886933 l
96.096681 82.173879 l
100.679527 90.427766 l
105.341912 99.701681 l
110.108996 110.061225 l
115.013464 121.588303 l
120.099 134.383023 l
125.425134 148.561795 l
131.075465 164.251272 l
137.170838 181.567485 l
143.888357 200.54987 l
151.482984 220.999352 l
160.281193 242.118109 l
170.551515 262.018141 l
182.182913 277.910106 l
194.544919 287.858605 l
206.920694 292.032 l
218.897289 291.751397 l
230.33603 288.326529 l
241.229688 282.710306 l
251.616693 275.542048 l
261.546672 267.249104 l
271.067368 258.123453 l
280.221471 248.36948 l
289.046028 238.134311 l
297.572834 227.526775 l
305.829426 216.62764 l
313.839477 205.496059 l
321.622995 194.174124 l
stroke
grestore
1.000 setlinewidth
0 setlinecap
gsave
357.1 266.1 57.6 38.02 clipbox
/o {
gsave
newpath
translate
1.0 setlinewidth
1 setlinejoin
0 setlinecap
0 -3 m
0.795609 -3 1.55874 -2.683901 2.12132 -2.12132 c
2.683901 -1.55874 3 -0.795609 3 0 c
3 0.795609 2.683901 1.55874 2.12132 2.12132 c
1.55874 2.683901 0.795609 3 0 3 c
-0.795609 3 -1.55874 2.683901 -2.12132 2.12132 c
-2.683901 1.55874 -3 0.795609 -3 0 c
-3 -0.795609 -2.683901 -1.55874 -2.12132 -2.12132 c
-1.55874 -2.683901 -0.795609 -3 0 -3 c
cl

gsave
0.000 0.000 1.000 setrgbcolor
fill
grestore
stroke
grestore
} bind def
73.8327 54.7382 o
78.2322 58.4724 o
82.6515 63.0629 o
87.096 68.5267 o
91.5739 74.8869 o
96.0967 82.1739 o
100.68 90.4278 o
105.342 99.7017 o
110.109 110.061 o
115.013 121.588 o
120.099 134.383 o
125.425 148.562 o
131.075 164.251 o
137.171 181.567 o
143.888 200.55 o
151.483 220.999 o
160.281 242.118 o
170.552 262.018 o
182.183 277.91 o
194.545 287.859 o
206.921 292.032 o
218.897 291.751 o
230.336 288.327 o
241.23 282.71 o
251.617 275.542 o
261.547 267.249 o
271.067 258.123 o
280.221 248.369 o
289.046 238.134 o
297.573 227.527 o
305.829 216.628 o
313.839 205.496 o
321.623 194.174 o
grestore
0.800 setlinewidth
0 setlinejoin
2 setlinecap
[] 0 setdash
0.000 setgray
gsave
57.6 38.016 m
57.6 304.128 l
stroke
grestore
gsave
414.72 38.016 m
414.72 304.128 l
stroke
grestore
gsave
57.6 38.016 m
414.72 38.016 l
stroke
grestore
gsave
57.6 304.128 m
414.72 304.128 l
stroke
grestore

end
showpage
