0.600000	2.143727	0.534999
0.620000	2.234667	0.510891
0.640000	2.322715	0.485398
0.660000	2.407968	0.458803
0.680000	2.490667	0.431314
0.700000	2.571141	0.403180
0.720000	2.649371	0.374383
0.740000	2.725621	0.345277
0.760000	2.800024	0.315649
0.780000	2.872575	0.285959
0.800000	2.943381	0.255980
0.820000	3.012587	0.225733
0.840000	3.080563	0.195035
0.860000	3.147383	0.164704
0.880000	3.212419	0.134522
0.900000	3.276238	0.103178
