0.000001	0.655800	1.000000	1.000000
0.000077	0.655800	1.000000	1.000000
0.000308	0.655800	1.000000	1.000000
0.000693	0.655800	1.000000	1.000000
0.001230	0.655800	1.000000	1.000000
0.001919	0.655800	1.000000	1.000000
0.002759	0.655800	1.000000	1.000000
0.003747	0.655800	1.000000	1.000000
0.004881	0.655800	1.000000	1.000000
0.006160	0.655800	1.000000	1.000000
0.007580	0.655800	1.000000	1.000000
0.009139	0.655800	1.000000	1.000000
0.010834	0.655800	1.000000	1.000000
0.012662	0.655800	1.000000	1.000000
0.014619	0.655800	1.000000	1.000000
0.016701	0.655800	1.000000	1.000000
0.018905	0.655800	1.000000	1.000000
0.021226	0.655800	1.000000	1.000000
0.023661	0.655800	1.000000	1.000000
0.026205	0.655800	1.000000	1.000000
0.028853	0.655800	1.000000	1.000000
0.031602	0.655800	1.000000	1.000000
0.034447	0.655800	1.000000	1.000000
0.037382	0.655800	1.000000	1.000000
0.040404	0.655800	1.000000	1.000000
0.043508	0.655800	1.000000	1.000000
0.046689	0.655800	1.000000	1.000000
0.049943	0.655800	1.000000	1.000000
0.053264	0.655800	1.000000	1.000000
0.056648	0.655800	1.000000	1.000000
0.060091	0.655800	1.000000	1.000000
0.063589	0.655800	1.000000	1.000000
0.067135	0.655800	1.000000	1.000000
0.070727	0.655800	1.000000	1.000000
0.074361	0.655800	1.000000	1.000000
0.078031	0.655800	1.000000	1.000000
0.081734	0.655800	1.000000	1.000000
0.085466	0.655800	1.000000	1.000000
0.089222	0.655800	1.000000	1.000000
0.093001	0.655800	1.000000	1.000000
0.096797	0.655800	1.000000	1.000000
0.100607	0.655800	1.000000	1.000000
0.104428	0.655800	1.000000	1.000000
0.108258	0.655800	1.000000	1.000000
0.112091	0.655800	1.000000	1.000000
0.115927	0.655800	1.000000	1.000000
0.119762	0.655800	1.000000	1.000000
0.123593	0.655800	1.000000	1.000000
0.127418	0.655800	1.000000	1.000000
0.131234	0.655800	1.000000	1.000000
0.135040	0.655800	1.000000	1.000000
0.138833	0.655800	1.000000	1.000000
0.142610	0.655800	1.000000	1.000000
0.146371	0.655800	1.000000	1.000000
0.150114	0.655800	1.000000	1.000000
0.153836	0.655800	1.000000	1.000000
0.157537	0.655800	1.000000	1.000000
0.161214	0.655800	1.000000	1.000000
0.164867	0.655800	1.000000	1.000000
0.168494	0.655800	1.000000	1.000000
0.172094	0.655800	1.000000	1.000000
0.175667	0.655800	1.000000	1.000000
0.179211	0.655800	1.000000	1.000000
0.182725	0.655800	1.000000	1.000000
0.186209	0.655800	1.000000	1.000000
0.189661	0.655800	1.000000	1.000000
0.193083	0.655800	1.000000	1.000000
0.196472	0.655800	1.000000	1.000000
0.199828	0.655800	1.000000	1.000000
0.203151	0.655800	1.000000	1.000000
0.206441	0.655800	1.000000	1.000000
0.209698	0.655800	1.000000	1.000000
0.212920	0.655800	1.000000	1.000000
0.216109	0.655800	1.000000	1.000000
0.219263	0.655800	1.000000	1.000000
0.222383	0.655800	1.000000	1.000000
0.225470	0.655800	1.000000	1.000000
0.228521	0.655800	1.000000	1.000000
0.231539	0.655800	1.000000	1.000000
0.234523	0.655800	1.000000	1.000000
0.237473	0.655800	1.000000	1.000000
0.240388	0.655800	1.000000	1.000000
0.243271	0.655800	1.000000	1.000000
0.246120	0.655800	1.000000	1.000000
0.248936	0.655800	1.000000	1.000000
0.251719	0.655800	1.000000	1.000000
0.254469	0.655800	1.000000	1.000000
0.257187	0.655800	1.000000	1.000000
0.259873	0.655800	1.000000	1.000000
0.262528	0.655800	1.000000	1.000000
0.265151	0.655800	1.000000	1.000000
0.267743	0.655800	1.000000	1.000000
0.270304	0.655800	1.000000	1.000000
0.272835	0.655800	1.000000	1.000000
0.275337	0.655800	1.000000	1.000000
0.277809	0.655800	1.000000	1.000000
0.280252	0.655800	1.000000	1.000000
0.282666	0.655800	1.000000	1.000000
0.285052	0.655800	1.000000	1.000000
0.287411	0.655800	1.000000	1.000000
0.289742	0.655800	1.000000	1.000000
0.292046	0.655800	1.000000	1.000000
0.294323	0.655800	1.000000	1.000000
0.296575	0.655800	1.000000	1.000000
0.298801	0.655800	1.000000	1.000000
0.301001	0.655800	1.000000	1.000000
0.303177	0.655800	1.000000	1.000000
0.305329	0.655800	1.000000	1.000000
0.307457	0.655800	1.000000	1.000000
0.309561	0.655800	1.000000	1.000000
0.311642	0.655800	1.000000	1.000000
0.313701	0.655800	1.000000	1.000000
0.315737	0.655800	1.000000	1.000000
0.317752	0.655800	1.000000	1.000000
0.319745	0.655800	1.000000	1.000000
0.321717	0.655800	1.000000	1.000000
0.323669	0.655800	1.000000	1.000000
0.325601	0.655800	1.000000	1.000000
0.327513	0.655800	1.000000	1.000000
0.329405	0.655800	1.000000	1.000000
0.331279	0.655800	1.000000	1.000000
0.333134	0.655800	1.000000	1.000000
0.334971	0.655800	1.000000	1.000000
0.336790	0.655800	1.000000	1.000000
0.338592	0.655800	1.000000	1.000000
0.340377	0.655800	1.000000	1.000000
0.342146	0.655800	1.000000	1.000000
0.343898	0.655799	1.000000	1.000000
0.345634	0.655799	1.000000	1.000000
0.347354	0.655799	1.000000	1.000000
0.349060	0.655799	1.000000	1.000000
0.350750	0.655799	1.000000	1.000000
0.352426	0.655799	1.000000	1.000000
0.354088	0.655799	1.000000	1.000000
0.355736	0.655799	1.000000	1.000000
0.357370	0.655799	1.000000	1.000000
0.358991	0.655799	1.000000	1.000000
0.360600	0.655799	1.000000	1.000000
0.362195	0.655799	1.000000	1.000000
0.363779	0.655799	1.000000	1.000000
0.365350	0.655799	1.000000	1.000000
0.366910	0.655799	1.000000	1.000000
0.368458	0.655798	1.000000	1.000000
0.369996	0.655798	1.000000	1.000000
0.371522	0.655798	1.000000	1.000000
0.373038	0.655798	1.000000	1.000000
0.374544	0.655798	1.000000	1.000000
0.376040	0.655798	1.000000	1.000000
0.377526	0.655798	1.000000	1.000000
0.379002	0.655798	1.000000	1.000000
0.380470	0.655797	1.000000	1.000000
0.381928	0.655797	1.000000	1.000000
0.383378	0.655797	1.000000	1.000000
0.384819	0.655797	1.000000	1.000000
0.386252	0.655797	1.000000	1.000000
0.387677	0.655797	1.000000	1.000000
0.389095	0.655796	1.000000	1.000000
0.390504	0.655796	1.000000	1.000000
0.391907	0.655796	1.000000	1.000000
0.393303	0.655796	1.000000	1.000000
0.394691	0.655796	1.000000	1.000000
0.396073	0.655795	1.000000	1.000000
0.397449	0.655795	1.000000	1.000000
0.398819	0.655795	1.000000	1.000000
0.400182	0.655795	1.000000	1.000000
0.401540	0.655794	1.000000	1.000000
0.402892	0.655794	1.000000	1.000000
0.404239	0.655794	1.000000	1.000000
0.405580	0.655793	1.000000	1.000000
0.406917	0.655793	1.000000	1.000000
0.408249	0.655793	1.000000	1.000000
0.409576	0.655792	1.000000	1.000000
0.410898	0.655792	1.000000	1.000000
0.412217	0.655792	1.000000	1.000000
0.413531	0.655791	1.000000	1.000000
0.414841	0.655791	1.000000	1.000000
0.416148	0.655790	1.000000	1.000000
0.417451	0.655790	1.000000	1.000000
0.418751	0.655790	1.000000	1.000000
0.420047	0.655789	1.000000	1.000000
0.421340	0.655789	1.000000	1.000000
0.422630	0.655788	1.000000	1.000000
0.423918	0.655788	1.000000	1.000000
0.425203	0.655787	1.000000	1.000000
0.426485	0.655787	1.000000	1.000000
0.427766	0.655786	1.000000	1.000000
0.429044	0.655785	1.000000	1.000000
0.430320	0.655785	1.000000	1.000000
0.431594	0.655784	1.000000	1.000000
0.432866	0.655784	1.000000	1.000000
0.434137	0.655783	1.000000	1.000000
0.435406	0.655782	1.000000	1.000000
0.436674	0.655781	1.000000	1.000000
0.437941	0.655781	1.000000	1.000000
0.439207	0.655780	1.000000	1.000000
0.440471	0.655779	1.000000	1.000000
0.441736	0.655778	1.000000	1.000000
0.442999	0.655777	1.000000	1.000000
0.444262	0.655777	1.000000	1.000000
0.445524	0.655776	1.000000	1.000000
0.446786	0.655775	1.000000	1.000000
0.448048	0.655774	1.000000	1.000000
0.449310	0.655773	1.000000	1.000000
0.450572	0.655772	1.000000	1.000000
0.451834	0.655771	1.000000	1.000000
0.453097	0.655769	1.000000	1.000000
0.454360	0.655768	1.000000	1.000000
0.455623	0.655767	1.000000	1.000000
0.456887	0.655766	1.000000	1.000000
0.458152	0.655765	1.000000	1.000000
0.459418	0.655763	1.000000	1.000000
0.460685	0.655762	1.000000	1.000000
0.461952	0.655761	1.000000	1.000000
0.463221	0.655759	1.000000	1.000000
0.464492	0.655758	1.000000	1.000000
0.465764	0.655756	1.000000	1.000000
0.467037	0.655754	1.000000	1.000000
0.468312	0.655753	1.000000	1.000000
0.469588	0.655751	1.000000	1.000000
0.470867	0.655749	1.000000	1.000000
0.472147	0.655748	1.000000	1.000000
0.473429	0.655746	1.000000	1.000000
0.474714	0.655744	1.000000	1.000000
0.476001	0.655742	1.000000	1.000000
0.477290	0.655740	1.000000	1.000000
0.478581	0.655738	1.000000	1.000000
0.479875	0.655735	1.000000	1.000000
0.481171	0.655733	1.000000	1.000000
0.482471	0.655731	1.000000	1.000000
0.483773	0.655728	1.000000	1.000000
0.485078	0.655726	1.000000	1.000000
0.486386	0.655723	1.000000	1.000000
0.487697	0.655721	1.000000	1.000000
0.489011	0.655718	1.000000	1.000000
0.490328	0.655715	1.000000	1.000000
0.491649	0.655712	1.000000	1.000000
0.492973	0.655709	1.000000	1.000000
0.494301	0.655706	1.000000	1.000000
0.495632	0.655703	1.000000	1.000000
0.496967	0.655699	1.000000	1.000000
0.498306	0.655696	1.000000	1.000000
0.499649	0.655692	1.000000	1.000000
0.500996	0.655689	1.000000	1.000000
0.502347	0.655685	1.000000	1.000000
0.503701	0.655681	1.000000	1.000000
0.505061	0.655677	1.000000	1.000000
0.506424	0.655673	1.000000	1.000000
0.507792	0.655668	1.000000	1.000000
0.509164	0.655664	1.000000	1.000000
0.510541	0.655659	1.000000	1.000000
0.511923	0.655654	1.000000	1.000000
0.513309	0.655649	1.000000	1.000000
0.514701	0.655644	1.000000	1.000000
0.516097	0.655639	1.000000	1.000000
0.517498	0.655634	1.000000	1.000000
0.518904	0.655628	1.000000	1.000000
0.520315	0.655622	1.000000	1.000000
0.521732	0.655616	1.000000	1.000000
0.523154	0.655610	1.000000	1.000000
0.524582	0.655604	1.000000	1.000000
0.526014	0.655597	1.000000	1.000000
0.527453	0.655590	1.000000	1.000000
0.528897	0.655583	1.000000	1.000000
0.530347	0.655576	1.000000	1.000000
0.531803	0.655568	1.000000	1.000000
0.533265	0.655561	1.000000	1.000000
0.534732	0.655552	1.000000	1.000000
0.536206	0.655544	1.000000	1.000000
0.537686	0.655536	1.000000	1.000000
0.539173	0.655527	1.000000	1.000000
0.540665	0.655518	1.000000	1.000000
0.542164	0.655508	1.000000	1.000000
0.543670	0.655498	1.000000	1.000000
0.545182	0.655488	1.000000	1.000000
0.546701	0.655478	1.000000	1.000000
0.548227	0.655467	1.000000	1.000000
0.549759	0.655456	1.000000	1.000000
0.551299	0.655444	1.000000	1.000000
0.552845	0.655432	1.000000	1.000000
0.554399	0.655420	1.000000	1.000000
0.555960	0.655407	1.000000	1.000000
0.557528	0.655394	1.000000	1.000000
0.559103	0.655380	1.000000	1.000000
0.560686	0.655366	1.000000	1.000000
0.562276	0.655351	1.000000	1.000000
0.563875	0.655336	1.000000	1.000000
0.565480	0.655321	1.000000	1.000000
0.567094	0.655304	1.000000	1.000000
0.568716	0.655288	1.000000	1.000000
0.570345	0.655270	1.000000	1.000000
0.571983	0.655253	1.000000	1.000000
0.573628	0.655234	1.000000	1.000000
0.575282	0.655215	1.000000	1.000000
0.576945	0.655195	1.000000	1.000000
0.578615	0.655175	1.000000	1.000000
0.580295	0.655154	1.000000	1.000000
0.581983	0.655132	1.000000	1.000000
0.583679	0.655109	1.000000	1.000000
0.585384	0.655086	1.000000	1.000000
0.587099	0.655061	1.000000	1.000000
0.588822	0.655036	1.000000	1.000000
0.590554	0.655010	1.000000	1.000000
0.592296	0.654983	1.000000	1.000000
0.594046	0.654956	1.000000	1.000000
0.595806	0.654927	1.000000	1.000000
0.597576	0.654897	1.000000	1.000000
0.599355	0.654866	1.000000	1.000000
0.601144	0.654834	1.000000	1.000000
0.602942	0.654801	1.000000	1.000000
0.604750	0.654767	1.000000	1.000000
0.606569	0.654732	1.000000	1.000000
0.608397	0.654695	1.000000	1.000000
0.610235	0.654657	1.000000	1.000000
0.612084	0.654618	1.000000	1.000000
0.613943	0.654577	1.000000	1.000000
0.615812	0.654535	1.000000	1.000000
0.617692	0.654491	1.000000	1.000000
0.619582	0.654446	1.000000	1.000000
0.621484	0.654399	1.000000	1.000000
0.623396	0.654351	1.000000	1.000000
0.625319	0.654301	1.000000	1.000000
0.627253	0.654249	1.000000	1.000000
0.629198	0.654195	1.000000	1.000000
0.631154	0.654139	1.000000	1.000000
0.633122	0.654082	1.000000	1.000000
0.635102	0.654022	1.000000	1.000000
0.637093	0.653960	1.000000	1.000000
0.639095	0.653896	1.000000	1.000000
0.641110	0.653829	1.000000	1.000000
0.643136	0.653760	1.000000	1.000000
0.645174	0.653689	1.000000	1.000000
0.647225	0.653615	1.000000	1.000000
0.649288	0.653539	1.000000	1.000000
0.651363	0.653459	1.000000	1.000000
0.653450	0.653377	1.000000	1.000000
0.655551	0.653292	1.000000	1.000000
0.657664	0.653203	1.000000	1.000000
0.659790	0.653112	1.000000	1.000000
0.661928	0.653017	1.000000	1.000000
0.664080	0.652918	1.000000	1.000000
0.666245	0.652817	1.000000	1.000000
0.668424	0.652711	1.000000	1.000000
0.670616	0.652601	1.000000	1.000000
0.672821	0.652488	1.000000	1.000000
0.675040	0.652370	1.000000	1.000000
0.677273	0.652248	1.000000	1.000000
0.679520	0.652122	1.000000	1.000000
0.681781	0.651990	1.000000	1.000000
0.684057	0.651855	1.000000	1.000000
0.686346	0.651714	1.000000	1.000000
0.688650	0.651567	1.000000	1.000000
0.690969	0.651416	1.000000	1.000000
0.693303	0.651259	1.000000	1.000000
0.695651	0.651096	1.000000	1.000000
0.698015	0.650927	1.000000	1.000000
0.700393	0.650752	1.000000	1.000000
0.702787	0.650570	1.000000	1.000000
0.705196	0.650382	1.000000	1.000000
0.707621	0.650187	1.000000	1.000000
0.710062	0.649984	1.000000	1.000000
0.712519	0.649774	1.000000	1.000000
0.714992	0.649557	1.000000	1.000000
0.717480	0.649331	1.000000	1.000000
0.719986	0.649097	1.000000	1.000000
0.722507	0.648854	1.000000	1.000000
0.725046	0.648603	1.000000	1.000000
0.727601	0.648342	1.000000	1.000000
0.730173	0.648071	1.000000	1.000000
0.732762	0.647790	1.000000	1.000000
0.735369	0.647500	1.000000	1.000000
0.737992	0.647198	1.000000	1.000000
0.740634	0.646885	1.000000	1.000000
0.743293	0.646561	1.000000	1.000000
0.745970	0.646225	1.000000	1.000000
0.748666	0.645876	1.000000	1.000000
0.751379	0.645515	1.000000	1.000000
0.754111	0.645141	1.000000	1.000000
0.756862	0.644753	1.000000	1.000000
0.759631	0.644351	1.000000	1.000000
0.762420	0.643934	1.000000	1.000000
0.765227	0.643502	1.000000	1.000000
0.768054	0.643054	1.000000	1.000000
0.770900	0.642590	1.000000	1.000000
0.773766	0.642110	1.000000	1.000000
0.776652	0.641612	1.000000	1.000000
0.779558	0.641096	1.000000	1.000000
0.782484	0.640562	1.000000	1.000000
0.785431	0.640009	1.000000	1.000000
0.788398	0.639436	1.000000	1.000000
0.791386	0.638843	1.000000	1.000000
0.794395	0.638230	1.000000	1.000000
0.797425	0.637594	1.000000	1.000000
0.800477	0.636937	1.000000	1.000000
0.803551	0.636257	1.000000	1.000000
0.806646	0.635553	1.000000	1.000000
0.809763	0.634825	1.000000	1.000000
0.812903	0.634073	1.000000	1.000000
0.816065	0.633294	1.000000	1.000000
0.819250	0.632490	1.000000	1.000000
0.822457	0.631659	1.000000	1.000000
0.825688	0.630800	1.000000	1.000000
0.828942	0.629913	1.000000	1.000000
0.832220	0.628997	1.000000	1.000000
0.835522	0.628052	1.000000	1.000000
0.838847	0.627076	1.000000	1.000000
0.842197	0.626069	1.000000	1.000000
0.845572	0.625031	1.000000	1.000000
0.848971	0.623960	1.000000	1.000000
0.852395	0.622857	1.000000	1.000000
0.855845	0.621720	1.000000	1.000000
0.859320	0.620549	1.000000	1.000000
0.862820	0.619344	1.000000	1.000000
0.866347	0.618104	1.000000	1.000000
0.869900	0.616828	1.000000	1.000000
0.873479	0.615516	1.000000	1.000000
0.877086	0.614168	1.000000	1.000000
0.880719	0.612784	1.000000	1.000000
0.884380	0.611362	1.000000	1.000000
0.888068	0.609904	1.000000	1.000000
0.891784	0.608408	1.000000	1.000000
0.895528	0.606874	1.000000	1.000000
0.899301	0.605303	1.000000	1.000000
0.903102	0.603695	1.000000	1.000000
0.906933	0.602050	1.000000	1.000000
0.910792	0.600367	1.000000	1.000000
0.914682	0.598648	1.000000	1.000000
0.918601	0.596892	1.000000	1.000000
0.922550	0.595100	1.000000	1.000000
0.926530	0.593273	1.000000	1.000000
0.930541	0.591411	1.000000	1.000000
0.934583	0.589515	1.000000	1.000000
0.938656	0.587586	1.000000	1.000000
0.942761	0.585625	1.000000	1.000000
0.946898	0.583633	1.000000	1.000000
0.951067	0.581611	1.000000	1.000000
0.955270	0.579561	1.000000	1.000000
0.959505	0.577483	1.000000	1.000000
0.963774	0.575380	1.000000	1.000000
0.968076	0.573252	1.000000	1.000000
0.972413	0.571102	1.000000	1.000000
0.976784	0.568932	1.000000	1.000000
0.981190	0.566742	1.000000	1.000000
0.985631	0.564536	1.000000	1.000000
0.990108	0.562316	1.000000	1.000000
0.994621	0.560082	1.000000	1.000000
0.999170	0.557838	1.000000	1.000000
1.003756	0.555586	1.000000	1.000000
1.008379	0.553328	1.000000	1.000000
1.013039	0.551067	1.000000	1.000000
1.017738	0.548804	1.000000	1.000000
1.022474	0.546542	1.000000	1.000000
1.027250	0.544284	1.000000	1.000000
1.032064	0.542032	1.000000	1.000000
1.036918	0.539788	1.000000	1.000000
1.041812	0.537555	1.000000	1.000000
1.046746	0.535334	1.000000	1.000000
1.051722	0.533129	1.000000	1.000000
1.056738	0.530942	1.000000	1.000000
1.061796	0.528774	1.000000	1.000000
1.066897	0.526629	1.000000	1.000000
1.072040	0.524507	1.000000	1.000000
1.077226	0.522411	1.000000	1.000000
1.082456	0.520343	1.000000	1.000000
1.087730	0.518305	1.000000	1.000000
1.093048	0.516297	1.000000	1.000000
1.098411	0.514323	1.000000	1.000000
1.103820	0.512383	1.000000	1.000000
1.109275	0.510479	1.000000	1.000000
1.114777	0.508612	1.000000	1.000000
1.120325	0.506783	1.000000	1.000000
1.125921	0.504994	1.000000	1.000000
1.131566	0.503244	1.000000	1.000000
1.137258	0.501535	1.000000	1.000000
1.143001	0.499868	1.000000	1.000000
1.148792	0.498242	1.000000	1.000000
1.154635	0.496659	1.000000	1.000000
1.160528	0.495119	1.000000	1.000000
1.166472	0.493622	1.000000	1.000000
1.172469	0.492168	1.000000	1.000000
1.178518	0.490757	1.000000	1.000000
1.184621	0.489389	1.000000	1.000000
1.190777	0.488064	1.000000	1.000000
1.196988	0.486782	1.000000	1.000000
1.203254	0.485542	1.000000	1.000000
1.209576	0.484343	1.000000	1.000000
1.215954	0.483186	1.000000	1.000000
1.222389	0.482070	1.000000	1.000000
1.228882	0.480993	1.000000	1.000000
1.235433	0.479957	1.000000	1.000000
1.242043	0.478959	1.000000	1.000000
1.248713	0.477999	1.000000	1.000000
1.255444	0.477076	1.000000	1.000000
1.262236	0.476190	1.000000	1.000000
1.269089	0.475339	1.000000	1.000000
1.276005	0.474523	1.000000	1.000000
1.282985	0.473741	1.000000	1.000000
1.290029	0.472992	1.000000	1.000000
1.297137	0.472274	1.000000	1.000000
1.304312	0.471588	1.000000	1.000000
1.311552	0.470932	1.000000	1.000000
1.318860	0.470304	1.000000	1.000000
1.326236	0.469705	1.000000	1.000000
1.333681	0.469134	1.000000	1.000000
1.341196	0.468588	1.000000	1.000000
1.348781	0.468068	1.000000	1.000000
1.356438	0.467573	1.000000	1.000000
1.364167	0.467101	1.000000	1.000000
1.371969	0.466652	1.000000	1.000000
1.379845	0.466224	1.000000	1.000000
1.387797	0.465818	1.000000	1.000000
1.395824	0.465432	1.000000	1.000000
1.403928	0.465065	1.000000	1.000000
1.412110	0.464717	1.000000	1.000000
1.420371	0.464386	1.000000	1.000000
1.428711	0.464073	1.000000	1.000000
1.437133	0.463776	1.000000	1.000000
1.445636	0.463494	1.000000	1.000000
1.454222	0.463228	1.000000	1.000000
1.462891	0.462976	1.000000	1.000000
1.471646	0.462737	1.000000	1.000000
1.480487	0.462511	1.000000	1.000000
1.489415	0.462297	1.000000	1.000000
1.498431	0.462096	1.000000	1.000000
1.507536	0.461905	1.000000	1.000000
1.516732	0.461725	1.000000	1.000000
1.526020	0.461556	1.000000	1.000000
1.535400	0.461395	1.000000	1.000000
1.544874	0.461245	1.000000	1.000000
1.554444	0.461102	1.000000	1.000000
1.564110	0.460968	1.000000	1.000000
1.573874	0.460842	1.000000	1.000000
1.583737	0.460723	1.000000	1.000000
1.593700	0.460611	1.000000	1.000000
1.603765	0.460506	1.000000	1.000000
1.613933	0.460407	1.000000	1.000000
1.624205	0.460314	1.000000	1.000000
1.634583	0.460226	1.000000	1.000000
1.645068	0.460143	1.000000	1.000000
1.655662	0.460066	1.000000	1.000000
1.666366	0.459993	1.000000	1.000000
1.677181	0.459924	1.000000	1.000000
1.688109	0.459859	1.000000	1.000000
1.699152	0.459799	1.000000	1.000000
1.710310	0.459741	1.000000	1.000000
1.721587	0.459687	1.000000	1.000000
1.732982	0.459635	1.000000	1.000000
1.744499	0.459587	1.000000	1.000000
1.756138	0.459540	1.000000	1.000000
1.767901	0.459496	1.000000	1.000000
1.779790	0.459454	1.000000	1.000000
1.791807	0.459413	1.000000	1.000000
1.803953	0.459374	1.000000	1.000000
1.816230	0.459336	1.000000	1.000000
1.828640	0.459298	1.000000	1.000000
1.841185	0.459261	1.000000	1.000000
1.853867	0.459225	1.000000	1.000000
1.866688	0.459188	1.000000	1.000000
1.879649	0.459151	1.000000	1.000000
1.892753	0.459112	1.000000	1.000000
1.906001	0.459073	1.000000	1.000000
1.919396	0.459031	1.000000	1.000000
1.932940	0.458988	1.000000	1.000000
1.946635	0.458941	1.000000	1.000000
1.960482	0.458891	1.000000	1.000000
1.974485	0.458837	1.000000	1.000000
1.988646	0.458778	1.000000	1.000000
2.002966	0.458713	1.000000	1.000000
2.017448	0.458641	1.000000	1.000000
2.032094	0.458560	1.000000	1.000000
2.046908	0.458471	1.000000	1.000000
2.061890	0.458371	1.000000	1.000000
2.077044	0.458258	1.000000	1.000000
2.092373	0.458130	1.000000	1.000000
2.107878	0.457986	1.000000	1.000000
2.123562	0.457823	1.000000	1.000000
2.139429	0.457639	1.000000	1.000000
2.155480	0.457429	1.000000	1.000000
2.171719	0.457190	1.000000	1.000000
2.188148	0.456918	1.000000	1.000000
2.204770	0.456609	1.000000	1.000000
2.221588	0.456256	1.000000	1.000000
2.238605	0.455854	1.000000	1.000000
2.255824	0.455396	1.000000	1.000000
2.273248	0.454872	1.000000	1.000000
2.290880	0.454275	1.000000	1.000000
2.308723	0.453593	1.000000	1.000000
2.326781	0.452814	1.000000	1.000000
2.345056	0.451926	1.000000	1.000000
2.363553	0.450911	1.000000	1.000000
2.382274	0.449753	1.000000	1.000000
2.401223	0.448432	1.000000	1.000000
2.420404	0.446924	1.000000	1.000000
2.439820	0.445206	1.000000	1.000000
2.459474	0.443248	1.000000	1.000000
2.479371	0.441019	1.000000	1.000000
2.499514	0.438483	1.000000	1.000000
2.519907	0.435601	1.000000	1.000000
2.540555	0.432331	1.000000	1.000000
2.561460	0.428626	1.000000	1.000000
2.582628	0.424436	1.000000	1.000000
2.604061	0.419706	1.000000	1.000000
2.625765	0.414382	1.000000	1.000000
2.647744	0.408404	1.000000	1.000000
2.670002	0.401715	1.000000	1.000000
2.692544	0.394256	1.000000	1.000000
2.715374	0.385975	1.000000	1.000000
2.738497	0.376824	1.000000	1.000000
2.761917	0.366763	1.000000	1.000000
2.785640	0.355768	1.000000	1.000000
2.809670	0.343830	1.000000	1.000000
2.834012	0.330958	1.000000	1.000000
2.858672	0.317188	1.000000	1.000000
2.883654	0.302579	1.000000	1.000000
2.908964	0.287219	1.000000	1.000000
2.934607	0.271221	1.000000	1.000000
2.960589	0.254724	1.000000	1.000000
2.986915	0.237888	1.000000	1.000000
3.013591	0.220889	1.000000	1.000000
3.040623	0.203910	1.000000	1.000000
3.068016	0.187137	1.000000	1.000000
3.095777	0.170747	1.000000	1.000000
3.123912	0.154903	1.000000	1.000000
3.152427	0.139747	1.000000	1.000000
3.181328	0.125395	1.000000	1.000000
3.210622	0.111937	1.000000	1.000000
3.240316	0.099433	1.000000	1.000000
3.270416	0.087916	1.000000	1.000000
3.300929	0.077395	1.000000	1.000000
3.331863	0.067855	1.000000	1.000000
3.363223	0.059265	1.000000	1.000000
3.395018	0.051579	1.000000	1.000000
3.427256	0.044743	1.000000	1.000000
3.459942	0.038696	1.000000	1.000000
3.493086	0.033371	1.000000	1.000000
3.526694	0.028704	1.000000	1.000000
3.560776	0.024629	1.000000	1.000000
3.595339	0.021085	1.000000	1.000000
3.630391	0.018012	1.000000	1.000000
3.665941	0.015356	1.000000	1.000000
3.701998	0.013067	1.000000	1.000000
3.738570	0.011099	1.000000	1.000000
3.775666	0.009411	1.000000	1.000000
3.813295	0.007966	1.000000	1.000000
3.851466	0.006732	1.000000	1.000000
3.890190	0.005681	1.000000	1.000000
3.929476	0.004786	1.000000	1.000000
3.969332	0.004026	1.000000	1.000000
4.009770	0.003381	1.000000	1.000000
4.050800	0.002836	1.000000	1.000000
4.092432	0.002375	1.000000	1.000000
4.134676	0.001986	1.000000	1.000000
4.177543	0.001658	1.000000	1.000000
4.221044	0.001382	1.000000	1.000000
4.265191	0.001151	1.000000	1.000000
4.309994	0.000956	1.000000	1.000000
4.355465	0.000794	1.000000	1.000000
4.401616	0.000658	1.000000	1.000000
4.448460	0.000544	1.000000	1.000000
4.496007	0.000449	1.000000	1.000000
4.544270	0.000370	1.000000	1.000000
4.593263	0.000305	1.000000	1.000000
4.642997	0.000251	1.000000	1.000000
4.693486	0.000206	1.000000	1.000000
4.744743	0.000168	1.000000	1.000000
4.796782	0.000138	1.000000	1.000000
4.849617	0.000112	1.000000	1.000000
4.903260	0.000091	1.000000	1.000000
4.957727	0.000074	1.000000	1.000000
5.013032	0.000060	1.000000	1.000000
5.069189	0.000049	1.000000	1.000000
5.126214	0.000039	1.000000	1.000000
5.184121	0.000032	1.000000	1.000000
5.242925	0.000026	1.000000	1.000000
5.302643	0.000021	1.000000	1.000000
5.363291	0.000016	1.000000	1.000000
5.424883	0.000013	1.000000	1.000000
5.487436	0.000010	1.000000	1.000000
5.550968	0.000008	1.000000	1.000000
5.615494	0.000007	1.000000	1.000000
5.681031	0.000005	1.000000	1.000000
5.747597	0.000004	1.000000	1.000000
5.815209	0.000003	1.000000	1.000000
5.883884	0.000003	1.000000	1.000000
5.953641	0.000002	1.000000	1.000000
6.024497	0.000002	1.000000	1.000000
6.096470	0.000001	1.000000	1.000000
6.169579	0.000001	1.000000	1.000000
6.243842	0.000001	1.000000	1.000000
6.319278	0.000001	1.000000	1.000000
6.395906	0.000000	1.000000	1.000000
6.473744	0.000000	1.000000	1.000000
6.552813	0.000000	1.000000	1.000000
6.633130	0.000000	1.000000	1.000000
6.714716	0.000000	1.000000	1.000000
6.797590	0.000000	1.000000	1.000000
6.881771	0.000000	1.000000	1.000000
6.967279	0.000000	1.000000	1.000000
7.054133	0.000000	1.000000	1.000000
7.142353	0.000000	1.000000	1.000000
7.231959	0.000000	1.000000	1.000000
7.322971	0.000000	1.000000	1.000000
7.415406	0.000000	1.000000	1.000000
7.509286	0.000000	1.000000	1.000000
7.604629	0.000000	1.000000	1.000000
7.701455	0.000000	1.000000	1.000000
7.799781	0.000000	1.000000	1.000000
7.899627	0.000000	1.000000	1.000000
8.001012	0.000000	1.000000	1.000000
8.103952	0.000000	1.000000	1.000000
8.208466	0.000000	1.000000	1.000000
8.314571	0.000000	1.000000	1.000000
8.422284	0.000000	1.000000	1.000000
8.531620	0.000000	1.000000	1.000000
8.642596	0.000000	1.000000	1.000000
8.755226	0.000000	1.000000	1.000000
8.869524	0.000000	1.000000	1.000000
8.985504	0.000000	1.000000	1.000000
9.103178	0.000000	1.000000	1.000000
9.222558	0.000000	1.000000	1.000000
9.343654	0.000000	1.000000	1.000000
9.466476	0.000000	1.000000	1.000000
9.591031	0.000000	1.000000	1.000000
9.717327	0.000000	1.000000	1.000000
9.845368	0.000000	1.000000	1.000000
9.975159	0.000000	1.000000	1.000000
10.106702	0.000000	1.000000	1.000000
10.239996	0.000000	1.000000	1.000000
10.375041	0.000000	1.000000	1.000000
10.511833	0.000000	1.000000	1.000000
10.650366	0.000000	1.000000	1.000000
10.790632	0.000000	1.000000	1.000000
10.932621	0.000000	1.000000	1.000000
11.076320	0.000000	1.000000	1.000000
11.221713	0.000000	1.000000	1.000000
11.368781	0.000000	1.000000	1.000000
11.517504	0.000000	1.000000	1.000000
11.667855	0.000000	1.000000	1.000000
11.819808	0.000000	1.000000	1.000000
11.973329	0.000000	1.000000	1.000000
12.128385	0.000000	1.000000	1.000000
12.284934	0.000000	1.000000	1.000000
12.442935	0.000000	1.000000	1.000000
12.602339	0.000000	1.000000	1.000000
12.763095	0.000000	1.000000	1.000000
12.925145	0.000000	1.000000	1.000000
13.088428	0.000000	1.000000	1.000000
13.252879	0.000000	1.000000	1.000000
13.418425	0.000000	1.000000	1.000000
13.584991	0.000000	1.000000	1.000000
13.752494	0.000000	1.000000	1.000000
13.920846	0.000000	1.000000	1.000000
14.089954	0.000000	1.000000	1.000000
14.259719	0.000000	1.000000	1.000000
14.430037	0.000000	1.000000	1.000000
14.600795	0.000000	1.000000	1.000000
14.771877	0.000000	1.000000	1.000000
14.943159	0.000000	1.000000	1.000000
15.114513	0.000000	1.000000	1.000000
15.285801	0.000000	1.000000	1.000000
15.456882	0.000000	1.000000	1.000000
15.627608	0.000000	1.000000	1.000000
15.797824	0.000000	1.000000	1.000000
15.967369	0.000000	1.000000	1.000000
16.136077	0.000000	1.000000	1.000000
16.303776	0.000000	1.000000	1.000000
16.470288	0.000000	1.000000	1.000000
16.635428	0.000000	1.000000	1.000000
16.799009	0.000000	1.000000	1.000000
16.960837	0.000000	1.000000	1.000000
17.120713	0.000000	1.000000	1.000000
17.278437	0.000000	1.000000	1.000000
17.433801	0.000000	1.000000	1.000000
17.586597	0.000000	1.000000	1.000000
17.736613	0.000000	1.000000	1.000000
17.883634	0.000000	1.000000	1.000000
18.027446	0.000000	1.000000	1.000000
18.167830	0.000000	1.000000	1.000000
18.304569	0.000000	1.000000	1.000000
18.437448	0.000000	1.000000	1.000000
18.566250	0.000000	1.000000	1.000000
18.690761	0.000000	1.000000	1.000000
18.810769	0.000000	1.000000	1.000000
18.926067	0.000000	1.000000	1.000000
19.036451	0.000000	1.000000	1.000000
19.141722	0.000000	1.000000	1.000000
19.241686	0.000000	1.000000	1.000000
19.336158	0.000000	1.000000	1.000000
19.424958	0.000000	1.000000	1.000000
19.507916	0.000000	1.000000	1.000000
19.584871	0.000000	1.000000	1.000000
19.655669	0.000000	1.000000	1.000000
19.720170	0.000000	1.000000	1.000000
19.778244	0.000000	1.000000	1.000000
19.829773	0.000000	1.000000	1.000000
19.874650	0.000000	1.000000	1.000000
19.912783	0.000000	1.000000	1.000000
19.944093	0.000000	1.000000	1.000000
19.968514	0.000000	1.000000	1.000000
19.985994	0.000000	1.000000	1.000000
19.996497	0.000000	1.000000	1.000000
20.000000	0.000000	1.000000	1.000000
