%!PS-Adobe-3.0 EPSF-3.0
%%Title: %geometria.eps
%%Creator: matplotlib version 2.2.3, http://matplotlib.org/
%%CreationDate: Thu Jan 10 16:27:51 2019
%%Orientation: portrait
%%BoundingBox: 75 223 536 568
%%EndComments
%%BeginProlog
/mpldict 9 dict def
mpldict begin
/m { moveto } bind def
/l { lineto } bind def
/r { rlineto } bind def
/c { curveto } bind def
/cl { closepath } bind def
/box {
m
1 index 0 r
0 exch r
neg 0 r
cl
} bind def
/clipbox {
box
clip
newpath
} bind def
%!PS-Adobe-3.0 Resource-Font
%%Title: DejaVu Sans Oblique
%%Copyright: Copyright (c) 2003 by Bitstream, Inc. All Rights Reserved. Copyright (c) 2006 by Tavmjong Bah. All Rights Reserved. DejaVu changes are in public domain 
%%Creator: Converted from TrueType to type 3 by PPR
25 dict begin
/_d{bind def}bind def
/_m{moveto}_d
/_l{lineto}_d
/_cl{closepath eofill}_d
/_c{curveto}_d
/_sc{7 -1 roll{setcachedevice}{pop pop pop pop pop pop}ifelse}_d
/_e{exec}_d
/FontName /DejaVuSans-Oblique def
/PaintType 0 def
/FontMatrix[.001 0 0 .001 0 0]def
/FontBBox[-1016 -350 1659 1068]def
/FontType 3 def
/Encoding [ /i /r /alpha ] def
/FontInfo 10 dict dup begin
/FamilyName (DejaVu Sans) def
/FullName (DejaVu Sans Oblique) def
/Notice (Copyright (c) 2003 by Bitstream, Inc. All Rights Reserved. Copyright (c) 2006 by Tavmjong Bah. All Rights Reserved. DejaVu changes are in public domain ) def
/Weight (Oblique) def
/Version (Version 2.35) def
/ItalicAngle -11.0 def
/isFixedPitch false def
/UnderlinePosition -130 def
/UnderlineThickness 90 def
end readonly def
/CharStrings 4 dict dup begin
/.notdef 0 def
/i{278 0 35 0 273 760 _sc
183 760 _m
273 760 _l
251 646 _l
161 646 _l
183 760 _l
142 547 _m
232 547 _l
125 0 _l
35 0 _l
142 547 _l
_cl}_d
/r{411 0 35 0 463 560 _sc
446 464 _m
436 468 426 472 414 475 _c
402 477 390 479 377 479 _c
329 479 287 460 251 424 _c
215 388 192 339 180 279 _c
125 0 _l
35 0 _l
142 547 _l
232 547 _l
215 462 _l
238 493 266 517 300 534 _c
333 551 368 560 406 560 _c
415 560 424 559 434 558 _c
444 557 453 555 463 553 _c
446 464 _l
_cl}_d
/alpha{{659 0 55 -11 645 559 _sc
409 254 _m
410 367 _l
410 443 381 482 323 483 _c
279 483 244 465 218 429 _c
184 384 161 332 150 273 _c
136 201 137 148 155 114 _c
173 79 202 62 242 62 _c
285 62 325 96 362 166 _c
409 254 _l
338 559 _m
440 561 490 509 489 404 _c
489 404 514 451 565 547 _c
645 547 _l
487 250 _l
486 144 _l
486 128 490 113 499 100 _c
509 84 519 76 530 76 _c
}_e{573 76 _l
559 0 _l
504 0 _l
473 0 447 13 425 41 _c
415 55 409 76 409 104 _c
387 69 359 37 323 8 _c
305 -5 273 -11 227 -11 _c
151 -10 99 14 71 62 _c
43 112 37 183 55 273 _c
73 369 108 440 158 484 _c
213 533 273 558 338 559 _c
_cl}_e}_d
end readonly def

/BuildGlyph
 {exch begin
 CharStrings exch
 2 copy known not{pop /.notdef}if
 true 3 1 roll get exec
 end}_d

/BuildChar {
 1 index /Encoding get exch get
 1 index /BuildGlyph get exec
}_d

FontName currentdict end definefont pop
%!PS-Adobe-3.0 Resource-Font
%%Title: DejaVu Serif
%%Copyright: Copyright (c) 2003 by Bitstream, Inc. All Rights Reserved. DejaVu changes are in public domain 
%%Creator: Converted from TrueType to type 3 by PPR
25 dict begin
/_d{bind def}bind def
/_m{moveto}_d
/_l{lineto}_d
/_cl{closepath eofill}_d
/_c{curveto}_d
/_sc{7 -1 roll{setcachedevice}{pop pop pop pop pop pop}ifelse}_d
/_e{exec}_d
/FontName /DejaVuSerif def
/PaintType 0 def
/FontMatrix[.001 0 0 .001 0 0]def
/FontBBox[-770 -347 2105 1109]def
/FontType 3 def
/Encoding [ /hyphen /period /zero /one /two /three /four /five /six ] def
/FontInfo 10 dict dup begin
/FamilyName (DejaVu Serif) def
/FullName (DejaVu Serif) def
/Notice (Copyright (c) 2003 by Bitstream, Inc. All Rights Reserved. DejaVu changes are in public domain ) def
/Weight (Book) def
/Version (Version 2.35) def
/ItalicAngle 0.0 def
/isFixedPitch false def
/UnderlinePosition -130 def
/UnderlineThickness 90 def
end readonly def
/CharStrings 10 dict dup begin
/.notdef 0 def
/hyphen{338 0 44 230 294 306 _sc
44 306 _m
294 306 _l
294 230 _l
44 230 _l
44 306 _l
_cl}_d
/period{318 0 94 -13 224 116 _sc
94 51 _m
94 69 100 84 112 97 _c
124 109 140 116 159 116 _c
177 116 192 109 205 97 _c
217 84 224 69 224 51 _c
224 33 217 17 205 5 _c
192 -7 177 -13 159 -13 _c
140 -13 124 -7 112 5 _c
100 17 94 32 94 51 _c
_cl}_d
/zero{636 0 66 -13 570 742 _sc
318 34 _m
368 34 405 61 430 116 _c
454 170 467 253 467 364 _c
467 474 454 557 430 612 _c
405 666 368 694 318 694 _c
268 694 230 666 206 612 _c
181 557 169 474 169 364 _c
169 253 181 170 206 116 _c
230 61 268 34 318 34 _c
318 -13 _m
238 -13 176 20 132 86 _c
88 152 66 244 66 364 _c
66 483 88 576 132 642 _c
176 708 238 742 318 742 _c
397 742 459 708 503 642 _c
547 576 570 483 570 364 _c
570 244 547 152 503 86 _c
459 20 397 -13 318 -13 _c
_cl}_d
/one{636 0 122 0 494 742 _sc
142 0 _m
142 52 _l
269 52 _l
269 658 _l
122 563 _l
122 627 _l
300 742 _l
367 742 _l
367 52 _l
494 52 _l
494 0 _l
142 0 _l
_cl}_d
/two{{636 0 68 0 538 742 _sc
128 555 _m
73 555 _l
73 685 _l
107 703 142 717 178 727 _c
213 737 248 742 282 742 _c
358 742 418 723 462 687 _c
506 650 528 600 528 537 _c
528 465 478 380 378 281 _c
370 273 365 268 361 264 _c
177 80 _l
481 80 _l
481 170 _l
538 170 _l
538 0 _l
68 0 _l
68 53 _l
289 274 _l
337 322 372 367 393 408 _c
414 449 425 492 425 537 _c
}_e{425 586 412 624 386 652 _c
360 680 325 694 281 694 _c
234 694 198 682 173 659 _c
147 636 132 601 128 555 _c
_cl}_e}_d
/three{{636 0 76 -13 562 742 _sc
97 698 _m
135 712 171 723 206 731 _c
241 738 274 742 305 742 _c
376 742 432 726 472 696 _c
512 665 532 622 532 568 _c
532 524 518 487 490 458 _c
462 428 423 408 373 398 _c
433 389 479 367 512 332 _c
545 297 562 252 562 197 _c
562 129 539 77 493 41 _c
447 5 382 -13 296 -13 _c
258 -13 220 -9 184 -1 _c
148 6 112 18 76 35 _c
76 177 _l
}_e{131 177 _l
134 129 150 94 178 70 _c
206 46 246 34 298 34 _c
348 34 387 48 416 77 _c
444 106 459 146 459 196 _c
459 253 444 296 414 326 _c
384 355 341 370 284 370 _c
238 370 _l
238 420 _l
262 420 _l
319 420 362 431 390 455 _c
418 479 433 514 433 562 _c
433 604 421 637 398 660 _c
374 682 341 694 297 694 _c
253 694 218 683 194 662 _c
170 641 156 610 152 570 _c
}_e{97 570 _l
97 698 _l
_cl}_e}_d
/four{636 0 31 0 586 742 _sc
349 247 _m
349 635 _l
100 247 _l
349 247 _l
564 0 _m
232 0 _l
232 52 _l
349 52 _l
349 195 _l
31 195 _l
31 248 _l
350 742 _l
447 742 _l
447 247 _l
586 247 _l
586 195 _l
447 195 _l
447 52 _l
564 52 _l
564 0 _l
_cl}_d
/five{{636 0 85 -13 559 729 _sc
503 729 _m
503 649 _l
169 649 _l
169 440 _l
185 452 205 460 228 466 _c
250 472 276 475 304 475 _c
382 475 444 453 490 409 _c
536 365 559 306 559 231 _c
559 153 536 93 490 51 _c
444 8 379 -13 296 -13 _c
262 -13 228 -9 193 -1 _c
157 6 121 18 85 35 _c
85 177 _l
140 177 _l
143 130 158 94 184 70 _c
210 46 248 34 296 34 _c
}_e{347 34 386 51 414 85 _c
442 119 456 167 456 231 _c
456 294 442 342 415 376 _c
387 410 348 427 296 427 _c
266 427 240 421 218 411 _c
196 401 176 385 159 363 _c
117 363 _l
117 729 _l
503 729 _l
_cl}_e}_d
/six{{636 0 67 -13 573 742 _sc
327 34 _m
373 34 408 50 433 84 _c
457 118 470 166 470 230 _c
470 293 457 341 433 375 _c
408 409 373 426 327 426 _c
280 426 244 409 220 377 _c
196 344 184 297 184 236 _c
184 171 196 121 221 86 _c
245 51 281 34 327 34 _c
168 401 _m
190 425 215 444 243 456 _c
271 468 302 474 338 474 _c
410 474 468 452 510 408 _c
552 364 573 305 573 230 _c
}_e{573 156 550 97 505 53 _c
459 9 399 -13 323 -13 _c
241 -13 177 17 133 78 _c
89 139 67 227 67 341 _c
67 468 93 567 145 637 _c
197 707 271 742 367 742 _c
393 742 420 739 448 735 _c
476 730 505 723 535 713 _c
535 593 _l
480 593 _l
476 625 463 650 442 668 _c
421 685 393 694 357 694 _c
293 694 246 670 215 622 _c
184 574 168 500 168 401 _c
_cl}_e}_d
end readonly def

/BuildGlyph
 {exch begin
 CharStrings exch
 2 copy known not{pop /.notdef}if
 true 3 1 roll get exec
 end}_d

/BuildChar {
 1 index /Encoding get exch get
 1 index /BuildGlyph get exec
}_d

FontName currentdict end definefont pop
end
%%EndProlog
mpldict begin
75.6 223.2 translate
460.8 345.6 0 0 clipbox
gsave
0 0 m
460.8 0 l
460.8 345.6 l
0 345.6 l
cl
1.000 setgray
fill
grestore
gsave
57.6 38.016 m
414.72 38.016 l
414.72 304.128 l
57.6 304.128 l
cl
1.000 setgray
fill
grestore
0.800 setlinewidth
1 setlinejoin
0 setlinecap
[] 0 setdash
0.000 setgray
gsave
/o {
gsave
newpath
translate
0.8 setlinewidth
1 setlinejoin
0 setlinecap
0 0 m
0 -3.5 l

gsave
0.000 setgray
fill
grestore
stroke
grestore
} bind def
62.7877 38.016 o
grestore
/DejaVuSerif findfont
15.000 scalefont
setfont
gsave
58.014298 19.625375 translate
0.000000 rotate
0.000000 0.000000 m /zero glyphshow
grestore
gsave
/o {
gsave
newpath
translate
0.8 setlinewidth
1 setlinejoin
0 setlinecap
0 0 m
0 -3.5 l

gsave
0.000 setgray
fill
grestore
stroke
grestore
} bind def
132.177 38.016 o
grestore
gsave
127.403283 19.625375 translate
0.000000 rotate
0.000000 0.000000 m /one glyphshow
grestore
gsave
/o {
gsave
newpath
translate
0.8 setlinewidth
1 setlinejoin
0 setlinecap
0 0 m
0 -3.5 l

gsave
0.000 setgray
fill
grestore
stroke
grestore
} bind def
201.566 38.016 o
grestore
gsave
196.792268 19.625375 translate
0.000000 rotate
0.000000 0.000000 m /two glyphshow
grestore
gsave
/o {
gsave
newpath
translate
0.8 setlinewidth
1 setlinejoin
0 setlinecap
0 0 m
0 -3.5 l

gsave
0.000 setgray
fill
grestore
stroke
grestore
} bind def
270.955 38.016 o
grestore
gsave
266.181253 19.625375 translate
0.000000 rotate
0.000000 0.000000 m /three glyphshow
grestore
gsave
/o {
gsave
newpath
translate
0.8 setlinewidth
1 setlinejoin
0 setlinecap
0 0 m
0 -3.5 l

gsave
0.000 setgray
fill
grestore
stroke
grestore
} bind def
340.344 38.016 o
grestore
gsave
335.570237 19.625375 translate
0.000000 rotate
0.000000 0.000000 m /four glyphshow
grestore
gsave
/o {
gsave
newpath
translate
0.8 setlinewidth
1 setlinejoin
0 setlinecap
0 0 m
0 -3.5 l

gsave
0.000 setgray
fill
grestore
stroke
grestore
} bind def
409.733 38.016 o
grestore
gsave
404.959222 19.625375 translate
0.000000 rotate
0.000000 0.000000 m /five glyphshow
grestore
gsave
226.160000 -2.702750 translate
0.000000 rotate
/DejaVuSans-Oblique findfont
20.0 scalefont
setfont
0.000000 0.765625 moveto
/alpha glyphshow

/DejaVuSans-Oblique findfont
14.0 scalefont
setfont
13.183594 -2.515625 moveto
/r glyphshow


grestore
gsave
/o {
gsave
newpath
translate
0.8 setlinewidth
1 setlinejoin
0 setlinecap
0 0 m
-3.5 0 l

gsave
0.000 setgray
fill
grestore
stroke
grestore
} bind def
57.6 48.0325 o
grestore
gsave
26.740625 42.337224 translate
0.000000 rotate
0.000000 0.000000 m /zero glyphshow
9.543457 0.000000 m /period glyphshow
14.311523 0.000000 m /zero glyphshow
grestore
gsave
/o {
gsave
newpath
translate
0.8 setlinewidth
1 setlinejoin
0 setlinecap
0 0 m
-3.5 0 l

gsave
0.000 setgray
fill
grestore
stroke
grestore
} bind def
57.6 85.9513 o
grestore
gsave
26.740625 80.255957 translate
0.000000 rotate
0.000000 0.000000 m /zero glyphshow
9.543457 0.000000 m /period glyphshow
14.311523 0.000000 m /one glyphshow
grestore
gsave
/o {
gsave
newpath
translate
0.8 setlinewidth
1 setlinejoin
0 setlinecap
0 0 m
-3.5 0 l

gsave
0.000 setgray
fill
grestore
stroke
grestore
} bind def
57.6 123.87 o
grestore
gsave
26.740625 118.174690 translate
0.000000 rotate
0.000000 0.000000 m /zero glyphshow
9.543457 0.000000 m /period glyphshow
14.311523 0.000000 m /two glyphshow
grestore
gsave
/o {
gsave
newpath
translate
0.8 setlinewidth
1 setlinejoin
0 setlinecap
0 0 m
-3.5 0 l

gsave
0.000 setgray
fill
grestore
stroke
grestore
} bind def
57.6 161.789 o
grestore
gsave
26.740625 156.093423 translate
0.000000 rotate
0.000000 0.000000 m /zero glyphshow
9.543457 0.000000 m /period glyphshow
14.311523 0.000000 m /three glyphshow
grestore
gsave
/o {
gsave
newpath
translate
0.8 setlinewidth
1 setlinejoin
0 setlinecap
0 0 m
-3.5 0 l

gsave
0.000 setgray
fill
grestore
stroke
grestore
} bind def
57.6 199.707 o
grestore
gsave
26.740625 194.012156 translate
0.000000 rotate
0.000000 0.000000 m /zero glyphshow
9.543457 0.000000 m /period glyphshow
14.311523 0.000000 m /four glyphshow
grestore
gsave
/o {
gsave
newpath
translate
0.8 setlinewidth
1 setlinejoin
0 setlinecap
0 0 m
-3.5 0 l

gsave
0.000 setgray
fill
grestore
stroke
grestore
} bind def
57.6 237.626 o
grestore
gsave
26.740625 231.930889 translate
0.000000 rotate
0.000000 0.000000 m /zero glyphshow
9.543457 0.000000 m /period glyphshow
14.311523 0.000000 m /five glyphshow
grestore
gsave
/o {
gsave
newpath
translate
0.8 setlinewidth
1 setlinejoin
0 setlinecap
0 0 m
-3.5 0 l

gsave
0.000 setgray
fill
grestore
stroke
grestore
} bind def
57.6 275.545 o
grestore
gsave
26.740625 269.849622 translate
0.000000 rotate
0.000000 0.000000 m /zero glyphshow
9.543457 0.000000 m /period glyphshow
14.311523 0.000000 m /six glyphshow
grestore
gsave
18.584375 158.572000 translate
90.000000 rotate
/DejaVuSerif findfont
20.0 scalefont
setfont
0.000000 0.765625 moveto
/hyphen glyphshow

/DejaVuSans-Oblique findfont
20.0 scalefont
setfont
6.757812 0.765625 moveto
/alpha glyphshow

/DejaVuSans-Oblique findfont
14.0 scalefont
setfont
19.941406 -2.515625 moveto
/i glyphshow


grestore
2.000 setlinewidth
[2 0] 0 setdash
0.000 0.500 0.000 setrgbcolor
gsave
357.1 266.1 57.6 38.02 clipbox
78.494696 53.063215 m
79.821968 53.569051 l
81.145632 54.011183 l
81.145632 54.011183 l
83.767009 54.967115 l
85.112739 55.437686 l
86.454445 55.881335 l
87.820853 56.267348 l
89.216265 56.712893 l
90.598424 57.389363 l
91.890031 57.946769 l
93.253108 57.840975 l
94.695983 58.320647 l
98.802007 59.482477 l
100.08938 60.152122 l
101.482295 59.967079 l
102.890891 60.727349 l
104.168342 60.863857 l
105.622042 61.110708 l
106.930579 61.796658 l
108.31593 61.676455 l
109.706485 62.352925 l
111.007876 62.413216 l
112.439856 62.798471 l
113.733059 63.235674 l
124.651971 65.279114 l
127.345651 65.740964 l
130.035931 66.243767 l
132.720799 66.773112 l
134.113089 67.041198 l
135.421627 67.265297 l
136.807325 67.399909 l
138.121969 67.728285 l
139.485948 67.755586 l
140.827098 68.124157 l
142.165542 68.140841 l
143.521334 68.46315 l
144.842222 68.490452 l
146.20523 68.7665 l
147.518417 68.848404 l
148.88989 69.028518 l
150.199677 69.205978 l
152.876149 69.507811 l
155.556159 69.723948 l
158.226803 69.920367 l
162.207579 70.109581 l
163.558236 70.191107 l
164.862679 70.2969 l
166.215001 70.32496 l
167.522012 70.442129 l
170.185092 70.496353 l
171.518679 70.442508 l
172.84047 70.532754 l
174.153656 70.475876 l
175.490435 70.568777 l
176.797168 70.495973 l
178.140192 70.554747 l
180.780165 70.448196 l
183.413824 70.367808 l
184.727011 70.423169 l
186.04901 70.25026 l
188.683363 70.177077 l
189.993912 70.179731 l
191.294331 70.00303 l
192.633192 70.03564 l
195.270112 69.761867 l
196.553531 69.62953 l
197.889754 69.524495 l
199.188022 69.380025 l
200.509882 69.200669 l
201.810787 69.17716 l
203.117937 68.901111 l
204.426752 68.829445 l
205.722175 68.52837 l
207.051807 68.411581 l
208.332727 68.194306 l
209.672282 68.104439 l
210.948345 67.829907 l
212.29241 67.643347 l
213.587624 67.452616 l
214.89408 67.19401 l
216.188324 67.036268 l
217.500469 66.679453 l
218.794504 66.679074 l
220.107899 66.160725 l
221.395689 66.093229 l
222.711721 65.634033 l
224.019842 65.524448 l
225.292367 65.15019 l
226.623664 64.95908 l
227.899935 64.592027 l
229.224849 64.24507 l
230.488283 64.012628 l
231.822495 63.593626 l
233.098836 63.379006 l
234.414381 62.8125 l
235.710776 62.83601 l
236.986562 62.16864 l
238.309948 62.013932 l
239.563946 61.445151 l
240.908774 61.236219 l
242.147922 60.695498 l
243.500591 60.380393 l
244.759446 59.964424 l
246.083041 59.490061 l
247.330239 59.41119 l
248.673748 58.6039 l
249.923583 58.462084 l
251.248982 57.690438 l
252.534482 57.603983 l
253.836289 56.778872 l
255.127201 56.634022 l
256.388693 55.920771 l
257.741987 55.606424 l
stroke
grestore
gsave
357.1 266.1 57.6 38.02 clipbox
73.868324 75.711695 m
74.426419 85.502691 l
75.291145 101.346275 l
77.335136 119.158979 l
80.167456 135.917922 l
83.623513 150.80292 l
87.497569 162.997585 l
91.556964 172.418494 l
95.64571 179.497163 l
99.688937 184.739049 l
103.657986 188.546848 l
107.544463 191.207985 l
111.347882 192.923807 l
115.070254 193.838407 l
118.714078 194.057957 l
122.281643 193.665877 l
125.774893 192.727768 l
129.195215 191.300127 l
132.543996 189.429217 l
135.822348 187.157885 l
139.031242 184.522533 l
142.171579 181.55653 l
145.244193 178.290589 l
148.249916 174.752392 l
151.189649 170.967344 l
154.06388 166.958955 l
156.873301 162.749217 l
159.618399 158.358986 l
162.29945 153.807601 l
164.916664 149.114778 l
167.46997 144.29872 l
169.958815 139.378765 l
172.382572 134.376146 l
174.739924 129.314374 l
177.029136 124.224543 l
179.261379 119.2333 l
183.51992 109.302005 l
187.565437 99.961483 l
191.448375 91.315633 l
195.27379 83.484277 l
199.037379 76.035142 l
stroke
grestore
[4 4] 0 setdash
0.000 0.000 1.000 setrgbcolor
gsave
357.1 266.1 57.6 38.02 clipbox
89.284405 64.987898 m
91.68686 67.021859 l
97.77949 71.526604 l
101.454262 73.840785 l
106.347018 76.600131 l
112.443256 79.706813 l
119.737635 83.111157 l
128.235842 86.750217 l
135.519812 89.614978 l
142.808293 92.24995 l
150.103226 94.653619 l
157.404959 96.825225 l
164.713146 98.763251 l
172.027092 100.469215 l
180.565962 102.167595 l
187.888859 103.376065 l
195.214254 104.360056 l
202.541106 105.122981 l
209.868583 105.669011 l
217.195644 106.001937 l
224.521524 106.125932 l
230.62491 106.072845 l
240.386344 105.698588 l
248.922508 105.085821 l
257.452773 104.214069 l
265.976239 103.089779 l
274.491932 101.719016 l
282.999091 100.108987 l
291.496952 98.264999 l
299.984821 96.194257 l
308.462004 93.90169 l
316.927807 91.393745 l
325.381814 88.675731 l
335.02834 85.319923 l
344.657935 81.704751 l
354.269905 77.838178 l
363.863835 73.727787 l
373.439306 69.381542 l
382.998125 64.809301 l
392.535918 60.017131 l
398.487273 56.921446 l
398.487273 56.921446 l
stroke
grestore
gsave
357.1 266.1 57.6 38.02 clipbox
88.516408 71.586137 m
90.014794 74.981001 l
91.511583 78.659877 l
93.008026 82.640206 l
94.506204 86.943603 l
96.008753 91.59206 l
97.519143 96.610984 l
99.041815 102.026917 l
100.58225 107.867539 l
102.147249 114.162049 l
103.745139 120.939264 l
105.385633 128.228382 l
107.080876 136.056704 l
108.84516 144.448499 l
110.695903 153.422726 l
112.65406 162.986589 l
114.744473 173.12985 l
116.996353 183.811178 l
119.441899 194.945255 l
122.114346 206.384199 l
125.042839 217.90429 l
131.719447 239.944174 l
135.441542 249.777639 l
139.366113 258.43714 l
143.43654 265.764556 l
147.595716 271.715901 l
151.793889 276.336678 l
155.991922 279.726992 l
160.161229 282.010079 l
164.28231 283.314104 l
168.342537 283.760408 l
172.334208 283.458574 l
176.253159 282.504918 l
183.86742 278.966721 l
191.187264 273.6854 l
194.741021 270.520703 l
201.647307 263.341549 l
205.004762 259.391175 l
208.301641 255.23642 l
211.540372 250.899654 l
214.723245 246.400597 l
217.852549 241.757069 l
220.930436 236.984238 l
223.958988 232.095755 l
226.940077 227.103374 l
229.875717 222.018093 l
232.767573 216.849011 l
235.617378 211.604471 l
238.426799 206.291678 l
241.197224 200.916697 l
243.930109 195.484839 l
246.626773 189.999515 l
249.28229 184.530875 l
251.909148 178.987156 l
254.503741 173.41424 l
257.068566 167.732118 l
259.599946 162.07161 l
262.104333 156.459258 l
264.580549 150.779411 l
267.030882 145.084396 l
269.437222 139.276384 l
271.844188 133.582507 l
274.199527 127.807484 l
276.538214 122.05635 l
278.88141 116.245304 l
281.15841 110.553323 l
283.440405 104.76882 l
285.699364 98.96915 l
287.91315 93.084542 l
290.150043 87.305727 l
292.326844 81.470034 l
stroke
grestore
[6 2] 0 setdash
0.750 0.000 0.750 setrgbcolor
gsave
357.1 266.1 57.6 38.02 clipbox
84.08148 50.652721 m
86.229833 51.083099 l
90.535489 51.965088 l
92.692306 52.411771 l
97.012812 53.307791 l
99.176083 53.754473 l
101.341296 54.200019 l
103.508176 54.643289 l
105.67672 55.084283 l
107.84693 55.522624 l
112.19186 56.390205 l
114.36665 56.819445 l
118.720531 57.667308 l
120.899692 58.08593 l
123.080241 58.500382 l
125.262316 58.911042 l
127.445779 59.317152 l
129.6307 59.718711 l
131.817077 60.11572 l
134.004843 60.507421 l
136.194065 60.894192 l
138.384606 61.275654 l
140.576673 61.65105 l
142.770059 62.021136 l
144.964833 62.384398 l
147.160925 62.741972 l
149.358405 63.092341 l
151.557203 63.436264 l
153.75725 63.772982 l
155.958615 64.102117 l
158.16123 64.424047 l
160.365093 64.738014 l
162.570137 65.044397 l
164.77629 65.342059 l
166.983692 65.631758 l
169.192136 65.912357 l
171.40162 66.184613 l
173.612214 66.447769 l
175.82378 66.701825 l
178.036317 66.946401 l
180.249825 67.181497 l
182.464167 67.407113 l
184.67941 67.622871 l
186.895486 67.829149 l
189.112325 68.024809 l
191.329928 68.210611 l
193.548224 68.386175 l
195.767215 68.551121 l
197.98676 68.70583 l
200.20693 68.8503 l
202.427655 68.983774 l
204.648866 69.106631 l
206.870563 69.21887 l
209.092675 69.320113 l
211.315135 69.410739 l
213.538011 69.490369 l
215.761165 69.559001 l
220.208166 69.663657 l
222.431944 69.69968 l
224.655931 69.724706 l
226.879987 69.738357 l
229.104112 69.741391 l
231.328237 69.733807 l
233.552362 69.714847 l
235.776487 69.685271 l
238.000473 69.644698 l
240.22439 69.593128 l
242.448099 69.530942 l
244.6716 69.458138 l
246.894962 69.374337 l
249.117977 69.280299 l
251.340714 69.175264 l
253.563174 69.059991 l
255.785217 68.93448 l
260.228125 68.651985 l
264.669158 68.328918 l
266.888912 68.152216 l
269.10811 67.965656 l
271.326754 67.768858 l
273.544773 67.562959 l
275.762167 67.346823 l
277.978868 67.121585 l
280.194874 66.886868 l
282.410187 66.642672 l
284.624736 66.388995 l
286.838523 66.126598 l
289.051546 65.8551 l
291.263736 65.57488 l
293.475093 65.28556 l
295.685549 64.987898 l
297.895102 64.681515 l
300.103823 64.366789 l
302.311572 64.044101 l
304.51835 63.71307 l
306.724226 63.373698 l
308.929061 63.026741 l
311.132855 62.672201 l
313.335678 62.309698 l
315.53739 61.93999 l
317.738131 61.562699 l
319.937762 61.178203 l
322.136283 60.786503 l
324.333693 60.388356 l
326.529924 59.983005 l
328.725114 59.570828 l
330.919055 59.152584 l
333.111886 58.727515 l
337.493939 57.859176 l
339.683231 57.415906 l
341.871204 56.966949 l
344.057998 56.512303 l
346.243612 56.05197 l
348.427908 55.586327 l
350.611094 55.115377 l
352.792961 54.639118 l
354.973718 54.15755 l
357.153365 53.669915 l
359.331832 53.175454 l
361.509258 52.672273 l
363.685436 52.156957 l
365.859739 51.623441 l
368.030435 51.061485 l
370.208833 50.553753 l
372.385288 50.112 l
stroke
grestore
gsave
357.1 266.1 57.6 38.02 clipbox
81.105109 58.423407 m
84.212903 62.985031 l
87.34082 68.409305 l
90.494827 74.715949 l
96.914973 90.096546 l
100.205052 99.25392 l
103.569932 109.465434 l
107.031956 120.805411 l
110.620477 133.363716 l
114.375115 147.244247 l
118.351104 162.558486 l
122.626992 179.4054 l
132.57883 217.613832 l
138.622333 238.122179 l
145.631245 257.730335 l
153.582598 273.914809 l
162.114876 284.601066 l
170.742077 289.565386 l
179.142169 289.917651 l
187.187475 286.945581 l
202.170916 274.692901 l
209.161579 266.552128 l
215.861987 257.534674 l
222.302048 247.858193 l
228.507991 237.680046 l
234.502505 227.115508 l
240.30502 216.250274 l
245.932259 205.151461 l
251.398931 193.870638 l
256.717736 182.449137 l
261.900052 170.921842 l
266.956844 159.319847 l
271.900254 147.667041 l
276.726327 135.911096 l
281.431525 124.159323 l
286.061852 112.435609 l
290.59885 100.526852 l
295.065142 88.787591 l
stroke
grestore
[8 2] 0 setdash
0.000 setgray
gsave
357.1 266.1 57.6 38.02 clipbox
81.962618 50.576504 m
84.115273 51.055039 l
86.27216 51.545328 l
90.597175 52.544866 l
92.76461 53.047289 l
94.934889 53.548575 l
97.107666 54.047964 l
99.282733 54.543942 l
101.459952 55.035747 l
103.639113 55.523762 l
105.820078 56.006846 l
112.373382 57.426524 l
114.561078 57.889511 l
118.941188 58.799182 l
121.133602 59.245485 l
123.327543 59.685722 l
125.522941 60.12027 l
127.719935 60.547994 l
129.918387 60.96965 l
132.118364 61.384481 l
134.319799 61.792107 l
136.522691 62.192529 l
138.727041 62.585746 l
140.932847 62.971001 l
143.140111 63.348292 l
147.558732 64.078228 l
149.770089 64.430114 l
151.982835 64.772899 l
154.19676 65.106584 l
160.846237 66.049243 l
163.065019 66.343493 l
165.284981 66.627504 l
167.506053 66.900898 l
169.728166 67.163296 l
171.95125 67.414697 l
174.175306 67.655102 l
178.626054 68.101405 l
180.852746 68.307304 l
183.080202 68.501448 l
189.766664 69.011834 l
191.996687 69.157442 l
194.227265 69.290916 l
200.921775 69.616259 l
205.38654 69.770209 l
207.619339 69.828224 l
209.852277 69.873348 l
221.018213 69.871452 l
225.484227 69.83505 l
227.716956 69.77893 l
229.949478 69.710297 l
232.181652 69.629151 l
234.413549 69.535492 l
236.645029 69.429699 l
238.876162 69.311771 l
241.106741 69.181331 l
243.336903 69.039136 l
245.56651 68.884806 l
250.02385 68.540504 l
252.251583 68.350911 l
256.704829 67.936838 l
258.930342 67.712738 l
263.378801 67.23117 l
267.82379 66.706375 l
270.044862 66.427672 l
272.264893 66.138732 l
274.483953 65.839553 l
276.701972 65.529757 l
278.91888 65.210481 l
283.349436 64.541974 l
285.562945 64.193501 l
287.775274 63.835927 l
289.986423 63.468874 l
292.196254 63.093099 l
294.404906 62.708224 l
296.612239 62.315007 l
298.818253 61.913068 l
301.02288 61.503167 l
303.226258 61.084923 l
305.428179 60.659096 l
stroke
grestore
gsave
357.1 266.1 57.6 38.02 clipbox
84.175849 63.066177 m
90.426201 74.889996 l
93.594571 82.176839 l
96.804992 90.43061 l
100.071131 99.704394 l
103.410615 110.063792 l
106.846341 121.590708 l
110.40891 134.385247 l
114.140025 148.563819 l
118.098251 164.253074 l
122.36824 181.569043 l
127.074063 200.551161 l
138.557731 242.118813 l
145.752398 262.018564 l
153.900538 277.910305 l
162.560492 287.858664 l
171.23009 292.032 l
179.620051 291.751401 l
187.63323 288.326581 l
195.264561 282.710438 l
202.540967 275.542281 l
209.497213 267.249454 l
216.166744 258.123931 l
222.579465 248.370096 l
228.76133 238.135071 l
240.5186 216.628703 l
251.582465 194.175505 l
stroke
grestore
[10 2] 0 setdash
1.000 0.000 0.000 setrgbcolor
gsave
357.1 266.1 57.6 38.02 clipbox
79.892953 52.701091 m
82.657618 53.694941 l
85.395916 54.396817 l
88.242391 55.253022 l
90.948769 56.920688 l
93.748337 56.517991 l
96.530211 58.245947 l
99.337551 57.918709 l
101.994524 59.167373 l
104.934327 59.532151 l
107.610799 59.817679 l
110.384138 61.186924 l
113.229156 61.234323 l
115.904032 61.628678 l
121.505597 62.895163 l
124.181791 63.244016 l
126.934452 64.206014 l
129.748939 64.495713 l
132.439635 64.665968 l
135.138659 65.457711 l
137.945582 65.844482 l
140.655916 65.909323 l
143.3344 66.45194 l
146.098024 67.012 l
148.845551 67.050677 l
151.521745 67.290703 l
154.226805 67.796918 l
156.974123 67.980065 l
159.669469 68.02936 l
162.3347 68.317163 l
165.069736 68.598899 l
167.773408 68.534058 l
170.42837 68.664499 l
173.121009 68.902249 l
175.836617 68.84575 l
178.506219 68.758537 l
183.876233 68.968607 l
186.559505 68.810106 l
197.231947 68.227675 l
199.859708 68.127569 l
202.551653 67.99182 l
205.223268 67.589123 l
207.851653 67.274398 l
210.50259 67.14282 l
213.201752 66.691966 l
215.82993 66.208123 l
218.445062 65.907807 l
221.138326 65.591944 l
223.804112 65.045914 l
226.392182 64.500263 l
229.028547 64.222319 l
231.747901 63.621686 l
234.358107 62.827668 l
236.928552 62.227794 l
239.658246 61.841781 l
242.293501 61.012119 l
244.889134 60.182078 l
247.504336 59.808578 l
250.198849 58.983467 l
252.804752 57.848559 l
255.385259 57.06895 l
258.087613 56.725027 l
260.74077 55.448682 l
263.323845 54.248555 l
263.323845 54.248555 l
265.858347 54.192435 l
268.627592 53.001787 l
271.248414 51.534332 l
stroke
grestore
gsave
357.1 266.1 57.6 38.02 clipbox
74.798691 106.003833 m
80.868493 136.354366 l
88.648178 156.559363 l
88.648178 156.559363 l
104.292688 171.379521 l
111.533012 171.640402 l
118.349786 169.02818 l
130.724687 158.176218 l
136.306614 151.125609 l
141.525221 143.66889 l
146.432479 136.195108 l
151.090284 128.953009 l
155.55831 122.055971 l
159.886587 115.51006 l
164.108143 109.259915 l
168.25018 103.24335 l
172.327616 97.467568 l
191.87588 68.750953 l
194.573794 68.57994 l
stroke
grestore
[12 2] 0 setdash
0.750 0.750 0.000 setrgbcolor
gsave
357.1 266.1 57.6 38.02 clipbox
84.572893 64.292469 m
84.572893 64.292469 l
86.152048 67.707809 l
87.570289 71.085989 l
88.815197 74.046304 l
89.937078 76.18985 l
91.056669 77.559854 l
92.284993 78.558634 l
93.641964 79.377678 l
95.092333 80.10003 l
96.603486 80.782188 l
98.154677 81.452591 l
99.734109 82.121098 l
106.199983 84.816362 l
109.478543 86.145414 l
112.771605 87.452472 l
116.071884 88.713649 l
119.375008 89.920982 l
122.680907 91.072953 l
125.987362 92.155154 l
125.987362 92.155154 l
129.289514 93.171755 l
132.590348 94.107968 l
135.886394 94.968724 l
139.177722 95.745678 l
142.464054 96.444142 l
145.745667 97.06525 l
149.021174 97.590425 l
152.291199 98.037107 l
155.554563 98.401507 l
158.812723 98.669971 l
162.061724 98.826576 l
165.310169 98.948674 l
168.547998 98.968012 l
171.778541 98.885729 l
175.004781 98.708269 l
178.225957 98.460281 l
181.43492 98.125079 l
184.641871 97.661712 l
187.84445 97.176352 l
191.028225 96.534767 l
194.226987 95.848059 l
197.388905 95.065796 l
200.581839 94.164088 l
203.721552 93.233183 l
206.888742 92.155154 l
206.888742 92.155154 l
210.052811 90.997874 l
213.182809 89.83339 l
216.333416 88.393994 l
219.452798 87.162773 l
222.585502 85.439367 l
225.689688 84.148234 l
228.801506 82.303488 l
231.905206 80.659711 l
235.006616 78.726993 l
238.082005 76.871629 l
241.136509 74.75273 l
244.248535 72.550789 l
247.316222 70.438716 l
250.353309 68.403238 l
253.352509 65.652614 l
256.359133 63.140877 l
259.414677 60.604493 l
262.389938 58.1375 l
265.257993 55.271223 l
stroke
grestore
gsave
357.1 266.1 57.6 38.02 clipbox
73.832727 76.16672 m
75.34395 104.83404 l
77.555308 128.132448 l
80.961821 155.654622 l
86.193681 185.775368 l
93.212654 209.582644 l
100.469146 223.909479 l
107.285643 232.548504 l
113.669221 238.027382 l
119.715985 241.489742 l
125.5015 243.491851 l
136.475576 244.22482 l
146.827858 241.602739 l
156.670477 236.372609 l
166.065815 229.056568 l
175.055713 220.063382 l
183.673409 209.723702 l
191.947906 198.307888 l
191.947906 198.307888 l
199.905851 186.036249 l
207.572779 173.085485 l
214.973322 159.584141 l
stroke
grestore
[14 2] 0 setdash
0.000 0.750 0.750 setrgbcolor
gsave
357.1 266.1 57.6 38.02 clipbox
121.20764 63.884084 m
123.427394 64.657247 l
125.650756 65.426239 l
127.877587 66.190301 l
130.107888 66.948297 l
132.341658 67.699846 l
134.578759 68.443811 l
136.81926 69.179814 l
139.063022 69.906716 l
141.309976 70.624139 l
145.813391 72.027511 l
148.069782 72.711944 l
150.329087 73.384243 l
152.591446 74.04365 l
154.856649 74.689406 l
157.124628 75.321511 l
159.395382 75.938449 l
163.944802 77.126822 l
166.223397 77.696741 l
168.504352 78.249975 l
170.787666 78.785767 l
173.073339 79.304116 l
175.361094 79.804643 l
177.651 80.286211 l
179.942918 80.749199 l
182.23671 81.192848 l
184.532375 81.616779 l
186.829775 82.020993 l
189.128771 82.404731 l
191.429293 82.768371 l
193.731273 83.111536 l
196.03464 83.433466 l
198.339256 83.734541 l
200.644983 84.014002 l
202.95182 84.272228 l
205.259558 84.508841 l
207.568199 84.72422 l
209.877604 84.917226 l
212.187702 85.088998 l
214.498355 85.238398 l
216.809494 85.366184 l
219.12098 85.471977 l
221.432812 85.556157 l
223.744853 85.617964 l
226.057033 85.658158 l
228.369213 85.676738 l
230.681323 85.673325 l
232.993295 85.648299 l
235.305058 85.602038 l
237.616475 85.534164 l
239.927475 85.445055 l
242.238059 85.334711 l
244.548087 85.203133 l
246.857492 85.051079 l
249.166133 84.87817 l
251.47401 84.684784 l
253.781055 84.471302 l
256.087198 84.237343 l
258.3923 83.983667 l
260.696361 83.710652 l
262.999312 83.417919 l
265.301084 83.105848 l
267.601606 82.774817 l
269.90081 82.425207 l
272.198626 82.057395 l
274.495055 81.671003 l
276.789957 81.266789 l
279.083402 80.845133 l
281.375181 80.406034 l
283.665364 79.949493 l
285.953882 79.476267 l
288.240666 78.986736 l
290.525645 78.4809 l
292.80882 77.958759 l
295.090122 77.421451 l
297.36955 76.868596 l
299.647105 76.300573 l
301.922578 75.717762 l
307.602552 74.198358 l
309.870878 73.566253 l
312.137122 72.920876 l
314.401215 72.262228 l
316.663157 71.591066 l
318.922879 70.907392 l
323.435592 69.50364 l
327.939284 68.053628 l
330.187626 67.312316 l
332.433678 66.560009 l
334.67744 65.797463 l
336.918773 65.025059 l
339.157748 64.242795 l
341.394363 63.451052 l
343.628549 62.650208 l
345.860377 61.840643 l
348.089845 61.022736 l
350.316954 60.196108 l
352.541703 59.361896 l
354.764302 58.518962 l
356.984749 57.667308 l
359.203185 56.804656 l
361.419608 55.927975 l
363.63388 55.03006 l
365.84496 54.099155 l
368.057566 53.239158 l
370.266842 52.236966 l
372.480142 51.480487 l
374.696357 50.598497 l
stroke
grestore
gsave
357.1 266.1 57.6 38.02 clipbox
88.613761 67.531108 m
93.079428 76.237249 l
97.627945 86.657317 l
102.291023 98.895967 l
107.112864 113.098049 l
112.156888 129.455432 l
117.517187 148.204729 l
137.453475 220.301891 l
146.613238 247.034219 l
157.530345 268.739281 l
169.435622 280.297669 l
181.217385 281.969885 l
192.353554 276.939586 l
202.771686 267.808755 l
212.540059 256.143057 l
221.747838 242.851782 l
238.786442 213.374897 l
246.735575 197.749725 l
stroke
grestore
0.800 setlinewidth
0 setlinejoin
2 setlinecap
[] 0 setdash
0.000 setgray
gsave
57.6 38.016 m
57.6 304.128 l
stroke
grestore
gsave
414.72 38.016 m
414.72 304.128 l
stroke
grestore
gsave
57.6 38.016 m
414.72 38.016 l
stroke
grestore
gsave
57.6 304.128 m
414.72 304.128 l
stroke
grestore

end
showpage
