%!PS-Adobe-3.0 EPSF-3.0
%%Title: %omega.eps
%%Creator: matplotlib version 2.2.3, http://matplotlib.org/
%%CreationDate: Thu Jan 10 16:27:51 2019
%%Orientation: portrait
%%BoundingBox: -414 36 1026 756
%%EndComments
%%BeginProlog
/mpldict 9 dict def
mpldict begin
/m { moveto } bind def
/l { lineto } bind def
/r { rlineto } bind def
/c { curveto } bind def
/cl { closepath } bind def
/box {
m
1 index 0 r
0 exch r
neg 0 r
cl
} bind def
/clipbox {
box
clip
newpath
} bind def
%!PS-Adobe-3.0 Resource-Font
%%Title: DejaVu Sans Oblique
%%Copyright: Copyright (c) 2003 by Bitstream, Inc. All Rights Reserved. Copyright (c) 2006 by Tavmjong Bah. All Rights Reserved. DejaVu changes are in public domain 
%%Creator: Converted from TrueType to type 3 by PPR
25 dict begin
/_d{bind def}bind def
/_m{moveto}_d
/_l{lineto}_d
/_cl{closepath eofill}_d
/_c{curveto}_d
/_sc{7 -1 roll{setcachedevice}{pop pop pop pop pop pop}ifelse}_d
/_e{exec}_d
/FontName /DejaVuSans-Oblique def
/PaintType 0 def
/FontMatrix[.001 0 0 .001 0 0]def
/FontBBox[-1016 -350 1659 1068]def
/FontType 3 def
/Encoding [ /i /alpha /omega ] def
/FontInfo 10 dict dup begin
/FamilyName (DejaVu Sans) def
/FullName (DejaVu Sans Oblique) def
/Notice (Copyright (c) 2003 by Bitstream, Inc. All Rights Reserved. Copyright (c) 2006 by Tavmjong Bah. All Rights Reserved. DejaVu changes are in public domain ) def
/Weight (Oblique) def
/Version (Version 2.35) def
/ItalicAngle -11.0 def
/isFixedPitch false def
/UnderlinePosition -130 def
/UnderlineThickness 90 def
end readonly def
/CharStrings 4 dict dup begin
/.notdef 0 def
/i{278 0 35 0 273 760 _sc
183 760 _m
273 760 _l
251 646 _l
161 646 _l
183 760 _l
142 547 _m
232 547 _l
125 0 _l
35 0 _l
142 547 _l
_cl}_d
/alpha{{659 0 55 -11 645 559 _sc
409 254 _m
410 367 _l
410 443 381 482 323 483 _c
279 483 244 465 218 429 _c
184 384 161 332 150 273 _c
136 201 137 148 155 114 _c
173 79 202 62 242 62 _c
285 62 325 96 362 166 _c
409 254 _l
338 559 _m
440 561 490 509 489 404 _c
489 404 514 451 565 547 _c
645 547 _l
487 250 _l
486 144 _l
486 128 490 113 499 100 _c
509 84 519 76 530 76 _c
}_e{573 76 _l
559 0 _l
504 0 _l
473 0 447 13 425 41 _c
415 55 409 76 409 104 _c
387 69 359 37 323 8 _c
305 -5 273 -11 227 -11 _c
151 -10 99 14 71 62 _c
43 112 37 183 55 273 _c
73 369 108 440 158 484 _c
213 533 273 558 338 559 _c
_cl}_e}_d
/omega{{837 0 68 -13 771 547 _sc
214 -13 _m
78 -13 30 83 68 276 _c
82 352 125 443 196 547 _c
293 547 _l
225 443 184 351 170 273 _c
142 132 164 62 237 62 _c
304 62 354 149 387 325 _c
470 325 _l
434 149 450 61 518 62 _c
590 62 640 133 668 273 _c
682 351 677 443 651 547 _c
748 547 _l
778 443 785 352 771 276 _c
733 82 647 -13 512 -13 _c
423 -13 383 35 391 132 _c
}_e{359 35 300 -13 214 -13 _c
_cl}_e}_d
end readonly def

/BuildGlyph
 {exch begin
 CharStrings exch
 2 copy known not{pop /.notdef}if
 true 3 1 roll get exec
 end}_d

/BuildChar {
 1 index /Encoding get exch get
 1 index /BuildGlyph get exec
}_d

FontName currentdict end definefont pop
%!PS-Adobe-3.0 Resource-Font
%%Title: DejaVu Serif
%%Copyright: Copyright (c) 2003 by Bitstream, Inc. All Rights Reserved. DejaVu changes are in public domain 
%%Creator: Converted from TrueType to type 3 by PPR
25 dict begin
/_d{bind def}bind def
/_m{moveto}_d
/_l{lineto}_d
/_cl{closepath eofill}_d
/_c{curveto}_d
/_sc{7 -1 roll{setcachedevice}{pop pop pop pop pop pop}ifelse}_d
/_e{exec}_d
/FontName /DejaVuSerif def
/PaintType 0 def
/FontMatrix[.001 0 0 .001 0 0]def
/FontBBox[-770 -347 2105 1109]def
/FontType 3 def
/Encoding [ /hyphen /period /zero /one /two /three /four /five /six ] def
/FontInfo 10 dict dup begin
/FamilyName (DejaVu Serif) def
/FullName (DejaVu Serif) def
/Notice (Copyright (c) 2003 by Bitstream, Inc. All Rights Reserved. DejaVu changes are in public domain ) def
/Weight (Book) def
/Version (Version 2.35) def
/ItalicAngle 0.0 def
/isFixedPitch false def
/UnderlinePosition -130 def
/UnderlineThickness 90 def
end readonly def
/CharStrings 10 dict dup begin
/.notdef 0 def
/hyphen{338 0 44 230 294 306 _sc
44 306 _m
294 306 _l
294 230 _l
44 230 _l
44 306 _l
_cl}_d
/period{318 0 94 -13 224 116 _sc
94 51 _m
94 69 100 84 112 97 _c
124 109 140 116 159 116 _c
177 116 192 109 205 97 _c
217 84 224 69 224 51 _c
224 33 217 17 205 5 _c
192 -7 177 -13 159 -13 _c
140 -13 124 -7 112 5 _c
100 17 94 32 94 51 _c
_cl}_d
/zero{636 0 66 -13 570 742 _sc
318 34 _m
368 34 405 61 430 116 _c
454 170 467 253 467 364 _c
467 474 454 557 430 612 _c
405 666 368 694 318 694 _c
268 694 230 666 206 612 _c
181 557 169 474 169 364 _c
169 253 181 170 206 116 _c
230 61 268 34 318 34 _c
318 -13 _m
238 -13 176 20 132 86 _c
88 152 66 244 66 364 _c
66 483 88 576 132 642 _c
176 708 238 742 318 742 _c
397 742 459 708 503 642 _c
547 576 570 483 570 364 _c
570 244 547 152 503 86 _c
459 20 397 -13 318 -13 _c
_cl}_d
/one{636 0 122 0 494 742 _sc
142 0 _m
142 52 _l
269 52 _l
269 658 _l
122 563 _l
122 627 _l
300 742 _l
367 742 _l
367 52 _l
494 52 _l
494 0 _l
142 0 _l
_cl}_d
/two{{636 0 68 0 538 742 _sc
128 555 _m
73 555 _l
73 685 _l
107 703 142 717 178 727 _c
213 737 248 742 282 742 _c
358 742 418 723 462 687 _c
506 650 528 600 528 537 _c
528 465 478 380 378 281 _c
370 273 365 268 361 264 _c
177 80 _l
481 80 _l
481 170 _l
538 170 _l
538 0 _l
68 0 _l
68 53 _l
289 274 _l
337 322 372 367 393 408 _c
414 449 425 492 425 537 _c
}_e{425 586 412 624 386 652 _c
360 680 325 694 281 694 _c
234 694 198 682 173 659 _c
147 636 132 601 128 555 _c
_cl}_e}_d
/three{{636 0 76 -13 562 742 _sc
97 698 _m
135 712 171 723 206 731 _c
241 738 274 742 305 742 _c
376 742 432 726 472 696 _c
512 665 532 622 532 568 _c
532 524 518 487 490 458 _c
462 428 423 408 373 398 _c
433 389 479 367 512 332 _c
545 297 562 252 562 197 _c
562 129 539 77 493 41 _c
447 5 382 -13 296 -13 _c
258 -13 220 -9 184 -1 _c
148 6 112 18 76 35 _c
76 177 _l
}_e{131 177 _l
134 129 150 94 178 70 _c
206 46 246 34 298 34 _c
348 34 387 48 416 77 _c
444 106 459 146 459 196 _c
459 253 444 296 414 326 _c
384 355 341 370 284 370 _c
238 370 _l
238 420 _l
262 420 _l
319 420 362 431 390 455 _c
418 479 433 514 433 562 _c
433 604 421 637 398 660 _c
374 682 341 694 297 694 _c
253 694 218 683 194 662 _c
170 641 156 610 152 570 _c
}_e{97 570 _l
97 698 _l
_cl}_e}_d
/four{636 0 31 0 586 742 _sc
349 247 _m
349 635 _l
100 247 _l
349 247 _l
564 0 _m
232 0 _l
232 52 _l
349 52 _l
349 195 _l
31 195 _l
31 248 _l
350 742 _l
447 742 _l
447 247 _l
586 247 _l
586 195 _l
447 195 _l
447 52 _l
564 52 _l
564 0 _l
_cl}_d
/five{{636 0 85 -13 559 729 _sc
503 729 _m
503 649 _l
169 649 _l
169 440 _l
185 452 205 460 228 466 _c
250 472 276 475 304 475 _c
382 475 444 453 490 409 _c
536 365 559 306 559 231 _c
559 153 536 93 490 51 _c
444 8 379 -13 296 -13 _c
262 -13 228 -9 193 -1 _c
157 6 121 18 85 35 _c
85 177 _l
140 177 _l
143 130 158 94 184 70 _c
210 46 248 34 296 34 _c
}_e{347 34 386 51 414 85 _c
442 119 456 167 456 231 _c
456 294 442 342 415 376 _c
387 410 348 427 296 427 _c
266 427 240 421 218 411 _c
196 401 176 385 159 363 _c
117 363 _l
117 729 _l
503 729 _l
_cl}_e}_d
/six{{636 0 67 -13 573 742 _sc
327 34 _m
373 34 408 50 433 84 _c
457 118 470 166 470 230 _c
470 293 457 341 433 375 _c
408 409 373 426 327 426 _c
280 426 244 409 220 377 _c
196 344 184 297 184 236 _c
184 171 196 121 221 86 _c
245 51 281 34 327 34 _c
168 401 _m
190 425 215 444 243 456 _c
271 468 302 474 338 474 _c
410 474 468 452 510 408 _c
552 364 573 305 573 230 _c
}_e{573 156 550 97 505 53 _c
459 9 399 -13 323 -13 _c
241 -13 177 17 133 78 _c
89 139 67 227 67 341 _c
67 468 93 567 145 637 _c
197 707 271 742 367 742 _c
393 742 420 739 448 735 _c
476 730 505 723 535 713 _c
535 593 _l
480 593 _l
476 625 463 650 442 668 _c
421 685 393 694 357 694 _c
293 694 246 670 215 622 _c
184 574 168 500 168 401 _c
_cl}_e}_d
end readonly def

/BuildGlyph
 {exch begin
 CharStrings exch
 2 copy known not{pop /.notdef}if
 true 3 1 roll get exec
 end}_d

/BuildChar {
 1 index /Encoding get exch get
 1 index /BuildGlyph get exec
}_d

FontName currentdict end definefont pop
end
%%EndProlog
mpldict begin
-414 36 translate
1440 720 0 0 clipbox
gsave
0 0 m
1440 0 l
1440 720 l
0 720 l
cl
1.000 setgray
fill
grestore
gsave
180 79.2 m
1296 79.2 l
1296 633.6 l
180 633.6 l
cl
1.000 setgray
fill
grestore
0.800 setlinewidth
1 setlinejoin
0 setlinecap
[] 0 setdash
0.000 setgray
gsave
/o {
gsave
newpath
translate
0.8 setlinewidth
1 setlinejoin
0 setlinecap
0 0 m
0 -3.5 l

gsave
0.000 setgray
fill
grestore
stroke
grestore
} bind def
188.772 79.2 o
grestore
/DejaVuSerif findfont
15.000 scalefont
setfont
gsave
176.842698 60.809375 translate
0.000000 rotate
0.000000 0.000000 m /zero glyphshow
9.543457 0.000000 m /period glyphshow
14.311523 0.000000 m /zero glyphshow
grestore
gsave
/o {
gsave
newpath
translate
0.8 setlinewidth
1 setlinejoin
0 setlinecap
0 0 m
0 -3.5 l

gsave
0.000 setgray
fill
grestore
stroke
grestore
} bind def
379.476 79.2 o
grestore
gsave
367.546731 60.809375 translate
0.000000 rotate
0.000000 0.000000 m /zero glyphshow
9.543457 0.000000 m /period glyphshow
14.311523 0.000000 m /five glyphshow
grestore
gsave
/o {
gsave
newpath
translate
0.8 setlinewidth
1 setlinejoin
0 setlinecap
0 0 m
0 -3.5 l

gsave
0.000 setgray
fill
grestore
stroke
grestore
} bind def
570.18 79.2 o
grestore
gsave
558.250764 60.809375 translate
0.000000 rotate
0.000000 0.000000 m /one glyphshow
9.543457 0.000000 m /period glyphshow
14.311523 0.000000 m /zero glyphshow
grestore
gsave
/o {
gsave
newpath
translate
0.8 setlinewidth
1 setlinejoin
0 setlinecap
0 0 m
0 -3.5 l

gsave
0.000 setgray
fill
grestore
stroke
grestore
} bind def
760.884 79.2 o
grestore
gsave
748.954796 60.809375 translate
0.000000 rotate
0.000000 0.000000 m /one glyphshow
9.543457 0.000000 m /period glyphshow
14.311523 0.000000 m /five glyphshow
grestore
gsave
/o {
gsave
newpath
translate
0.8 setlinewidth
1 setlinejoin
0 setlinecap
0 0 m
0 -3.5 l

gsave
0.000 setgray
fill
grestore
stroke
grestore
} bind def
951.589 79.2 o
grestore
gsave
939.658829 60.809375 translate
0.000000 rotate
0.000000 0.000000 m /two glyphshow
9.543457 0.000000 m /period glyphshow
14.311523 0.000000 m /zero glyphshow
grestore
gsave
/o {
gsave
newpath
translate
0.8 setlinewidth
1 setlinejoin
0 setlinecap
0 0 m
0 -3.5 l

gsave
0.000 setgray
fill
grestore
stroke
grestore
} bind def
1142.29 79.2 o
grestore
gsave
1130.362862 60.809375 translate
0.000000 rotate
0.000000 0.000000 m /two glyphshow
9.543457 0.000000 m /period glyphshow
14.311523 0.000000 m /five glyphshow
grestore
gsave
729.500000 38.481250 translate
0.000000 rotate
/DejaVuSans-Oblique findfont
20.0 scalefont
setfont
0.000000 0.062500 moveto
/omega glyphshow


grestore
gsave
/o {
gsave
newpath
translate
0.8 setlinewidth
1 setlinejoin
0 setlinecap
0 0 m
-3.5 0 l

gsave
0.000 setgray
fill
grestore
stroke
grestore
} bind def
180 100.068 o
grestore
gsave
149.140625 94.372472 translate
0.000000 rotate
0.000000 0.000000 m /zero glyphshow
9.543457 0.000000 m /period glyphshow
14.311523 0.000000 m /zero glyphshow
grestore
gsave
/o {
gsave
newpath
translate
0.8 setlinewidth
1 setlinejoin
0 setlinecap
0 0 m
-3.5 0 l

gsave
0.000 setgray
fill
grestore
stroke
grestore
} bind def
180 179.065 o
grestore
gsave
149.140625 173.369833 translate
0.000000 rotate
0.000000 0.000000 m /zero glyphshow
9.543457 0.000000 m /period glyphshow
14.311523 0.000000 m /one glyphshow
grestore
gsave
/o {
gsave
newpath
translate
0.8 setlinewidth
1 setlinejoin
0 setlinecap
0 0 m
-3.5 0 l

gsave
0.000 setgray
fill
grestore
stroke
grestore
} bind def
180 258.063 o
grestore
gsave
149.140625 252.367193 translate
0.000000 rotate
0.000000 0.000000 m /zero glyphshow
9.543457 0.000000 m /period glyphshow
14.311523 0.000000 m /two glyphshow
grestore
gsave
/o {
gsave
newpath
translate
0.8 setlinewidth
1 setlinejoin
0 setlinecap
0 0 m
-3.5 0 l

gsave
0.000 setgray
fill
grestore
stroke
grestore
} bind def
180 337.06 o
grestore
gsave
149.140625 331.364554 translate
0.000000 rotate
0.000000 0.000000 m /zero glyphshow
9.543457 0.000000 m /period glyphshow
14.311523 0.000000 m /three glyphshow
grestore
gsave
/o {
gsave
newpath
translate
0.8 setlinewidth
1 setlinejoin
0 setlinecap
0 0 m
-3.5 0 l

gsave
0.000 setgray
fill
grestore
stroke
grestore
} bind def
180 416.057 o
grestore
gsave
149.140625 410.361914 translate
0.000000 rotate
0.000000 0.000000 m /zero glyphshow
9.543457 0.000000 m /period glyphshow
14.311523 0.000000 m /four glyphshow
grestore
gsave
/o {
gsave
newpath
translate
0.8 setlinewidth
1 setlinejoin
0 setlinecap
0 0 m
-3.5 0 l

gsave
0.000 setgray
fill
grestore
stroke
grestore
} bind def
180 495.055 o
grestore
gsave
149.140625 489.359275 translate
0.000000 rotate
0.000000 0.000000 m /zero glyphshow
9.543457 0.000000 m /period glyphshow
14.311523 0.000000 m /five glyphshow
grestore
gsave
/o {
gsave
newpath
translate
0.8 setlinewidth
1 setlinejoin
0 setlinecap
0 0 m
-3.5 0 l

gsave
0.000 setgray
fill
grestore
stroke
grestore
} bind def
180 574.052 o
grestore
gsave
149.140625 568.356635 translate
0.000000 rotate
0.000000 0.000000 m /zero glyphshow
9.543457 0.000000 m /period glyphshow
14.311523 0.000000 m /six glyphshow
grestore
gsave
140.984375 343.900000 translate
90.000000 rotate
/DejaVuSerif findfont
20.0 scalefont
setfont
0.000000 0.765625 moveto
/hyphen glyphshow

/DejaVuSans-Oblique findfont
20.0 scalefont
setfont
6.757812 0.765625 moveto
/alpha glyphshow

/DejaVuSans-Oblique findfont
14.0 scalefont
setfont
19.941406 -2.515625 moveto
/i glyphshow


grestore
2.000 setlinewidth
[2 0] 0 setdash
0.000 0.500 0.000 setrgbcolor
gsave
1116 554.4 180 79.2 clipbox
230.727273 110.548365 m
234.541353 111.602189 l
238.355434 112.523299 l
242.169515 112.523299 l
245.983595 114.514822 l
249.797676 115.495179 l
253.611757 116.419448 l
257.425837 117.223642 l
261.239918 118.151861 l
265.053999 119.561173 l
268.868079 120.722435 l
272.68216 120.502032 l
276.496241 121.501349 l
287.938483 123.921828 l
291.752563 125.316921 l
295.566644 124.931414 l
299.380725 126.515311 l
303.194805 126.799702 l
307.008886 127.313974 l
310.822967 128.743037 l
314.637047 128.492615 l
318.451128 129.901928 l
322.265208 130.027534 l
326.079289 130.830147 l
329.89337 131.740986 l
345.149692 135.998154 l
348.963773 136.960342 l
352.777854 138.007847 l
356.591934 139.11065 l
360.406015 139.669162 l
364.220096 140.136036 l
371.848257 140.416477 l
375.662338 141.100594 l
379.476418 141.157472 l
383.290499 141.925326 l
387.10458 141.960085 l
390.91866 142.631563 l
394.732741 142.688441 l
398.546822 143.263541 l
402.360902 143.434176 l
406.174983 143.809413 l
409.989064 144.179121 l
413.803144 144.80794 l
417.617225 145.258225 l
421.431306 145.667431 l
429.059467 146.061628 l
432.873548 146.231472 l
436.687628 146.451875 l
440.501709 146.510333 l
444.315789 146.754435 l
451.943951 146.867401 l
455.758031 146.755225 l
459.572112 146.943239 l
463.386193 146.824742 l
467.200273 147.018286 l
471.014354 146.866611 l
474.828435 146.989057 l
482.456596 146.767074 l
490.084757 146.5996 l
493.898838 146.714936 l
497.712919 146.354708 l
505.34108 146.202243 l
509.155161 146.207773 l
512.969241 145.839645 l
516.783322 145.907583 l
524.411483 145.337222 l
528.225564 145.061521 l
532.039645 144.842699 l
535.853725 144.541719 l
539.667806 144.168061 l
543.481887 144.119083 l
547.295967 143.543982 l
551.110048 143.394677 l
554.924129 142.767438 l
558.738209 142.524126 l
562.55229 142.071471 l
566.36637 141.884248 l
570.180451 141.312307 l
573.994532 140.92364 l
577.808612 140.526283 l
581.622693 139.987521 l
585.436774 139.658892 l
589.250854 138.915527 l
593.064935 138.914737 l
596.879016 137.834843 l
600.693096 137.694228 l
604.507177 136.73757 l
608.321258 136.509267 l
612.135338 135.729563 l
615.949419 135.331416 l
619.7635 134.566722 l
623.57758 133.843896 l
627.391661 133.359642 l
631.205742 132.486722 l
635.019822 132.039596 l
638.833903 130.859376 l
642.647984 130.908354 l
646.462064 129.518001 l
650.276145 129.195692 l
654.090226 128.010731 l
657.904306 127.575456 l
661.718387 126.448953 l
665.532468 125.792485 l
669.346548 124.925884 l
673.160629 123.937627 l
676.97471 123.773313 l
680.78879 122.091459 l
684.602871 121.796009 l
688.416951 120.188412 l
692.231032 120.008298 l
696.045113 118.289316 l
699.859193 117.987546 l
703.673274 116.501606 l
707.487355 115.846718 l
stroke
grestore
gsave
1116 554.4 180 79.2 clipbox
230.727273 157.732698 m
234.541353 178.130606 l
238.355434 211.138074 l
242.169515 248.247874 l
245.983595 283.162337 l
249.797676 314.172751 l
253.611757 339.578302 l
257.425837 359.205196 l
261.239918 373.952424 l
265.053999 384.873019 l
268.868079 392.805934 l
272.68216 398.349968 l
276.496241 401.924599 l
280.310321 403.830015 l
284.124402 404.28741 l
287.938483 403.470577 l
291.752563 401.516183 l
295.566644 398.541932 l
299.380725 394.644202 l
303.194805 389.91226 l
307.008886 384.421944 l
310.822967 378.24277 l
314.637047 371.438728 l
318.451128 364.067484 l
322.265208 356.181967 l
326.079289 347.831156 l
329.89337 339.060869 l
333.70745 329.914555 l
337.521531 320.432502 l
341.335612 310.655788 l
345.149692 300.622334 l
348.963773 290.372426 l
352.777854 279.950304 l
356.591934 269.404947 l
360.406015 258.801131 l
364.220096 248.402708 l
371.848257 227.71251 l
375.662338 208.25309 l
379.476418 190.240902 l
383.290499 173.925577 l
387.10458 158.406545 l
stroke
grestore
[4 4] 0 setdash
0.000 0.000 1.000 setrgbcolor
gsave
1116 554.4 180 79.2 clipbox
234.541353 135.391454 m
242.169515 139.628873 l
257.425837 147.280557 l
265.053999 150.679814 l
272.68216 153.834968 l
280.310321 156.78947 l
291.752563 160.930511 l
303.194805 164.809282 l
314.637047 168.489769 l
329.89337 173.148243 l
348.963773 178.63303 l
368.034176 183.773388 l
383.290499 187.645839 l
398.546822 191.305786 l
413.803144 194.751651 l
429.059467 197.982643 l
444.315789 200.998762 l
459.572112 203.798429 l
474.828435 206.383222 l
490.084757 208.751563 l
505.34108 210.906611 l
520.597403 212.849156 l
535.853725 214.579989 l
551.110048 216.101478 l
570.180451 217.713814 l
585.436774 218.773168 l
600.693096 219.63108 l
615.949419 220.289918 l
631.205742 220.752052 l
646.462064 221.019853 l
661.718387 221.097271 l
676.97471 220.985095 l
699.859193 220.469242 l
715.115516 219.896511 l
730.371839 219.145246 l
749.442242 217.956336 l
768.512645 216.496465 l
787.583049 214.770372 l
806.653452 212.782009 l
825.723855 210.537694 l
844.794258 208.040587 l
860.050581 205.865 l
879.120984 202.927088 l
898.191388 199.749814 l
913.44771 197.039415 l
932.518113 193.443455 l
951.588517 189.620773 l
974.473001 184.741106 l
997.357485 179.548609 l
1016.427888 174.987301 l
1039.312372 169.239454 l
1058.382775 164.224701 l
1077.453178 159.010085 l
1096.523582 153.599556 l
1119.408066 146.853182 l
1142.29255 139.839006 l
1165.177033 132.566509 l
1180.433356 127.515418 l
1199.503759 121.079503 l
1203.31784 119.761827 l
1207.131921 118.586346 l
1207.131921 118.586346 l
stroke
grestore
gsave
1116 554.4 180 79.2 clipbox
230.727273 149.137785 m
234.541353 156.210419 l
238.355434 163.874743 l
242.169515 172.167096 l
245.983595 181.132506 l
249.797676 190.816793 l
253.611757 201.272883 l
257.425837 212.556076 l
261.239918 224.72404 l
265.053999 237.837601 l
268.868079 251.9568 l
272.68216 267.142462 l
276.496241 283.451467 l
280.310321 300.934373 l
284.124402 319.630679 l
287.938483 339.555393 l
291.752563 360.687187 l
295.566644 382.939953 l
299.380725 406.135948 l
303.194805 429.967082 l
307.008886 453.96727 l
314.637047 499.883696 l
318.451128 520.370081 l
322.265208 538.410709 l
326.079289 553.676158 l
329.89337 566.074794 l
333.70745 575.701413 l
337.521531 582.764567 l
341.335612 587.520998 l
345.149692 590.237717 l
348.963773 591.167516 l
352.777854 590.538697 l
356.591934 588.551913 l
364.220096 581.180669 l
371.848257 570.177917 l
375.662338 563.584797 l
383.290499 548.628227 l
387.10458 540.398282 l
390.91866 531.742541 l
394.732741 522.707613 l
398.546822 513.334576 l
402.360902 503.66056 l
406.174983 493.717162 l
409.989064 483.532822 l
413.803144 473.13203 l
417.617225 462.537694 l
421.431306 451.768773 l
425.245386 440.842649 l
429.059467 429.774328 l
432.873548 418.576453 l
436.687628 407.260081 l
440.501709 395.832322 l
444.315789 384.439323 l
448.12987 372.889909 l
451.943951 361.279667 l
455.758031 349.441912 l
459.572112 337.649187 l
463.386193 325.956787 l
467.200273 314.123773 l
471.014354 302.259159 l
474.828435 290.159133 l
478.642515 278.29689 l
482.456596 266.265592 l
486.270677 254.284062 l
490.084757 242.177716 l
493.898838 230.319423 l
497.712919 218.268375 l
501.526999 206.185729 l
505.34108 193.926129 l
509.155161 181.886931 l
512.969241 169.729237 l
stroke
grestore
[6 2] 0 setdash
0.750 0.000 0.750 setrgbcolor
gsave
1116 554.4 180 79.2 clipbox
234.541353 105.526502 m
242.169515 106.423122 l
257.425837 108.260601 l
265.053999 109.19119 l
280.310321 111.057898 l
287.938483 111.988486 l
295.566644 112.916705 l
303.194805 113.840185 l
310.822967 114.758924 l
318.451128 115.672133 l
333.70745 117.479593 l
341.335612 118.373843 l
356.591934 120.140224 l
364.220096 121.012355 l
371.848257 121.875796 l
379.476418 122.731338 l
387.10458 123.577399 l
394.732741 124.413981 l
402.360902 125.241084 l
409.989064 126.057126 l
417.617225 126.862899 l
425.245386 127.657613 l
432.873548 128.439687 l
440.501709 129.210701 l
448.12987 129.967496 l
455.758031 130.712441 l
463.386193 131.442376 l
471.014354 132.158883 l
478.642515 132.860379 l
486.270677 133.546076 l
493.898838 134.216764 l
501.526999 134.870862 l
509.155161 135.509161 l
516.783322 136.12929 l
524.411483 136.73283 l
532.039645 137.31741 l
539.667806 137.884611 l
547.295967 138.432853 l
554.924129 138.962135 l
562.55229 139.471668 l
570.180451 139.961452 l
577.808612 140.431486 l
585.436774 140.880981 l
593.064935 141.310727 l
600.693096 141.718353 l
608.321258 142.10544 l
615.949419 142.471198 l
623.57758 142.814836 l
631.205742 143.137146 l
638.833903 143.438126 l
646.462064 143.716196 l
654.090226 143.972148 l
661.718387 144.20598 l
669.346548 144.416903 l
676.97471 144.605707 l
684.602871 144.771601 l
692.231032 144.914586 l
707.487355 145.132619 l
715.115516 145.207667 l
722.743677 145.259805 l
730.371839 145.288244 l
738 145.294564 l
745.628161 145.278764 l
753.256323 145.239265 l
760.884484 145.177648 l
768.512645 145.09312 l
776.140807 144.985684 l
783.768968 144.856128 l
791.397129 144.704453 l
799.02529 144.529869 l
806.653452 144.333956 l
814.281613 144.115133 l
821.909774 143.874981 l
829.537936 143.6135 l
844.794258 143.024969 l
860.050581 142.351912 l
867.678742 141.983784 l
875.306904 141.595117 l
882.935065 141.185121 l
890.563226 140.756165 l
898.191388 140.30588 l
905.819549 139.836636 l
913.44771 139.347642 l
921.075871 138.838899 l
928.704033 138.310407 l
936.332194 137.763745 l
943.960355 137.198124 l
951.588517 136.614334 l
959.216678 136.011584 l
966.844839 135.391454 l
974.473001 134.753156 l
982.101162 134.097478 l
989.729323 133.42521 l
997.357485 132.735563 l
1004.985646 132.028537 l
1012.613807 131.305711 l
1020.241969 130.567086 l
1027.87013 129.811871 l
1035.498291 129.041647 l
1043.126452 128.255623 l
1050.754614 127.45459 l
1058.382775 126.638547 l
1066.010936 125.809075 l
1073.639098 124.964593 l
1081.267259 124.105892 l
1088.89542 123.234551 l
1096.523582 122.34899 l
1111.779904 120.539951 l
1119.408066 119.616472 l
1127.036227 118.681143 l
1134.664388 117.733964 l
1142.29255 116.774937 l
1149.920711 115.804849 l
1157.548872 114.823702 l
1165.177033 113.831495 l
1172.805195 112.828228 l
1180.433356 111.812322 l
1188.061517 110.782197 l
1195.689679 109.733902 l
1203.31784 108.660328 l
1210.946001 107.548835 l
1218.574163 106.378094 l
1226.202324 105.320319 l
1233.830485 104.4 l
stroke
grestore
gsave
1116 554.4 180 79.2 clipbox
234.541353 121.715431 m
242.169515 131.218814 l
249.797676 142.519386 l
257.425837 155.658227 l
272.68216 187.701137 l
280.310321 206.778999 l
287.938483 228.052988 l
295.566644 251.677939 l
303.194805 277.841075 l
310.822967 306.758849 l
318.451128 338.663513 l
326.079289 373.76125 l
341.335612 453.36215 l
348.963773 496.087873 l
356.591934 536.938198 l
364.220096 570.655851 l
371.848257 592.918887 l
379.476418 603.261222 l
387.10458 603.995107 l
394.732741 597.803294 l
409.989064 572.276877 l
417.617225 555.316934 l
425.245386 536.530571 l
432.873548 516.371235 l
440.501709 495.166763 l
448.12987 473.157309 l
455.758031 450.521405 l
463.386193 427.398878 l
471.014354 403.897163 l
478.642515 380.102368 l
486.270677 356.08717 l
493.898838 331.916348 l
501.526999 307.639669 l
509.155161 283.148118 l
516.783322 258.665256 l
524.411483 234.240852 l
532.039645 209.430941 l
539.667806 184.974148 l
stroke
grestore
[8 2] 0 setdash
0.000 setgray
gsave
1116 554.4 180 79.2 clipbox
257.425837 105.367718 m
265.053999 106.364664 l
272.68216 107.3861 l
287.938483 109.468471 l
295.566644 110.515186 l
303.194805 111.559531 l
310.822967 112.599926 l
318.451128 113.633211 l
326.079289 114.657807 l
333.70745 115.674503 l
341.335612 116.68093 l
364.220096 119.638591 l
371.848257 120.603149 l
387.10458 122.498295 l
394.732741 123.428094 l
402.360902 124.345254 l
409.989064 125.250563 l
417.617225 126.141654 l
425.245386 127.020104 l
432.873548 127.884335 l
440.501709 128.733557 l
448.12987 129.567769 l
455.758031 130.386972 l
463.386193 131.189585 l
471.014354 131.975609 l
486.270677 133.496308 l
493.898838 134.229403 l
501.526999 134.943539 l
509.155161 135.638716 l
532.039645 137.602591 l
539.667806 138.21561 l
547.295967 138.8073 l
554.924129 139.376871 l
562.55229 139.923533 l
570.180451 140.447286 l
577.808612 140.948129 l
593.064935 141.877928 l
600.693096 142.306883 l
608.321258 142.71135 l
631.205742 143.774654 l
638.833903 144.078004 l
646.462064 144.356075 l
669.346548 145.033872 l
684.602871 145.354602 l
692.231032 145.475468 l
699.859193 145.569474 l
738 145.565525 l
753.256323 145.489687 l
760.884484 145.372771 l
768.512645 145.229786 l
776.140807 145.060731 l
783.768968 144.865608 l
791.397129 144.645205 l
799.02529 144.399524 l
806.653452 144.127773 l
814.281613 143.831532 l
821.909774 143.510013 l
837.166097 142.792717 l
844.794258 142.39773 l
860.050581 141.535079 l
867.678742 141.068205 l
882.935065 140.064938 l
898.191388 138.971615 l
905.819549 138.390984 l
913.44771 137.789024 l
921.075871 137.165735 l
928.704033 136.520327 l
936.332194 135.855169 l
951.588517 134.462446 l
959.216678 133.73646 l
966.844839 132.991515 l
974.473001 132.22682 l
982.101162 131.443956 l
989.729323 130.642133 l
997.357485 129.822931 l
1004.985646 128.985559 l
1012.613807 128.131597 l
1020.241969 127.260256 l
1027.87013 126.373116 l
stroke
grestore
gsave
1116 554.4 180 79.2 clipbox
242.169515 131.387868 m
257.425837 156.020825 l
265.053999 171.201748 l
272.68216 188.397103 l
280.310321 207.717488 l
287.938483 229.299567 l
295.566644 253.313974 l
303.194805 279.969264 l
310.822967 309.507957 l
318.451128 342.193905 l
326.079289 378.268839 l
333.70745 417.814918 l
348.963773 504.414194 l
356.591934 545.872009 l
364.220096 578.979803 l
371.848257 599.705551 l
379.476418 608.4 l
387.10458 607.81542 l
394.732741 600.680378 l
402.360902 588.980079 l
409.989064 574.046418 l
417.617225 556.769695 l
425.245386 537.75819 l
432.873548 517.437699 l
440.501709 496.114732 l
455.758031 451.309799 l
471.014354 404.532302 l
stroke
grestore
[10 2] 0 setdash
1.000 0.000 0.000 setrgbcolor
gsave
1116 554.4 180 79.2 clipbox
234.541353 109.79394 m
242.169515 111.864461 l
249.797676 113.326702 l
257.425837 115.110462 l
265.053999 118.584766 l
272.68216 117.745814 l
280.310321 121.345724 l
287.938483 120.663977 l
295.566644 123.26536 l
303.194805 124.025314 l
310.822967 124.620164 l
318.451128 127.472759 l
326.079289 127.571506 l
333.70745 128.393078 l
348.963773 131.03159 l
356.591934 131.758366 l
364.220096 133.762529 l
371.848257 134.366069 l
379.476418 134.720767 l
387.10458 136.370232 l
394.732741 137.176005 l
402.360902 137.31109 l
409.989064 138.441543 l
417.617225 139.608334 l
425.245386 139.688911 l
432.873548 140.188964 l
440.501709 141.243579 l
448.12987 141.625136 l
455.758031 141.727833 l
463.386193 142.327423 l
471.014354 142.914373 l
478.642515 142.779288 l
486.270677 143.051039 l
493.898838 143.546352 l
501.526999 143.428646 l
509.155161 143.246952 l
524.411483 143.684597 l
532.039645 143.354388 l
562.55229 142.140989 l
570.180451 141.932436 l
577.808612 141.649625 l
585.436774 140.810673 l
593.064935 140.154995 l
600.693096 139.880874 l
608.321258 138.941596 l
615.949419 137.93359 l
623.57758 137.30793 l
631.205742 136.649882 l
638.833903 135.51232 l
646.462064 134.375548 l
654.090226 133.796498 l
661.718387 132.54518 l
669.346548 130.890975 l
676.97471 129.641237 l
684.602871 128.837043 l
692.231032 127.108581 l
699.859193 125.379329 l
707.487355 124.601205 l
715.115516 122.882222 l
722.743677 120.517831 l
730.371839 118.893646 l
738 118.17714 l
745.628161 115.518089 l
753.256323 113.017822 l
753.256323 113.017822 l
760.884484 112.900906 l
768.512645 110.420389 l
776.140807 107.363191 l
stroke
grestore
gsave
1116 554.4 180 79.2 clipbox
234.541353 220.841319 m
242.169515 284.071597 l
249.797676 326.16534 l
249.797676 326.16534 l
265.053999 357.040669 l
272.68216 357.58417 l
280.310321 352.142042 l
295.566644 329.533788 l
303.194805 314.845018 l
310.822967 299.310188 l
318.451128 283.739808 l
326.079289 268.652102 l
333.70745 254.283272 l
341.335612 240.645958 l
348.963773 227.624823 l
356.591934 215.090312 l
364.220096 203.057434 l
547.295967 143.231153 l
554.924129 142.874874 l
stroke
grestore
[12 4] 0 setdash
0.750 0.750 0.000 setrgbcolor
gsave
1116 554.4 180 79.2 clipbox
230.727273 133.942643 m
230.727273 133.942643 l
234.541353 141.057935 l
238.355434 148.09581 l
242.169515 154.263134 l
245.983595 158.728855 l
249.797676 161.583029 l
253.611757 163.66382 l
257.425837 165.370163 l
261.239918 166.875063 l
265.053999 168.296225 l
268.868079 169.692898 l
272.68216 171.085622 l
287.938483 176.700754 l
295.566644 179.469612 l
303.194805 182.192651 l
310.822967 184.820103 l
318.451128 187.335379 l
326.079289 189.735319 l
524.411483 191.989903 l
333.70745 191.989903 l
341.335612 194.107823 l
348.963773 196.058267 l
356.591934 197.851508 l
364.220096 199.470163 l
371.848257 200.925295 l
379.476418 202.219272 l
387.10458 203.313385 l
394.732741 204.243974 l
402.360902 205.003139 l
409.989064 205.56244 l
417.617225 205.888699 l
425.245386 206.14307 l
432.873548 206.183359 l
440.501709 206.011935 l
448.12987 205.642227 l
455.758031 205.125584 l
463.386193 204.427248 l
471.014354 203.4619 l
478.642515 202.450734 l
486.270677 201.114099 l
493.898838 199.683456 l
501.526999 198.053741 l
509.155161 196.175184 l
516.783322 194.235798 l
524.411483 191.989903 l
333.70745 191.989903 l
532.039645 189.578904 l
539.667806 187.152895 l
547.295967 184.154155 l
554.924129 181.589111 l
562.55229 177.998681 l
570.180451 175.308821 l
577.808612 171.465599 l
585.436774 168.041064 l
593.064935 164.014568 l
600.693096 160.149227 l
608.321258 155.734855 l
615.949419 151.147478 l
623.57758 146.747325 l
631.205742 142.506747 l
638.833903 136.776278 l
646.462064 131.543493 l
654.090226 126.25936 l
661.718387 121.119791 l
669.346548 115.148381 l
stroke
grestore
gsave
1116 554.4 180 79.2 clipbox
230.727273 158.680666 m
238.355434 218.404251 l
242.169515 266.942599 l
245.983595 324.280463 l
249.797676 387.032017 l
253.611757 436.630509 l
257.425837 466.478082 l
261.239918 484.476051 l
265.053999 495.890379 l
268.868079 503.103628 l
272.68216 507.274689 l
280.310321 508.801708 l
287.938483 503.33904 l
295.566644 492.442934 l
303.194805 477.201184 l
310.822967 458.46538 l
318.451128 436.924379 l
326.079289 413.141434 l
326.079289 413.141434 l
333.70745 387.575518 l
341.335612 360.59476 l
348.963773 332.46696 l
stroke
grestore
[14 2] 0 setdash
0.000 0.750 0.750 setrgbcolor
gsave
1116 554.4 180 79.2 clipbox
394.732741 133.091841 m
402.360902 134.702598 l
409.989064 136.304664 l
417.617225 137.896461 l
425.245386 139.475618 l
432.873548 141.041346 l
440.501709 142.591274 l
448.12987 144.124613 l
455.758031 145.638992 l
463.386193 147.133622 l
478.642515 150.057314 l
486.270677 151.483217 l
493.898838 152.88384 l
501.526999 154.257604 l
509.155161 155.602929 l
516.783322 156.919815 l
524.411483 158.205102 l
539.667806 160.68088 l
547.295967 161.86821 l
554.924129 163.020781 l
562.55229 164.137014 l
570.180451 165.216908 l
577.808612 166.259673 l
585.436774 167.26294 l
593.064935 168.227497 l
600.693096 169.151766 l
608.321258 170.034957 l
615.949419 170.877069 l
623.57758 171.676522 l
631.205742 172.434107 l
638.833903 173.149033 l
646.462064 173.81972 l
654.090226 174.44696 l
661.718387 175.02917 l
669.346548 175.567142 l
676.97471 176.060086 l
684.602871 176.508791 l
692.231032 176.910887 l
699.859193 177.268745 l
707.487355 177.579995 l
715.115516 177.846216 l
722.743677 178.066619 l
730.371839 178.241993 l
738 178.370758 l
745.628161 178.454496 l
753.256323 178.493204 l
760.884484 178.486095 l
768.512645 178.433956 l
776.140807 178.33758 l
783.768968 178.196174 l
791.397129 178.01053 l
799.02529 177.780648 l
806.653452 177.506527 l
814.281613 177.189748 l
821.909774 176.82952 l
829.537936 176.426633 l
837.166097 175.981878 l
844.794258 175.494465 l
852.42242 174.965972 l
860.050581 174.397191 l
867.678742 173.787332 l
875.306904 173.137183 l
882.935065 172.447536 l
890.563226 171.719181 l
898.191388 170.952906 l
905.819549 170.147923 l
913.44771 169.305811 l
921.075871 168.427361 l
928.704033 167.512571 l
936.332194 166.561443 l
943.960355 165.575556 l
951.588517 164.5557 l
959.216678 163.501875 l
966.844839 162.414082 l
974.473001 161.294689 l
982.101162 160.142907 l
989.729323 158.959527 l
997.357485 157.745338 l
1016.427888 154.579913 l
1024.056049 153.263027 l
1031.684211 151.918492 l
1039.312372 150.546308 l
1046.940533 149.148055 l
1054.568694 147.723732 l
1069.825017 144.79925 l
1085.08134 141.778391 l
1092.709501 140.233993 l
1100.337662 138.666685 l
1107.965824 137.078048 l
1115.593985 135.468872 l
1123.222146 133.839156 l
1130.850308 132.189691 l
1138.478469 130.521267 l
1146.10663 128.834674 l
1153.734792 127.130701 l
1161.362953 125.408558 l
1168.991114 123.670616 l
1176.619275 121.914505 l
1184.247437 120.140224 l
1191.875598 118.343034 l
1199.503759 116.516615 l
1207.131921 114.645958 l
1214.760082 112.706572 l
1222.388243 110.914912 l
1230.016405 108.827012 l
1237.644566 107.251015 l
1245.272727 105.413536 l
stroke
grestore
gsave
1116 554.4 180 79.2 clipbox
234.541353 140.689807 m
242.169515 158.827601 l
249.797676 180.536076 l
257.425837 206.033264 l
265.053999 235.620936 l
272.68216 269.698817 l
280.310321 308.759852 l
303.194805 458.962273 l
310.822967 514.654622 l
318.451128 559.873501 l
326.079289 583.953477 l
333.70745 587.43726 l
341.335612 576.957471 l
348.963773 557.934906 l
356.591934 533.631368 l
364.220096 505.941213 l
379.476418 444.531035 l
387.10458 411.978593 l
stroke
grestore
0.800 setlinewidth
0 setlinejoin
2 setlinecap
[] 0 setdash
0.000 setgray
gsave
180 79.2 m
180 633.6 l
stroke
grestore
gsave
1296 79.2 m
1296 633.6 l
stroke
grestore
gsave
180 79.2 m
1296 79.2 l
stroke
grestore
gsave
180 633.6 m
1296 633.6 l
stroke
grestore

end
showpage
