%!PS-Adobe-3.0 EPSF-3.0
%%Title: alphari.eps
%%Creator: matplotlib version 2.1.0, http://matplotlib.org/
%%CreationDate: Fri Feb 15 11:29:23 2019
%%Orientation: portrait
%%BoundingBox: -234 36 846 756
%%EndComments
%%BeginProlog
/mpldict 9 dict def
mpldict begin
/m { moveto } bind def
/l { lineto } bind def
/r { rlineto } bind def
/c { curveto } bind def
/cl { closepath } bind def
/box {
m
1 index 0 r
0 exch r
neg 0 r
cl
} bind def
/clipbox {
box
clip
newpath
} bind def
%!PS-Adobe-3.0 Resource-Font
%%Title: DejaVu Sans
%%Copyright: Copyright (c) 2003 by Bitstream, Inc. All Rights Reserved. Copyright (c) 2006 by Tavmjong Bah. All Rights Reserved. DejaVu changes are in public domain 
%%Creator: Converted from TrueType to type 3 by PPR
25 dict begin
/_d{bind def}bind def
/_m{moveto}_d
/_l{lineto}_d
/_cl{closepath eofill}_d
/_c{curveto}_d
/_sc{7 -1 roll{setcachedevice}{pop pop pop pop pop pop}ifelse}_d
/_e{exec}_d
/FontName /DejaVuSans def
/PaintType 0 def
/FontMatrix[.001 0 0 .001 0 0]def
/FontBBox[-1021 -463 1793 1232]def
/FontType 3 def
/Encoding [ /two /H /O /i /r /alpha /minus ] def
/FontInfo 10 dict dup begin
/FamilyName (DejaVu Sans) def
/FullName (DejaVu Sans) def
/Notice (Copyright (c) 2003 by Bitstream, Inc. All Rights Reserved. Copyright (c) 2006 by Tavmjong Bah. All Rights Reserved. DejaVu changes are in public domain ) def
/Weight (Book) def
/Version (Version 2.35) def
/ItalicAngle 0.0 def
/isFixedPitch false def
/UnderlinePosition -130 def
/UnderlineThickness 90 def
end readonly def
/CharStrings 8 dict dup begin
/.notdef 0 def
/two{{636 0 73 0 536 742 _sc
192 83 _m
536 83 _l
536 0 _l
73 0 _l
73 83 _l
110 121 161 173 226 239 _c
290 304 331 346 348 365 _c
380 400 402 430 414 455 _c
426 479 433 504 433 528 _c
433 566 419 598 392 622 _c
365 646 330 659 286 659 _c
255 659 222 653 188 643 _c
154 632 117 616 78 594 _c
78 694 _l
118 710 155 722 189 730 _c
223 738 255 742 284 742 _c
}_e{359 742 419 723 464 685 _c
509 647 532 597 532 534 _c
532 504 526 475 515 449 _c
504 422 484 390 454 354 _c
446 344 420 317 376 272 _c
332 227 271 164 192 83 _c
_cl}_e}_d
/H{752 0 98 0 654 729 _sc
98 729 _m
197 729 _l
197 430 _l
555 430 _l
555 729 _l
654 729 _l
654 0 _l
555 0 _l
555 347 _l
197 347 _l
197 0 _l
98 0 _l
98 729 _l
_cl}_d
/O{787 0 56 -13 731 742 _sc
394 662 _m
322 662 265 635 223 582 _c
181 528 160 456 160 364 _c
160 272 181 199 223 146 _c
265 92 322 66 394 66 _c
465 66 522 92 564 146 _c
606 199 627 272 627 364 _c
627 456 606 528 564 582 _c
522 635 465 662 394 662 _c
394 742 _m
496 742 577 707 639 639 _c
700 571 731 479 731 364 _c
731 248 700 157 639 89 _c
577 21 496 -13 394 -13 _c
291 -13 209 21 148 89 _c
86 157 56 248 56 364 _c
56 479 86 571 148 639 _c
209 707 291 742 394 742 _c
_cl}_d
/i{278 0 94 0 184 760 _sc
94 547 _m
184 547 _l
184 0 _l
94 0 _l
94 547 _l
94 760 _m
184 760 _l
184 646 _l
94 646 _l
94 760 _l
_cl}_d
/r{411 0 91 0 411 560 _sc
411 463 _m
401 469 390 473 378 476 _c
366 478 353 480 339 480 _c
288 480 249 463 222 430 _c
194 397 181 350 181 288 _c
181 0 _l
91 0 _l
91 547 _l
181 547 _l
181 462 _l
199 495 224 520 254 536 _c
284 552 321 560 365 560 _c
371 560 378 559 386 559 _c
393 558 401 557 411 555 _c
411 463 _l
_cl}_d
/alpha{{659 0 55 -11 611 559 _sc
413 254 _m
392 367 _l
377 444 341 483 283 483 _c
239 483 207 465 188 429 _c
162 384 150 332 150 273 _c
150 201 162 148 187 114 _c
211 79 243 62 283 62 _c
326 62 359 96 383 166 _c
413 254 _l
463 404 _m
512 547 _l
592 547 _l
492 250 _l
511 144 _l
514 128 521 113 533 100 _c
546 84 558 76 568 76 _c
611 76 _l
611 0 _l
558 0 _l
}_e{527 0 498 13 471 41 _c
457 55 448 76 442 104 _c
427 68 404 36 374 8 _c
360 -4 329 -11 283 -11 _c
206 -11 149 13 112 62 _c
74 113 55 183 55 273 _c
55 369 75 439 117 484 _c
163 534 218 559 283 559 _c
384 559 444 507 463 404 _c
_cl}_e}_d
/minus{838 0 106 272 732 355 _sc
106 355 _m
732 355 _l
732 272 _l
106 272 _l
106 355 _l
_cl}_d
end readonly def

/BuildGlyph
 {exch begin
 CharStrings exch
 2 copy known not{pop /.notdef}if
 true 3 1 roll get exec
 end}_d

/BuildChar {
 1 index /Encoding get exch get
 1 index /BuildGlyph get exec
}_d

FontName currentdict end definefont pop
%!PS-Adobe-3.0 Resource-Font
%%Title: DejaVu Serif
%%Copyright: Copyright (c) 2003 by Bitstream, Inc. All Rights Reserved. DejaVu changes are in public domain 
%%Creator: Converted from TrueType to type 3 by PPR
25 dict begin
/_d{bind def}bind def
/_m{moveto}_d
/_l{lineto}_d
/_cl{closepath eofill}_d
/_c{curveto}_d
/_sc{7 -1 roll{setcachedevice}{pop pop pop pop pop pop}ifelse}_d
/_e{exec}_d
/FontName /DejaVuSerif def
/PaintType 0 def
/FontMatrix[.001 0 0 .001 0 0]def
/FontBBox[-770 -347 2105 1109]def
/FontType 3 def
/Encoding [ /space /hyphen /period /zero /one /two /three /four /five /six /seven ] def
/FontInfo 10 dict dup begin
/FamilyName (DejaVu Serif) def
/FullName (DejaVu Serif) def
/Notice (Copyright (c) 2003 by Bitstream, Inc. All Rights Reserved. DejaVu changes are in public domain ) def
/Weight (Book) def
/Version (Version 2.35) def
/ItalicAngle 0.0 def
/isFixedPitch false def
/UnderlinePosition -130 def
/UnderlineThickness 90 def
end readonly def
/CharStrings 12 dict dup begin
/.notdef 0 def
/space{318 0 0 0 0 0 _sc
}_d
/hyphen{338 0 44 230 294 306 _sc
44 306 _m
294 306 _l
294 230 _l
44 230 _l
44 306 _l
_cl}_d
/period{318 0 94 -13 224 116 _sc
94 51 _m
94 69 100 84 112 97 _c
124 109 140 116 159 116 _c
177 116 192 109 205 97 _c
217 84 224 69 224 51 _c
224 33 217 17 205 5 _c
192 -7 177 -13 159 -13 _c
140 -13 124 -7 112 5 _c
100 17 94 32 94 51 _c
_cl}_d
/zero{636 0 66 -13 570 742 _sc
318 34 _m
368 34 405 61 430 116 _c
454 170 467 253 467 364 _c
467 474 454 557 430 612 _c
405 666 368 694 318 694 _c
268 694 230 666 206 612 _c
181 557 169 474 169 364 _c
169 253 181 170 206 116 _c
230 61 268 34 318 34 _c
318 -13 _m
238 -13 176 20 132 86 _c
88 152 66 244 66 364 _c
66 483 88 576 132 642 _c
176 708 238 742 318 742 _c
397 742 459 708 503 642 _c
547 576 570 483 570 364 _c
570 244 547 152 503 86 _c
459 20 397 -13 318 -13 _c
_cl}_d
/one{636 0 122 0 494 742 _sc
142 0 _m
142 52 _l
269 52 _l
269 658 _l
122 563 _l
122 627 _l
300 742 _l
367 742 _l
367 52 _l
494 52 _l
494 0 _l
142 0 _l
_cl}_d
/two{{636 0 68 0 538 742 _sc
128 555 _m
73 555 _l
73 685 _l
107 703 142 717 178 727 _c
213 737 248 742 282 742 _c
358 742 418 723 462 687 _c
506 650 528 600 528 537 _c
528 465 478 380 378 281 _c
370 273 365 268 361 264 _c
177 80 _l
481 80 _l
481 170 _l
538 170 _l
538 0 _l
68 0 _l
68 53 _l
289 274 _l
337 322 372 367 393 408 _c
414 449 425 492 425 537 _c
}_e{425 586 412 624 386 652 _c
360 680 325 694 281 694 _c
234 694 198 682 173 659 _c
147 636 132 601 128 555 _c
_cl}_e}_d
/three{{636 0 76 -13 562 742 _sc
97 698 _m
135 712 171 723 206 731 _c
241 738 274 742 305 742 _c
376 742 432 726 472 696 _c
512 665 532 622 532 568 _c
532 524 518 487 490 458 _c
462 428 423 408 373 398 _c
433 389 479 367 512 332 _c
545 297 562 252 562 197 _c
562 129 539 77 493 41 _c
447 5 382 -13 296 -13 _c
258 -13 220 -9 184 -1 _c
148 6 112 18 76 35 _c
76 177 _l
}_e{131 177 _l
134 129 150 94 178 70 _c
206 46 246 34 298 34 _c
348 34 387 48 416 77 _c
444 106 459 146 459 196 _c
459 253 444 296 414 326 _c
384 355 341 370 284 370 _c
238 370 _l
238 420 _l
262 420 _l
319 420 362 431 390 455 _c
418 479 433 514 433 562 _c
433 604 421 637 398 660 _c
374 682 341 694 297 694 _c
253 694 218 683 194 662 _c
170 641 156 610 152 570 _c
}_e{97 570 _l
97 698 _l
_cl}_e}_d
/four{636 0 31 0 586 742 _sc
349 247 _m
349 635 _l
100 247 _l
349 247 _l
564 0 _m
232 0 _l
232 52 _l
349 52 _l
349 195 _l
31 195 _l
31 248 _l
350 742 _l
447 742 _l
447 247 _l
586 247 _l
586 195 _l
447 195 _l
447 52 _l
564 52 _l
564 0 _l
_cl}_d
/five{{636 0 85 -13 559 729 _sc
503 729 _m
503 649 _l
169 649 _l
169 440 _l
185 452 205 460 228 466 _c
250 472 276 475 304 475 _c
382 475 444 453 490 409 _c
536 365 559 306 559 231 _c
559 153 536 93 490 51 _c
444 8 379 -13 296 -13 _c
262 -13 228 -9 193 -1 _c
157 6 121 18 85 35 _c
85 177 _l
140 177 _l
143 130 158 94 184 70 _c
210 46 248 34 296 34 _c
}_e{347 34 386 51 414 85 _c
442 119 456 167 456 231 _c
456 294 442 342 415 376 _c
387 410 348 427 296 427 _c
266 427 240 421 218 411 _c
196 401 176 385 159 363 _c
117 363 _l
117 729 _l
503 729 _l
_cl}_e}_d
/six{{636 0 67 -13 573 742 _sc
327 34 _m
373 34 408 50 433 84 _c
457 118 470 166 470 230 _c
470 293 457 341 433 375 _c
408 409 373 426 327 426 _c
280 426 244 409 220 377 _c
196 344 184 297 184 236 _c
184 171 196 121 221 86 _c
245 51 281 34 327 34 _c
168 401 _m
190 425 215 444 243 456 _c
271 468 302 474 338 474 _c
410 474 468 452 510 408 _c
552 364 573 305 573 230 _c
}_e{573 156 550 97 505 53 _c
459 9 399 -13 323 -13 _c
241 -13 177 17 133 78 _c
89 139 67 227 67 341 _c
67 468 93 567 145 637 _c
197 707 271 742 367 742 _c
393 742 420 739 448 735 _c
476 730 505 723 535 713 _c
535 593 _l
480 593 _l
476 625 463 650 442 668 _c
421 685 393 694 357 694 _c
293 694 246 670 215 622 _c
184 574 168 500 168 401 _c
_cl}_e}_d
/seven{636 0 84 0 564 729 _sc
564 679 _m
279 0 _l
206 0 _l
478 649 _l
141 649 _l
141 559 _l
84 559 _l
84 729 _l
564 729 _l
564 679 _l
_cl}_d
end readonly def

/BuildGlyph
 {exch begin
 CharStrings exch
 2 copy known not{pop /.notdef}if
 true 3 1 roll get exec
 end}_d

/BuildChar {
 1 index /Encoding get exch get
 1 index /BuildGlyph get exec
}_d

FontName currentdict end definefont pop
end
%%EndProlog
mpldict begin
-234 36 translate
1080 720 0 0 clipbox
gsave
0 0 m
1080 0 l
1080 720 l
0 720 l
cl
1.000 setgray
fill
grestore
gsave
135 79.2 m
972 79.2 l
972 633.6 l
135 633.6 l
cl
1.000 setgray
fill
grestore
0.800 setlinewidth
1 setlinejoin
0 setlinecap
[] 0 setdash
0.000 setgray
gsave
/o {
gsave
newpath
translate
0.8 setlinewidth
1 setlinejoin
0 setlinecap
0 0 m
0 -3.5 l

gsave
0.000 setgray
fill
grestore
stroke
grestore
} bind def
203.327 79.2 o
grestore
/DejaVuSerif findfont
30.000 scalefont
setfont
gsave
179.467156 49.403125 translate
0.000000 rotate
0.000000 0.000000 m /zero glyphshow
19.086914 0.000000 m /period glyphshow
28.623047 0.000000 m /five glyphshow
grestore
gsave
/o {
gsave
newpath
translate
0.8 setlinewidth
1 setlinejoin
0 setlinecap
0 0 m
0 -3.5 l

gsave
0.000 setgray
fill
grestore
stroke
grestore
} bind def
288.735 79.2 o
grestore
gsave
264.875319 49.403125 translate
0.000000 rotate
0.000000 0.000000 m /one glyphshow
19.086914 0.000000 m /period glyphshow
28.623047 0.000000 m /zero glyphshow
grestore
gsave
/o {
gsave
newpath
translate
0.8 setlinewidth
1 setlinejoin
0 setlinecap
0 0 m
0 -3.5 l

gsave
0.000 setgray
fill
grestore
stroke
grestore
} bind def
374.143 79.2 o
grestore
gsave
350.283482 49.403125 translate
0.000000 rotate
0.000000 0.000000 m /one glyphshow
19.086914 0.000000 m /period glyphshow
28.623047 0.000000 m /five glyphshow
grestore
gsave
/o {
gsave
newpath
translate
0.8 setlinewidth
1 setlinejoin
0 setlinecap
0 0 m
0 -3.5 l

gsave
0.000 setgray
fill
grestore
stroke
grestore
} bind def
459.551 79.2 o
grestore
gsave
435.691645 49.403125 translate
0.000000 rotate
0.000000 0.000000 m /two glyphshow
19.086914 0.000000 m /period glyphshow
28.623047 0.000000 m /zero glyphshow
grestore
gsave
/o {
gsave
newpath
translate
0.8 setlinewidth
1 setlinejoin
0 setlinecap
0 0 m
0 -3.5 l

gsave
0.000 setgray
fill
grestore
stroke
grestore
} bind def
544.959 79.2 o
grestore
gsave
521.099809 49.403125 translate
0.000000 rotate
0.000000 0.000000 m /two glyphshow
19.086914 0.000000 m /period glyphshow
28.623047 0.000000 m /five glyphshow
grestore
gsave
/o {
gsave
newpath
translate
0.8 setlinewidth
1 setlinejoin
0 setlinecap
0 0 m
0 -3.5 l

gsave
0.000 setgray
fill
grestore
stroke
grestore
} bind def
630.367 79.2 o
grestore
gsave
606.507972 49.403125 translate
0.000000 rotate
0.000000 0.000000 m /three glyphshow
19.086914 0.000000 m /period glyphshow
28.623047 0.000000 m /zero glyphshow
grestore
gsave
/o {
gsave
newpath
translate
0.8 setlinewidth
1 setlinejoin
0 setlinecap
0 0 m
0 -3.5 l

gsave
0.000 setgray
fill
grestore
stroke
grestore
} bind def
715.776 79.2 o
grestore
gsave
691.916135 49.403125 translate
0.000000 rotate
0.000000 0.000000 m /three glyphshow
19.086914 0.000000 m /period glyphshow
28.623047 0.000000 m /five glyphshow
grestore
gsave
/o {
gsave
newpath
translate
0.8 setlinewidth
1 setlinejoin
0 setlinecap
0 0 m
0 -3.5 l

gsave
0.000 setgray
fill
grestore
stroke
grestore
} bind def
801.184 79.2 o
grestore
gsave
777.324298 49.403125 translate
0.000000 rotate
0.000000 0.000000 m /four glyphshow
19.086914 0.000000 m /period glyphshow
28.623047 0.000000 m /zero glyphshow
grestore
gsave
/o {
gsave
newpath
translate
0.8 setlinewidth
1 setlinejoin
0 setlinecap
0 0 m
0 -3.5 l

gsave
0.000 setgray
fill
grestore
stroke
grestore
} bind def
886.592 79.2 o
grestore
gsave
862.732462 49.403125 translate
0.000000 rotate
0.000000 0.000000 m /four glyphshow
19.086914 0.000000 m /period glyphshow
28.623047 0.000000 m /five glyphshow
grestore
gsave
/o {
gsave
newpath
translate
0.8 setlinewidth
1 setlinejoin
0 setlinecap
0 0 m
0 -3.5 l

gsave
0.000 setgray
fill
grestore
stroke
grestore
} bind def
972 79.2 o
grestore
gsave
948.140625 49.403125 translate
0.000000 rotate
0.000000 0.000000 m /five glyphshow
19.086914 0.000000 m /period glyphshow
28.623047 0.000000 m /zero glyphshow
grestore
gsave
530.000000 11.809375 translate
0.000000 rotate
/DejaVuSerif findfont
36.0 scalefont
setfont
0.000000 0.875000 moveto
/space glyphshow

/DejaVuSans findfont
36.0 scalefont
setfont
11.443359 0.875000 moveto
/alpha glyphshow

/DejaVuSans findfont
25.2 scalefont
setfont
35.518359 -5.031250 moveto
/r glyphshow


grestore
gsave
/o {
gsave
newpath
translate
0.8 setlinewidth
1 setlinejoin
0 setlinecap
0 0 m
-3.5 0 l

gsave
0.000 setgray
fill
grestore
stroke
grestore
} bind def
135 151.513 o
grestore
gsave
80.281250 140.114606 translate
0.000000 rotate
0.000000 0.000000 m /zero glyphshow
19.086914 0.000000 m /period glyphshow
28.623047 0.000000 m /one glyphshow
grestore
gsave
/o {
gsave
newpath
translate
0.8 setlinewidth
1 setlinejoin
0 setlinecap
0 0 m
-3.5 0 l

gsave
0.000 setgray
fill
grestore
stroke
grestore
} bind def
135 231.861 o
grestore
gsave
80.281250 220.462432 translate
0.000000 rotate
0.000000 0.000000 m /zero glyphshow
19.086914 0.000000 m /period glyphshow
28.623047 0.000000 m /two glyphshow
grestore
gsave
/o {
gsave
newpath
translate
0.8 setlinewidth
1 setlinejoin
0 setlinecap
0 0 m
-3.5 0 l

gsave
0.000 setgray
fill
grestore
stroke
grestore
} bind def
135 312.209 o
grestore
gsave
80.281250 300.810258 translate
0.000000 rotate
0.000000 0.000000 m /zero glyphshow
19.086914 0.000000 m /period glyphshow
28.623047 0.000000 m /three glyphshow
grestore
gsave
/o {
gsave
newpath
translate
0.8 setlinewidth
1 setlinejoin
0 setlinecap
0 0 m
-3.5 0 l

gsave
0.000 setgray
fill
grestore
stroke
grestore
} bind def
135 392.557 o
grestore
gsave
80.281250 381.158084 translate
0.000000 rotate
0.000000 0.000000 m /zero glyphshow
19.086914 0.000000 m /period glyphshow
28.623047 0.000000 m /four glyphshow
grestore
gsave
/o {
gsave
newpath
translate
0.8 setlinewidth
1 setlinejoin
0 setlinecap
0 0 m
-3.5 0 l

gsave
0.000 setgray
fill
grestore
stroke
grestore
} bind def
135 472.904 o
grestore
gsave
80.281250 461.505910 translate
0.000000 rotate
0.000000 0.000000 m /zero glyphshow
19.086914 0.000000 m /period glyphshow
28.623047 0.000000 m /five glyphshow
grestore
gsave
/o {
gsave
newpath
translate
0.8 setlinewidth
1 setlinejoin
0 setlinecap
0 0 m
-3.5 0 l

gsave
0.000 setgray
fill
grestore
stroke
grestore
} bind def
135 553.252 o
grestore
gsave
80.281250 541.853736 translate
0.000000 rotate
0.000000 0.000000 m /zero glyphshow
19.086914 0.000000 m /period glyphshow
28.623047 0.000000 m /six glyphshow
grestore
gsave
/o {
gsave
newpath
translate
0.8 setlinewidth
1 setlinejoin
0 setlinecap
0 0 m
-3.5 0 l

gsave
0.000 setgray
fill
grestore
stroke
grestore
} bind def
135 633.6 o
grestore
gsave
80.281250 622.201563 translate
0.000000 rotate
0.000000 0.000000 m /zero glyphshow
19.086914 0.000000 m /period glyphshow
28.623047 0.000000 m /seven glyphshow
grestore
gsave
68.796875 333.900000 translate
90.000000 rotate
/DejaVuSerif findfont
36.0 scalefont
setfont
0.000000 0.875000 moveto
/hyphen glyphshow

/DejaVuSans findfont
36.0 scalefont
setfont
12.164062 0.875000 moveto
/alpha glyphshow

/DejaVuSans findfont
25.2 scalefont
setfont
36.239063 -5.031250 moveto
/i glyphshow


grestore
3.000 setlinewidth
[3 0] 0 setdash
0.416 0.353 0.804 setrgbcolor
gsave
837 554.4 135 79.2 clipbox
153.302115 80.591624 m
156.584522 81.824963 l
159.851897 82.896803 l
163.110389 83.833659 l
163.110389 83.833659 l
169.563488 85.859228 l
172.8763 86.856344 l
176.179204 87.796414 l
179.542919 88.614355 l
182.978036 89.558442 l
186.380526 90.991847 l
189.560101 92.17296 l
192.915617 91.94879 l
196.467572 92.96519 l
206.575457 95.427047 l
209.744612 96.84599 l
213.173579 96.453892 l
216.641151 98.064866 l
219.785879 98.354118 l
223.364481 98.877183 l
226.585736 100.330675 l
229.996084 100.075972 l
233.419243 101.509377 l
236.622903 101.63713 l
240.14804 102.453464 l
243.331543 103.379875 l
270.210859 107.709819 l
276.841949 108.688456 l
283.464669 109.753868 l
290.074065 110.875523 l
293.501494 111.443583 l
296.722749 111.918438 l
300.133951 112.203673 l
303.370237 112.899485 l
306.727973 112.957336 l
310.029511 113.738317 l
313.324387 113.77367 l
316.661968 114.456626 l
319.913627 114.514477 l
323.268972 115.099409 l
326.501671 115.27296 l
329.877856 115.654612 l
333.102185 116.03064 l
339.690912 116.670209 l
346.288351 117.128191 l
352.86273 117.544393 l
362.662292 117.945329 l
365.987232 118.118077 l
369.198408 118.342247 l
372.527447 118.401704 l
375.744943 118.649979 l
382.300703 118.764877 l
385.583622 118.650783 l
388.837502 118.84201 l
392.070201 118.721489 l
395.360978 118.918341 l
398.577791 118.764073 l
401.883941 118.888612 l
408.382819 118.662835 l
414.866153 118.492497 l
418.098852 118.609805 l
421.353244 118.243419 l
427.838286 118.088348 l
431.064494 118.093972 l
434.265763 117.719551 l
437.561664 117.78865 l
444.053026 117.208539 l
447.212445 116.928125 l
450.501855 116.705562 l
453.697828 116.399437 l
456.951879 116.019391 l
460.154344 115.969576 l
463.372182 115.384643 l
466.594119 115.232786 l
469.783089 114.594824 l
473.056272 114.347353 l
476.209541 113.88696 l
479.50715 113.696536 l
482.648462 113.114817 l
485.957175 112.719506 l
489.145632 112.315357 l
492.361762 111.767384 l
495.547828 111.433137 l
498.777965 110.677064 l
501.963519 110.676261 l
505.19673 109.577906 l
508.36691 109.434887 l
511.606613 108.461875 l
514.826842 108.22967 l
517.959443 107.436637 l
521.236725 107.031683 l
524.378549 106.253917 l
527.640116 105.518734 l
530.75034 105.026202 l
534.034796 104.138358 l
537.176792 103.68359 l
540.415299 102.483193 l
543.60666 102.533009 l
546.747289 101.118887 l
550.005098 100.791068 l
553.092091 99.58585 l
556.402682 99.143134 l
559.45312 97.997374 l
562.783013 97.329683 l
565.881963 96.448268 l
569.140284 95.443117 l
572.210537 95.275993 l
575.517883 93.565388 l
578.594627 93.264887 l
581.857389 91.629809 l
585.021932 91.446616 l
588.226618 89.698247 l
591.404484 89.391318 l
594.509925 87.879976 l
597.841356 87.213892 l
stroke
grestore
gsave
837 554.4 135 79.2 clipbox
143.336691 115.448118 m
145.195685 129.815917 l
146.569561 150.562529 l
148.698274 184.134261 l
153.73001 221.878456 l
160.702391 257.389784 l
169.21024 288.930323 l
178.747086 314.770184 l
188.740183 334.732602 l
198.805535 349.731934 l
208.758831 360.839217 l
218.529525 368.907746 l
228.096948 374.546557 l
237.459903 378.182296 l
246.623345 380.120285 l
255.593423 380.585499 l
264.375773 379.754703 l
272.97518 377.766897 l
281.395058 374.741802 l
289.638825 370.77744 l
297.709213 365.964605 l
305.608614 360.380431 l
313.339248 354.095624 l
320.903166 347.175266 l
328.302417 339.67801 l
335.539221 331.65769 l
342.614775 323.164122 l
349.530787 314.243906 l
356.288451 304.941235 l
362.888453 295.297085 l
369.331303 285.353238 l
375.616831 275.148261 l
381.743671 264.72313 l
387.710286 254.122842 l
393.513429 243.39721 l
399.14883 232.612122 l
404.643991 222.035937 l
415.127331 200.992038 l
425.086264 181.199958 l
434.644975 162.87985 l
444.062079 146.285614 l
453.326986 130.501283 l
stroke
grestore
[3 3] 0 setdash
0.000 0.500 0.000 setrgbcolor
gsave
837 554.4 135 79.2 clipbox
173.857298 108.35903 m
183.145777 107.092748 l
189.059951 111.402605 l
201.045279 119.185096 l
207.073387 122.642463 l
213.10457 125.851555 l
219.13097 128.856563 l
228.154854 133.068397 l
237.158925 137.013475 l
249.139811 141.966115 l
258.113134 145.494991 l
273.057171 151.073541 l
287.997963 156.301774 l
299.953739 160.240424 l
311.915323 163.962939 l
323.883569 167.467711 l
335.859331 170.753937 l
347.842609 173.821617 l
359.833061 176.669144 l
371.830175 179.298125 l
383.833438 181.706953 l
395.842168 183.898842 l
407.855509 185.874595 l
419.872608 187.635016 l
431.892782 189.182515 l
446.921374 190.822414 l
458.945989 191.899878 l
470.971288 192.772456 l
482.996586 193.442557 l
495.021543 193.912591 l
507.045133 194.18497 l
519.067016 194.263711 l
531.086677 194.149617 l
549.110362 193.624946 l
561.121824 193.042424 l
573.129187 192.278317 l
588.131644 191.069082 l
603.126072 189.584254 l
618.111788 187.828654 l
633.087597 185.806299 l
648.052986 183.523617 l
663.007272 180.983823 l
674.962194 178.771043 l
689.894787 175.782908 l
704.814227 172.551318 l
716.740281 169.794584 l
731.634952 166.137151 l
746.515275 162.24912 l
764.351745 157.286035 l
782.165838 152.004772 l
796.993207 147.365489 l
814.764255 141.519381 l
829.554899 136.418901 l
844.32812 131.115141 l
859.083746 125.612118 l
873.821608 119.913047 l
891.484187 112.823958 l
909.12661 105.470525 l
920.846147 100.369242 l
938.430663 92.536132 l
941.352306 91.19593 l
944.316994 90.000355 l
944.316994 90.000355 l
stroke
grestore
gsave
837 554.4 135 79.2 clipbox
177.560083 114.446984 m
181.255182 121.074073 l
184.94379 128.267614 l
188.628469 136.06296 l
192.312294 144.497071 l
196.000389 153.615746 l
199.699246 163.465586 l
203.417405 174.100424 l
207.165798 185.576504 l
210.957921 197.95248 l
214.810512 211.290219 l
218.744071 225.650786 l
222.78251 241.096049 l
226.955724 257.683857 l
231.2989 275.465635 l
235.854913 294.481555 l
240.67535 314.746883 l
245.821362 336.239927 l
251.364864 358.873106 l
257.385115 382.465638 l
263.963935 406.704167 l
271.173067 431.11464 l
287.609014 477.81601 l
296.771773 498.652612 l
306.432973 517.001645 l
316.45323 532.528059 l
326.691961 545.13865 l
337.02669 554.929837 l
347.361078 562.113736 l
357.624748 566.951478 l
367.7697 569.71464 l
377.764847 570.660334 l
387.591227 570.020765 l
397.238591 568.000017 l
415.982779 560.502762 l
434.002193 549.311917 l
442.750551 542.606087 l
459.7519 527.393833 l
468.017019 519.023197 l
476.133015 510.219485 l
484.105867 501.030104 l
491.941212 491.496835 l
499.644687 481.65744 l
507.221587 471.544059 l
514.677036 461.185617 l
522.015647 450.607023 l
529.242373 439.831576 l
536.361315 428.87856 l
543.376741 417.765652 l
550.292753 406.508118 l
557.112765 395.118814 l
563.840366 383.608988 l
570.478801 371.985871 l
577.015942 360.398108 l
583.482536 348.651256 l
589.8697 336.842536 l
596.183584 324.802414 l
602.415134 312.80809 l
608.580237 300.915809 l
614.675988 288.880508 l
620.708025 276.813068 l
626.631765 264.506191 l
632.557041 252.441162 l
638.355231 240.204188 l
644.112424 228.017833 l
649.880721 215.704529 l
655.486059 203.643517 l
661.103695 191.386456 l
666.664621 179.097256 l
672.114345 166.628077 l
677.620951 154.383068 l
682.97963 142.017537 l
stroke
grestore
[9 3] 0 setdash
0.750 0.000 0.750 setrgbcolor
gsave
837 554.4 135 79.2 clipbox
170.337628 76.717252 m
175.626272 77.6292 l
186.225596 79.49809 l
191.53508 80.444588 l
202.170958 82.343207 l
207.496328 83.289704 l
212.826481 84.233791 l
218.160733 85.173057 l
223.499085 86.107503 l
228.841536 87.036323 l
239.537542 88.874682 l
244.891267 89.784219 l
255.609309 91.580797 l
260.973795 92.467837 l
266.341698 93.346038 l
271.713359 94.216205 l
277.088437 95.07673 l
282.467101 95.927614 l
287.849353 96.768856 l
293.235021 97.598849 l
298.624276 98.418397 l
304.016777 99.226696 l
309.413035 100.022139 l
314.812539 100.806334 l
320.21546 101.576066 l
325.621626 102.333746 l
331.031208 103.07616 l
336.444036 103.804915 l
341.859938 104.518403 l
347.279086 105.215823 l
352.701309 105.897976 l
358.126606 106.563256 l
363.554807 107.212466 l
368.985741 107.843197 l
374.41975 108.457054 l
379.856322 109.051628 l
385.295455 109.628525 l
390.737322 110.186139 l
396.18158 110.72447 l
401.628229 111.242713 l
407.07727 111.74087 l
412.52836 112.218939 l
417.981672 112.676118 l
423.437033 113.11321 l
428.894273 113.527805 l
434.353392 113.92151 l
439.814219 114.29352 l
445.276754 114.643033 l
450.740656 114.970852 l
456.206095 115.276977 l
461.672901 115.559802 l
467.140902 115.820129 l
472.610099 116.057958 l
478.080321 116.272487 l
483.551398 116.464518 l
489.023499 116.633249 l
494.496283 116.778678 l
505.44356 117.000438 l
510.917881 117.076769 l
516.392715 117.129798 l
521.86772 117.158723 l
527.342896 117.165151 l
532.818072 117.149082 l
538.293247 117.108908 l
543.768423 117.046237 l
549.243257 116.960264 l
554.71792 116.850991 l
560.192071 116.719221 l
565.66571 116.564953 l
571.139006 116.387384 l
576.611449 116.188122 l
582.083208 115.965558 l
587.554284 115.721301 l
593.024336 115.45535 l
603.961534 114.856758 l
614.894121 114.172195 l
620.358535 113.797774 l
625.821583 113.402463 l
631.283264 112.985457 l
636.743408 112.549169 l
642.202014 112.091186 l
647.658913 111.61392 l
653.114103 111.116567 l
658.567585 110.599127 l
664.019188 110.0616 l
669.468912 109.505593 l
674.916757 108.930303 l
680.362553 108.336532 l
685.806298 107.723478 l
691.247823 107.092748 l
696.687127 106.443537 l
702.124382 105.77665 l
707.559245 105.09289 l
712.991717 104.391454 l
718.421968 103.672341 l
723.849656 102.937158 l
729.274783 102.185906 l
734.697518 101.417781 l
740.11752 100.63439 l
745.535131 99.834929 l
750.950008 99.020202 l
756.362153 98.190209 l
761.771564 97.346557 l
767.178072 96.487638 l
772.582017 95.614257 l
777.982888 94.728021 l
783.381025 93.827322 l
794.168418 91.987357 l
799.557844 91.04809 l
804.944024 90.096772 l
810.327301 89.133402 l
815.707673 88.157979 l
821.0848 87.171308 l
826.459194 86.173388 l
831.830343 85.164219 l
837.198759 84.143802 l
842.564441 83.110529 l
847.92722 82.062793 l
853.287436 80.996577 l
858.644578 79.90465 l
863.997107 78.774157 l
869.340754 77.583402 l
874.703362 76.507544 l
880.061187 75.571492 l
stroke
grestore
gsave
837 554.4 135 79.2 clipbox
163.010632 93.182932 m
170.661154 102.848776 l
178.361212 114.342532 l
186.125497 127.705983 l
201.930107 160.296668 l
210.029363 179.700668 l
218.312759 201.338337 l
226.835298 225.367158 l
235.669236 251.977555 l
244.912107 281.38968 l
254.699882 313.839757 l
265.225926 349.537492 l
289.724574 430.499176 l
304.601993 473.955297 l
321.85598 515.503962 l
341.429993 549.798021 l
362.434081 572.441645 l
383.671846 582.960783 l
404.350529 583.707214 l
424.155828 577.409551 l
461.04088 551.446758 l
478.249942 534.196883 l
494.744479 515.089367 l
510.598113 494.585405 l
525.875413 473.018442 l
540.632235 450.632734 l
554.916409 427.609868 l
568.769101 404.092059 l
582.226523 380.188581 l
595.319936 355.987012 l
608.077354 331.561273 l
620.525764 306.977249 l
632.695061 282.285558 l
644.575507 257.375322 l
656.158392 232.473923 l
667.556965 207.631983 l
678.725791 182.397944 l
689.720554 157.523061 l
stroke
grestore
0.800 setlinewidth
0 setlinejoin
2 setlinecap
[] 0 setdash
0.000 setgray
gsave
135 79.2 m
135 633.6 l
stroke
grestore
gsave
972 79.2 m
972 633.6 l
stroke
grestore
gsave
135 79.2 m
972 79.2 l
stroke
grestore
gsave
135 633.6 m
972 633.6 l
stroke
grestore
1.000 setlinewidth
0 setlinecap
0.800 setgray
gsave
742 477.50625 m
951 477.50625 l
955 477.50625 957 479.50625 957 483.50625 c
957 612.6 l
957 616.6 955 618.6 951 618.6 c
742 618.6 l
738 618.6 736 616.6 736 612.6 c
736 483.50625 l
736 479.50625 738 477.50625 742 477.50625 c
cl
gsave
1.000 setgray
fill
grestore
stroke
grestore
3.000 setlinewidth
1 setlinejoin
[3 0] 0 setdash
0.416 0.353 0.804 setrgbcolor
gsave
748 594.303125 m
808 594.303125 l
stroke
grestore
0.000 setgray
gsave
832.000000 583.803125 translate
0.000000 rotate
/DejaVuSans findfont
30.0 scalefont
setfont
0.000000 0.734375 moveto
/H glyphshow

28.403320 0.734375 moveto
/minus glyphshow

59.384766 0.734375 moveto
/O glyphshow

/DejaVuSans findfont
21.0 scalefont
setfont
83.285156 -4.187500 moveto
/two glyphshow


grestore
[3 3] 0 setdash
0.000 0.500 0.000 setrgbcolor
gsave
748 550.271875 m
808 550.271875 l
stroke
grestore
0.000 setgray
gsave
832.000000 539.771875 translate
0.000000 rotate
/DejaVuSans findfont
30.0 scalefont
setfont
0.000000 0.734375 moveto
/O glyphshow

/DejaVuSans findfont
21.0 scalefont
setfont
23.900391 -4.187500 moveto
/two glyphshow

/DejaVuSans findfont
30.0 scalefont
setfont
43.926270 0.734375 moveto
/minus glyphshow

74.907715 0.734375 moveto
/O glyphshow

/DejaVuSans findfont
21.0 scalefont
setfont
98.808105 -4.187500 moveto
/two glyphshow


grestore
[9 3] 0 setdash
0.750 0.000 0.750 setrgbcolor
gsave
748 506.240625 m
808 506.240625 l
stroke
grestore
0.000 setgray
gsave
832.000000 495.740625 translate
0.000000 rotate
/DejaVuSans findfont
30.0 scalefont
setfont
0.000000 0.734375 moveto
/O glyphshow

/DejaVuSans findfont
21.0 scalefont
setfont
23.900391 -4.187500 moveto
/two glyphshow

/DejaVuSans findfont
30.0 scalefont
setfont
43.926270 0.734375 moveto
/minus glyphshow

74.907715 0.734375 moveto
/H glyphshow

/DejaVuSans findfont
21.0 scalefont
setfont
97.753418 -4.187500 moveto
/two glyphshow


grestore

end
showpage
