%!PS-Adobe-3.0 EPSF-3.0
%%Title: walphai.eps
%%Creator: matplotlib version 2.1.0, http://matplotlib.org/
%%CreationDate: Fri Feb 15 11:30:05 2019
%%Orientation: portrait
%%BoundingBox: -234 36 846 756
%%EndComments
%%BeginProlog
/mpldict 9 dict def
mpldict begin
/m { moveto } bind def
/l { lineto } bind def
/r { rlineto } bind def
/c { curveto } bind def
/cl { closepath } bind def
/box {
m
1 index 0 r
0 exch r
neg 0 r
cl
} bind def
/clipbox {
box
clip
newpath
} bind def
%!PS-Adobe-3.0 Resource-Font
%%Title: DejaVu Sans
%%Copyright: Copyright (c) 2003 by Bitstream, Inc. All Rights Reserved. Copyright (c) 2006 by Tavmjong Bah. All Rights Reserved. DejaVu changes are in public domain 
%%Creator: Converted from TrueType to type 3 by PPR
25 dict begin
/_d{bind def}bind def
/_m{moveto}_d
/_l{lineto}_d
/_cl{closepath eofill}_d
/_c{curveto}_d
/_sc{7 -1 roll{setcachedevice}{pop pop pop pop pop pop}ifelse}_d
/_e{exec}_d
/FontName /DejaVuSans def
/PaintType 0 def
/FontMatrix[.001 0 0 .001 0 0]def
/FontBBox[-1021 -463 1793 1232]def
/FontType 3 def
/Encoding [ /two /H /O /i /alpha /omega /minus ] def
/FontInfo 10 dict dup begin
/FamilyName (DejaVu Sans) def
/FullName (DejaVu Sans) def
/Notice (Copyright (c) 2003 by Bitstream, Inc. All Rights Reserved. Copyright (c) 2006 by Tavmjong Bah. All Rights Reserved. DejaVu changes are in public domain ) def
/Weight (Book) def
/Version (Version 2.35) def
/ItalicAngle 0.0 def
/isFixedPitch false def
/UnderlinePosition -130 def
/UnderlineThickness 90 def
end readonly def
/CharStrings 8 dict dup begin
/.notdef 0 def
/two{{636 0 73 0 536 742 _sc
192 83 _m
536 83 _l
536 0 _l
73 0 _l
73 83 _l
110 121 161 173 226 239 _c
290 304 331 346 348 365 _c
380 400 402 430 414 455 _c
426 479 433 504 433 528 _c
433 566 419 598 392 622 _c
365 646 330 659 286 659 _c
255 659 222 653 188 643 _c
154 632 117 616 78 594 _c
78 694 _l
118 710 155 722 189 730 _c
223 738 255 742 284 742 _c
}_e{359 742 419 723 464 685 _c
509 647 532 597 532 534 _c
532 504 526 475 515 449 _c
504 422 484 390 454 354 _c
446 344 420 317 376 272 _c
332 227 271 164 192 83 _c
_cl}_e}_d
/H{752 0 98 0 654 729 _sc
98 729 _m
197 729 _l
197 430 _l
555 430 _l
555 729 _l
654 729 _l
654 0 _l
555 0 _l
555 347 _l
197 347 _l
197 0 _l
98 0 _l
98 729 _l
_cl}_d
/O{787 0 56 -13 731 742 _sc
394 662 _m
322 662 265 635 223 582 _c
181 528 160 456 160 364 _c
160 272 181 199 223 146 _c
265 92 322 66 394 66 _c
465 66 522 92 564 146 _c
606 199 627 272 627 364 _c
627 456 606 528 564 582 _c
522 635 465 662 394 662 _c
394 742 _m
496 742 577 707 639 639 _c
700 571 731 479 731 364 _c
731 248 700 157 639 89 _c
577 21 496 -13 394 -13 _c
291 -13 209 21 148 89 _c
86 157 56 248 56 364 _c
56 479 86 571 148 639 _c
209 707 291 742 394 742 _c
_cl}_d
/i{278 0 94 0 184 760 _sc
94 547 _m
184 547 _l
184 0 _l
94 0 _l
94 547 _l
94 760 _m
184 760 _l
184 646 _l
94 646 _l
94 760 _l
_cl}_d
/alpha{{659 0 55 -11 611 559 _sc
413 254 _m
392 367 _l
377 444 341 483 283 483 _c
239 483 207 465 188 429 _c
162 384 150 332 150 273 _c
150 201 162 148 187 114 _c
211 79 243 62 283 62 _c
326 62 359 96 383 166 _c
413 254 _l
463 404 _m
512 547 _l
592 547 _l
492 250 _l
511 144 _l
514 128 521 113 533 100 _c
546 84 558 76 568 76 _c
611 76 _l
611 0 _l
558 0 _l
}_e{527 0 498 13 471 41 _c
457 55 448 76 442 104 _c
427 68 404 36 374 8 _c
360 -4 329 -11 283 -11 _c
206 -11 149 13 112 62 _c
74 113 55 183 55 273 _c
55 369 75 439 117 484 _c
163 534 218 559 283 559 _c
384 559 444 507 463 404 _c
_cl}_e}_d
/omega{{837 0 66 -13 769 547 _sc
269 -13 _m
133 -13 66 83 66 276 _c
66 352 91 443 142 547 _c
238 547 _l
191 443 168 351 168 273 _c
168 132 204 62 277 62 _c
343 62 376 149 376 325 _c
459 325 _l
459 149 492 62 558 62 _c
630 62 667 132 667 273 _c
667 351 643 443 597 547 _c
693 547 _l
743 443 769 352 769 276 _c
769 83 701 -13 566 -13 _c
478 -13 428 35 417 132 _c
}_e{403 35 354 -13 269 -13 _c
_cl}_e}_d
/minus{838 0 106 272 732 355 _sc
106 355 _m
732 355 _l
732 272 _l
106 272 _l
106 355 _l
_cl}_d
end readonly def

/BuildGlyph
 {exch begin
 CharStrings exch
 2 copy known not{pop /.notdef}if
 true 3 1 roll get exec
 end}_d

/BuildChar {
 1 index /Encoding get exch get
 1 index /BuildGlyph get exec
}_d

FontName currentdict end definefont pop
%!PS-Adobe-3.0 Resource-Font
%%Title: DejaVu Serif
%%Copyright: Copyright (c) 2003 by Bitstream, Inc. All Rights Reserved. DejaVu changes are in public domain 
%%Creator: Converted from TrueType to type 3 by PPR
25 dict begin
/_d{bind def}bind def
/_m{moveto}_d
/_l{lineto}_d
/_cl{closepath eofill}_d
/_c{curveto}_d
/_sc{7 -1 roll{setcachedevice}{pop pop pop pop pop pop}ifelse}_d
/_e{exec}_d
/FontName /DejaVuSerif def
/PaintType 0 def
/FontMatrix[.001 0 0 .001 0 0]def
/FontBBox[-770 -347 2105 1109]def
/FontType 3 def
/Encoding [ /space /hyphen /period /zero /one /two /three /four /five /six /seven ] def
/FontInfo 10 dict dup begin
/FamilyName (DejaVu Serif) def
/FullName (DejaVu Serif) def
/Notice (Copyright (c) 2003 by Bitstream, Inc. All Rights Reserved. DejaVu changes are in public domain ) def
/Weight (Book) def
/Version (Version 2.35) def
/ItalicAngle 0.0 def
/isFixedPitch false def
/UnderlinePosition -130 def
/UnderlineThickness 90 def
end readonly def
/CharStrings 12 dict dup begin
/.notdef 0 def
/space{318 0 0 0 0 0 _sc
}_d
/hyphen{338 0 44 230 294 306 _sc
44 306 _m
294 306 _l
294 230 _l
44 230 _l
44 306 _l
_cl}_d
/period{318 0 94 -13 224 116 _sc
94 51 _m
94 69 100 84 112 97 _c
124 109 140 116 159 116 _c
177 116 192 109 205 97 _c
217 84 224 69 224 51 _c
224 33 217 17 205 5 _c
192 -7 177 -13 159 -13 _c
140 -13 124 -7 112 5 _c
100 17 94 32 94 51 _c
_cl}_d
/zero{636 0 66 -13 570 742 _sc
318 34 _m
368 34 405 61 430 116 _c
454 170 467 253 467 364 _c
467 474 454 557 430 612 _c
405 666 368 694 318 694 _c
268 694 230 666 206 612 _c
181 557 169 474 169 364 _c
169 253 181 170 206 116 _c
230 61 268 34 318 34 _c
318 -13 _m
238 -13 176 20 132 86 _c
88 152 66 244 66 364 _c
66 483 88 576 132 642 _c
176 708 238 742 318 742 _c
397 742 459 708 503 642 _c
547 576 570 483 570 364 _c
570 244 547 152 503 86 _c
459 20 397 -13 318 -13 _c
_cl}_d
/one{636 0 122 0 494 742 _sc
142 0 _m
142 52 _l
269 52 _l
269 658 _l
122 563 _l
122 627 _l
300 742 _l
367 742 _l
367 52 _l
494 52 _l
494 0 _l
142 0 _l
_cl}_d
/two{{636 0 68 0 538 742 _sc
128 555 _m
73 555 _l
73 685 _l
107 703 142 717 178 727 _c
213 737 248 742 282 742 _c
358 742 418 723 462 687 _c
506 650 528 600 528 537 _c
528 465 478 380 378 281 _c
370 273 365 268 361 264 _c
177 80 _l
481 80 _l
481 170 _l
538 170 _l
538 0 _l
68 0 _l
68 53 _l
289 274 _l
337 322 372 367 393 408 _c
414 449 425 492 425 537 _c
}_e{425 586 412 624 386 652 _c
360 680 325 694 281 694 _c
234 694 198 682 173 659 _c
147 636 132 601 128 555 _c
_cl}_e}_d
/three{{636 0 76 -13 562 742 _sc
97 698 _m
135 712 171 723 206 731 _c
241 738 274 742 305 742 _c
376 742 432 726 472 696 _c
512 665 532 622 532 568 _c
532 524 518 487 490 458 _c
462 428 423 408 373 398 _c
433 389 479 367 512 332 _c
545 297 562 252 562 197 _c
562 129 539 77 493 41 _c
447 5 382 -13 296 -13 _c
258 -13 220 -9 184 -1 _c
148 6 112 18 76 35 _c
76 177 _l
}_e{131 177 _l
134 129 150 94 178 70 _c
206 46 246 34 298 34 _c
348 34 387 48 416 77 _c
444 106 459 146 459 196 _c
459 253 444 296 414 326 _c
384 355 341 370 284 370 _c
238 370 _l
238 420 _l
262 420 _l
319 420 362 431 390 455 _c
418 479 433 514 433 562 _c
433 604 421 637 398 660 _c
374 682 341 694 297 694 _c
253 694 218 683 194 662 _c
170 641 156 610 152 570 _c
}_e{97 570 _l
97 698 _l
_cl}_e}_d
/four{636 0 31 0 586 742 _sc
349 247 _m
349 635 _l
100 247 _l
349 247 _l
564 0 _m
232 0 _l
232 52 _l
349 52 _l
349 195 _l
31 195 _l
31 248 _l
350 742 _l
447 742 _l
447 247 _l
586 247 _l
586 195 _l
447 195 _l
447 52 _l
564 52 _l
564 0 _l
_cl}_d
/five{{636 0 85 -13 559 729 _sc
503 729 _m
503 649 _l
169 649 _l
169 440 _l
185 452 205 460 228 466 _c
250 472 276 475 304 475 _c
382 475 444 453 490 409 _c
536 365 559 306 559 231 _c
559 153 536 93 490 51 _c
444 8 379 -13 296 -13 _c
262 -13 228 -9 193 -1 _c
157 6 121 18 85 35 _c
85 177 _l
140 177 _l
143 130 158 94 184 70 _c
210 46 248 34 296 34 _c
}_e{347 34 386 51 414 85 _c
442 119 456 167 456 231 _c
456 294 442 342 415 376 _c
387 410 348 427 296 427 _c
266 427 240 421 218 411 _c
196 401 176 385 159 363 _c
117 363 _l
117 729 _l
503 729 _l
_cl}_e}_d
/six{{636 0 67 -13 573 742 _sc
327 34 _m
373 34 408 50 433 84 _c
457 118 470 166 470 230 _c
470 293 457 341 433 375 _c
408 409 373 426 327 426 _c
280 426 244 409 220 377 _c
196 344 184 297 184 236 _c
184 171 196 121 221 86 _c
245 51 281 34 327 34 _c
168 401 _m
190 425 215 444 243 456 _c
271 468 302 474 338 474 _c
410 474 468 452 510 408 _c
552 364 573 305 573 230 _c
}_e{573 156 550 97 505 53 _c
459 9 399 -13 323 -13 _c
241 -13 177 17 133 78 _c
89 139 67 227 67 341 _c
67 468 93 567 145 637 _c
197 707 271 742 367 742 _c
393 742 420 739 448 735 _c
476 730 505 723 535 713 _c
535 593 _l
480 593 _l
476 625 463 650 442 668 _c
421 685 393 694 357 694 _c
293 694 246 670 215 622 _c
184 574 168 500 168 401 _c
_cl}_e}_d
/seven{636 0 84 0 564 729 _sc
564 679 _m
279 0 _l
206 0 _l
478 649 _l
141 649 _l
141 559 _l
84 559 _l
84 729 _l
564 729 _l
564 679 _l
_cl}_d
end readonly def

/BuildGlyph
 {exch begin
 CharStrings exch
 2 copy known not{pop /.notdef}if
 true 3 1 roll get exec
 end}_d

/BuildChar {
 1 index /Encoding get exch get
 1 index /BuildGlyph get exec
}_d

FontName currentdict end definefont pop
end
%%EndProlog
mpldict begin
-234 36 translate
1080 720 0 0 clipbox
gsave
0 0 m
1080 0 l
1080 720 l
0 720 l
cl
1.000 setgray
fill
grestore
gsave
135 79.2 m
972 79.2 l
972 633.6 l
135 633.6 l
cl
1.000 setgray
fill
grestore
0.800 setlinewidth
1 setlinejoin
0 setlinecap
[] 0 setdash
0.000 setgray
gsave
/o {
gsave
newpath
translate
0.8 setlinewidth
1 setlinejoin
0 setlinecap
0 0 m
0 -3.5 l

gsave
0.000 setgray
fill
grestore
stroke
grestore
} bind def
268.92 79.2 o
grestore
/DejaVuSerif findfont
30.000 scalefont
setfont
gsave
245.060625 49.403125 translate
0.000000 rotate
0.000000 0.000000 m /zero glyphshow
19.086914 0.000000 m /period glyphshow
28.623047 0.000000 m /five glyphshow
grestore
gsave
/o {
gsave
newpath
translate
0.8 setlinewidth
1 setlinejoin
0 setlinecap
0 0 m
0 -3.5 l

gsave
0.000 setgray
fill
grestore
stroke
grestore
} bind def
436.32 79.2 o
grestore
gsave
412.460625 49.403125 translate
0.000000 rotate
0.000000 0.000000 m /one glyphshow
19.086914 0.000000 m /period glyphshow
28.623047 0.000000 m /zero glyphshow
grestore
gsave
/o {
gsave
newpath
translate
0.8 setlinewidth
1 setlinejoin
0 setlinecap
0 0 m
0 -3.5 l

gsave
0.000 setgray
fill
grestore
stroke
grestore
} bind def
603.72 79.2 o
grestore
gsave
579.860625 49.403125 translate
0.000000 rotate
0.000000 0.000000 m /one glyphshow
19.086914 0.000000 m /period glyphshow
28.623047 0.000000 m /five glyphshow
grestore
gsave
/o {
gsave
newpath
translate
0.8 setlinewidth
1 setlinejoin
0 setlinecap
0 0 m
0 -3.5 l

gsave
0.000 setgray
fill
grestore
stroke
grestore
} bind def
771.12 79.2 o
grestore
gsave
747.260625 49.403125 translate
0.000000 rotate
0.000000 0.000000 m /two glyphshow
19.086914 0.000000 m /period glyphshow
28.623047 0.000000 m /zero glyphshow
grestore
gsave
/o {
gsave
newpath
translate
0.8 setlinewidth
1 setlinejoin
0 setlinecap
0 0 m
0 -3.5 l

gsave
0.000 setgray
fill
grestore
stroke
grestore
} bind def
938.52 79.2 o
grestore
gsave
914.660625 49.403125 translate
0.000000 rotate
0.000000 0.000000 m /two glyphshow
19.086914 0.000000 m /period glyphshow
28.623047 0.000000 m /five glyphshow
grestore
gsave
532.500000 11.809375 translate
0.000000 rotate
/DejaVuSerif findfont
36.0 scalefont
setfont
0.000000 0.312500 moveto
/space glyphshow

/DejaVuSans findfont
36.0 scalefont
setfont
11.443359 0.312500 moveto
/omega glyphshow


grestore
gsave
/o {
gsave
newpath
translate
0.8 setlinewidth
1 setlinejoin
0 setlinecap
0 0 m
-3.5 0 l

gsave
0.000 setgray
fill
grestore
stroke
grestore
} bind def
135 151.513 o
grestore
gsave
80.281250 140.114606 translate
0.000000 rotate
0.000000 0.000000 m /zero glyphshow
19.086914 0.000000 m /period glyphshow
28.623047 0.000000 m /one glyphshow
grestore
gsave
/o {
gsave
newpath
translate
0.8 setlinewidth
1 setlinejoin
0 setlinecap
0 0 m
-3.5 0 l

gsave
0.000 setgray
fill
grestore
stroke
grestore
} bind def
135 231.861 o
grestore
gsave
80.281250 220.462432 translate
0.000000 rotate
0.000000 0.000000 m /zero glyphshow
19.086914 0.000000 m /period glyphshow
28.623047 0.000000 m /two glyphshow
grestore
gsave
/o {
gsave
newpath
translate
0.8 setlinewidth
1 setlinejoin
0 setlinecap
0 0 m
-3.5 0 l

gsave
0.000 setgray
fill
grestore
stroke
grestore
} bind def
135 312.209 o
grestore
gsave
80.281250 300.810258 translate
0.000000 rotate
0.000000 0.000000 m /zero glyphshow
19.086914 0.000000 m /period glyphshow
28.623047 0.000000 m /three glyphshow
grestore
gsave
/o {
gsave
newpath
translate
0.8 setlinewidth
1 setlinejoin
0 setlinecap
0 0 m
-3.5 0 l

gsave
0.000 setgray
fill
grestore
stroke
grestore
} bind def
135 392.557 o
grestore
gsave
80.281250 381.158084 translate
0.000000 rotate
0.000000 0.000000 m /zero glyphshow
19.086914 0.000000 m /period glyphshow
28.623047 0.000000 m /four glyphshow
grestore
gsave
/o {
gsave
newpath
translate
0.8 setlinewidth
1 setlinejoin
0 setlinecap
0 0 m
-3.5 0 l

gsave
0.000 setgray
fill
grestore
stroke
grestore
} bind def
135 472.904 o
grestore
gsave
80.281250 461.505910 translate
0.000000 rotate
0.000000 0.000000 m /zero glyphshow
19.086914 0.000000 m /period glyphshow
28.623047 0.000000 m /five glyphshow
grestore
gsave
/o {
gsave
newpath
translate
0.8 setlinewidth
1 setlinejoin
0 setlinecap
0 0 m
-3.5 0 l

gsave
0.000 setgray
fill
grestore
stroke
grestore
} bind def
135 553.252 o
grestore
gsave
80.281250 541.853736 translate
0.000000 rotate
0.000000 0.000000 m /zero glyphshow
19.086914 0.000000 m /period glyphshow
28.623047 0.000000 m /six glyphshow
grestore
gsave
/o {
gsave
newpath
translate
0.8 setlinewidth
1 setlinejoin
0 setlinecap
0 0 m
-3.5 0 l

gsave
0.000 setgray
fill
grestore
stroke
grestore
} bind def
135 633.6 o
grestore
gsave
80.281250 622.201563 translate
0.000000 rotate
0.000000 0.000000 m /zero glyphshow
19.086914 0.000000 m /period glyphshow
28.623047 0.000000 m /seven glyphshow
grestore
gsave
68.796875 333.900000 translate
90.000000 rotate
/DejaVuSerif findfont
36.0 scalefont
setfont
0.000000 0.875000 moveto
/hyphen glyphshow

/DejaVuSans findfont
36.0 scalefont
setfont
12.164062 0.875000 moveto
/alpha glyphshow

/DejaVuSans findfont
25.2 scalefont
setfont
36.239063 -5.031250 moveto
/i glyphshow


grestore
3.000 setlinewidth
[3 0] 0 setdash
0.000 0.500 0.000 setrgbcolor
gsave
837 554.4 135 79.2 clipbox
135 80.591624 m
138.348 81.824963 l
141.696 82.896803 l
145.044 83.833659 l
148.392 83.833659 l
151.74 85.859228 l
155.088 86.856344 l
158.436 87.796414 l
161.784 88.614355 l
165.132 89.558442 l
168.48 90.991847 l
171.828 92.17296 l
175.176 91.94879 l
178.524 92.96519 l
188.568 95.427047 l
191.916 96.84599 l
195.264 96.453892 l
198.612 98.064866 l
201.96 98.354118 l
205.308 98.877183 l
208.656 100.330675 l
212.004 100.075972 l
215.352 101.509377 l
218.7 101.63713 l
222.048 102.453464 l
225.396 103.379875 l
238.788 107.709819 l
242.136 108.688456 l
245.484 109.753868 l
248.832 110.875523 l
252.18 111.443583 l
255.528 111.918438 l
262.224 112.203673 l
265.572 112.899485 l
268.92 112.957336 l
272.268 113.738317 l
275.616 113.77367 l
278.964 114.456626 l
282.312 114.514477 l
285.66 115.099409 l
289.008 115.27296 l
292.356 115.654612 l
295.704 116.03064 l
299.052 116.670209 l
302.4 117.128191 l
305.748 117.544393 l
312.444 117.945329 l
315.792 118.118077 l
319.14 118.342247 l
322.488 118.401704 l
325.836 118.649979 l
332.532 118.764877 l
335.88 118.650783 l
339.228 118.84201 l
342.576 118.721489 l
345.924 118.918341 l
349.272 118.764073 l
352.62 118.888612 l
359.316 118.662835 l
366.012 118.492497 l
369.36 118.609805 l
372.708 118.243419 l
379.404 118.088348 l
382.752 118.093972 l
386.1 117.719551 l
389.448 117.78865 l
396.144 117.208539 l
399.492 116.928125 l
402.84 116.705562 l
406.188 116.399437 l
409.536 116.019391 l
412.884 115.969576 l
416.232 115.384643 l
419.58 115.232786 l
422.928 114.594824 l
426.276 114.347353 l
429.624 113.88696 l
432.972 113.696536 l
436.32 113.114817 l
439.668 112.719506 l
443.016 112.315357 l
446.364 111.767384 l
449.712 111.433137 l
453.06 110.677064 l
456.408 110.676261 l
459.756 109.577906 l
463.104 109.434887 l
466.452 108.461875 l
469.8 108.22967 l
473.148 107.436637 l
476.496 107.031683 l
479.844 106.253917 l
483.192 105.518734 l
486.54 105.026202 l
489.888 104.138358 l
493.236 103.68359 l
496.584 102.483193 l
499.932 102.533009 l
503.28 101.118887 l
506.628 100.791068 l
509.976 99.58585 l
513.324 99.143134 l
516.672 97.997374 l
520.02 97.329683 l
523.368 96.448268 l
526.716 95.443117 l
530.064 95.275993 l
533.412 93.565388 l
536.76 93.264887 l
540.108 91.629809 l
543.456 91.446616 l
546.804 89.698247 l
550.152 89.391318 l
553.5 87.879976 l
556.848 87.213892 l
stroke
grestore
gsave
837 554.4 135 79.2 clipbox
135 115.448118 m
138.348 129.815917 l
141.696 150.562529 l
145.044 184.134261 l
148.392 221.878456 l
151.74 257.389784 l
155.088 288.930323 l
158.436 314.770184 l
161.784 334.732602 l
165.132 349.731934 l
168.48 360.839217 l
171.828 368.907746 l
175.176 374.546557 l
178.524 378.182296 l
181.872 380.120285 l
185.22 380.585499 l
188.568 379.754703 l
191.916 377.766897 l
195.264 374.741802 l
198.612 370.77744 l
201.96 365.964605 l
205.308 360.380431 l
208.656 354.095624 l
212.004 347.175266 l
215.352 339.67801 l
218.7 331.65769 l
222.048 323.164122 l
225.396 314.243906 l
228.744 304.941235 l
232.092 295.297085 l
235.44 285.353238 l
238.788 275.148261 l
242.136 264.72313 l
245.484 254.122842 l
248.832 243.39721 l
252.18 232.612122 l
255.528 222.035937 l
262.224 200.992038 l
265.572 181.199958 l
268.92 162.87985 l
272.268 146.285614 l
275.616 130.501283 l
stroke
grestore
[3 3] 0 setdash
0.000 0.000 1.000 setrgbcolor
gsave
837 554.4 135 79.2 clipbox
135 108.35903 m
141.696 107.092748 l
148.392 111.402605 l
161.784 119.185096 l
168.48 122.642463 l
175.176 125.851555 l
181.872 128.856563 l
191.916 133.068397 l
201.96 137.013475 l
212.004 140.75688 l
225.396 145.494991 l
242.136 151.073541 l
258.876 156.301774 l
272.268 160.240424 l
285.66 163.962939 l
299.052 167.467711 l
312.444 170.753937 l
325.836 173.821617 l
339.228 176.669144 l
352.62 179.298125 l
366.012 181.706953 l
379.404 183.898842 l
392.796 185.874595 l
406.188 187.635016 l
419.58 189.182515 l
436.32 190.822414 l
449.712 191.899878 l
463.104 192.772456 l
476.496 193.442557 l
489.888 193.912591 l
503.28 194.18497 l
516.672 194.263711 l
530.064 194.149617 l
550.152 193.624946 l
563.544 193.042424 l
576.936 192.278317 l
593.676 191.069082 l
610.416 189.584254 l
627.156 187.828654 l
643.896 185.806299 l
660.636 183.523617 l
677.376 180.983823 l
690.768 178.771043 l
707.508 175.782908 l
724.248 172.551318 l
737.64 169.794584 l
754.38 166.137151 l
771.12 162.24912 l
791.208 157.286035 l
811.296 152.004772 l
828.036 147.365489 l
848.124 141.519381 l
864.864 136.418901 l
881.604 131.115141 l
898.344 125.612118 l
915.084 119.913047 l
935.172 112.823958 l
955.26 105.470525 l
968.652 100.369242 l
988.74 92.536132 l
992.088 91.19593 l
995.436 90.000355 l
995.436 90.000355 l
stroke
grestore
gsave
837 554.4 135 79.2 clipbox
135 114.446984 m
138.348 121.074073 l
141.696 128.267614 l
145.044 136.06296 l
148.392 144.497071 l
151.74 153.615746 l
155.088 163.465586 l
158.436 174.100424 l
161.784 185.576504 l
165.132 197.95248 l
168.48 211.290219 l
171.828 225.650786 l
175.176 241.096049 l
178.524 257.683857 l
181.872 275.465635 l
185.22 294.481555 l
188.568 314.746883 l
191.916 336.239927 l
195.264 358.873106 l
198.612 382.465638 l
201.96 406.704167 l
205.308 431.11464 l
212.004 477.81601 l
215.352 498.652612 l
218.7 517.001645 l
222.048 532.528059 l
225.396 545.13865 l
228.744 554.929837 l
232.092 562.113736 l
235.44 566.951478 l
238.788 569.71464 l
242.136 570.660334 l
245.484 570.020765 l
248.832 568.000017 l
255.528 560.502762 l
262.224 549.311917 l
265.572 542.606087 l
272.268 527.393833 l
275.616 519.023197 l
278.964 510.219485 l
282.312 501.030104 l
285.66 491.496835 l
289.008 481.65744 l
292.356 471.544059 l
295.704 461.185617 l
299.052 450.607023 l
302.4 439.831576 l
305.748 428.87856 l
309.096 417.765652 l
312.444 406.508118 l
315.792 395.118814 l
319.14 383.608988 l
322.488 371.985871 l
325.836 360.398108 l
329.184 348.651256 l
332.532 336.842536 l
335.88 324.802414 l
339.228 312.80809 l
342.576 300.915809 l
345.924 288.880508 l
349.272 276.813068 l
352.62 264.506191 l
355.968 252.441162 l
359.316 240.204188 l
362.664 228.017833 l
366.012 215.704529 l
369.36 203.643517 l
372.708 191.386456 l
376.056 179.097256 l
379.404 166.628077 l
382.752 154.383068 l
386.1 142.017537 l
stroke
grestore
gsave
837 554.4 135 79.2 clipbox
138.348 88.951816 m
141.696 93.095353 l
145.044 97.701694 l
148.392 102.783694 l
151.74 108.35903 l
155.088 114.446984 l
161.784 128.267614 l
165.132 136.06296 l
171.828 153.615746 l
175.176 163.465586 l
178.524 174.100424 l
181.872 185.576504 l
185.22 197.95248 l
188.568 211.290219 l
191.916 225.650786 l
195.264 241.096049 l
201.96 275.465635 l
205.308 294.481555 l
208.656 314.746883 l
215.352 358.873106 l
218.7 382.465638 l
225.396 431.11464 l
228.744 455.063917 l
235.44 498.652612 l
238.788 517.001645 l
242.136 532.528059 l
245.484 545.13865 l
248.832 554.929837 l
252.18 562.113736 l
255.528 566.951478 l
258.876 569.713837 l
262.224 570.65953 l
265.572 570.019962 l
268.92 567.999214 l
272.268 564.774856 l
275.616 560.500351 l
278.964 555.307471 l
282.312 549.309506 l
285.66 542.602873 l
289.008 535.274348 l
292.356 527.39544 l
295.704 519.032838 l
299.052 510.241179 l
302.4 501.073492 l
305.748 491.573969 l
309.096 481.785997 l
312.444 471.747339 l
315.792 461.494957 l
319.14 451.063398 l
322.488 439.674094 l
325.836 428.651979 l
329.184 417.448278 l
332.532 406.072633 l
335.88 394.536292 l
339.228 382.846487 l
342.576 371.014466 l
345.924 360.335437 l
349.272 348.482525 l
352.62 336.500254 l
355.968 324.373357 l
359.316 313.393826 l
369.36 277.77001 l
372.708 265.251016 l
376.056 253.506574 l
379.404 238.135231 l
382.752 229.403833 l
386.1 218.125409 l
389.448 203.427381 l
392.796 189.07967 l
402.84 160.683141 l
406.188 151.028546 l
416.232 111.39216 l
stroke
grestore
1.000 setlinewidth
2 setlinejoin
[] 0 setdash
gsave
837 554.4 135 79.2 clipbox
/o {
gsave
newpath
translate
1.0 setlinewidth
2 setlinejoin
0 setlinecap
0 3 m
-0.673542 0.927051 l
-2.85317 0.927051 l
-1.089814 -0.354102 l
-1.763356 -2.427051 l
-0 -1.145898 l
1.763356 -2.427051 l
1.089814 -0.354102 l
2.85317 0.927051 l
0.673542 0.927051 l
cl

gsave
0.000 0.000 1.000 setrgbcolor
fill
grestore
stroke
grestore
} bind def
138.348 88.9518 o
141.696 93.0954 o
145.044 97.7017 o
148.392 102.784 o
151.74 108.359 o
155.088 114.447 o
161.784 128.268 o
165.132 136.063 o
171.828 153.616 o
175.176 163.466 o
178.524 174.1 o
181.872 185.577 o
185.22 197.952 o
188.568 211.29 o
191.916 225.651 o
195.264 241.096 o
201.96 275.466 o
205.308 294.482 o
208.656 314.747 o
215.352 358.873 o
218.7 382.466 o
225.396 431.115 o
228.744 455.064 o
235.44 498.653 o
238.788 517.002 o
242.136 532.528 o
245.484 545.139 o
248.832 554.93 o
252.18 562.114 o
255.528 566.951 o
258.876 569.714 o
262.224 570.66 o
265.572 570.02 o
268.92 567.999 o
272.268 564.775 o
275.616 560.5 o
278.964 555.307 o
282.312 549.31 o
285.66 542.603 o
289.008 535.274 o
292.356 527.395 o
295.704 519.033 o
299.052 510.241 o
302.4 501.073 o
305.748 491.574 o
309.096 481.786 o
312.444 471.747 o
315.792 461.495 o
319.14 451.063 o
322.488 439.674 o
325.836 428.652 o
329.184 417.448 o
332.532 406.073 o
335.88 394.536 o
339.228 382.846 o
342.576 371.014 o
345.924 360.335 o
349.272 348.483 o
352.62 336.5 o
355.968 324.373 o
359.316 313.394 o
369.36 277.77 o
372.708 265.251 o
376.056 253.507 o
379.404 238.135 o
382.752 229.404 o
386.1 218.125 o
389.448 203.427 o
392.796 189.08 o
402.84 160.683 o
406.188 151.029 o
416.232 111.392 o
grestore
3.000 setlinewidth
1 setlinejoin
[3 3] 0 setdash
gsave
837 554.4 135 79.2 clipbox
141.696 81.630522 m
148.392 85.234925 l
155.088 89.231426 l
161.784 93.532445 l
171.828 100.312998 l
181.872 107.092748 l
188.568 111.402605 l
195.264 115.443297 l
198.612 117.351558 l
208.656 122.642463 l
215.352 125.851555 l
222.048 128.856563 l
228.744 131.698466 l
242.136 137.013475 l
248.832 139.528362 l
262.224 144.334769 l
275.616 148.88567 l
289.008 153.205972 l
302.4 157.306925 l
315.792 161.190939 l
329.184 164.859621 l
342.576 168.309757 l
355.968 171.541346 l
366.012 173.821617 l
382.752 177.34728 l
399.492 180.529857 l
412.884 182.830216 l
426.276 184.913635 l
443.016 187.214797 l
459.756 189.182515 l
473.148 190.520306 l
489.888 191.899878 l
503.28 192.772456 l
516.672 193.442557 l
530.064 193.912591 l
543.456 194.18497 l
556.848 194.263711 l
570.24 194.149617 l
583.632 193.846706 l
597.024 193.356584 l
610.416 192.68327 l
623.808 191.827565 l
640.548 190.508254 l
657.288 188.914153 l
674.028 187.05169 l
690.768 184.92408 l
707.508 182.538553 l
724.248 179.89752 l
740.988 177.007409 l
757.728 173.87304 l
774.468 170.497628 l
791.208 166.886797 l
804.6 163.831972 l
824.688 158.97575 l
841.428 154.684372 l
861.516 149.245628 l
881.604 143.499151 l
898.344 138.480626 l
915.084 133.259624 l
935.172 126.738595 l
955.26 119.971701 l
988.74 108.386348 l
995.436 106.077955 l
998.784 104.087739 l
1012.176 98.82817 l
1025.568 93.313096 l
1032.264 90.463962 l
1035.612 89.826 l
1042.308 87.205857 l
1052.352 83.11535 l
1055.7 82.128678 l
1062.396 79.512553 l
1065.744 78.357151 l
1069.092 77.066765 l
1072.44 75.167343 l
1075.788 74.400021 l
1075.788 74.400021 l
stroke
grestore
1.000 setlinewidth
2 setlinejoin
[] 0 setdash
gsave
837 554.4 135 79.2 clipbox
/o {
gsave
newpath
translate
1.0 setlinewidth
2 setlinejoin
0 setlinecap
0 3 m
-0.673542 0.927051 l
-2.85317 0.927051 l
-1.089814 -0.354102 l
-1.763356 -2.427051 l
-0 -1.145898 l
1.763356 -2.427051 l
1.089814 -0.354102 l
2.85317 0.927051 l
0.673542 0.927051 l
cl

gsave
0.000 0.000 1.000 setrgbcolor
fill
grestore
stroke
grestore
} bind def
141.696 81.6305 o
145.044 83.3789 o
148.392 85.2349 o
151.74 87.189 o
155.088 89.2314 o
158.436 91.3502 o
161.784 93.5324 o
165.132 95.7645 o
168.48 98.0303 o
171.828 100.313 o
175.176 102.596 o
178.524 104.861 o
181.872 107.093 o
185.22 109.277 o
188.568 111.403 o
191.916 113.46 o
195.264 115.443 o
198.612 117.352 o
205.308 120.948 o
208.656 122.642 o
212.004 124.275 o
215.352 125.852 o
218.7 127.377 o
222.048 128.857 o
225.396 130.296 o
228.744 131.698 o
235.44 134.409 o
238.788 135.724 o
242.136 137.013 o
245.484 138.281 o
248.832 139.528 o
255.528 141.966 o
258.876 143.158 o
262.224 144.335 o
265.572 145.495 o
268.92 146.64 o
272.268 147.77 o
275.616 148.886 o
278.964 149.986 o
282.312 151.074 o
285.66 152.147 o
289.008 153.206 o
292.356 154.251 o
295.704 155.284 o
299.052 156.302 o
302.4 157.307 o
305.748 158.298 o
309.096 159.276 o
312.444 160.24 o
315.792 161.191 o
319.14 162.129 o
322.488 163.053 o
325.836 163.963 o
329.184 164.86 o
332.532 165.743 o
335.88 166.612 o
339.228 167.468 o
342.576 168.31 o
345.924 169.138 o
349.272 169.953 o
352.62 170.754 o
355.968 171.541 o
359.316 172.315 o
362.664 173.075 o
366.012 173.822 o
372.708 175.273 o
379.404 176.669 o
382.752 177.347 o
389.448 178.661 o
392.796 179.298 o
396.144 179.921 o
399.492 180.53 o
402.84 181.125 o
409.536 182.276 o
412.884 182.83 o
416.232 183.372 o
419.58 183.899 o
426.276 184.914 o
432.972 185.875 o
439.668 186.781 o
443.016 187.215 o
449.712 188.042 o
453.06 188.435 o
456.408 188.815 o
459.756 189.183 o
463.104 189.537 o
466.452 189.878 o
469.8 190.205 o
473.148 190.52 o
479.844 191.111 o
486.54 191.65 o
489.888 191.9 o
493.236 192.137 o
496.584 192.361 o
499.932 192.573 o
503.28 192.772 o
506.628 192.959 o
509.976 193.132 o
513.324 193.294 o
516.672 193.443 o
520.02 193.578 o
523.368 193.702 o
526.716 193.814 o
530.064 193.913 o
533.412 193.999 o
536.76 194.073 o
540.108 194.135 o
543.456 194.185 o
546.804 194.223 o
550.152 194.248 o
553.5 194.262 o
556.848 194.264 o
560.196 194.252 o
563.544 194.23 o
566.892 194.196 o
570.24 194.15 o
573.588 194.092 o
576.936 194.022 o
580.284 193.94 o
583.632 193.847 o
586.98 193.741 o
590.328 193.625 o
593.676 193.496 o
597.024 193.357 o
600.372 193.206 o
603.72 193.042 o
607.068 192.869 o
610.416 192.683 o
613.764 192.486 o
617.112 192.278 o
620.46 192.058 o
623.808 191.828 o
630.504 191.333 o
637.2 190.794 o
640.548 190.508 o
643.896 190.211 o
647.244 189.903 o
650.592 189.584 o
657.288 188.914 o
660.636 188.563 o
667.332 187.829 o
670.68 187.445 o
674.028 187.052 o
677.376 186.647 o
684.072 185.806 o
687.42 185.371 o
690.768 184.924 o
694.116 184.468 o
697.464 184.001 o
704.16 183.036 o
707.508 182.539 o
710.856 182.03 o
714.204 181.513 o
717.552 180.984 o
720.9 180.446 o
724.248 179.898 o
730.944 178.771 o
734.292 178.193 o
740.988 177.007 o
744.336 176.4 o
747.684 175.783 o
751.032 175.156 o
757.728 173.873 o
761.076 173.217 o
767.772 171.876 o
771.12 171.192 o
774.468 170.498 o
777.816 169.795 o
781.164 169.082 o
787.86 167.628 o
791.208 166.887 o
794.556 166.137 o
801.252 164.61 o
804.6 163.832 o
811.296 162.249 o
814.644 161.445 o
817.992 160.631 o
821.34 159.808 o
824.688 158.976 o
828.036 158.135 o
831.384 157.286 o
834.732 156.427 o
838.08 155.56 o
841.428 154.684 o
848.124 152.906 o
854.82 151.093 o
858.168 150.174 o
861.516 149.246 o
868.212 147.364 o
871.56 146.411 o
874.908 145.448 o
878.256 144.479 o
881.604 143.499 o
884.952 142.512 o
888.3 141.517 o
891.648 140.513 o
894.996 139.501 o
898.344 138.481 o
901.692 137.453 o
905.04 136.416 o
908.388 135.372 o
911.736 134.319 o
915.084 133.26 o
918.432 132.192 o
921.78 131.116 o
925.128 130.033 o
928.476 128.942 o
931.824 127.844 o
935.172 126.739 o
938.52 125.627 o
941.868 124.508 o
945.216 123.382 o
948.564 122.251 o
951.912 121.114 o
955.26 119.972 o
958.608 118.824 o
961.956 117.672 o
965.304 116.517 o
968.652 115.358 o
972 114.197 o
975.348 113.034 o
978.696 111.871 o
982.044 110.708 o
985.392 109.546 o
988.74 108.386 o
992.088 107.23 o
995.436 106.078 o
998.784 104.088 o
1002.13 102.795 o
1005.48 101.488 o
1008.83 100.166 o
1012.18 98.8282 o
1015.52 97.4743 o
1018.87 96.1036 o
1022.22 94.7168 o
1025.57 93.3131 o
1028.92 91.895 o
1032.26 90.464 o
1035.61 89.826 o
1038.96 88.5653 o
1042.31 87.2059 o
1045.66 85.844 o
1049 84.4805 o
1052.35 83.1153 o
1055.7 82.1287 o
1059.05 80.8238 o
1062.4 79.5126 o
1065.74 78.3572 o
1069.09 77.0668 o
1072.44 75.1673 o
1075.79 74.4 o
grestore
3.000 setlinewidth
1 setlinejoin
[9 3] 0 setdash
0.750 0.000 0.750 setrgbcolor
gsave
837 554.4 135 79.2 clipbox
141.696 76.717252 m
148.392 77.6292 l
161.784 79.49809 l
168.48 80.444588 l
181.872 82.343207 l
188.568 83.289704 l
195.264 84.233791 l
201.96 85.173057 l
208.656 86.107503 l
215.352 87.036323 l
228.744 88.874682 l
235.44 89.784219 l
248.832 91.580797 l
255.528 92.467837 l
262.224 93.346038 l
268.92 94.216205 l
275.616 95.07673 l
282.312 95.927614 l
289.008 96.768856 l
295.704 97.598849 l
302.4 98.418397 l
309.096 99.226696 l
315.792 100.022139 l
322.488 100.806334 l
329.184 101.576066 l
335.88 102.333746 l
342.576 103.07616 l
349.272 103.804915 l
355.968 104.518403 l
362.664 105.215823 l
369.36 105.897976 l
376.056 106.563256 l
382.752 107.212466 l
389.448 107.843197 l
396.144 108.457054 l
402.84 109.051628 l
409.536 109.628525 l
416.232 110.186139 l
422.928 110.72447 l
429.624 111.242713 l
436.32 111.74087 l
443.016 112.218939 l
449.712 112.676118 l
456.408 113.11321 l
463.104 113.527805 l
469.8 113.92151 l
476.496 114.29352 l
483.192 114.643033 l
489.888 114.970852 l
496.584 115.276977 l
503.28 115.559802 l
509.976 115.820129 l
516.672 116.057958 l
523.368 116.272487 l
530.064 116.464518 l
536.76 116.633249 l
543.456 116.778678 l
556.848 117.000438 l
563.544 117.076769 l
570.24 117.129798 l
576.936 117.158723 l
583.632 117.165151 l
590.328 117.149082 l
597.024 117.108908 l
603.72 117.046237 l
610.416 116.960264 l
617.112 116.850991 l
623.808 116.719221 l
630.504 116.564953 l
637.2 116.387384 l
643.896 116.188122 l
650.592 115.965558 l
657.288 115.721301 l
663.984 115.45535 l
677.376 114.856758 l
690.768 114.172195 l
697.464 113.797774 l
704.16 113.402463 l
710.856 112.985457 l
717.552 112.549169 l
724.248 112.091186 l
730.944 111.61392 l
737.64 111.116567 l
744.336 110.599127 l
751.032 110.0616 l
757.728 109.505593 l
764.424 108.930303 l
771.12 108.336532 l
777.816 107.723478 l
784.512 107.092748 l
791.208 106.443537 l
797.904 105.77665 l
804.6 105.09289 l
811.296 104.391454 l
817.992 103.672341 l
824.688 102.937158 l
831.384 102.185906 l
838.08 101.417781 l
844.776 100.63439 l
851.472 99.834929 l
858.168 99.020202 l
864.864 98.190209 l
871.56 97.346557 l
878.256 96.487638 l
884.952 95.614257 l
891.648 94.728021 l
898.344 93.827322 l
911.736 91.987357 l
918.432 91.04809 l
925.128 90.096772 l
931.824 89.133402 l
938.52 88.157979 l
945.216 87.171308 l
951.912 86.173388 l
958.608 85.164219 l
965.304 84.143802 l
972 83.110529 l
978.696 82.062793 l
985.392 80.996577 l
992.088 79.90465 l
998.784 78.774157 l
1005.48 77.583402 l
1012.176 76.507544 l
1018.872 75.571492 l
stroke
grestore
gsave
837 554.4 135 79.2 clipbox
141.696 93.182932 m
148.392 102.848776 l
155.088 114.342532 l
161.784 127.705983 l
175.176 160.296668 l
181.872 179.700668 l
188.568 201.338337 l
195.264 225.367158 l
201.96 251.977555 l
208.656 281.38968 l
215.352 313.839757 l
222.048 349.537492 l
235.44 430.499176 l
242.136 473.955297 l
248.832 515.503962 l
255.528 549.798021 l
262.224 572.441645 l
268.92 582.960783 l
275.616 583.707214 l
282.312 577.409551 l
295.704 551.446758 l
302.4 534.196883 l
309.096 515.089367 l
315.792 494.585405 l
322.488 473.018442 l
329.184 450.632734 l
335.88 427.609868 l
342.576 404.092059 l
349.272 380.188581 l
355.968 355.987012 l
362.664 331.561273 l
369.36 306.977249 l
376.056 282.285558 l
382.752 257.375322 l
389.448 232.473923 l
396.144 207.631983 l
402.84 182.397944 l
409.536 157.523061 l
stroke
grestore
0.800 setlinewidth
0 setlinejoin
2 setlinecap
[] 0 setdash
0.000 setgray
gsave
135 79.2 m
135 633.6 l
stroke
grestore
gsave
972 79.2 m
972 633.6 l
stroke
grestore
gsave
135 79.2 m
972 79.2 l
stroke
grestore
gsave
135 633.6 m
972 633.6 l
stroke
grestore
1.000 setlinewidth
0 setlinecap
0.800 setgray
gsave
742 433.475 m
951 433.475 l
955 433.475 957 435.475 957 439.475 c
957 612.6 l
957 616.6 955 618.6 951 618.6 c
742 618.6 l
738 618.6 736 616.6 736 612.6 c
736 439.475 l
736 435.475 738 433.475 742 433.475 c
cl
gsave
1.000 setgray
fill
grestore
stroke
grestore
3.000 setlinewidth
1 setlinejoin
[3 0] 0 setdash
0.000 0.500 0.000 setrgbcolor
gsave
748 594.303125 m
808 594.303125 l
stroke
grestore
0.000 setgray
gsave
832.000000 583.803125 translate
0.000000 rotate
/DejaVuSans findfont
30.0 scalefont
setfont
0.000000 0.734375 moveto
/H glyphshow

/DejaVuSans findfont
21.0 scalefont
setfont
22.845703 -4.187500 moveto
/two glyphshow

/DejaVuSans findfont
30.0 scalefont
setfont
42.871582 0.734375 moveto
/minus glyphshow

73.853027 0.734375 moveto
/O glyphshow

/DejaVuSans findfont
21.0 scalefont
setfont
97.753418 -4.187500 moveto
/two glyphshow


grestore
[3 3] 0 setdash
0.000 0.000 1.000 setrgbcolor
gsave
748 550.271875 m
808 550.271875 l
stroke
grestore
0.000 setgray
gsave
832.000000 539.771875 translate
0.000000 rotate
/DejaVuSans findfont
30.0 scalefont
setfont
0.000000 0.734375 moveto
/O glyphshow

/DejaVuSans findfont
21.0 scalefont
setfont
23.900391 -4.187500 moveto
/two glyphshow

/DejaVuSans findfont
30.0 scalefont
setfont
43.926270 0.734375 moveto
/minus glyphshow

74.907715 0.734375 moveto
/O glyphshow

/DejaVuSans findfont
21.0 scalefont
setfont
98.808105 -4.187500 moveto
/two glyphshow


grestore
0.000 0.000 1.000 setrgbcolor
gsave
748 506.240625 m
808 506.240625 l
stroke
grestore
1.000 setlinewidth
2 setlinejoin
[] 0 setdash
gsave
/o {
gsave
newpath
translate
1.0 setlinewidth
2 setlinejoin
0 setlinecap
0 3 m
-0.673542 0.927051 l
-2.85317 0.927051 l
-1.089814 -0.354102 l
-1.763356 -2.427051 l
-0 -1.145898 l
1.763356 -2.427051 l
1.089814 -0.354102 l
2.85317 0.927051 l
0.673542 0.927051 l
cl

gsave
0.000 0.000 1.000 setrgbcolor
fill
grestore
stroke
grestore
} bind def
778 506.241 o
grestore
0.000 setgray
gsave
832.000000 495.740625 translate
0.000000 rotate

grestore
3.000 setlinewidth
1 setlinejoin
[9 3] 0 setdash
0.750 0.000 0.750 setrgbcolor
gsave
748 462.209375 m
808 462.209375 l
stroke
grestore
0.000 setgray
gsave
832.000000 451.709375 translate
0.000000 rotate
/DejaVuSans findfont
30.0 scalefont
setfont
0.000000 0.734375 moveto
/O glyphshow

/DejaVuSans findfont
21.0 scalefont
setfont
23.900391 -4.187500 moveto
/two glyphshow

/DejaVuSans findfont
30.0 scalefont
setfont
43.926270 0.734375 moveto
/minus glyphshow

74.907715 0.734375 moveto
/H glyphshow

/DejaVuSans findfont
21.0 scalefont
setfont
97.753418 -4.187500 moveto
/two glyphshow


grestore

end
showpage
