0.100000	0.213814	0.119533	0.155155	0.008298
0.120000	0.261528	0.171776	0.186640	0.010531
0.140000	0.320171	0.238336	0.218212	0.012839
0.160000	0.404232	0.313689	0.249875	0.015235
0.180000	0.516717	0.375343	0.281637	0.017727
0.200000	0.639406	0.413578	0.313506	0.020320
0.220000	0.762311	0.433735	0.345491	0.023013
0.240000	0.882143	0.440068	0.377598	0.025807
