0.000001	0.655800	1.000000	1.000000
0.000407	0.655800	1.000000	1.000000
0.001625	0.655800	1.000000	1.000000
0.003641	0.655800	1.000000	1.000000
0.006432	0.655800	1.000000	1.000000
0.009969	0.655800	1.000000	1.000000
0.014217	0.655800	1.000000	1.000000
0.019132	0.655800	1.000000	1.000000
0.024667	0.655800	1.000000	1.000000
0.030770	0.655800	1.000000	1.000000
0.037388	0.655800	1.000000	1.000000
0.044462	0.655800	1.000000	1.000000
0.051938	0.655800	1.000000	1.000000
0.059757	0.655800	1.000000	1.000000
0.067864	0.655800	1.000000	1.000000
0.076205	0.655800	1.000000	1.000000
0.084729	0.655800	1.000000	1.000000
0.093388	0.655800	1.000000	1.000000
0.102136	0.655800	1.000000	1.000000
0.110932	0.655800	1.000000	1.000000
0.119738	0.655800	1.000000	1.000000
0.128519	0.655800	1.000000	1.000000
0.137246	0.655800	1.000000	1.000000
0.145891	0.655800	1.000000	1.000000
0.154431	0.655800	1.000000	1.000000
0.162847	0.655800	1.000000	1.000000
0.171120	0.655800	1.000000	1.000000
0.179238	0.655800	1.000000	1.000000
0.187188	0.655800	1.000000	1.000000
0.194961	0.655800	1.000000	1.000000
0.202551	0.655800	1.000000	1.000000
0.209951	0.655800	1.000000	1.000000
0.217160	0.655800	1.000000	1.000000
0.224175	0.655800	1.000000	1.000000
0.230995	0.655800	1.000000	1.000000
0.237621	0.655800	1.000000	1.000000
0.244054	0.655800	1.000000	1.000000
0.250297	0.655800	1.000000	1.000000
0.256353	0.655800	1.000000	1.000000
0.262224	0.655800	1.000000	1.000000
0.267916	0.655800	1.000000	1.000000
0.273432	0.655800	1.000000	1.000000
0.278777	0.655800	1.000000	1.000000
0.283956	0.655800	1.000000	1.000000
0.288974	0.655800	1.000000	1.000000
0.293836	0.655800	1.000000	1.000000
0.298547	0.655800	1.000000	1.000000
0.303113	0.655800	1.000000	1.000000
0.307537	0.655800	1.000000	1.000000
0.311827	0.655800	1.000000	1.000000
0.315986	0.655800	1.000000	1.000000
0.320020	0.655800	1.000000	1.000000
0.323933	0.655800	1.000000	1.000000
0.327730	0.655800	1.000000	1.000000
0.331416	0.655800	1.000000	1.000000
0.334996	0.655800	1.000000	1.000000
0.338473	0.655800	1.000000	1.000000
0.341853	0.655800	1.000000	1.000000
0.345138	0.655799	1.000000	1.000000
0.348333	0.655799	1.000000	1.000000
0.351443	0.655799	1.000000	1.000000
0.354469	0.655799	1.000000	1.000000
0.357417	0.655799	1.000000	1.000000
0.360290	0.655799	1.000000	1.000000
0.363090	0.655799	1.000000	1.000000
0.365821	0.655799	1.000000	1.000000
0.368486	0.655798	1.000000	1.000000
0.371088	0.655798	1.000000	1.000000
0.373630	0.655798	1.000000	1.000000
0.376114	0.655798	1.000000	1.000000
0.378543	0.655798	1.000000	1.000000
0.380920	0.655797	1.000000	1.000000
0.383247	0.655797	1.000000	1.000000
0.385525	0.655797	1.000000	1.000000
0.387758	0.655797	1.000000	1.000000
0.389947	0.655796	1.000000	1.000000
0.392095	0.655796	1.000000	1.000000
0.394203	0.655796	1.000000	1.000000
0.396274	0.655795	1.000000	1.000000
0.398308	0.655795	1.000000	1.000000
0.400308	0.655795	1.000000	1.000000
0.402275	0.655794	1.000000	1.000000
0.404211	0.655794	1.000000	1.000000
0.406117	0.655793	1.000000	1.000000
0.407996	0.655793	1.000000	1.000000
0.409847	0.655792	1.000000	1.000000
0.411673	0.655792	1.000000	1.000000
0.413475	0.655791	1.000000	1.000000
0.415254	0.655791	1.000000	1.000000
0.417011	0.655790	1.000000	1.000000
0.418747	0.655790	1.000000	1.000000
0.420464	0.655789	1.000000	1.000000
0.422163	0.655788	1.000000	1.000000
0.423843	0.655788	1.000000	1.000000
0.425508	0.655787	1.000000	1.000000
0.427156	0.655786	1.000000	1.000000
0.428790	0.655786	1.000000	1.000000
0.430411	0.655785	1.000000	1.000000
0.432018	0.655784	1.000000	1.000000
0.433613	0.655783	1.000000	1.000000
0.435197	0.655782	1.000000	1.000000
0.436770	0.655781	1.000000	1.000000
0.438333	0.655780	1.000000	1.000000
0.439887	0.655779	1.000000	1.000000
0.441432	0.655778	1.000000	1.000000
0.442970	0.655777	1.000000	1.000000
0.444500	0.655776	1.000000	1.000000
0.446023	0.655775	1.000000	1.000000
0.447541	0.655774	1.000000	1.000000
0.449053	0.655773	1.000000	1.000000
0.450560	0.655772	1.000000	1.000000
0.452062	0.655770	1.000000	1.000000
0.453561	0.655769	1.000000	1.000000
0.455056	0.655768	1.000000	1.000000
0.456549	0.655766	1.000000	1.000000
0.458039	0.655765	1.000000	1.000000
0.459527	0.655763	1.000000	1.000000
0.461014	0.655762	1.000000	1.000000
0.462499	0.655760	1.000000	1.000000
0.463984	0.655758	1.000000	1.000000
0.465469	0.655756	1.000000	1.000000
0.466954	0.655755	1.000000	1.000000
0.468439	0.655753	1.000000	1.000000
0.469926	0.655751	1.000000	1.000000
0.471413	0.655749	1.000000	1.000000
0.472903	0.655746	1.000000	1.000000
0.474394	0.655744	1.000000	1.000000
0.475888	0.655742	1.000000	1.000000
0.477385	0.655740	1.000000	1.000000
0.478884	0.655737	1.000000	1.000000
0.480387	0.655734	1.000000	1.000000
0.481894	0.655732	1.000000	1.000000
0.483405	0.655729	1.000000	1.000000
0.484920	0.655726	1.000000	1.000000
0.486439	0.655723	1.000000	1.000000
0.487964	0.655720	1.000000	1.000000
0.489493	0.655717	1.000000	1.000000
0.491029	0.655713	1.000000	1.000000
0.492570	0.655710	1.000000	1.000000
0.494117	0.655706	1.000000	1.000000
0.495670	0.655702	1.000000	1.000000
0.497230	0.655699	1.000000	1.000000
0.498796	0.655694	1.000000	1.000000
0.500370	0.655690	1.000000	1.000000
0.501951	0.655686	1.000000	1.000000
0.503540	0.655681	1.000000	1.000000
0.505136	0.655676	1.000000	1.000000
0.506741	0.655672	1.000000	1.000000
0.508354	0.655666	1.000000	1.000000
0.509976	0.655661	1.000000	1.000000
0.511606	0.655655	1.000000	1.000000
0.513245	0.655650	1.000000	1.000000
0.514894	0.655644	1.000000	1.000000
0.516552	0.655637	1.000000	1.000000
0.518220	0.655631	1.000000	1.000000
0.519898	0.655624	1.000000	1.000000
0.521586	0.655617	1.000000	1.000000
0.523285	0.655609	1.000000	1.000000
0.524994	0.655602	1.000000	1.000000
0.526714	0.655594	1.000000	1.000000
0.528445	0.655585	1.000000	1.000000
0.530188	0.655577	1.000000	1.000000
0.531942	0.655568	1.000000	1.000000
0.533708	0.655558	1.000000	1.000000
0.535485	0.655548	1.000000	1.000000
0.537275	0.655538	1.000000	1.000000
0.539078	0.655527	1.000000	1.000000
0.540893	0.655516	1.000000	1.000000
0.542721	0.655504	1.000000	1.000000
0.544562	0.655492	1.000000	1.000000
0.546416	0.655480	1.000000	1.000000
0.548284	0.655466	1.000000	1.000000
0.550166	0.655453	1.000000	1.000000
0.552061	0.655438	1.000000	1.000000
0.553971	0.655423	1.000000	1.000000
0.555895	0.655407	1.000000	1.000000
0.557834	0.655391	1.000000	1.000000
0.559787	0.655374	1.000000	1.000000
0.561756	0.655356	1.000000	1.000000
0.563740	0.655338	1.000000	1.000000
0.565739	0.655318	1.000000	1.000000
0.567754	0.655298	1.000000	1.000000
0.569786	0.655276	1.000000	1.000000
0.571833	0.655254	1.000000	1.000000
0.573897	0.655231	1.000000	1.000000
0.575977	0.655207	1.000000	1.000000
0.578075	0.655181	1.000000	1.000000
0.580189	0.655155	1.000000	1.000000
0.582321	0.655127	1.000000	1.000000
0.584470	0.655098	1.000000	1.000000
0.586637	0.655068	1.000000	1.000000
0.588823	0.655036	1.000000	1.000000
0.591026	0.655003	1.000000	1.000000
0.593249	0.654968	1.000000	1.000000
0.595490	0.654932	1.000000	1.000000
0.597750	0.654894	1.000000	1.000000
0.600029	0.654854	1.000000	1.000000
0.602328	0.654813	1.000000	1.000000
0.604647	0.654769	1.000000	1.000000
0.606985	0.654723	1.000000	1.000000
0.609344	0.654676	1.000000	1.000000
0.611724	0.654625	1.000000	1.000000
0.614125	0.654573	1.000000	1.000000
0.616546	0.654518	1.000000	1.000000
0.618990	0.654460	1.000000	1.000000
0.621454	0.654400	1.000000	1.000000
0.623941	0.654337	1.000000	1.000000
0.626450	0.654271	1.000000	1.000000
0.628981	0.654201	1.000000	1.000000
0.631536	0.654128	1.000000	1.000000
0.634113	0.654052	1.000000	1.000000
0.636714	0.653972	1.000000	1.000000
0.639338	0.653888	1.000000	1.000000
0.641986	0.653800	1.000000	1.000000
0.644659	0.653707	1.000000	1.000000
0.647356	0.653610	1.000000	1.000000
0.650078	0.653509	1.000000	1.000000
0.652825	0.653402	1.000000	1.000000
0.655598	0.653290	1.000000	1.000000
0.658397	0.653172	1.000000	1.000000
0.661222	0.653048	1.000000	1.000000
0.664073	0.652919	1.000000	1.000000
0.666951	0.652783	1.000000	1.000000
0.669857	0.652640	1.000000	1.000000
0.672789	0.652489	1.000000	1.000000
0.675750	0.652332	1.000000	1.000000
0.678739	0.652166	1.000000	1.000000
0.681757	0.651992	1.000000	1.000000
0.684803	0.651809	1.000000	1.000000
0.687879	0.651617	1.000000	1.000000
0.690984	0.651415	1.000000	1.000000
0.694120	0.651203	1.000000	1.000000
0.697286	0.650980	1.000000	1.000000
0.700482	0.650745	1.000000	1.000000
0.703710	0.650499	1.000000	1.000000
0.706970	0.650240	1.000000	1.000000
0.710262	0.649968	1.000000	1.000000
0.713586	0.649681	1.000000	1.000000
0.716943	0.649380	1.000000	1.000000
0.720333	0.649064	1.000000	1.000000
0.723757	0.648731	1.000000	1.000000
0.727215	0.648381	1.000000	1.000000
0.730708	0.648014	1.000000	1.000000
0.734236	0.647627	1.000000	1.000000
0.737799	0.647220	1.000000	1.000000
0.741398	0.646793	1.000000	1.000000
0.745034	0.646344	1.000000	1.000000
0.748706	0.645871	1.000000	1.000000
0.752416	0.645374	1.000000	1.000000
0.756164	0.644852	1.000000	1.000000
0.759950	0.644303	1.000000	1.000000
0.763775	0.643727	1.000000	1.000000
0.767640	0.643120	1.000000	1.000000
0.771544	0.642483	1.000000	1.000000
0.775489	0.641814	1.000000	1.000000
0.779475	0.641111	1.000000	1.000000
0.783503	0.640373	1.000000	1.000000
0.787572	0.639597	1.000000	1.000000
0.791685	0.638783	1.000000	1.000000
0.795840	0.637929	1.000000	1.000000
0.800040	0.637032	1.000000	1.000000
0.804284	0.636092	1.000000	1.000000
0.808573	0.635105	1.000000	1.000000
0.812907	0.634071	1.000000	1.000000
0.817288	0.632988	1.000000	1.000000
0.821716	0.631853	1.000000	1.000000
0.826192	0.630664	1.000000	1.000000
0.830716	0.629420	1.000000	1.000000
0.835288	0.628119	1.000000	1.000000
0.839911	0.626759	1.000000	1.000000
0.844583	0.625337	1.000000	1.000000
0.849307	0.623853	1.000000	1.000000
0.854082	0.622304	1.000000	1.000000
0.858910	0.620688	1.000000	1.000000
0.863791	0.619005	1.000000	1.000000
0.868726	0.617252	1.000000	1.000000
0.873716	0.615428	1.000000	1.000000
0.878761	0.613533	1.000000	1.000000
0.883862	0.611564	1.000000	1.000000
0.889021	0.609522	1.000000	1.000000
0.894237	0.607405	1.000000	1.000000
0.899512	0.605213	1.000000	1.000000
0.904847	0.602947	1.000000	1.000000
0.910243	0.600606	1.000000	1.000000
0.915699	0.598192	1.000000	1.000000
0.921218	0.595705	1.000000	1.000000
0.926801	0.593145	1.000000	1.000000
0.932447	0.590516	1.000000	1.000000
0.938159	0.587819	1.000000	1.000000
0.943936	0.585057	1.000000	1.000000
0.949781	0.582232	1.000000	1.000000
0.955693	0.579349	1.000000	1.000000
0.961675	0.576410	1.000000	1.000000
0.967727	0.573419	1.000000	1.000000
0.973850	0.570382	1.000000	1.000000
0.980045	0.567304	1.000000	1.000000
0.986314	0.564189	1.000000	1.000000
0.992657	0.561044	1.000000	1.000000
0.999076	0.557875	1.000000	1.000000
1.005572	0.554686	1.000000	1.000000
1.012146	0.551487	1.000000	1.000000
1.018799	0.548281	1.000000	1.000000
1.025532	0.545078	1.000000	1.000000
1.032347	0.541882	1.000000	1.000000
1.039245	0.538702	1.000000	1.000000
1.046228	0.535544	1.000000	1.000000
1.053296	0.532414	1.000000	1.000000
1.060451	0.529319	1.000000	1.000000
1.067695	0.526265	1.000000	1.000000
1.075028	0.523258	1.000000	1.000000
1.082453	0.520303	1.000000	1.000000
1.089971	0.517407	1.000000	1.000000
1.097582	0.514574	1.000000	1.000000
1.105290	0.511807	1.000000	1.000000
1.113095	0.509112	1.000000	1.000000
1.120999	0.506491	1.000000	1.000000
1.129004	0.503948	1.000000	1.000000
1.137111	0.501485	1.000000	1.000000
1.145322	0.499104	1.000000	1.000000
1.153639	0.496807	1.000000	1.000000
1.162063	0.494594	1.000000	1.000000
1.170596	0.492466	1.000000	1.000000
1.179241	0.490423	1.000000	1.000000
1.187999	0.488464	1.000000	1.000000
1.196872	0.486589	1.000000	1.000000
1.205861	0.484797	1.000000	1.000000
1.214970	0.483086	1.000000	1.000000
1.224200	0.481454	1.000000	1.000000
1.233553	0.479898	1.000000	1.000000
1.243031	0.478417	1.000000	1.000000
1.252637	0.477007	1.000000	1.000000
1.262372	0.475666	1.000000	1.000000
1.272239	0.474390	1.000000	1.000000
1.282241	0.473175	1.000000	1.000000
1.292379	0.472017	1.000000	1.000000
1.302657	0.470914	1.000000	1.000000
1.313076	0.469859	1.000000	1.000000
1.323639	0.468849	1.000000	1.000000
1.334350	0.467880	1.000000	1.000000
1.345210	0.466945	1.000000	1.000000
1.356222	0.466040	1.000000	1.000000
1.367389	0.465159	1.000000	1.000000
1.378714	0.464296	1.000000	1.000000
1.390200	0.463445	1.000000	1.000000
1.401849	0.462599	1.000000	1.000000
1.413666	0.461749	1.000000	1.000000
1.425652	0.460889	1.000000	1.000000
1.437812	0.460009	1.000000	1.000000
1.450148	0.459100	1.000000	1.000000
1.462664	0.458150	1.000000	1.000000
1.475363	0.457148	1.000000	1.000000
1.488249	0.456082	1.000000	1.000000
1.501326	0.454936	1.000000	1.000000
1.514597	0.453694	1.000000	1.000000
1.528065	0.452338	1.000000	1.000000
1.541736	0.450849	1.000000	1.000000
1.555612	0.449203	1.000000	1.000000
1.569697	0.447376	1.000000	1.000000
1.583997	0.445339	1.000000	1.000000
1.598515	0.443062	1.000000	1.000000
1.613256	0.440510	1.000000	1.000000
1.628223	0.437644	1.000000	1.000000
1.643423	0.434424	1.000000	1.000000
1.658858	0.430802	1.000000	1.000000
1.674535	0.426729	1.000000	1.000000
1.690458	0.422152	1.000000	1.000000
1.706632	0.417014	1.000000	1.000000
1.723063	0.411256	1.000000	1.000000
1.739755	0.404818	1.000000	1.000000
1.756715	0.397638	1.000000	1.000000
1.773948	0.389658	1.000000	1.000000
1.791459	0.380824	1.000000	1.000000
1.809255	0.371089	1.000000	1.000000
1.827341	0.360416	1.000000	1.000000
1.845725	0.348785	1.000000	1.000000
1.864411	0.336191	1.000000	1.000000
1.883408	0.322654	1.000000	1.000000
1.902721	0.308220	1.000000	1.000000
1.922358	0.292961	1.000000	1.000000
1.942325	0.276980	1.000000	1.000000
1.962631	0.260407	1.000000	1.000000
1.983282	0.243397	1.000000	1.000000
2.004286	0.226126	1.000000	1.000000
2.025652	0.208785	1.000000	1.000000
2.047386	0.191570	1.000000	1.000000
2.069499	0.174672	1.000000	1.000000
2.091998	0.158272	1.000000	1.000000
2.114893	0.142534	1.000000	1.000000
2.138191	0.127593	1.000000	1.000000
2.161904	0.113558	1.000000	1.000000
2.186040	0.100505	1.000000	1.000000
2.210609	0.088481	1.000000	1.000000
2.235622	0.077504	1.000000	1.000000
2.261090	0.067566	1.000000	1.000000
2.287022	0.058638	1.000000	1.000000
2.313430	0.050675	1.000000	1.000000
2.340326	0.043621	1.000000	1.000000
2.367722	0.037409	1.000000	1.000000
2.395629	0.031969	1.000000	1.000000
2.424060	0.027230	1.000000	1.000000
2.453029	0.023120	1.000000	1.000000
2.482548	0.019573	1.000000	1.000000
2.512631	0.016522	1.000000	1.000000
2.543293	0.013909	1.000000	1.000000
2.574547	0.011678	1.000000	1.000000
2.606410	0.009780	1.000000	1.000000
2.638896	0.008170	1.000000	1.000000
2.672022	0.006807	1.000000	1.000000
2.705803	0.005658	1.000000	1.000000
2.740258	0.004692	1.000000	1.000000
2.775404	0.003881	1.000000	1.000000
2.811258	0.003202	1.000000	1.000000
2.847841	0.002636	1.000000	1.000000
2.885170	0.002164	1.000000	1.000000
2.923266	0.001772	1.000000	1.000000
2.962150	0.001448	1.000000	1.000000
3.001843	0.001179	1.000000	1.000000
3.042366	0.000958	1.000000	1.000000
3.083744	0.000776	1.000000	1.000000
3.125999	0.000627	1.000000	1.000000
3.169155	0.000505	1.000000	1.000000
3.213239	0.000406	1.000000	1.000000
3.258275	0.000325	1.000000	1.000000
3.304291	0.000260	1.000000	1.000000
3.351315	0.000207	1.000000	1.000000
3.399376	0.000164	1.000000	1.000000
3.448503	0.000129	1.000000	1.000000
3.498727	0.000102	1.000000	1.000000
3.550080	0.000080	1.000000	1.000000
3.602596	0.000063	1.000000	1.000000
3.656309	0.000049	1.000000	1.000000
3.711254	0.000038	1.000000	1.000000
3.767468	0.000029	1.000000	1.000000
3.824989	0.000022	1.000000	1.000000
3.883858	0.000017	1.000000	1.000000
3.944114	0.000013	1.000000	1.000000
4.005801	0.000010	1.000000	1.000000
4.068963	0.000008	1.000000	1.000000
4.133645	0.000006	1.000000	1.000000
4.199895	0.000004	1.000000	1.000000
4.267763	0.000003	1.000000	1.000000
4.337299	0.000002	1.000000	1.000000
4.408558	0.000002	1.000000	1.000000
4.481593	0.000001	1.000000	1.000000
4.556463	0.000001	1.000000	1.000000
4.633228	0.000001	1.000000	1.000000
4.711948	0.000000	1.000000	1.000000
4.792689	0.000000	1.000000	1.000000
4.875518	0.000000	1.000000	1.000000
4.960503	0.000000	1.000000	1.000000
5.047719	0.000000	1.000000	1.000000
5.137239	0.000000	1.000000	1.000000
5.229143	0.000000	1.000000	1.000000
5.323511	0.000000	1.000000	1.000000
5.420430	0.000000	1.000000	1.000000
5.519987	0.000000	1.000000	1.000000
5.622274	0.000000	1.000000	1.000000
5.727387	0.000000	1.000000	1.000000
5.835427	0.000000	1.000000	1.000000
5.946496	0.000000	1.000000	1.000000
6.060705	0.000000	1.000000	1.000000
6.178165	0.000000	1.000000	1.000000
6.298994	0.000000	1.000000	1.000000
6.423316	0.000000	1.000000	1.000000
6.551259	0.000000	1.000000	1.000000
6.682955	0.000000	1.000000	1.000000
6.818545	0.000000	1.000000	1.000000
6.958174	0.000000	1.000000	1.000000
7.101993	0.000000	1.000000	1.000000
7.250161	0.000000	1.000000	1.000000
7.402843	0.000000	1.000000	1.000000
7.560211	0.000000	1.000000	1.000000
7.722445	0.000000	1.000000	1.000000
7.889733	0.000000	1.000000	1.000000
8.062271	0.000000	1.000000	1.000000
8.240264	0.000000	1.000000	1.000000
8.423925	0.000000	1.000000	1.000000
8.613477	0.000000	1.000000	1.000000
8.809153	0.000000	1.000000	1.000000
9.011195	0.000000	1.000000	1.000000
9.219859	0.000000	1.000000	1.000000
9.435407	0.000000	1.000000	1.000000
9.658116	0.000000	1.000000	1.000000
9.888274	0.000000	1.000000	1.000000
10.126181	0.000000	1.000000	1.000000
10.372150	0.000000	1.000000	1.000000
10.626508	0.000000	1.000000	1.000000
10.889595	0.000000	1.000000	1.000000
11.161764	0.000000	1.000000	1.000000
11.443384	0.000000	1.000000	1.000000
11.734838	0.000000	1.000000	1.000000
12.036524	0.000000	1.000000	1.000000
12.348857	0.000000	1.000000	1.000000
12.672265	0.000000	1.000000	1.000000
13.007193	0.000000	1.000000	1.000000
13.354101	0.000000	1.000000	1.000000
13.713467	0.000000	1.000000	1.000000
14.085781	0.000000	1.000000	1.000000
14.471551	0.000000	1.000000	1.000000
14.871296	0.000000	1.000000	1.000000
15.285553	0.000000	1.000000	1.000000
15.714868	0.000000	1.000000	1.000000
16.159800	0.000000	1.000000	1.000000
16.620917	0.000000	1.000000	1.000000
17.098795	0.000000	1.000000	1.000000
17.594014	0.000000	1.000000	1.000000
18.107157	0.000000	1.000000	1.000000
18.638805	0.000000	1.000000	1.000000
19.189531	0.000000	1.000000	1.000000
19.759899	0.000000	1.000000	1.000000
20.350455	0.000000	1.000000	1.000000
20.961720	0.000000	1.000000	1.000000
21.594184	0.000000	1.000000	1.000000
22.248295	0.000000	1.000000	1.000000
22.924449	0.000000	1.000000	1.000000
23.622978	0.000000	1.000000	1.000000
24.344139	0.000000	1.000000	1.000000
25.088095	0.000000	1.000000	1.000000
25.854903	0.000000	1.000000	1.000000
26.644491	0.000000	1.000000	1.000000
27.456643	0.000000	1.000000	1.000000
28.290974	0.000000	1.000000	1.000000
29.146906	0.000000	1.000000	1.000000
30.023648	0.000000	1.000000	1.000000
30.920165	0.000000	1.000000	1.000000
31.835155	0.000000	1.000000	1.000000
32.767018	0.000000	1.000000	1.000000
33.713834	0.000000	1.000000	1.000000
34.673333	0.000000	1.000000	1.000000
35.642874	0.000000	1.000000	1.000000
36.619424	0.000000	1.000000	1.000000
37.599538	0.000000	1.000000	1.000000
38.579355	0.000000	1.000000	1.000000
39.554587	0.000000	1.000000	1.000000
40.520533	0.000000	1.000000	1.000000
41.472085	0.000000	1.000000	1.000000
42.403767	0.000000	1.000000	1.000000
43.309765	0.000000	1.000000	1.000000
44.183992	0.000000	1.000000	1.000000
45.020150	0.000000	1.000000	1.000000
45.811817	0.000000	1.000000	1.000000
46.552547	0.000000	1.000000	1.000000
47.235973	0.000000	1.000000	1.000000
47.855932	0.000000	1.000000	1.000000
48.406586	0.000000	1.000000	1.000000
48.882550	0.000000	1.000000	1.000000
49.279014	0.000000	1.000000	1.000000
49.591863	0.000000	1.000000	1.000000
49.817777	0.000000	1.000000	1.000000
49.954319	0.000000	1.000000	1.000000
50.000000	0.000000	1.000000	1.000000
