 0.75000000000000D+00
 0.60122500000000D+02  0.39898833923366D-04  0.40488691172773D-04  0.41136543410695D-04  0.41845436095033D-04  0.42618172198434D-04  0.43457290957557D-04  0.44365051001849D-04  0.45343417115178D-04  0.46394049688416D-04  0.47518295794094D-04
 0.60247500000000D+02  0.40460424264345D-04  0.40958281489529D-04  0.41506995930776D-04  0.42110020079536D-04  0.42770626239843D-04  0.43491880312055D-04  0.44276620082609D-04  0.45127437614489D-04  0.46046665039860D-04  0.47036362830742D-04
 0.60372500000000D+02  0.41318985422978D-04  0.41742007454831D-04  0.42207502668767D-04  0.42719162864354D-04  0.43280568294109D-04  0.43895157585730D-04  0.44566201934167D-04  0.45296783554739D-04  0.46089778021430D-04  0.46947839803998D-04
 0.60497500000000D+02  0.42435039211063D-04  0.42803408754364D-04  0.43205029991298D-04  0.43643657604128D-04  0.44123006005196D-04  0.44646716800711D-04  0.45218329927482D-04  0.45841258872550D-04  0.46518769976101D-04  0.47253965445422D-04
 0.60622500000000D+02  0.43759638497700D-04  0.44095548558578D-04  0.44455079785035D-04  0.44841873624925D-04  0.45259601261728D-04  0.45711930236919D-04  0.46202493829621D-04  0.46734864010411D-04  0.47312528368413D-04  0.47938871004865D-04
 0.60747500000000D+02  0.45236661922281D-04  0.45563247082115D-04  0.45903838216540D-04  0.46261796645814D-04  0.46640578335205D-04  0.47043701376752D-04  0.47474715067337D-04  0.47937171766539D-04  0.48434602324976D-04  0.48970495465820D-04
 0.60872500000000D+02  0.46805313927915D-04  0.47145577387322D-04  0.47490644530396D-04  0.47843446996610D-04  0.48207067481366D-04  0.48584709719890D-04  0.48979668751050D-04  0.49395302950474D-04  0.49835008985698D-04  0.50302200465852D-04
 0.60997500000000D+02  0.48402702444356D-04  0.48778495304084D-04  0.49150653297838D-04  0.49521552787742D-04  0.49893766431270D-04  0.50270037140583D-04  0.50653250942846D-04  0.51046410462679D-04  0.51452610496244D-04  0.51875016821355D-04
 0.61122500000000D+02  0.49966378036964D-04  0.50397482081569D-04  0.50817565275566D-04  0.51228351705024D-04  0.51631794082531D-04  0.52030052934883D-04  0.52425473339936D-04  0.52820561080001D-04  0.53217959937701D-04  0.53620431614390D-04
 0.61247500000000D+02  0.51436736498548D-04  0.51940092412651D-04  0.52426311278298D-04  0.52896399073320D-04  0.53351609110638D-04  0.53793427496584D-04  0.54223554897331D-04  0.54643886526694D-04  0.55056492255648D-04  0.55463598597941D-04
 0.61372500000000D+02  0.52759207506842D-04  0.53348318699428D-04  0.53915588503676D-04  0.54461270903129D-04  0.54985872588632D-04  0.55490145553172D-04  0.55975074935080D-04  0.56441863949675D-04  0.56891917873859D-04  0.57326829019716D-04
 0.61497500000000D+02  0.53886171859857D-04  0.54570701904168D-04  0.55230167095596D-04  0.55864066949492D-04  0.56472146885132D-04  0.57054398648443D-04  0.57611055153368D-04  0.58142581375130D-04  0.58649663190595D-04  0.59133196164939D-04
 0.61622500000000D+02  0.54778566261098D-04  0.55564136554993D-04  0.56322902045874D-04  0.57053635227358D-04  0.57755337313206D-04  0.58427246941242D-04  0.59068842725742D-04  0.59679840953564D-04  0.60260190111243D-04  0.60810064175837D-04
 0.61747500000000D+02  0.55407145222753D-04  0.56295328640034D-04  0.57156396594007D-04  0.57988449492989D-04  0.58789791017214D-04  0.59558945219763D-04  0.60294667192418D-04  0.60995948144930D-04  0.61662016251773D-04  0.62292335003697D-04
 0.61872500000000D+02  0.55753373966018D-04  0.56741869030746D-04  0.57704266382175D-04  0.58638073199778D-04  0.59540968398377D-04  0.60410827836932D-04  0.61245743127257D-04  0.62044034367761D-04  0.62804257718782D-04  0.63525209237391D-04
 0.61997500000000D+02  0.55809925720374D-04  0.56892883550920D-04  0.57951951397083D-04  0.58984141251987D-04  0.59986601354127D-04  0.60956648802357D-04  0.61891796143204D-04  0.62789771687711D-04  0.63648533955556D-04  0.64466281233335D-04
 0.62122500000000D+02  0.55580749659914D-04  0.56749213569592D-04  0.57897016723812D-04  0.59020787663881D-04  0.60117253826962D-04  0.61183280472191D-04  0.62215904272813D-04  0.63212360753340D-04  0.64170105400620D-04  0.65086828920268D-04
 0.62247500000000D+02  0.55080663349182D-04  0.56323073151539D-04  0.57548881360554D-04  0.58754452823387D-04  0.59936214072754D-04  0.61090697097883D-04  0.62214578747590D-04  0.63304714398142D-04  0.64358165137681D-04  0.65372218379099D-04
 0.62372500000000D+02  0.54334430636147D-04  0.55637146029577D-04  0.56927941861816D-04  0.58203041560525D-04  0.59458694941158D-04  0.60691225040784D-04  0.61897071759541D-04  0.63072830472942D-04  0.64215284327055D-04  0.65321429567894D-04
 0.62497500000000D+02  0.53375335472397D-04  0.54723143337536D-04  0.56064121977457D-04  0.57394473031826D-04  0.58710392625602D-04  0.60008119284339D-04  0.61283979971954D-04  0.62534432060040D-04  0.63756099479528D-04  0.64945801884218D-04
 0.62622500000000D+02  0.52243326979094D-04  0.53619908260444D-04  0.54994944748150D-04  0.56364728950155D-04  0.57725520593512D-04  0.59073593583212D-04  0.60405282456451D-04  0.61717025930018D-04  0.63005405443293D-04  0.64267177079214D-04
 0.62747500000000D+02  0.50982852847228D-04  0.52371196140568D-04  0.53763267985966D-04  0.55155554544923D-04  0.56544487585091D-04  0.57926488511359D-04  0.59298013234712D-04  0.60655595423340D-04  0.61995885828479D-04  0.63315685725184D-04
 0.62872500000000D+02  0.49640533299810D-04  0.51023299705210D-04  0.52414871102662D-04  0.53812018828334D-04  0.55211444565076D-04  0.56609819643275D-04  0.58003826402850D-04  0.59390199267001D-04  0.60765763161295D-04  0.62127467103134D-04
 0.62997500000000D+02  0.48262876695306D-04  0.49622738789282D-04  0.50996129509437D-04  0.52380185218497D-04  0.53771963986667D-04  0.55168478616450D-04  0.56566732746728D-04  0.57963757940197D-04  0.59356649481725D-04  0.60742598639895D-04
 0.63122500000000D+02  0.46894266203164D-04  0.48214252349659D-04  0.49552020014272D-04  0.50905138718566D-04  0.52271097420477D-04  0.53647330034800D-04  0.55031244767598D-04  0.56420255550884D-04  0.57811813548233D-04  0.59203436563806D-04
 0.63247500000000D+02  0.45575419950458D-04  0.46839290714879D-04  0.48124648502887D-04  0.49429552145251D-04  0.50751983172111D-04  0.52089862961327D-04  0.53441074101858D-04  0.54803484747214D-04  0.56174974310192D-04  0.57553458563542D-04
 0.63372500000000D+02  0.44342450800874D-04  0.45535120229605D-04  0.46752396726971D-04  0.47992871668646D-04  0.49255066540637D-04  0.50537441272850D-04  0.51838406847241D-04  0.53156341516969D-04  0.54489609479102D-04  0.55836580430965D-04
 0.63497500000000D+02  0.43226547849852D-04  0.44334542466891D-04  0.45469670166532D-04  0.46631083527003D-04  0.47817875083021D-04  0.49029076915232D-04  0.50263664254301D-04  0.51520563023868D-04  0.52798660725787D-04  0.54096819564752D-04
 0.63622500000000D+02  0.42254189067185D-04  0.43266116415525D-04  0.44307115898453D-04  0.45376913531243D-04  0.46475185895780D-04  0.47601551627062D-04  0.48755566370165D-04  0.49936721694905D-04  0.51144447954454D-04  0.52378120514816D-04
 0.63747500000000D+02  0.41447696667302D-04  0.42354680079229D-04  0.43292095221759D-04  0.44260236199646D-04  0.45259357766791D-04  0.46289659905563D-04  0.47351275091073D-04  0.48444259218050D-04  0.49568586732504D-04  0.50724149945289D-04
 0.63872500000000D+02  0.40825889870046D-04  0.41621922621309D-04  0.42449162684410D-04  0.43308449551835D-04  0.44200592204873D-04  0.45126348443538D-04  0.46086405925097D-04  0.47081366266338D-04  0.48111733234730D-04  0.49177905532582D-04
 0.63997500000000D+02  0.40404589865050D-04  0.41086770947111D-04  0.41800327608494D-04  0.42546606558262D-04  0.43326931483585D-04  0.44142579093562D-04  0.44994755761988D-04  0.45884576359543D-04  0.46813046672283D-04  0.47781050374222D-04
 0.64122500000000D+02  0.40196787407990D-04  0.40765419434849D-04  0.41364946532589D-04  0.41997172310902D-04  0.42663883875628D-04  0.43366826656663D-04  0.44107678658145D-04  0.44888025799496D-04  0.45709339978307D-04  0.46572961189727D-04
 0.64247500000000D+02  0.40212378186195D-04  0.40670929715426D-04  0.41159194756662D-04  0.41679375480968D-04  0.42233663745177D-04  0.42824216675397D-04  0.43453130506870D-04  0.44122414268723D-04  0.44833965026901D-04  0.45589546264422D-04
 0.64372500000000D+02  0.40457480319948D-04  0.40812433854950D-04  0.41195167229043D-04  0.41608218864374D-04  0.42054123396153D-04  0.42535389707499D-04  0.43054476151515D-04  0.43613764322348D-04  0.44215533016616D-04  0.44861934069593D-04
 0.64497500000000D+02  0.40933445434522D-04  0.41194063457953D-04  0.41479739365615D-04  0.41793284703875D-04  0.42137514591787D-04  0.42515229497051D-04  0.42929193313401D-04  0.43382108750940D-04  0.43876591464796D-04  0.44415144567954D-04
 0.64622500000000D+02  0.41635736253172D-04  0.41813778003968D-04  0.42013358350084D-04  0.42237499667211D-04  0.42489236299063D-04  0.42771600890476D-04  0.43087606402873D-04  0.43440224384327D-04  0.43832360582165D-04  0.44266829367782D-04
 0.64747500000000D+02  0.42552855871873D-04  0.42662267671281D-04  0.42788927858768D-04  0.42936008133165D-04  0.43106701522684D-04  0.43304213636958D-04  0.43531749325026D-04  0.43792494821658D-04  0.44089596038630D-04  0.44426134167573D-04
 0.64872500000000D+02  0.43665485719165D-04  0.43722073428932D-04  0.43790914356490D-04  0.43875267585210D-04  0.43978423709684D-04  0.44103701004800D-04  0.44254437113353D-04  0.44433975827934D-04  0.44645649126149D-04  0.44892755210899D-04
 0.64997500000000D+02  0.44945962481796D-04  0.44967046847576D-04  0.44994791478622D-04  0.45032479061378D-04  0.45083434784792D-04  0.45151027143889D-04  0.45238664756026D-04  0.45349788273230D-04  0.45487857018592D-04  0.45656330599379D-04
 0.65122500000000D+02  0.46358235995770D-04  0.46362293618216D-04  0.46366969981236D-04  0.46375504764040D-04  0.46391192072399D-04  0.46417385344493D-04  0.46457499089097D-04  0.46515006096340D-04  0.46593429226543D-04  0.46696327489259D-04
 0.65247500000000D+02  0.47858460014151D-04  0.47864752443357D-04  0.47865363477118D-04  0.47863419763289D-04  0.47862115313359D-04  0.47864719749598D-04  0.47874584452990D-04  0.47895144895062D-04  0.47929917790160D-04  0.47982492246095D-04
 0.65372500000000D+02  0.49396293595050D-04  0.49424475830212D-04  0.49440643620022D-04  0.49447736903749D-04  0.49448776813068D-04  0.49446876338320D-04  0.49445250133970D-04  0.49447221503870D-04  0.49456224823883D-04  0.49475802093268D-04
 0.65497500000000D+02  0.50916847542448D-04  0.50986535991068D-04  0.51038097158579D-04  0.51074207301420D-04  0.51097638214249D-04  0.51111269344116D-04  0.51118100369004D-04  0.51121262168118D-04  0.51124024176289D-04  0.51129796408030D-04
 0.65622500000000D+02  0.52363101828857D-04  0.52493382583224D-04  0.52599913653545D-04  0.52685028632926D-04  0.52751170894870D-04  0.52800906248776D-04  0.52836937380472D-04  0.52862118023540D-04  0.52879464716285D-04  0.52892164130603D-04
 0.65747500000000D+02  0.53678584764764D-04  0.53887452486655D-04  0.54067714071775D-04  0.54221281938791D-04  0.54350191561586D-04  0.54456613907678D-04  0.54542870886001D-04  0.54611451892538D-04  0.54665029304035D-04  0.54706470732080D-04
 0.65872500000000D+02  0.54810101214011D-04  0.55113831102799D-04  0.55385132342546D-04  0.55625421868163D-04  0.55836250855687D-04  0.56019316382944D-04  0.56176477147931D-04  0.56309771584752D-04  0.56421436351431D-04  0.56513922962447D-04
 0.65997500000000D+02  0.55710308339673D-04  0.56122778648581D-04  0.56500278769749D-04  0.56843664866135D-04  0.57153935067851D-04  0.57432240012584D-04  0.57679898258057D-04  0.57898415243425D-04  0.58089504012412D-04  0.58255105564658D-04
 0.66122500000000D+02  0.56339974322886D-04  0.56871973594101D-04  0.57367954385005D-04  0.57828161371667D-04  0.58252983914360D-04  0.58642965344160D-04  0.58998817669649D-04  0.59321440775397D-04  0.59611944655322D-04  0.59871672761728D-04
 0.66247500000000D+02  0.56669811221089D-04  0.57328379360975D-04  0.57951537617839D-04  0.58538888837581D-04  0.59090176670253D-04  0.59605293637689D-04  0.60084294896599D-04  0.60527417191863D-04  0.60935101937058D-04  0.61308020816874D-04
 0.66372500000000D+02  0.56681829869524D-04  0.57469692530996D-04  0.58224512453853D-04  0.58945246101141D-04  0.59630978830035D-04  0.60280931876730D-04  0.60894475055766D-04  0.61471145091797D-04  0.62010668948687D-04  0.62512990936810D-04
 0.66497500000000D+02  0.56370209707959D-04  0.57285368810231D-04  0.58171638468239D-04  0.59027354309013D-04  0.59850959867221D-04  0.60641012643599D-04  0.61396195673275D-04  0.62115334921349D-04  0.62797422304428D-04  0.63441643547902D-04
 0.66622500000000D+02  0.55741700465547D-04  0.56777238106094D-04  0.57789769523811D-04  0.58777067628832D-04  0.59736982754513D-04  0.60667447887197D-04  0.61566489019389D-04  0.62432241299904D-04  0.63262971195303D-04  0.64057104315725D-04
 0.66747500000000D+02  0.54815572226996D-04  0.55959710550140D-04  0.57088309599958D-04  0.58198670316677D-04  0.59288131486997D-04  0.60354074127444D-04  0.61393930464107D-04  0.62405198481298D-04  0.63385462631469D-04  0.64332420792306D-04
 0.66872500000000D+02  0.53623113038266D-04  0.54859551073931D-04  0.56089263379405D-04  0.57309199626242D-04  0.58516300009337D-04  0.59707498628499D-04  0.60879730833005D-04  0.62029945733992D-04  0.63155124802347D-04  0.64252307039536D-04
 0.66997500000000D+02  0.52206655979325D-04  0.53515180012316D-04  0.54826816104973D-04  0.56138307936028D-04  0.57446336900593D-04  0.58747524213501D-04  0.60038436260373D-04  0.61315594561073D-04  0.62575491524203D-04  0.63814612833539D-04
 0.67122500000000D+02  0.50618118812878D-04  0.51975459620580D-04  0.53346380216326D-04  0.54727580381361D-04  0.56115642317181D-04  0.57507031122652D-04  0.58898097740689D-04  0.60285085823226D-04  0.61664143881025D-04  0.63031343850175D-04
 0.67247500000000D+02  0.48917067237164D-04  0.50297957858583D-04  0.51703079978165D-04  0.53129258815676D-04  0.54573147640138D-04  0.56031226274783D-04  0.57499801251930D-04  0.58975009073657D-04  0.60452824052565D-04  0.61929072079460D-04
 0.67372500000000D+02  0.47168356257439D-04  0.48546727339747D-04  0.49959693442459D-04  0.51404371176108D-04  0.52877655241050D-04  0.54376214698855D-04  0.55896490061194D-04  0.57434692582834D-04  0.58986807255561D-04  0.60548600976994D-04
 0.67497500000000D+02  0.45439439388169D-04  0.46789675676992D-04  0.48184112125290D-04  0.49620308693017D-04  0.51095561121778D-04  0.52606894860010D-04  0.54151058994896D-04  0.55724521436173D-04  0.57323466785296D-04  0.58943798396027D-04
 0.67622500000000D+02  0.43797458244438D-04  0.45095634366089D-04  0.46446418240081D-04  0.47847941634895D-04  0.49298040133495D-04  0.50794244776748D-04  0.52333772962618D-04  0.53913519642401D-04  0.55530050104290D-04  0.57179595787725D-04
 0.67747500000000D+02  0.42306258004133D-04  0.43531277846304D-04  0.44815735012599D-04  0.46158430367633D-04  0.47557848834701D-04  0.49012149002269D-04  0.50519151336133D-04  0.52076325786175D-04  0.53680779866587D-04  0.55329248503203D-04
 0.67872500000000D+02  0.41023513028421D-04  0.42158089128061D-04  0.43357055361745D-04  0.44619942400036D-04  0.45945958332837D-04  0.47333976653846D-04  0.48782522342378D-04  0.50289756545629D-04  0.51853460674745D-04  0.53471020983737D-04
 0.67997500000000D+02  0.39998150899132D-04  0.41029572206122D-04  0.42128258745469D-04  0.43294492374563D-04  0.44528238790663D-04  0.45829134440591D-04  0.47196471199326D-04  0.48629179015779D-04  0.50125807034892D-04  0.51684503980754D-04
 0.68122500000000D+02  0.39268225042008D-04  0.40188875783314D-04  0.41177494617452D-04  0.42235096696027D-04  0.43362399573440D-04  0.44559809647518D-04  0.45827406254967D-04  0.47164923311646D-04  0.48571728679998D-04  0.50046801720804D-04
 0.68247500000000D+02  0.38859341852438D-04  0.39666952754832D-04  0.40541075807358D-04  0.41483404833344D-04  0.42495365169279D-04  0.43578100206859D-04  0.44732455715659D-04  0.45958961542470D-04  0.47257810538971D-04  0.48628834822968D-04
 0.68372500000000D+02  0.38783711146420D-04  0.39481342181482D-04  0.40241987027850D-04  0.41067931260626D-04  0.41961229594647D-04  0.42923692978384D-04  0.43956873838533D-04  0.45062048813003D-04  0.46240198511990D-04  0.47491984059362D-04
 0.68497500000000D+02  0.39039848912341D-04  0.39635616753399D-04  0.40289066674468D-04  0.41002962475832D-04  0.41779880991396D-04  0.42622200019648D-04  0.43532084993209D-04  0.44511473523850D-04  0.45562057094291D-04  0.46685259322584D-04
 0.68622500000000D+02  0.39612920669458D-04  0.40119494607096D-04  0.40676872642159D-04  0.41288163119746D-04  0.41956335242890D-04  0.42684207970675D-04  0.43474438404673D-04  0.44329508673810D-04  0.45251710386229D-04  0.46243125801327D-04
 0.68747500000000D+02  0.40475678127244D-04  0.40909576330958D-04  0.41386202116847D-04  0.41908861487845D-04  0.42480770672491D-04  0.43105046015140D-04  0.43784694194713D-04  0.44522601736097D-04  0.45321522758551D-04  0.46184063915318D-04
 0.68872500000000D+02  0.41589912312934D-04  0.41970637389249D-04  0.42385203291258D-04  0.42836960914989D-04  0.43329219863801D-04  0.43865239301024D-04  0.44448219995439D-04  0.45081296555004D-04  0.45767528749321D-04  0.46509890757760D-04
 0.68997500000000D+02  0.42908323888848D-04  0.43257383597809D-04  0.43630994170834D-04  0.44032400305778D-04  0.44464850597243D-04  0.44931589283073D-04  0.45435850023845D-04  0.45980850810811D-04  0.46569788933487D-04  0.47205834806259D-04
 0.69122500000000D+02  0.44376697174570D-04  0.44716562412260D-04  0.45071688464895D-04  0.45445071813652D-04  0.45839752520163D-04  0.46258806733721D-04  0.46705342016381D-04  0.47182494742896D-04  0.47693428605554D-04  0.48241333060036D-04
 0.69247500000000D+02  0.45936259048667D-04  0.46289315139983D-04  0.46648719188550D-04  0.47017093163407D-04  0.47397135015421D-04  0.47791611708287D-04  0.48203355770791D-04  0.48635264847680D-04  0.49090303444226D-04  0.49571505810063D-04
 0.69372500000000D+02  0.47526107800651D-04  0.47913655023877D-04  0.48299346768186D-04  0.48685325167816D-04  0.49073832345887D-04  0.49467203619149D-04  0.49867864813073D-04  0.50278333444330D-04  0.50701223199498D-04  0.51139250841055D-04
 0.69497500000000D+02  0.49085608996767D-04  0.49526963194505D-04  0.49959240412251D-04  0.50384021990235D-04  0.50803004548551D-04  0.51217992956151D-04  0.51630897844779D-04  0.52043737761569D-04  0.52458645692248D-04  0.52877879349360D-04
 0.69622500000000D+02  0.50556672275236D-04  0.51068406935539D-04  0.51565028906032D-04  0.52047503594891D-04  0.52516918730036D-04  0.52974476742629D-04  0.53421491936344D-04  0.53859392916990D-04  0.54289730375768D-04  0.54714189951345D-04
 0.69747500000000D+02  0.51885840995073D-04  0.52481200170702D-04  0.53056729053178D-04  0.53612747674365D-04  0.54149698325013D-04  0.54668137211407D-04  0.55168730912059D-04  0.55652258505387D-04  0.56119619852839D-04  0.56571850133583D-04
 0.69872500000000D+02  0.53026143497259D-04  0.53714642693540D-04  0.54379975623427D-04  0.55021812090367D-04  0.55639938664683D-04  0.56234249790300D-04  0.56804743449334D-04  0.57351522626736D-04  0.57874803441607D-04  0.58374930418518D-04
 0.69997500000000D+02  0.53938668963456D-04  0.54725890208884D-04  0.55487992921370D-04  0.56224014889108D-04  0.56933101690129D-04  0.57614497752333D-04  0.58267541445022D-04  0.58891665752927D-04  0.59486405739815D-04  0.60051413632444D-04
 0.70122500000000D+02  0.54593840295705D-04  0.55481417912228D-04  0.56343259338703D-04  0.57177809831197D-04  0.57983611868680D-04  0.58759296900312D-04  0.59503580305833D-04  0.60215261345555D-04  0.60893229587653D-04  0.61536478964969D-04
 0.70247500000000D+02  0.54972359199125D-04  0.55958142927561D-04  0.56918818090172D-04  0.57852295820058D-04  0.58756573841790D-04  0.59629729743639D-04  0.60469916386444D-04  0.61275361359559D-04  0.62044372180556D-04  0.62775348659035D-04
 0.70372500000000D+02  0.55065795909107D-04  0.56144166622646D-04  0.57199181410220D-04  0.58228291398599D-04  0.59229024621456D-04  0.60198981667194D-04  0.61135832198802D-04  0.62037314290664D-04  0.62901238401771D-04  0.63725497600139D-04
 0.70497500000000D+02  0.54876787315710D-04  0.56039087345428D-04  0.57180764312350D-04  0.58298895201310D-04  0.59390625729992D-04  0.60453169167606D-04  0.61483804650353D-04  0.62479876865686D-04  0.63438798950079D-04  0.64358060323281D-04
 0.70622500000000D+02  0.54418788235437D-04  0.55653817037597D-04  0.56871770987505D-04  0.58069446420286D-04  0.59243701959565D-04  0.60391461156404D-04  0.61509713213091D-04  0.62595513485322D-04  0.63645985536049D-04  0.64658326486590D-04
 0.70747500000000D+02  0.53715310169109D-04  0.55009835121681D-04  0.56291468440482D-04  0.57556823076827D-04  0.58802569440125D-04  0.60025442269239D-04  0.61222244223339D-04  0.62389847615771D-04  0.63525195905497D-04  0.64625306635311D-04
 0.70872500000000D+02  0.52798621370810D-04  0.54137865070203D-04  0.55468845069862D-04  0.56788088433299D-04  0.58092176052727D-04  0.59377753891392D-04  0.60641539722739D-04  0.61880326446878D-04  0.63090983363235D-04  0.64270456958055D-04
 0.70997500000000D+02  0.51707960595421D-04  0.53076040137196D-04  0.54440734101470D-04  0.55798578416101D-04  0.57146159893625D-04  0.58480131717754D-04  0.59797223436820D-04  0.61094246148536D-04  0.62368093953959D-04  0.63615743039535D-04
 0.71122500000000D+02  0.50487375244732D-04  0.51867681073864D-04  0.53249537626836D-04  0.54629579939179D-04  0.56004491251469D-04  0.57371022344608D-04  0.58726004694539D-04  0.60066357706238D-04  0.61389090754279D-04  0.62691301127759D-04
 0.71247500000000D+02  0.49183332452173D-04  0.50558852143780D-04  0.51940737090619D-04  0.53325806799261D-04  0.54710926259397D-04  0.56093028446048D-04  0.57469130305234D-04  0.58836342056034D-04  0.60191870154333D-04  0.61533014702869D-04
 0.71372500000000D+02  0.47842308182826D-04  0.49195922550683D-04  0.50560438559708D-04  0.51932941062326D-04  0.53310557349472D-04  0.54690481850833D-04  0.56069994357014D-04  0.57446471190800D-04  0.58817389279058D-04  0.60180323558467D-04
 0.71497500000000D+02  0.46508609463991D-04  0.47823401112381D-04  0.49153230056612D-04  0.50495523150172D-04  0.51847745983368D-04  0.53207428541691D-04  0.54572184788155D-04  0.55939725236948D-04  0.57307862091109D-04  0.58674507012318D-04
 0.71622500000000D+02  0.45222675769641D-04  0.46482286773090D-04  0.47760586972241D-04  0.49055417075865D-04  0.50364651705153D-04  0.51686224531122D-04  0.53018148069445D-04  0.54358526916153D-04  0.55705563665595D-04  0.57057557229852D-04
 0.71747500000000D+02  0.44020031479116D-04  0.45209090346637D-04  0.46419962379413D-04  0.47650967225717D-04  0.48900451867160D-04  0.50166813609550D-04  0.51448518761569D-04  0.52744115602334D-04  0.54052240621465D-04  0.55371617440971D-04
 0.71872500000000D+02  0.42930945768168D-04  0.44035559181047D-04  0.45164568403054D-04  0.46316826879642D-04  0.47491206403435D-04  0.48686616362695D-04  0.49902019960867D-04  0.51136445938547D-04  0.52388994610933D-04  0.53658837374039D-04
 0.71997500000000D+02  0.41980723289072D-04  0.42989000994706D-04  0.44023718947408D-04  0.45084304751853D-04  0.46170192622639D-04  0.47280837524985D-04  0.48415727749225D-04  0.49574394493058D-04  0.50756417187273D-04  0.51961423527760D-04
 0.72122500000000D+02  0.41190426002714D-04  0.42092986035872D-04  0.43023495372039D-04  0.43981977788573D-04  0.44968449469391D-04  0.45982927056349D-04  0.47025435670927D-04  0.48096015628054D-04  0.49194726595033D-04  0.50321648043284D-04
 0.72247500000000D+02  0.40577745918586D-04  0.41368139896821D-04  0.42187444875694D-04  0.43036282189595D-04  0.43915249974414D-04  0.44824924610593D-04  0.45765863618615D-04  0.46738608968963D-04  0.47743689667929D-04  0.48781622434377D-04
 0.72372500000000D+02  0.40157733957196D-04  0.40832741118786D-04  0.41537038748476D-04  0.42271826432628D-04  0.43038265331301D-04  0.43837472957731D-04  0.44670520700614D-04  0.45538433365927D-04  0.46442189792354D-04  0.47382723410596D-04
 0.72497500000000D+02  0.39943144700195D-04  0.40502905192206D-04  0.41091696064826D-04  0.41711257311829D-04  0.42363277875082D-04  0.43049384103205D-04  0.43771131923102D-04  0.44530002370536D-04  0.45327399801871D-04  0.46164651803450D-04
 0.72622500000000D+02  0.39944263599773D-04  0.40392249209819D-04  0.40868294473261D-04  0.41374627126353D-04  0.41913416096183D-04  0.42486754278706D-04  0.43096645581479D-04  0.43744996280230D-04  0.44433610342475D-04  0.45164187969564D-04
 0.72747500000000D+02  0.40168213125874D-04  0.40511058920945D-04  0.40880212640198D-04  0.41278326541020D-04  0.41707993076104D-04  0.42171722833375D-04  0.42671926821082D-04  0.43210903559134D-04  0.43790831005706D-04  0.44413762883018D-04
 0.72872500000000D+02  0.40617854453866D-04  0.40865090743058D-04  0.41136049188522D-04  0.41433736578296D-04  0.41761106872064D-04  0.42121035275573D-04  0.42516296262350D-04  0.42949546396878D-04  0.43423312385260D-04  0.43939984289609D-04
 0.72997500000000D+02  0.41290483280206D-04  0.41454210351407D-04  0.41638219067965D-04  0.41845796548351D-04  0.42080192379013D-04  0.42344589873488D-04  0.42642080440652D-04  0.42975642264517D-04  0.43348124115637D-04  0.43762234641432D-04
 0.73122500000000D+02  0.42176544378577D-04  0.42271082706357D-04  0.42381629503072D-04  0.42511674761880D-04  0.42664694015916D-04  0.42844117894942D-04  0.43053303600520D-04  0.43295509782636D-04  0.43573876002564D-04  0.43891407550246D-04
 0.73247500000000D+02  0.43258560971452D-04  0.43300091817428D-04  0.43352594791215D-04  0.43419681646079D-04  0.43504979288876D-04  0.43612098851960D-04  0.43744605264325D-04  0.43905988991680D-04  0.44099641430901D-04  0.44328835117225D-04
 0.73372500000000D+02  0.44510427607310D-04  0.44516624300651D-04  0.44528110951551D-04  0.44548535545419D-04  0.44581595824797D-04  0.44631009234906D-04  0.44700481840921D-04  0.44793677952452D-04  0.44914192141272D-04  0.45065525129308D-04
 0.73497500000000D+02  0.45897205567028D-04  0.45886854116914D-04  0.45875628752109D-04  0.45867123627222D-04  0.45865020612504D-04  0.45873061555948D-04  0.45895017977872D-04  0.45934659863794D-04  0.45995725320749D-04  0.46081892794821D-04
 0.73622500000000D+02  0.47375582892924D-04  0.47368194090533D-04  0.47353494272544D-04  0.47334929831507D-04  0.47316074444011D-04  0.47300605050197D-04  0.47292273803107D-04  0.47294877454639D-04  0.47312225897216D-04  0.47348111669032D-04
 0.73747500000000D+02  0.48895118789733D-04  0.48910526427406D-04  0.48912159584458D-04  0.48903220312625D-04  0.48887077179549D-04  0.48867246216252D-04  0.48847366545962D-04  0.48831171851128D-04  0.48822459231562D-04  0.48825057252503D-04
 0.73872500000000D+02  0.50400243724780D-04  0.50458169769091D-04  0.50496106958858D-04  0.50516915588048D-04  0.50523659229013D-04  0.50519591697618D-04  0.50508137682326D-04  0.50492867795049D-04  0.50477469318657D-04  0.50465714316757D-04
 0.73997500000000D+02  0.51832836542068D-04  0.51952401143427D-04  0.52046303364703D-04  0.52116966109156D-04  0.52167047637872D-04  0.52199435380447D-04  0.52217232739081D-04  0.52223739180778D-04  0.52222424516749D-04  0.52216898780938D-04
 0.74122500000000D+02  0.53135133687298D-04  0.53334296932323D-04  0.53502959282834D-04  0.53643016026782D-04  0.53756623026359D-04  0.53846197955284D-04  0.53914414252091D-04  0.53964187586679D-04  0.53998655288329D-04  0.54021149786700D-04
 0.74247500000000D+02  0.54252713583194D-04  0.54547649212187D-04  0.54808362095334D-04  0.55036139759122D-04  0.55232546590459D-04  0.55399432801054D-04  0.55538936243043D-04  0.55653476374673D-04  0.55745740327516D-04  0.55818661681985D-04
 0.74372500000000D+02  0.55137309320736D-04  0.55541726969571D-04  0.55909570573021D-04  0.56241455333792D-04  0.56538278787910D-04  0.56801237483118D-04  0.57031837053503D-04  0.57231894523203D-04  0.57403532280837D-04  0.57549163830584D-04
 0.74497500000000D+02  0.55749244118331D-04  0.56273695176421D-04  0.56760802440952D-04  0.57210465724120D-04  0.57622860241933D-04  0.57998460649993D-04  0.58338059407723D-04  0.58642777900909D-04  0.58914069274909D-04  0.59153712559453D-04
 0.74622500000000D+02  0.56059351982858D-04  0.56710570956006D-04  0.57325411521635D-04  0.57903042272676D-04  0.58442886736886D-04  0.58944654041668D-04  0.59408365185979D-04  0.59834373035272D-04  0.60223374555412D-04  0.60576414351574D-04
 0.74747500000000D+02  0.56050319978240D-04  0.56830664762238D-04  0.57577414633467D-04  0.58289023230050D-04  0.58964164623631D-04  0.59601769491065D-04  0.60201058459499D-04  0.60761570536601D-04  0.61283184788315D-04  0.61766133859778D-04
 0.74872500000000D+02  0.55717451721169D-04  0.56624509577372D-04  0.57502575563512D-04  0.58349439878941D-04  0.59163064974769D-04  0.59941625713262D-04  0.60683548476327D-04  0.61387547055678D-04  0.62052653242201D-04  0.62678240318129D-04
 0.74997500000000D+02  0.55068891697667D-04  0.56095310670954D-04  0.57099072694224D-04  0.58077392003820D-04  0.59027594588137D-04  0.59947160452343D-04  0.60833766717860D-04  0.61685329443585D-04  0.62500041971268D-04  0.63276407715538D-04
 0.75122500000000D+02  0.54125360377548D-04  0.55258948273784D-04  0.56377766271145D-04  0.57478573829890D-04  0.58558171791062D-04  0.59613444588834D-04  0.60641405172840D-04  0.61639240715847D-04  0.62604356937090D-04  0.63534418813103D-04
 0.75247500000000D+02  0.52919436846892D-04  0.54143544567097D-04  0.55362052639224D-04  0.56571415346261D-04  0.57768051566199D-04  0.58948384646278D-04  0.60108886716754D-04  0.61246125831277D-04  0.62356813937860D-04  0.63437853454657D-04
 0.75372500000000D+02  0.51494405427158D-04  0.52788583499009D-04  0.54087266876269D-04  0.55386774718616D-04  0.56683311802390D-04  0.57973003834201D-04  0.59251938651704D-04  0.60516212110529D-04  0.61761976969938D-04  0.62985492708551D-04
 0.75497500000000D+02  0.49902674289763D-04  0.51243566397882D-04  0.52599591828223D-04  0.53967115303749D-04  0.55342310582920D-04  0.56721189252830D-04  0.58099636459377D-04  0.59473452850960D-04  0.60838401466027D-04  0.62190257795883D-04
 0.75622500000000D+02  0.48203788534631D-04  0.49566207454357D-04  0.50954458099847D-04  0.52365131336721D-04  0.53794557373852D-04  0.55238826507878D-04  0.56693817383332D-04  0.58155232546162D-04  0.59618640509765D-04  0.61079522979310D-04
 0.75747500000000D+02  0.46462091808361D-04  0.47820211239499D-04  0.49214462930756D-04  0.50641833608347D-04  0.52098990532956D-04  0.53582293211380D-04  0.55087812710159D-04  0.56611358831730D-04  0.58148514887138D-04  0.59694679198591D-04
 0.75872500000000D+02  0.44744117836524D-04  0.46072706051909D-04  0.47446871680488D-04  0.48864146248911D-04  0.50321697146950D-04  0.51816329907755D-04  0.53344497708023D-04  0.54902318777578D-04  0.56485601950842D-04  0.58089880009436D-04
 0.75997500000000D+02  0.43115806567928D-04  0.44391426079493D-04  0.45720791830212D-04  0.47102099947508D-04  0.48533154262732D-04  0.50011359327068D-04  0.51533719848547D-04  0.53096847591267D-04  0.54696976418453D-04  0.56329985634307D-04
 0.76122500000000D+02  0.41639661020470D-04  0.42841765750783D-04  0.44104149200475D-04  0.45425756312582D-04  0.46805129458603D-04  0.48240392878736D-04  0.49729242394905D-04  0.51268941697886D-04  0.52856326267704D-04  0.54487815547857D-04
 0.76247500000000D+02  0.40371999783676D-04  0.41483873387012D-04  0.42660643623189D-04  0.43902048481359D-04  0.45207431257000D-04  0.46575717591212D-04  0.48005396362925D-04  0.49494505893778D-04  0.51040626813045D-04  0.52640882604658D-04
 0.76372500000000D+02  0.39360479344506D-04  0.40369968570331D-04  0.41446876478396D-04  0.42591736300901D-04  0.43804711746398D-04  0.45085568252922D-04  0.46433646494677D-04  0.47847839648518D-04  0.49326575949284D-04  0.50867807870255D-04
 0.76497500000000D+02  0.38642035752457D-04  0.39542043190476D-04  0.40509819597704D-04  0.41546654271811D-04  0.42653507503571D-04  0.43830978001820D-04  0.45079270905910D-04  0.46398167820091D-04  0.47787000458391D-04  0.49244629439360D-04
 0.76622500000000D+02  0.38241354510169D-04  0.39030070466975D-04  0.39884765133193D-04  0.40807406643324D-04  0.41799687118494D-04  0.42862988407158D-04  0.43998346810099D-04  0.45206418038126D-04  0.46487443920630D-04  0.47841222476738D-04
 0.76747500000000D+02  0.38169942640305D-04  0.38850813305846D-04  0.39593865264982D-04  0.40401635701479D-04  0.41276447757381D-04  0.42220376729536D-04  0.43235213835110D-04  0.44322428513543D-04  0.45483130590485D-04  0.46718033850544D-04
 0.76872500000000D+02  0.38425839046162D-04  0.39007282883892D-04  0.39645328282854D-04  0.40342946077966D-04  0.41102960231142D-04  0.41928016449178D-04  0.42820547237325D-04  0.43782734012581D-04  0.44816467311790D-04  0.45923306451798D-04
 0.76997500000000D+02  0.38993957337181D-04  0.39488852970071D-04  0.40033289321957D-04  0.40630517591753D-04  0.41283710682543D-04  0.41995935924957D-04  0.42770123434460D-04  0.43609030356443D-04  0.44515201680644D-04  0.45490928695679D-04
 0.77122500000000D+02  0.39847017279840D-04  0.40271994696781D-04  0.40738330276809D-04  0.41249392455344D-04  0.41808537708977D-04  0.42419088749067D-04  0.43084307890532D-04  0.43807365482375D-04  0.44591303698429D-04  0.45438996408753D-04
 0.77247500000000D+02  0.40946989806268D-04  0.41321563694782D-04  0.41728588607285D-04  0.42171385431163D-04  0.42653323745756D-04  0.43177806525269D-04  0.43748249895549D-04  0.44368057485869D-04  0.45040589286675D-04  0.45769125347942D-04
 0.77372500000000D+02  0.42246956850418D-04  0.42592547557681D-04  0.42961370299159D-04  0.43356540148067D-04  0.43781272670546D-04  0.44238875830413D-04  0.44732737158993D-04  0.45266305419610D-04  0.45843066303124D-04  0.46466512088561D-04
 0.77497500000000D+02  0.43693272234138D-04  0.44032166174300D-04  0.44385166682066D-04  0.44755039108339D-04  0.45144689543151D-04  0.45557164213889D-04  0.45995644690547D-04  0.46463437861783D-04  0.46963959872076D-04  0.47500713556942D-04
 0.77622500000000D+02  0.45227903752292D-04  0.45582209398988D-04  0.45941965358468D-04  0.46309464626285D-04  0.46687167645662D-04  0.47077709025298D-04  0.47483900925676D-04  0.47908731873695D-04  0.48355359898364D-04  0.48827099153420D-04
 0.77747500000000D+02  0.46790839740020D-04  0.47181495673357D-04  0.47569741182842D-04  0.47957300846436D-04  0.48346078859650D-04  0.48738172406477D-04  0.49135882844348D-04  0.49541723340057D-04  0.49958421625072D-04  0.50388916720308D-04
 0.77872500000000D+02  0.48322455147824D-04  0.48768341799710D-04  0.49205014667296D-04  0.49633563552430D-04  0.50055255637040D-04  0.50471554400568D-04  0.50884137716878D-04  0.51294913742335D-04  0.51706033135744D-04  0.52119896229174D-04
 0.77997500000000D+02  0.49765749742571D-04  0.50282946849848D-04  0.50785372553110D-04  0.51273446044125D-04  0.51747748505887D-04  0.52209046172381D-04  0.52658314068809D-04  0.53096759122174D-04  0.53525841163264D-04  0.53947290310034D-04
 0.78122500000000D+02  0.51068390457534D-04  0.51669609608763D-04  0.52251857784524D-04  0.52814877085535D-04  0.53358545303200D-04  0.53882901622723D-04  0.54388174548715D-04  0.54874810913191D-04  0.55343504567062D-04  0.55795223215293D-04
 0.78247500000000D+02  0.52184508109818D-04  0.52878716661146D-04  0.53551152476305D-04  0.54200900933891D-04  0.54827148887722D-04  0.55429211615848D-04  0.56006563472300D-04  0.56558871334742D-04  0.57086029604154D-04  0.57588195268977D-04
 0.78372500000000D+02  0.53076214100753D-04  0.53868455051832D-04  0.54637495051912D-04  0.55381806835492D-04  0.56099925931613D-04  0.56790477679719D-04  0.57452209255837D-04  0.58084026065755D-04  0.58685031465070D-04  0.59254568437052D-04
 0.78497500000000D+02  0.53714813514111D-04  0.54606215979464D-04  0.55474286386416D-04  0.56316949204078D-04  0.57132152058962D-04  0.57917891869432D-04  0.58672247023136D-04  0.59393415224813D-04  0.60079756211137D-04  0.60729838139659D-04
 0.78622500000000D+02  0.54081695241296D-04  0.55069660725015D-04  0.56035344469046D-04  0.56976203585403D-04  0.57889680898907D-04  0.58773229443696D-04  0.59624343694442D-04  0.60440597425848D-04  0.61219687656325D-04  0.61959483706054D-04
 0.78747500000000D+02  0.54168878064453D-04  0.55247417312717D-04  0.56305763167379D-04  0.57340998411695D-04  0.58350158798249D-04  0.59330255326047D-04  0.60278303580876D-04  0.61191360281724D-04  0.62066566754402D-04  0.62901198613553D-04
 0.78872500000000D+02  0.53979184620748D-04  0.55139367609445D-04  0.56282320868710D-04  0.57404853026082D-04  0.58503699454257D-04  0.59575541932194D-04  0.60617035334523D-04  0.61624841707738D-04  0.62595671705586D-04  0.63526332924156D-04
 0.78997500000000D+02  0.53525997624435D-04  0.54756467567997D-04  0.55973370353421D-04  0.57173342819631D-04  0.58352930027437D-04  0.59508602077554D-04  0.60636777564980D-04  0.61733854198917D-04  0.62796246785311D-04  0.63820432369414D-04
 0.79122500000000D+02  0.52832535528771D-04  0.54120034684135D-04  0.55398142972528D-04  0.56663425658849D-04  0.57912345936845D-04  0.59141278802250D-04  0.60346530838826D-04  0.61524366571240D-04  0.62671041775902D-04  0.63782843795452D-04
 0.79247500000000D+02  0.51930610295213D-04  0.53260475836622D-04  0.54585452066703D-04  0.55902127118763D-04  0.57206984848657D-04  0.58496415767665D-04  0.59766732889263D-04  0.61014193225866D-04  0.62235025486922D-04  0.63425464254963D-04
 0.79372500000000D+02  0.50858904974694D-04  0.52215508947206D-04  0.53571864174360D-04  0.54924667563061D-04  0.56270516951346D-04  0.57605919227291D-04  0.58927302161459D-04  0.60231030730804D-04  0.61513428607726D-04  0.62770805293973D-04
 0.79497500000000D+02  0.49660874813758D-04  0.51027995068907D-04  0.52399467809393D-04  0.53772174732237D-04  0.55142910113593D-04  0.56508386354856D-04  0.57865241917681D-04  0.59210052431071D-04  0.60539345727028D-04  0.61849621451104D-04
 0.79622500000000D+02  0.48382412022339D-04  0.49743537344180D-04  0.51113414445528D-04  0.52489176313514D-04  0.53867885411581D-04  0.55246536960342D-04  0.56622063238071D-04  0.57991339657392D-04  0.59351193417483D-04  0.60698415500665D-04
 0.79747500000000D+02  0.47069463196095D-04  0.48408058102756D-04  0.49759465274568D-04  0.51121127519900D-04  0.52490437832578D-04  0.53864740724736D-04  0.55241333244551D-04  0.56617466378867D-04  0.57990347641491D-04  0.59357145688432D-04
 0.79872500000000D+02  0.45765843066627D-04  0.47065613649489D-04  0.48381816293626D-04  0.49712255943653D-04  0.51054710547227D-04  0.52406930713004D-04  0.53766637820717D-04  0.55131521198816D-04  0.56499235133866D-04  0.57867396577664D-04
 0.79997500000000D+02  0.44511493205826D-04  0.45756695215250D-04  0.47021446772247D-04  0.48303962159690D-04  0.49602451627807D-04  0.50915119549547D-04  0.52240159956188D-04  0.53575749965559D-04  0.54920041804093D-04  0.56271154275584D-04
 0.80122500000000D+02  0.43341371562673D-04  0.44517187345588D-04  0.45715145594754D-04  0.46933911811196D-04  0.48172168392079D-04  0.49428611334794D-04  0.50701943476952D-04  0.51990864675924D-04  0.53294059550288D-04  0.54610183591609D-04
 0.80247500000000D+02  0.42285049313419D-04  0.43378036291055D-04  0.44495243091936D-04  0.45635821160480D-04  0.46798955517522D-04  0.47983860003671D-04  0.49189768510693D-04  0.50415922495653D-04  0.51661555307450D-04  0.52925874057450D-04
 0.80372500000000D+02  0.41366960442162D-04  0.42365546042618D-04  0.43389938967534D-04  0.44439801138831D-04  0.45514838635452D-04  0.46614795511579D-04  0.47739443395690D-04  0.48888567055255D-04  0.50061946348007D-04  0.51259335181129D-04
 0.80497500000000D+02  0.40607122962724D-04  0.41502097136058D-04  0.42424000883397D-04  0.43373017803919D-04  0.44349379073858D-04  0.45353356000060D-04  0.46385248491939D-04  0.47445369524848D-04  0.48534025890559D-04  0.49651495713515D-04
 0.80622500000000D+02  0.40022060413063D-04  0.40807005533302D-04  0.41619544513940D-04  0.42460378435781D-04  0.43330252215973D-04  0.44229946203115D-04  0.45160264137975D-04  0.46122017439964D-04  0.47116005975112D-04  0.48142995613813D-04
 0.80747500000000D+02  0.39625624587045D-04  0.40297227739054D-04  0.40996610878275D-04  0.41724972762661D-04  0.42483546182817D-04  0.43273589011076D-04  0.44096372305350D-04  0.44953165316311D-04  0.45845217403969D-04  0.46773736983315D-04
 0.80872500000000D+02  0.39429463070083D-04  0.39987675218726D-04  0.40573326148848D-04  0.41188078650262D-04  0.41833615677615D-04  0.42511631282439D-04  0.43223819442887D-04  0.43971860534879D-04  0.44757405301053D-04  0.45582056245086D-04
 0.80997500000000D+02  0.39442974742314D-04  0.39891008538459D-04  0.40365541824585D-04  0.40868657174206D-04  0.41402441913601D-04  0.41968979272893D-04  0.42570338341341D-04  0.43208562481082D-04  0.43885655918717D-04  0.44603568263359D-04
 0.81122500000000D+02  0.39672725452385D-04  0.40016910113823D-04  0.40385978715829D-04  0.40782382510516D-04  0.41208563142971D-04  0.41666944177946D-04  0.42159922324442D-04  0.42689857946605D-04  0.43259064467397D-04  0.43869796261753D-04
 0.81247500000000D+02  0.40121421425633D-04  0.40370951684556D-04  0.40643005799352D-04  0.40940348958060D-04  0.41265725726882D-04  0.41621851891425D-04  0.42011406817645D-04  0.42437025884342D-04  0.42901292512862D-04  0.43406729275933D-04
 0.81372500000000D+02  0.40786629492618D-04  0.40953251470684D-04  0.41139250875881D-04  0.41347650361235D-04  0.41581446013391D-04  0.41843599236515D-04  0.42137029863475D-04  0.42464610043669D-04  0.42829158391760D-04  0.43233433810809D-04
 0.81497500000000D+02  0.41659470317430D-04  0.41757139716572D-04  0.41870251043177D-04  0.42002026411745D-04  0.42155661514550D-04  0.42334317121828D-04  0.42541112384136D-04  0.42779119523067D-04  0.43051359398757D-04  0.43360797350065D-04
 0.81622500000000D+02  0.42723490791779D-04  0.42768021879227D-04  0.42823313634108D-04  0.42892726729402D-04  0.42979602014645D-04  0.43087251178154D-04  0.43218949658551D-04  0.43377931466310D-04  0.43567385449618D-04  0.43790452426170D-04
 0.81747500000000D+02  0.43953873888133D-04  0.43962581400004D-04  0.43976714115116D-04  0.43999705439612D-04  0.44034981975137D-04  0.44085953014111D-04  0.44156002604884D-04  0.44248483946806D-04  0.44366715723722D-04  0.44513979852609D-04
 0.81872500000000D+02  0.45317124472836D-04  0.45308455793979D-04  0.45299362592750D-04  0.45293278712112D-04  0.45293650392605D-04  0.45303924478476D-04  0.45327539364120D-04  0.45367918550934D-04  0.45428466515534D-04  0.45512566443492D-04
 0.81997500000000D+02  0.46771391042930D-04  0.46764549197618D-04  0.46751105998005D-04  0.46734416329364D-04  0.46717872368839D-04  0.46704890577698D-04  0.46698901422078D-04  0.46703341807968D-04  0.46721650041126D-04  0.46757262967465D-04
 0.82122500000000D+02  0.48267560825806D-04  0.48282113584864D-04  0.48283791049124D-04  0.48275782852963D-04  0.48261345594004D-04  0.48243788855811D-04  0.48226463753686D-04  0.48212754110448D-04  0.48206070199961D-04  0.48209844839061D-04
 0.82247500000000D+02  0.49751133496280D-04  0.49806590081107D-04  0.49843064762373D-04  0.49863489796817D-04  0.49870897423572D-04  0.49868405336254D-04  0.49859204294615D-04  0.49846548104719D-04  0.49833746043312D-04  0.49824157648489D-04
 0.82372500000000D+02  0.51164719044831D-04  0.51280050627460D-04  0.51370748553477D-04  0.51439391911770D-04  0.51488694227775D-04  0.51521489000909D-04  0.51540716848362D-04  0.51549414597832D-04  0.51550706542112D-04  0.51547797924710D-04
 0.82497500000000D+02  0.52450922493269D-04  0.52644010844413D-04  0.52807565744776D-04  0.52943717174264D-04  0.53054763130542D-04  0.53143156043046D-04  0.53211490143759D-04  0.53262490232457D-04  0.53299002174436D-04  0.53323985341926D-04
 0.82622500000000D+02  0.53555359268058D-04  0.53842371692063D-04  0.54095994275061D-04  0.54317816771605D-04  0.54509627047759D-04  0.54673399336676D-04  0.54811282725217D-04  0.54925590378033D-04  0.55018789940005D-04  0.55093495455238D-04
 0.82747500000000D+02  0.54429548526360D-04  0.54824254104914D-04  0.55183026297839D-04  0.55506834632083D-04  0.55796870533223D-04  0.56054538466251D-04  0.56281446556872D-04  0.56479397236017D-04  0.56650378420637D-04  0.56796555671066D-04
 0.82872500000000D+02  0.55033462826824D-04  0.55546524710488D-04  0.56022653034178D-04  0.56462135368268D-04  0.56865495805338D-04  0.57233490004943D-04  0.57567099006199D-04  0.57867522350575D-04  0.58136171062665D-04  0.58374660997374D-04
 0.82997500000000D+02  0.55337573320813D-04  0.55975870494454D-04  0.56577952021050D-04  0.57143387414680D-04  0.57671985530068D-04  0.58163794375630D-04  0.58619099089900D-04  0.59038418585237D-04  0.59422501399939D-04  0.59772321294349D-04
 0.83122500000000D+02  0.55324301567616D-04  0.56090346920200D-04  0.56822715663757D-04  0.57520255447703D-04  0.58182042174513D-04  0.58807385145572D-04  0.59395829944798D-04  0.59947159489590D-04  0.60461393742640D-04  0.60938788603365D-04
 0.83247500000000D+02  0.54988854986447D-04  0.55880381220607D-04  0.56742608887851D-04  0.57573697171279D-04  0.58372007313695D-04  0.59136113223661D-04  0.59864809630758D-04  0.60557118117468D-04  0.61212291438688D-04  0.61829816589773D-04
 0.83372500000000D+02  0.54339470581988D-04  0.55349248704982D-04  0.56335868573363D-04  0.57296873642928D-04  0.58229968158836D-04  0.59133032816823D-04  0.60004138053422D-04  0.60841555176075D-04  0.61643765639213D-04  0.62409468838163D-04
 0.83497500000000D+02  0.53397113684878D-04  0.54513049959433D-04  0.55613555532969D-04  0.56695668809258D-04  0.57756534091181D-04  0.58793421343745D-04  0.59803743925503D-04  0.60785074385354D-04  0.61735158520688D-04  0.62651927964542D-04
 0.83622500000000D+02  0.52194678274610D-04  0.53400207397716D-04  0.54599350867432D-04  0.55788785483280D-04  0.56965228302352D-04  0.58125459088495D-04  0.59266341275827D-04  0.60384841448090D-04  0.61478047432074D-04  0.62543185172436D-04
 0.83747500000000D+02  0.50775725965638D-04  0.52050486559191D-04  0.53328871115897D-04  0.54607362595561D-04  0.55882411826246D-04  0.57150460939966D-04  0.58407965987988D-04  0.59651418668967D-04  0.60877367195222D-04  0.62082436384009D-04
 0.83872500000000D+02  0.49192797480631D-04  0.50513547559437D-04  0.51848478666128D-04  0.53194061330539D-04  0.54546659452874D-04  0.55902552965664D-04  0.57257960363623D-04  0.58609060992043D-04  0.59952017073250D-04  0.61282995504631D-04
 0.83997500000000D+02  0.47505343161124D-04  0.48847053376021D-04  0.50213592268234D-04  0.51601601452015D-04  0.53007543990271D-04  0.54427724666115D-04  0.55858310758597D-04  0.57295353186457D-04  0.58734807972244D-04  0.60172558028894D-04
 0.84122500000000D+02  0.45777343358267D-04  0.47114395380441D-04  0.48486544505536D-04  0.49890777867329D-04  0.51323838949685D-04  0.52782244127463D-04  0.54262300260839D-04  0.55760123183360D-04  0.57271657013045D-04  0.58792694264252D-04
 0.84247500000000D+02  0.44074706942019D-04  0.45382120737307D-04  0.46734064272601D-04  0.48128025653945D-04  0.49561194632433D-04  0.51030474390713D-04  0.52532494843282D-04  0.54063627264358D-04  0.55620000143070D-04  0.57197516211725D-04
 0.84372500000000D+02  0.42462538613399D-04  0.43717155017642D-04  0.45024479015864D-04  0.46382628053159D-04  0.47789379754877D-04  0.49242178221683D-04  0.50738142217217D-04  0.52274075038117D-04  0.53846475931474D-04  0.55451552962359D-04
 0.84497500000000D+02  0.41002376433882D-04  0.42183931578844D-04  0.43424758254534D-04  0.44723698235853D-04  0.46079227364225D-04  0.47489455868187D-04  0.48952130868200D-04  0.50464640847482D-04  0.52024021926989D-04  0.53626965803347D-04
 0.84622500000000D+02  0.39749534280908D-04  0.40841575355489D-04  0.41997557989358D-04  0.43217105236794D-04  0.44499464772467D-04  0.45843503031960D-04  0.47247701715618D-04  0.48710156455780D-04  0.50228577480731D-04  0.51800292106159D-04
 0.84747500000000D+02  0.38750706434498D-04  0.39741307273496D-04  0.40798439595314D-04  0.41922523780280D-04  0.43113612470910D-04  0.44371378670360D-04  0.45695106238214D-04  0.47083682626867D-04  0.48535593713755D-04  0.50048920559284D-04
 0.84872500000000D+02  0.38041974565970D-04  0.38924217254814D-04  0.39873417933974D-04  0.40890768915753D-04  0.41977118911878D-04  0.43132955613955D-04  0.44358390545995D-04  0.45653146088218D-04  0.47016544567852D-04  0.48447499270434D-04
 0.84997500000000D+02  0.37647323031447D-04  0.38419524615194D-04  0.39256969846037D-04  0.40161558206988D-04  0.41134884579535D-04  0.42178217185938D-04  0.43292477538942D-04  0.44478222353156D-04  0.45735627357696D-04  0.47064472898020D-04
 0.85122500000000D+02  0.37577737966347D-04  0.38243417884769D-04  0.38970611084316D-04  0.39761824562985D-04  0.40619312063479D-04  0.41545048509040D-04  0.42540706087314D-04  0.43607631985057D-04  0.44746827750503D-04  0.45958930202460D-04
 0.85247500000000D+02  0.37830930320407D-04  0.38398529312922D-04  0.39022112483611D-04  0.39704666071969D-04  0.40448983660777D-04  0.41257638358138D-04  0.42132956216529D-04  0.43076990939528D-04  0.44091499885550D-04  0.45177921312392D-04
 0.85372500000000D+02  0.38391680421106D-04  0.38874053606110D-04  0.39405378277582D-04  0.39988970374456D-04  0.40628019652481D-04  0.41325560888566D-04  0.42084445880227D-04  0.42907316348438D-04  0.43796577792023D-04  0.44754374264584D-04
 0.85497500000000D+02  0.39232762079016D-04  0.39646477752808D-04  0.40100963778899D-04  0.40599702836781D-04  0.41146120297706D-04  0.41743555713256D-04  0.42395234624335D-04  0.43104240871865D-04  0.43873489512131D-04  0.44705700349884D-04
 0.85622500000000D+02  0.40316372645549D-04  0.40680855011639D-04  0.41077173241895D-04  0.41508808460446D-04  0.41979252265946D-04  0.42491979748905D-04  0.43050422316544D-04  0.43657940589674D-04  0.44317797545691D-04  0.45033131982951D-04
 0.85747500000000D+02  0.41595972530028D-04  0.41932532604831D-04  0.42291654140487D-04  0.42676651256897D-04  0.43090911784706D-04  0.43537873020285D-04  0.44020996748759D-04  0.44543743880724D-04  0.45109548954630D-04  0.45721794656483D-04
 0.85872500000000D+02  0.43018423551841D-04  0.43349228352946D-04  0.43693389624488D-04  0.44053899934233D-04  0.44433880980054D-04  0.44836563191114D-04  0.45265264066432D-04  0.45723365663899D-04  0.46214291564139D-04  0.46741483539639D-04
 0.85997500000000D+02  0.44526309458544D-04  0.44873344024740D-04  0.45224982546228D-04  0.45583759824927D-04  0.45952384563811D-04  0.46333723722812D-04  0.46730785138360D-04  0.47146698869084D-04  0.47584697652534D-04  0.48048096776040D-04
 0.86122500000000D+02  0.46060323816868D-04  0.46444401661631D-04  0.46825120155251D-04  0.47204444598861D-04  0.47584546219292D-04  0.47967791897786D-04  0.48356731788416D-04  0.48754085324324D-04  0.49162726047896D-04  0.49585665635040D-04
 0.86247500000000D+02  0.47561620289778D-04  0.48001494100588D-04  0.48431108872538D-04  0.48851777403722D-04  0.49265036560331D-04  0.49672642672292D-04  0.50076564571202D-04  0.50478974798333D-04  0.50882239468637D-04  0.51288907228753D-04
 0.86372500000000D+02  0.48974036229395D-04  0.49485651916094D-04  0.49981374198891D-04  0.50461811184617D-04  0.50927799229178D-04  0.51380404015956D-04  0.51820919166803D-04  0.52250862940961D-04  0.52671973559669D-04  0.53086203664934D-04
 0.86497500000000D+02  0.50246119052991D-04  0.50842044106957D-04  0.51417831647341D-04  0.51973363784833D-04  0.52508742040402D-04  0.53024293951301D-04  0.53520577237254D-04  0.53998382100126D-04  0.54458732239060D-04  0.54902885152024D-04
 0.86622500000000D+02  0.51332903055997D-04  0.52021947018985D-04  0.52688049862132D-04  0.53330375857091D-04  0.53948288656253D-04  0.54541363212963D-04  0.55109395412142D-04  0.55652409973491D-04  0.56170667225060D-04  0.56664669353292D-04
 0.86747500000000D+02  0.52197400383034D-04  0.52984433097938D-04  0.53747144504053D-04  0.54484016347387D-04  0.55193701025071D-04  0.55875038598881D-04  0.56527071759204D-04  0.57149059240726D-04  0.57740488256377D-04  0.58301086549749D-04
 0.86872500000000D+02  0.52811781857707D-04  0.53697744668913D-04  0.54559356048083D-04  0.55394474840017D-04  0.56201095932487D-04  0.56977372097348D-04  0.57721634072337D-04  0.58432409266701D-04  0.59108439574164D-04  0.59748698844679D-04
 0.86997500000000D+02  0.53158229115665D-04  0.54140324374189D-04  0.55099271136760D-04  0.56032385818619D-04  0.56937083165815D-04  0.57810902536583D-04  0.58651532741416D-04  0.59456835656980D-04  0.60224868967911D-04  0.60953908497660D-04
 0.87122500000000D+02  0.53229439372149D-04  0.54301473084391D-04  0.55352645331820D-04  0.56379827073766D-04  0.57379949241993D-04  0.58350032911847D-04  0.59287218379148D-04  0.60188793151075D-04  0.61052219033127D-04  0.61875158638605D-04
 0.87247500000000D+02  0.53028758815479D-04  0.54181599235656D-04  0.55316777379553D-04  0.56430827055026D-04  0.57520305118579D-04  0.58581824827459D-04  0.59612088476942D-04  0.60607919094030D-04  0.61566291158087D-04  0.62484360495602D-04
 0.87372500000000D+02  0.52569904993459D-04  0.53792008338101D-04  0.55000372224442D-04  0.56191307523630D-04  0.57361114409999D-04  0.58506118029975D-04  0.59622703856067D-04  0.60707352243488D-04  0.61756671920595D-04  0.62767432347568D-04
 0.87497500000000D+02  0.51876221424975D-04  0.53154172170976D-04  0.54422830525532D-04  0.55678399499482D-04  0.56917042211012D-04  0.58134918843331D-04  0.59328223690649D-04  0.60493221562509D-04  0.61626283031838D-04  0.62723918233703D-04
 0.87622500000000D+02  0.50979429373303D-04  0.52298452290661D-04  0.53612950312203D-04  0.54919130036819D-04  0.56213134455028D-04  0.57491080032349D-04  0.58749094279463D-04  0.59983352862867D-04  0.61190115511410D-04  0.62365760201611D-04
 0.87747500000000D+02  0.49917913315414D-04  0.51262330007559D-04  0.52607107960985D-04  0.53948561394502D-04  0.55282923242347D-04  0.56606381143550D-04  0.57915114306041D-04  0.59205330133960D-04  0.60473299678425D-04  0.61715391189820D-04
 0.87872500000000D+02  0.48734642867746D-04  0.50088258467942D-04  0.51447047052580D-04  0.52807524557030D-04  0.54166114334765D-04  0.55519180848842D-04  0.56863064601034D-04  0.58194117088676D-04  0.59508734706453D-04  0.60803390701321D-04
 0.87997500000000D+02  0.47474869094134D-04  0.48821290230349D-04  0.50177445711767D-04  0.51540136503470D-04  0.52906066211676D-04  0.54271871327951D-04  0.55634153029854D-04  0.56989509307691D-04  0.58334566256802D-04  0.59666007521458D-04
 0.88122500000000D+02  0.46183777412126D-04  0.47506684169023D-04  0.48843488057902D-04  0.50191348004323D-04  0.51547327155849D-04  0.52908418615676D-04  0.54271572987295D-04  0.55633726559599D-04  0.56991828965295D-04  0.58342869232820D-04
 0.88247500000000D+02  0.44904332256814D-04  0.46187743229116D-04  0.47488704932593D-04  0.48804797577420D-04  0.50133512971584D-04  0.51472274800044D-04  0.52818460878399D-04  0.54169426346210D-04  0.55522526700705D-04  0.56875139591329D-04
 0.88372500000000D+02  0.43675556350456D-04  0.44904126878614D-04  0.46153325481610D-04  0.47421207745046D-04  0.48705753000676D-04  0.50004878349225D-04  0.51316454702725D-04  0.52638324020496D-04  0.53968316787119D-04  0.55304268730383D-04
 0.88497500000000D+02  0.42531428754313D-04  0.43690809139686D-04  0.44873294988007D-04  0.46077461494661D-04  0.47301823015971D-04  0.48544840216236D-04  0.49804929154323D-04  0.51080471762044D-04  0.52369826989687D-04  0.53671341773160D-04
 0.88622500000000D+02  0.41500480732154D-04  0.42577738715039D-04  0.43679991892064D-04  0.44806367533771D-04  0.45955948889256D-04  0.47127775119969D-04  0.48320842984754D-04  0.49534110059628D-04  0.50766499060049D-04  0.52016902644184D-04
 0.88747500000000D+02  0.40606041685294D-04  0.41590126932010D-04  0.42600543757172D-04  0.43636989370460D-04  0.44699133303567D-04  0.45786610202942D-04  0.46899014095604D-04  0.48035894268525D-04  0.49196752663373D-04  0.50381042438782D-04
 0.88872500000000D+02  0.39866963990009D-04  0.40749169085188D-04  0.41658527474201D-04  0.42595306846892D-04  0.43559761610728D-04  0.44552119107170D-04  0.45572566939977D-04  0.46621241907331D-04  0.47698220788152D-04  0.48803512937779D-04
 0.88997500000000D+02  0.39298565446376D-04  0.40072926141814D-04  0.40874773556255D-04  0.41704927614868D-04  0.42564206633406D-04  0.43453408016838D-04  0.44373289622647D-04  0.45324552595294D-04  0.46307826256842D-04  0.47323655319473D-04
 0.89122500000000D+02  0.38913497171243D-04  0.39577078735362D-04  0.40267994964576D-04  0.40987581528973D-04  0.41737181456142D-04  0.42518121783699D-04  0.43331690334908D-04  0.44179113673294D-04  0.45061537114506D-04  0.45980007358318D-04
 0.89247500000000D+02  0.38722281911779D-04  0.39275316630299D-04  0.39855024591171D-04  0.40463205142587D-04  0.41101671942853D-04  0.41772227300515D-04  0.42476635995904D-04  0.43216599802919D-04  0.43993733818998D-04  0.44809545431718D-04
 0.89372500000000D+02  0.38733361297114D-04  0.39179228391188D-04  0.39650552768744D-04  0.40149534098853D-04  0.40678392381404D-04  0.41239341781775D-04  0.41834563213638D-04  0.42466176953746D-04  0.43136216547255D-04  0.43846605050157D-04
 0.89497500000000D+02  0.38952614509319D-04  0.39297679992355D-04  0.39666377946748D-04  0.40061238642188D-04  0.40484818893181D-04  0.40939677088310D-04  0.41428346174444D-04  0.41953305843581D-04  0.42516955242175D-04  0.43121587405172D-04
 0.89622500000000D+02  0.39382433369427D-04  0.39635786233970D-04  0.39910289892983D-04  0.40208733618763D-04  0.40533940512543D-04  0.40888745182512D-04  0.41275968576197D-04  0.41698391080038D-04  0.42158725172785D-04  0.42659588915034D-04
 0.89747500000000D+02  0.40020530158932D-04  0.40193658026525D-04  0.40384771471560D-04  0.40596848470718D-04  0.40832909632411D-04  0.41095999638569D-04  0.41389165098852D-04  0.41715429705902D-04  0.42077767853071D-04  0.42479077995146D-04
 0.89872500000000D+02  0.40858693570096D-04  0.40965134533165D-04  0.41085718428723D-04  0.41223544310794D-04  0.41381764144114D-04  0.41563568746732D-04  0.41772169541408D-04  0.42010776707847D-04  0.42282574689771D-04  0.42590696252396D-04
 0.89997500000000D+02  0.41881691310681D-04  0.41936682673669D-04  0.42001341981057D-04  0.42078824011129D-04  0.42172347786898D-04  0.42285187419002D-04  0.42420658380498D-04  0.42582099453711D-04  0.42772851021689D-04  0.42996230727708D-04
 0.90122500000000D+02  0.43066472432466D-04  0.43086600869587D-04  0.43111375711662D-04  0.43143942989289D-04  0.43187524861661D-04  0.43245415510062D-04  0.43320972379646D-04  0.43417602614691D-04  0.43538745009403D-04  0.43687848235140D-04
 0.90247500000000D+02  0.44381802379170D-04  0.44384654459408D-04  0.44386711265375D-04  0.44391045149544D-04  0.44400816680471D-04  0.44419275534497D-04  0.44449756963071D-04  0.44495673258534D-04  0.44560500134038D-04  0.44647758434927D-04
 0.90372500000000D+02  0.45788485246114D-04  0.45792299656345D-04  0.45789623043546D-04  0.45783387853894D-04  0.45776626837669D-04  0.45772478666318D-04  0.45774189641224D-04  0.45785110495985D-04  0.45808687773098D-04  0.45848449792094D-04
 0.90497500000000D+02  0.47240311872768D-04  0.47263629279881D-04  0.47274708041797D-04  0.47276272747172D-04  0.47271160147274D-04  0.47262328990941D-04  0.47252866720698D-04  0.47245991648964D-04  0.47245049666493D-04  0.47253505071663D-04
 0.90622500000000D+02  0.48685750255708D-04  0.48747042218728D-04  0.48790527378076D-04  0.48818652817566D-04  0.48833989027905D-04  0.48839243262994D-04  0.48837270739826D-04  0.48831081989108D-04  0.48823845017283D-04  0.48818881438678D-04
 0.90747500000000D+02  0.50070239616545D-04  0.50187490935050D-04  0.50281797819291D-04  0.50355259249217D-04  0.50410107670021D-04  0.50448725074800D-04  0.50473658071567D-04  0.50487630024404D-04  0.50493548602109D-04  0.50494507488148D-04
 0.90872500000000D+02  0.51338867367876D-04  0.51529092692938D-04  0.51691926230521D-04  0.51829049067567D-04  0.51942283878040D-04  0.52033612929596D-04  0.52105196301412D-04  0.52159388294883D-04  0.52198750130547D-04  0.52226057333100D-04
 0.90997500000000D+02  0.52439191356138D-04  0.52717879236984D-04  0.52965674305198D-04  0.53183773782270D-04  0.53373521723267D-04  0.53536428205118D-04  0.53674189958883D-04  0.53788710434913D-04  0.53882117259411D-04  0.53956775211920D-04
 0.91122500000000D+02  0.53323973676793D-04  0.53704466652074D-04  0.54051751175978D-04  0.54366482706932D-04  0.54649464764972D-04  0.54901668661730D-04  0.55124255838334D-04  0.55318600919210D-04  0.55486313419671D-04  0.55629256065042D-04
 0.91247500000000D+02  0.53953620131139D-04  0.54446458255498D-04  0.54905165832683D-04  0.55329811988687D-04  0.55720609804618D-04  0.56077936067002D-04  0.56402354660772D-04  0.56694641931716D-04  0.56955812048533D-04  0.57187140262998D-04
 0.91372500000000D+02  0.54298175301395D-04  0.54910449293110D-04  0.55489227143118D-04  0.56033966192253D-04  0.56544256920186D-04  0.57019842296803D-04  0.57460641641706D-04  0.57866777618104D-04  0.58238604585837D-04  0.58576736266856D-04
 0.91497500000000D+02  0.54338789661352D-04  0.55073564585268D-04  0.55777137913572D-04  0.56448354520252D-04  0.57086173655515D-04  0.57689687532107D-04  0.58258145096139D-04  0.58790979966755D-04  0.59287841049175D-04  0.59748623935547D-04
 0.91622500000000D+02  0.54068634767042D-04  0.54924512511177D-04  0.55753174690605D-04  0.56552882455937D-04  0.57321983794787D-04  0.58058930968936D-04  0.58762303619237D-04  0.59430836917470D-04  0.60063453614871D-04  0.60659298355005D-04
 0.91747500000000D+02  0.53493283734795D-04  0.54464169555329D-04  0.55413465913569D-04  0.56338911112125D-04  0.57238293845021D-04  0.58109469013282D-04  0.58950379500503D-04  0.59759083700316D-04  0.60533788037083D-04  0.61272883176162D-04
 0.91872500000000D+02  0.52630590579755D-04  0.53705714450405D-04  0.54766374656175D-04  0.55809879591029D-04  0.56833543504836D-04  0.57834700098475D-04  0.58810722177357D-04  0.59759047569827D-04  0.60677210973425D-04  0.61562880813111D-04
 0.91997500000000D+02  0.51510097394994D-04  0.52674316512282D-04  0.53832468011656D-04  0.54981552071898D-04  0.56118523971647D-04  0.57240304761347D-04  0.58343797881975D-04  0.59425912338658D-04  0.60483592528853D-04  0.61513854241190D-04
 0.92122500000000D+02  0.50171986399546D-04  0.51406365470581D-04  0.52644032117168D-04  0.53881822294097D-04  0.55116472893733D-04  0.56344628781030D-04  0.57562855424863D-04  0.58767658105237D-04  0.59955508231218D-04  0.61122876746190D-04
 0.92247500000000D+02  0.48665591096465D-04  0.49948228107781D-04  0.51244089558358D-04  0.52550004566720D-04  0.53862649036336D-04  0.55178548470648D-04  0.56494085767662D-04  0.57805515292767D-04  0.59108984175870D-04  0.60400561277994D-04
 0.92372500000000D+02  0.47047497569432D-04  0.48354540064725D-04  0.49684903580666D-04  0.51035570961394D-04  0.52403321206420D-04  0.53784727758674D-04  0.55176160886873D-04  0.56573795700541D-04  0.57973627101064D-04  0.59371492560935D-04
 0.92497500000000D+02  0.45379298272592D-04  0.46686080819107D-04  0.48025999866691D-04  0.49396345429365D-04  0.50794159690565D-04  0.52216230829703D-04  0.53659089831952D-04  0.55119011952420D-04  0.56592024406385D-04  0.58073921564460D-04
 0.92622500000000D+02  0.43725086108360D-04  0.45007312725265D-04  0.46331776527524D-04  0.47696211821496D-04  0.49098070165540D-04  0.50534510176287D-04  0.52002389069867D-04  0.53498257616083D-04  0.55018360225373D-04  0.56558641733581D-04
 0.92747500000000D+02  0.42148785153381D-04  0.43383681717857D-04  0.44668799106479D-04  0.46002429391415D-04  0.47382557691200D-04  0.48806848677199D-04  0.50272633546065D-04  0.51776899014959D-04  0.53316280071165D-04  0.54887058196920D-04
 0.92872500000000D+02  0.40711426221215D-04  0.41878798471606D-04  0.43102909125253D-04  0.44382692521948D-04  0.45716763463634D-04  0.47103401277794D-04  0.48540533173993D-04  0.50025718217899D-04  0.51556133533857D-04  0.53128564471511D-04
 0.92997500000000D+02  0.39468504507764D-04  0.40551651596157D-04  0.41696311021580D-04  0.42902111269368D-04  0.44168360606588D-04  0.45494029582642D-04  0.46877731838082D-04  0.48317704230181D-04  0.49811787653872D-04  0.51357410175836D-04
 0.93122500000000D+02  0.38467573506417D-04  0.39454017078294D-04  0.40504810652964D-04  0.41620293977048D-04  0.42800497550514D-04  0.44045124416539D-04  0.45353529518030D-04  0.46724697259452D-04  0.48157218335251D-04  0.49649267213844D-04
 0.93247500000000D+02  0.37746210293988D-04  0.38628206368713D-04  0.39575354916558D-04  0.40588688886239D-04  0.41668953822114D-04  0.42816589751287D-04  0.44031710169134D-04  0.45314078361758D-04  0.46663081749694D-04  0.48077705325438D-04
 0.93372500000000D+02  0.37330455566437D-04  0.38105267573776D-04  0.38943997930727D-04  0.39848321075755D-04  0.40819655404532D-04  0.41859145999414D-04  0.42967644284803D-04  0.44145684435938D-04  0.45393456808811D-04  0.46710779079316D-04
 0.93497500000000D+02  0.37233806765973D-04  0.37903732434888D-04  0.38634400107503D-04  0.39428043779084D-04  0.40286680405192D-04  0.41212094106584D-04  0.42205817444053D-04  0.43269109189414D-04  0.44402928423604D-04  0.45607905215085D-04
 0.93622500000000D+02  0.37456811676796D-04  0.38028970255197D-04  0.38656934834320D-04  0.39343391865864D-04  0.40090855173238D-04  0.40901652078722D-04  0.41777907069514D-04  0.42721522063963D-04  0.43734152677602D-04  0.44817180279825D-04
 0.93747500000000D+02  0.37987268407206D-04  0.38473166708340D-04  0.39008433538429D-04  0.39596081683135D-04  0.40238998763761D-04  0.40939935485733D-04  0.41701492198560D-04  0.42526102531533D-04  0.43416013111955D-04  0.44373258699183D-04
 0.93872500000000D+02  0.38800996692267D-04  0.39215902212077D-04  0.39672554945367D-04  0.40174155525167D-04  0.40723827654074D-04  0.41324608413635D-04  0.41979437901877D-04  0.42691146763427D-04  0.43462440299821D-04  0.44295878078985D-04
 0.93997500000000D+02  0.39863112309949D-04  0.40225268938157D-04  0.40620726259047D-04  0.41052728651553D-04  0.41524490459167D-04  0.42039188083701D-04  0.42599952577973D-04  0.43209861219043D-04  0.43871926532577D-04  0.44589081352610D-04
 0.94122500000000D+02  0.41129713714248D-04  0.41459441201052D-04  0.41813577705434D-04  0.42195268249142D-04  0.42607671462584D-04  0.43053953042462D-04  0.43537280931711D-04  0.44060820744609D-04  0.44627729810015D-04  0.45241148188018D-04
 0.94247500000000D+02  0.42549878014238D-04  0.42868601074646D-04  0.43202777783763D-04  0.43555318022388D-04  0.43929183976126D-04  0.44327384459054D-04  0.44752972139726D-04  0.45209042354974D-04  0.45698731912118D-04  0.46225216126669D-04
 0.94372500000000D+02  0.44067859851701D-04  0.44397116328250D-04  0.44733170686079D-04  0.45078574998379D-04  0.45435965978508D-04  0.45808059639536D-04  0.46197649909894D-04  0.46607610166517D-04  0.47040896238358D-04  0.47500549147179D-04
 0.94497500000000D+02  0.45625389256048D-04  0.45985868102620D-04  0.46345115808109D-04  0.46705222011363D-04  0.47068385956225D-04  0.47436910958624D-04  0.47813203686507D-04  0.48199777592897D-04  0.48599259328438D-04  0.49014396551641D-04
 0.94622500000000D+02  0.47163972070963D-04  0.47574629883239D-04  0.47976930280750D-04  0.48372417548905D-04  0.48762762684674D-04  0.49149757194099D-04  0.49535312302336D-04  0.49921463384766D-04  0.50310378833195D-04  0.50704372057260D-04
 0.94747500000000D+02  0.48627107672412D-04  0.49104406461076D-04  0.49567338489229D-04  0.50016843654937D-04  0.50453997919732D-04  0.50880006095240D-04  0.51296200337917D-04  0.51704044696635D-04  0.52105145412312D-04  0.52501266070222D-04
 0.94872500000000D+02  0.49962351568568D-04  0.50519651014792D-04  0.51057838118661D-04  0.51577213980491D-04  0.52078218057329D-04  0.52561419845749D-04  0.53027516231981D-04  0.53477335423220D-04  0.53911847709273D-04  0.54332182645687D-04
 0.94997500000000D+02  0.51123163966405D-04  0.51770290155026D-04  0.52394901567774D-04  0.52996650355823D-04  0.53575323479758D-04  0.54130833541327D-04  0.54663214883596D-04  0.55172626426657D-04  0.55659362056186D-04  0.56123868695992D-04
 0.95122500000000D+02  0.52070498868603D-04  0.52813500216130D-04  0.53531944303950D-04  0.54224847405412D-04  0.54891352792456D-04  0.55530721337144D-04  0.56142326610071D-04  0.56725656428628D-04  0.57280322211385D-04  0.57806076820093D-04
 0.95247500000000D+02  0.52774099865219D-04  0.53615190392061D-04  0.54431003984072D-04  0.55219955850540D-04  0.55980577785941D-04  0.56711509452355D-04  0.57411493020411D-04  0.58079373500244D-04  0.58714106592471D-04  0.59314775269838D-04
 0.95372500000000D+02  0.53213475712561D-04  0.54151155421677D-04  0.55064080666957D-04  0.55950120092958D-04  0.56807247336209D-04  0.57633534056370D-04  0.58427144870755D-04  0.59186336770270D-04  0.59909465227605D-04  0.60594998685233D-04
 0.95497500000000D+02  0.53378530463292D-04  0.54407861389598D-04  0.55414088104619D-04  0.56394603959911D-04  0.57346895504541D-04  0.58268538370372D-04  0.59157193387509D-04  0.60010605604178D-04  0.60826608681629D-04  0.61603136740099D-04
 0.95622500000000D+02  0.53269819339348D-04  0.54382823327102D-04  0.55475360520295D-04  0.56544433281955D-04  0.57587125723746D-04  0.58600603494686D-04  0.59582112030752D-04  0.60528975869895D-04  0.61438601615770D-04  0.62308486894292D-04
 0.95747500000000D+02  0.52898387946110D-04  0.54084520401276D-04  0.55253648927239D-04  0.56402478176937D-04  0.57527783686567D-04  0.58626416451864D-04  0.59695304220979D-04  0.60731451869367D-04  0.61731943393433D-04  0.62693947997112D-04
 0.95872500000000D+02  0.52285137228483D-04  0.53531786997035D-04  0.54765543039200D-04  0.55982910697855D-04  0.57180455906032D-04  0.58354815144520D-04  0.59502700518017D-04  0.60620901921864D-04  0.61706288634310D-04  0.62755812795949D-04
 0.95997500000000D+02  0.51459677890154D-04  0.52752652088523D-04  0.54037301113155D-04  0.55310030980995D-04  0.56567298348122D-04  0.57805626068388D-04  0.59021612543813D-04  0.60211936319572D-04  0.61373357915153D-04  0.62502721199079D-04
 0.96122500000000D+02  0.50458706744017D-04  0.51782673733796D-04  0.53103148420618D-04  0.54416535922364D-04  0.55719282092642D-04  0.57007894505056D-04  0.58278956285580D-04  0.59529133636123D-04  0.60755178576484D-04  0.61953928922940D-04
 0.96247500000000D+02  0.49324001745476D-04  0.50662877340655D-04  0.52003165034737D-04  0.53341363681896D-04  0.54674002872039D-04  0.55997668766024D-04  0.57309022296815D-04  0.58604809921943D-04  0.59881867898821D-04  0.61137121692962D-04
 0.96372500000000D+02  0.48100168000233D-04  0.49437444616134D-04  0.50780926227413D-04  0.52127295310260D-04  0.53473255049697D-04  0.54815559043277D-04  0.56151033391065D-04  0.57476590699070D-04  0.58789236357891D-04  0.60086068202596D-04
 0.96497500000000D+02  0.46832312456315D-04  0.48151351687723D-04  0.49481114932615D-04  0.50818553336721D-04  0.52160628893461D-04  0.53504346642242D-04  0.54846779778069D-04  0.56185086586551D-04  0.57516518942057D-04  0.58838422905219D-04
 0.96622500000000D+02  0.45563879346708D-04  0.46848204267065D-04  0.48147367268019D-04  0.49458668330344D-04  0.50779408790769D-04  0.52106924320774D-04  0.53438611802386D-04  0.54771948489646D-04  0.56104502599976D-04  0.57433935277069D-04
 0.96747500000000D+02  0.44334888513532D-04  0.45568512925602D-04  0.46820591878783D-04  0.48088848765868D-04  0.49370999323894D-04  0.50664783412023D-04  0.51967992049858D-04  0.53278487710480D-04  0.54594216500051D-04  0.55913211596238D-04
 0.96872500000000D+02  0.43180763451795D-04  0.44348582459344D-04  0.45537921998075D-04  0.46746995982124D-04  0.47974002060782D-04  0.49217150065452D-04  0.50474687360539D-04  0.51744918867546D-04  0.53026220008309D-04  0.54317041441167D-04
 0.96997500000000D+02  0.42131834488130D-04  0.43220079026645D-04  0.44332341030968D-04  0.45467381320448D-04  0.46623936007412D-04  0.47800739533886D-04  0.48996546431364D-04  0.50210149537673D-04  0.51440392686598D-04  0.52686176350582D-04
 0.97122500000000D+02  0.41213478929627D-04  0.42210211277133D-04  0.43232892689371D-04  0.44280872353542D-04  0.45353466307400D-04  0.46449973280350D-04  0.47569691128098D-04  0.48711931750192D-04  0.49876032445637D-04  0.51061361923944D-04
 0.97247500000000D+02  0.40446738332435D-04  0.41342343122563D-04  0.42265273571777D-04  0.43215489727706D-04  0.44192910238410D-04  0.45197419714922D-04  0.46228878461691D-04  0.47287132796349D-04  0.48372024026253D-04  0.49483394185109D-04
 0.97372500000000D+02  0.39849162410901D-04  0.40636776244856D-04  0.41452539253388D-04  0.42297023164131D-04  0.43170750975553D-04  0.44074195190397D-04  0.45007779936752D-04  0.45971885681043D-04  0.46966854876905D-04  0.47992996697620D-04
 0.97497500000000D+02  0.39435595354910D-04  0.40111422047630D-04  0.40815651772507D-04  0.41549446529884D-04  0.42313914436235D-04  0.43110098851581D-04  0.43938972506827D-04  0.44801435931365D-04  0.45698318946402D-04  0.46630383575273D-04
 0.97622500000000D+02  0.39218652986905D-04  0.39782129212679D-04  0.40373655058257D-04  0.40994940952293D-04  0.41647642047417D-04  0.42333338893365D-04  0.43053523686059D-04  0.43809592057181D-04  0.44602839708474D-04  0.45434462597147D-04
 0.97747500000000D+02  0.39208727877734D-04  0.39662529652349D-04  0.40143367218129D-04  0.40653440845184D-04  0.41194899486404D-04  0.41769814167824D-04  0.42380156911437D-04  0.43027785838640D-04  0.43714436379158D-04  0.44441717780647D-04
 0.97872500000000D+02  0.39413479626137D-04  0.39763385984605D-04  0.40138597011374D-04  0.40541732173859D-04  0.40975370151947D-04  0.41442016503159D-04  0.41944076175306D-04  0.42483832167219D-04  0.43063430921209D-04  0.43684874234018D-04
 0.97997500000000D+02  0.39836888178784D-04  0.40091537311875D-04  0.40368996977838D-04  0.40672227759829D-04  0.41004167115945D-04  0.41367693132659D-04  0.41765591840640D-04  0.42200529964019D-04  0.42675034334053D-04  0.43191478406057D-04
 0.98122500000000D+02  0.40478039781847D-04  0.40648619960311D-04  0.40838733311742D-04  0.41051599688111D-04  0.41290440358861D-04  0.41558439801602D-04  0.41858709267818D-04  0.42194254438665D-04  0.42567948988503D-04  0.42982515160292D-04
 0.98247500000000D+02  0.41329856129556D-04  0.41429767729692D-04  0.41545167920394D-04  0.41679452386190D-04  0.41836048569705D-04  0.42018377486870D-04  0.42229815178759D-04  0.42473656399635D-04  0.42753082840352D-04  0.43071137618555D-04
 0.98372500000000D+02  0.42377962951223D-04  0.42422472189652D-04  0.42477715853882D-04  0.42547181092714D-04  0.42634421224876D-04  0.42743019559013D-04  0.42876550554146D-04  0.43038541019391D-04  0.43232433984843D-04  0.43461557506564D-04
 0.98497500000000D+02  0.43599851571756D-04  0.43605740629160D-04  0.43617000655129D-04  0.43637124805583D-04  0.43669708898113D-04  0.43718419189897D-04  0.43786955239002D-04  0.43879010440998D-04  0.43998233016642D-04  0.44148190093412D-04
 0.98622500000000D+02  0.44964469365992D-04  0.44949682212663D-04  0.44934435476402D-04  0.44922141764068D-04  0.44916352994325D-04  0.44920733982257D-04  0.44939029054702D-04  0.44975023969384D-04  0.45032505845715D-04  0.45115223940673D-04
 0.98747500000000D+02  0.46432398109858D-04  0.46415683837270D-04  0.46392394884612D-04  0.46365776134200D-04  0.46339246816233D-04  0.46316381497342D-04  0.46300882386034D-04  0.46296544715878D-04  0.46307217637266D-04  0.46336763437933D-04
 0.98872500000000D+02  0.47956764358721D-04  0.47957314472679D-04  0.47945109052036D-04  0.47923138241035D-04  0.47894598260461D-04  0.47862881006105D-04  0.47831553709097D-04  0.47804329752732D-04  0.47785032610813D-04  0.47777555510677D-04
 0.98997500000000D+02  0.49484904475390D-04  0.49521965977645D-04  0.49540272800609D-04  0.49542474542989D-04  0.49531453660823D-04  0.49510324421336D-04  0.49482421225296D-04  0.49451276620345D-04  0.49420590345351D-04  0.49394191597190D-04
 0.99122500000000D+02  0.50960651463471D-04  0.51053090317299D-04  0.51121223281700D-04  0.51167276329623D-04  0.51193728594308D-04  0.51203320956735D-04  0.51199053934972D-04  0.51184174372052D-04  0.51162151516104D-04  0.51136644098758D-04
 0.99247500000000D+02  0.52327027661279D-04  0.52492823496001D-04  0.52629483767023D-04  0.52738732723761D-04  0.52822560255417D-04  0.52883239941356D-04  0.52923336977866D-04  0.52945704654640D-04  0.52953469155028D-04  0.52950003562209D-04
 0.99372500000000D+02  0.53529109233052D-04  0.53784774251522D-04  0.54007464051382D-04  0.54198331228383D-04  0.54358797538392D-04  0.54490580818480D-04  0.54595712965359D-04  0.54676546881856D-04  0.54735751328178D-04  0.54776293744984D-04
 0.99497500000000D+02  0.54516830646778D-04  0.54876760773552D-04  0.55201116249536D-04  0.55490420371221D-04  0.55745459214206D-04  0.55967316451370D-04  0.56157400941010D-04  0.56317464348047D-04  0.56449606938775D-04  0.56556270764596D-04
 0.99622500000000D+02  0.55247523375181D-04  0.55723308116017D-04  0.56162377331815D-04  0.56564584490283D-04  0.56930028803466D-04  0.57259096640296D-04  0.57552497847730D-04  0.57811293756828D-04  0.58036914314845D-04  0.58231162728897D-04
 0.99747500000000D+02  0.55688037432082D-04  0.56287773570800D-04  0.56851284416349D-04  0.57377735370499D-04  0.57866509372383D-04  0.58317253327850D-04  0.58729921886111D-04  0.59104815046695D-04  0.59442606484240D-04  0.59744360225290D-04
 0.99872500000000D+02  0.55816359029793D-04  0.56544028367194D-04  0.57237706614267D-04  0.57895880147799D-04  0.58517213321939D-04  0.59100598108334D-04  0.59645203686346D-04  0.60150522383892D-04  0.60616408486817D-04  0.61043106930114D-04
 0.99997500000000D+02  0.55622694957127D-04  0.56477674787504D-04  0.57302681723197D-04  0.58095563511176D-04  0.58854295283617D-04  0.59577030410446D-04  0.60262153930834D-04  0.60908335094740D-04  0.61514575371949D-04  0.62080248495135D-04
 0.10012250000000D+03  0.55110032537838D-04  0.56086806598745D-04  0.57039365844811D-04  0.57964993473330D-04  0.58861039469484D-04  0.59724970514636D-04  0.60554424992560D-04  0.61347269957000D-04  0.62101656477996D-04  0.62816069693639D-04
 0.10024750000000D+03  0.54294196844692D-04  0.55382322484175D-04  0.56453595265190D-04  0.57504841380756D-04  0.58532885135383D-04  0.59534595646050D-04  0.60506940915775D-04  0.61447046655080D-04  0.62352256546836D-04  0.63220190268475D-04
 0.10037250000000D+03  0.53203418251749D-04  0.54387783465743D-04  0.55564031523693D-04  0.56728669285734D-04  0.57878127895139D-04  0.59008803996204D-04  0.60117110219917D-04  0.61199532973044D-04  0.62252694706944D-04  0.63273417200886D-04
 0.10049750000000D+03  0.51877408199669D-04  0.53138783546839D-04  0.54401832202663D-04  0.55662902911345D-04  0.56918193570957D-04  0.58163784830096D-04  0.59395684334131D-04  0.60609880425649D-04  0.61802403130755D-04  0.62969389411483D-04
 0.10062250000000D+03  0.50365938006556D-04  0.51681798528778D-04  0.53009783642631D-04  0.54346259359890D-04  0.55687368877641D-04  0.57029056753019D-04  0.58367104475729D-04  0.59697177071584D-04  0.61014879356758D-04  0.62315819467287D-04
 0.10074750000000D+03  0.48726937007004D-04  0.50072503320968D-04  0.51440859414201D-04  0.52828566889997D-04  0.54231900280135D-04  0.55646860550993D-04  0.57069200039687D-04  0.58494459283160D-04  0.59918015224861D-04  0.61335139221253D-04
 0.10087250000000D+03  0.47024167127557D-04  0.48373595468041D-04  0.49756220347943D-04  0.51168968446188D-04  0.52608426880427D-04  0.54070845532303D-04  0.55552150100176D-04  0.57047967108050D-04  0.58553661228965D-04  0.60064384232304D-04
 0.10099750000000D+03  0.45324568775939D-04  0.46652207711469D-04  0.48022723306606D-04  0.49433557064644D-04  0.50881773298175D-04  0.52364050578238D-04  0.53876682531038D-04  0.55415589850239D-04  0.56976344692803D-04  0.58554207668830D-04
 0.10112250000000D+03  0.43695393763825D-04  0.44977023121611D-04  0.46310047129168D-04  0.47692543321159D-04  0.49122191144374D-04  0.50596253602455D-04  0.52111566318785D-04  0.53664536349510D-04  0.55251152595842D-04  0.56867008865445D-04
 0.10124750000000D+03  0.42201260683762D-04  0.43415237927953D-04  0.44687588514752D-04  0.46017112467937D-04  0.47402208155427D-04  0.48840845815421D-04  0.50330546196678D-04  0.51868366906882D-04  0.53450898823998D-04  0.55074274335077D-04
 0.10137250000000D+03  0.40901296364386D-04  0.42029551381301D-04  0.43221320910868D-04  0.44476175438679D-04  0.45793297000649D-04  0.47171446706178D-04  0.48608934886347D-04  0.50103596515123D-04  0.51652774562938D-04  0.53253313592615D-04
 0.10149750000000D+03  0.39846535507862D-04  0.40875367784006D-04  0.41970813287713D-04  0.43133220993293D-04  0.44362579911137D-04  0.45658482984713D-04  0.47020091116263D-04  0.48446099824069D-04  0.49934711284959D-04  0.51483614422312D-04
 0.10162250000000D+03  0.39077721876811D-04  0.39998364897728D-04  0.40986574054370D-04  0.42043445673416D-04  0.43169757620254D-04  0.44365932059375D-04  0.45631996000883D-04  0.46967541808306D-04  0.48371690307758D-04  0.49843059299606D-04
 0.10174750000000D+03  0.38623616389602D-04  0.39432547829574D-04  0.40307853415029D-04  0.41251309460561D-04  0.42264425428478D-04  0.43348408010967D-04  0.44504120960436D-04  0.45732042355404D-04  0.47032221629559D-04  0.48404239089472D-04
 0.10187250000000D+03  0.38499889393791D-04  0.39198881084374D-04  0.39961012076563D-04  0.40788639920165D-04  0.41683913638144D-04  0.42648741399407D-04  0.43684752347622D-04  0.44793253656818D-04  0.45975184649039D-04  0.47231070408987D-04
