 0.80000000000000D+00
 0.60122500000000D+02  0.54696062919270D-05  0.54848168759126D-05  0.55018209728168D-05  0.55211059848701D-05  0.55431787558548D-05  0.55685661801263D-05  0.55978150739749D-05  0.56314909641328D-05  0.56701755039526D-05  0.57144623348692D-05
 0.60247500000000D+02  0.56999612776665D-05  0.57100285640545D-05  0.57204427529088D-05  0.57316915410780D-05  0.57442871344435D-05  0.57587672849249D-05  0.57756958764476D-05  0.57956626894899D-05  0.58192819899515D-05  0.58471896566615D-05
 0.60372500000000D+02  0.59401551886511D-05  0.59484809296362D-05  0.59557073781345D-05  0.59623046797564D-05  0.59687721974592D-05  0.59756398097568D-05  0.59834690500653D-05  0.59928537207934D-05  0.60044195937325D-05  0.60188228352667D-05
 0.60497500000000D+02  0.61814926254225D-05  0.61915572586612D-05  0.61991275768354D-05  0.62046383183753D-05  0.62085577263772D-05  0.62113889510897D-05  0.62136715699036D-05  0.62159828894696D-05  0.62189386385535D-05  0.62231926459763D-05
 0.60622500000000D+02  0.64150072698488D-05  0.64302307689087D-05  0.64416675374843D-05  0.64496996935542D-05  0.64547466324094D-05  0.64572663995712D-05  0.64577574232155D-05  0.64567603248292D-05  0.64548594432538D-05  0.64526836553482D-05
 0.60747500000000D+02  0.66317979826176D-05  0.66553983287513D-05  0.66740723266172D-05  0.66881336264086D-05  0.66979362875319D-05  0.67038760209103D-05  0.67063919838016D-05  0.67059689177445D-05  0.67031393170308D-05  0.66984852316843D-05
 0.60872500000000D+02  0.68233822221617D-05  0.68582373534164D-05  0.68872261523596D-05  0.69105800852277D-05  0.69285733660523D-05  0.69415240055336D-05  0.69497955464429D-05  0.69537993597056D-05  0.69539972611333D-05  0.69509041019332D-05
 0.60997500000000D+02  0.69820532477874D-05  0.70305727340167D-05  0.70725268088541D-05  0.71080539358330D-05  0.71373367045211D-05  0.71606026622036D-05  0.71781259020890D-05  0.71902293708841D-05  0.71972877422365D-05  0.71997305814296D-05
 0.61122500000000D+02  0.71012252711544D-05  0.71652380193427D-05  0.72222606939761D-05  0.72723315515609D-05  0.73155332280571D-05  0.73519933651245D-05  0.73818859987744D-05  0.74054337607523D-05  0.74229108327688D-05  0.74346464678399D-05
 0.61247500000000D+02  0.71757489073146D-05  0.72564128724399D-05  0.73299602385523D-05  0.73963260770346D-05  0.74554888253437D-05  0.75074707479679D-05  0.75523391059975D-05  0.75902081660644D-05  0.76212420826439D-05  0.76456585662924D-05
 0.61372500000000D+02  0.72021784832148D-05  0.72999176550034D-05  0.73907240557287D-05  0.74744312694934D-05  0.75509138672861D-05  0.76200877616564D-05  0.76819111647636D-05  0.77363863490253D-05  0.77835623321143D-05  0.78235384993381D-05
 0.61497500000000D+02  0.71789735294999D-05  0.72934464037658D-05  0.74014801670284D-05  0.75028135254871D-05  0.75972223895800D-05  0.76845201896186D-05  0.77645586491822D-05  0.78372292682702D-05  0.79024657140860D-05  0.79602472281558D-05
 0.61622500000000D+02  0.71066192868618D-05  0.72367216275639D-05  0.73611744577199D-05  0.74796331072294D-05  0.75917849617615D-05  0.76973498043864D-05  0.77960804418701D-05  0.78877639022447D-05  0.79722234617027D-05  0.80493216942315D-05
 0.61747500000000D+02  0.69876550469484D-05  0.71315580355386D-05  0.72708698459469D-05  0.74051785276936D-05  0.75340977923952D-05  0.76572674349980D-05  0.77743538528093D-05  0.78850509642207D-05  0.79890818264188D-05  0.80862012142516D-05
 0.61872500000000D+02  0.68266041275029D-05  0.69818270607413D-05  0.71337461283057D-05  0.72819022106950D-05  0.74258544157797D-05  0.75651806144869D-05  0.76994778873088D-05  0.78283631794693D-05  0.79514744848042D-05  0.80684728696874D-05
 0.61997500000000D+02  0.66298047932480D-05  0.67933194754386D-05  0.69549957683913D-05  0.71143506712466D-05  0.72709112158433D-05  0.74242151278937D-05  0.75738112247390D-05  0.77192598251742D-05  0.78601334914180D-05  0.79960184420404D-05
 0.62122500000000D+02  0.64051472154826D-05  0.65735092919508D-05  0.67416168650662D-05  0.69089884596274D-05  0.70751440235537D-05  0.72396056991211D-05  0.74018981806200D-05  0.75615488952778D-05  0.77180883077652D-05  0.78710506922679D-05
 0.62247500000000D+02  0.61617274528580D-05  0.63312283393244D-05  0.65021110005115D-05  0.66739217984607D-05  0.68461998846629D-05  0.70184780391690D-05  0.71902829793158D-05  0.73611353227795D-05  0.75305494677306D-05  0.76980337177031D-05
 0.62372500000000D+02  0.59094350910854D-05  0.60762669929194D-05  0.62461001487015D-05  0.64185346733657D-05  0.65931552282984D-05  0.67695318613426D-05  0.69472202396055D-05  0.71257613976646D-05  0.73046812115275D-05  0.74834898900224D-05
 0.62497500000000D+02  0.56584959566648D-05  0.58189217913245D-05  0.59838825326586D-05  0.61530562609040D-05  0.63260981653197D-05  0.65026412972383D-05  0.66822966827022D-05  0.68646528491974D-05  0.70492749132133D-05  0.72357034678420D-05
 0.62622500000000D+02  0.54189945759362D-05  0.55695144332828D-05  0.57259515650892D-05  0.58880832922947D-05  0.60556578034575D-05  0.62283947176103D-05  0.64059850174183D-05  0.65880903374267D-05  0.67743416835597D-05  0.69643377580230D-05
 0.62747500000000D+02  0.52004025895260D-05  0.53379087175854D-05  0.54825046079017D-05  0.56340840750774D-05  0.57925070977104D-05  0.59576000789442D-05  0.61291555291068D-05  0.63069310882804D-05  0.64906478921095D-05  0.66799883819655D-05
 0.62872500000000D+02  0.50111393793141D-05  0.51330525528683D-05  0.52629693668332D-05  0.54009124844065D-05  0.55468678372127D-05  0.57007844698103D-05  0.58625738933971D-05  0.60321088067082D-05  0.62092211170492D-05  0.63936992866178D-05
 0.62997500000000D+02  0.48581897902412D-05  0.49625711743316D-05  0.50755751301517D-05  0.51973600040245D-05  0.53280465025981D-05  0.54677170137193D-05  0.56164145508641D-05  0.57741411303285D-05  0.59408554508748D-05  0.61164698272044D-05
 0.63122500000000D+02  0.47468006478999D-05  0.48324347019236D-05  0.49269932492914D-05  0.50307712896923D-05  0.51440273370168D-05  0.52669821233862D-05  0.53998170585465D-05  0.55426722194965D-05  0.56956436880548D-05  0.58587801209882D-05
 0.63247500000000D+02  0.46802725099198D-05  0.47467179417345D-05  0.48220660951972D-05  0.49067436728138D-05  0.50011440693986D-05  0.51056253889236D-05  0.52205083551453D-05  0.53460738734953D-05  0.54825600246360D-05  0.56301583188201D-05
 0.63372500000000D+02  0.46598561962480D-05  0.47074634151385D-05  0.47636368363089D-05  0.48289242188043D-05  0.49038450662569D-05  0.49888879175213D-05  0.50845076648139D-05  0.51911226578077D-05  0.53091113538707D-05  0.54388083027914D-05
 0.63497500000000D+02  0.46847560514997D-05  0.47146509539922D-05  0.47524847404352D-05  0.47989103732822D-05  0.48545592310615D-05  0.49200376726516D-05  0.49959237470369D-05  0.50827638263412D-05  0.51810689205013D-05  0.52913104382118D-05
 0.63622500000000D+02  0.47522344362621D-05  0.47662696584273D-05  0.47873631371848D-05  0.48162527049128D-05  0.48536625550171D-05  0.49002991242275D-05  0.49568472124502D-05  0.50239661544041D-05  0.51022858179759D-05  0.51924021886108D-05
 0.63747500000000D+02  0.48578052921312D-05  0.48584812810006D-05  0.48651304301310D-05  0.48785515582839D-05  0.48995386463838D-05  0.49288761292416D-05  0.49673344826359D-05  0.50156659708842D-05  0.50746003635546D-05  0.51448403937839D-05
 0.63872500000000D+02  0.49954994712147D-05  0.49858589016099D-05  0.49809593597922D-05  0.49816343074755D-05  0.49887215595903D-05  0.50030581224669D-05  0.50254753451395D-05  0.50567943105160D-05  0.50978213234025D-05  0.51493432982522D-05
 0.63997500000000D+02  0.51581814809856D-05  0.51416816757591D-05  0.51286066275003D-05  0.51197968313779D-05  0.51161062259772D-05  0.51183967551369D-05  0.51275332181055D-05  0.51443784024070D-05  0.51697884157481D-05  0.52046080650986D-05
 0.64122500000000D+02  0.53378966137048D-05  0.53182656466308D-05  0.53007240947806D-05  0.52860918416473D-05  0.52752107135531D-05  0.52689389733754D-05  0.52681460363212D-05  0.52737074706006D-05  0.52865002652544D-05  0.53073982700284D-05
 0.64247500000000D+02  0.55262288693032D-05  0.55073118228664D-05  0.54891937454137D-05  0.54726474231174D-05  0.54584750298966D-05  0.54475027806028D-05  0.54405757034200D-05  0.54385526582643D-05  0.54423016510306D-05  0.54526954127344D-05
 0.64372500000000D+02  0.57146530514068D-05  0.57002553525490D-05  0.56854708649359D-05  0.56710010436977D-05  0.56575827096786D-05  0.56459830962731D-05  0.56369948847003D-05  0.56314314088056D-05  0.56301221433510D-05  0.56339085116349D-05
 0.64497500000000D+02  0.58948681687471D-05  0.58886029701673D-05  0.58809228129657D-05  0.58724367768654D-05  0.58637934814326D-05  0.58556767549971D-05  0.58488011450375D-05  0.58439074911921D-05  0.58417587302937D-05  0.58431360334853D-05
 0.64622500000000D+02  0.60591030704859D-05  0.60642492899803D-05  0.60671537421088D-05  0.60683160278912D-05  0.60682774191416D-05  0.60676173604958D-05  0.60669496634633D-05  0.60669186356804D-05  0.60681953566500D-05  0.60714742563222D-05
 0.64747500000000D+02  0.62003884780522D-05  0.62197654132278D-05  0.62363081444092D-05  0.62503941867294D-05  0.62624426884431D-05  0.62729119483067D-05  0.62822964874088D-05  0.62911239199704D-05  0.62999518586594D-05  0.63093650541967D-05
 0.64872500000000D+02  0.63127918120647D-05  0.63486552771317D-05  0.63813477456980D-05  0.64111168946965D-05  0.64382498238386D-05  0.64630717304131D-05  0.64859440265731D-05  0.65072621232266D-05  0.65274531199233D-05  0.65469736269677D-05
 0.64997500000000D+02  0.63916121956866D-05  0.64455759249803D-05  0.64962967286724D-05  0.65438897147454D-05  0.65885051459736D-05  0.66303283630663D-05  0.66695790760536D-05  0.67065102066387D-05  0.67414065031418D-05  0.67745831608703D-05
 0.65122500000000D+02  0.64335328014396D-05  0.65065174937187D-05  0.65764496630787D-05  0.66433141200468D-05  0.67071247274173D-05  0.67679256019036D-05  0.68257916570370D-05  0.68808286102416D-05  0.69331726368790D-05  0.69829898894855D-05
 0.65247500000000D+02  0.64367268716224D-05  0.65289378464747D-05  0.66185355925525D-05  0.67053816994976D-05  0.67893591850885D-05  0.68703749375140D-05  0.69483615252033D-05  0.70232784232717D-05  0.70951127818581D-05  0.71638799191156D-05
 0.65372500000000D+02  0.64009133000702D-05  0.65118464816183D-05  0.66208315625144D-05  0.67276184261035D-05  0.68319696164370D-05  0.69336639112884D-05  0.70324993443110D-05  0.71282956433012D-05  0.72208961378103D-05  0.73101692647641D-05
 0.65497500000000D+02  0.63273584866468D-05  0.64558334181714D-05  0.65832201597778D-05  0.67091723087307D-05  0.68333466271902D-05  0.69554075648879D-05  0.70750313655521D-05  0.71919096406975D-05  0.73057523831987D-05  0.74162904805319D-05
 0.65622500000000D+02  0.62188233098537D-05  0.63630410716200D-05  0.65071880917236D-05  0.66508403129022D-05  0.67935670411768D-05  0.69349361729992D-05  0.70745191875625D-05  0.72118957107508D-05  0.73466575403267D-05  0.74784121141487D-05
 0.65747500000000D+02  0.60794566968221D-05  0.62370797975660D-05  0.63957655078486D-05  0.65550331155683D-05  0.67143855711304D-05  0.68733151240723D-05  0.70313089433104D-05  0.71878544636686D-05  0.73424442706138D-05  0.74945804238120D-05
 0.65872500000000D+02  0.59146394851477D-05  0.60828899585341D-05  0.62534079390166D-05  0.64256784709281D-05  0.65991610376042D-05  0.67732952834398D-05  0.69475069620526D-05  0.71212138086634D-05  0.72938310828578D-05  0.74647766046259D-05
 0.65997500000000D+02  0.57307837766270D-05  0.59065549440689D-05  0.60858244531782D-05  0.62680659202878D-05  0.64527189954140D-05  0.66391948410232D-05  0.68268820874335D-05  0.70151529418635D-05  0.72033691492171D-05  0.73908875596774D-05
 0.66122500000000D+02  0.55350941316928D-05  0.57150710020170D-05  0.58997574210158D-05  0.60886378174893D-05  0.62811553706768D-05  0.64767169364922D-05  0.66746986907202D-05  0.68744521706996D-05  0.70753103875992D-05  0.72765937123334D-05
 0.66247500000000D+02  0.53352982124739D-05  0.55160814340168D-05  0.57027214636403D-05  0.58947343289381D-05  0.60915889099649D-05  0.62927110440280D-05  0.64974885585083D-05  0.67052769434391D-05  0.69154053348111D-05  0.71271824803132D-05
 0.66372500000000D+02  0.51393559645513D-05  0.53175846152912D-05  0.55027114735646D-05  0.56943027666905D-05  0.58918732761651D-05  0.60948894087126D-05  0.63027733592570D-05  0.65149081314525D-05  0.67306431112500D-05  0.69492998579261D-05
 0.66497500000000D+02  0.49551578378284D-05  0.51276269729209D-05  0.53078914905430D-05  0.54955836686933D-05  0.56902817965797D-05  0.58915120678321D-05  0.60987516674825D-05  0.63114328919724D-05  0.65289480464846D-05  0.67506548022302D-05
 0.66622500000000D+02  0.47902234947445D-05  0.49539930817130D-05  0.51262772768655D-05  0.53067871105723D-05  0.54951789251073D-05  0.56910550209211D-05  0.58939655261246D-05  0.61034114160198D-05  0.63188484966946D-05  0.65396920782785D-05
 0.66747500000000D+02  0.46514127701791D-05  0.48039053154498D-05  0.49654256646086D-05  0.51357729058635D-05  0.53146925997325D-05  0.55018761859703D-05  0.56969615659087D-05  0.58995348815413D-05  0.61091333907191D-05  0.63252492289884D-05
 0.66872500000000D+02  0.45446603876126D-05  0.46837451456989D-05  0.48321433156974D-05  0.49897478378426D-05  0.51564010873328D-05  0.53318931228457D-05  0.55159609867023D-05  0.57082891717074D-05  0.59085112483413D-05  0.61162125250045D-05
 0.66997500000000D+02  0.44747451526469D-05  0.45988072762461D-05  0.47322265103364D-05  0.48749919221524D-05  0.50270466508200D-05  0.51882851439412D-05  0.53585512535408D-05  0.55376373916014D-05  0.57252848345366D-05  0.59211851423963D-05
 0.67122500000000D+02  0.44451029580014D-05  0.45530962606513D-05  0.46702418873079D-05  0.47966238632926D-05  0.49322864063364D-05  0.50772303519143D-05  0.52314101902153D-05  0.53947319845956D-05  0.55670523500544D-05  0.57481785540841D-05
 0.67247500000000D+02  0.44576908667482D-05  0.45491730372694D-05  0.46493557142064D-05  0.47584134095942D-05  0.48764881908783D-05  0.50036855358292D-05  0.51400705134493D-05  0.52856646089688D-05  0.54404434467140D-05  0.56043355652829D-05
 0.67372500000000D+02  0.45129069550728D-05  0.45880561602307D-05  0.46712165621228D-05  0.47626455847363D-05  0.48625765364091D-05  0.49712141592430D-05  0.50887302013454D-05  0.52152593528603D-05  0.53508958545299D-05  0.54956910131279D-05
 0.67497500000000D+02  0.46095679160803D-05  0.46691798615673D-05  0.47358936691391D-05  0.48100392507998D-05  0.48919314008611D-05  0.49818653116665D-05  0.50801118129745D-05  0.51869126716167D-05  0.53024762902183D-05  0.54269741003188D-05
 0.67622500000000D+02  0.47449440297808D-05  0.47904087829052D-05  0.48418710780701D-05  0.48997203506978D-05  0.49643402812889D-05  0.50361045390784D-05  0.51153719751096D-05  0.52024815703148D-05  0.52977474800613D-05  0.54014545074465D-05
 0.67747500000000D+02  0.49148489972724D-05  0.49481072003540D-05  0.49860956974940D-05  0.50292483047702D-05  0.50780025100585D-05  0.51327956806094D-05  0.51940604894935D-05  0.52622198116266D-05  0.53376814060162D-05  0.54208327263003D-05
 0.67872500000000D+02  0.51137801038655D-05  0.51372586216983D-05  0.51640755747811D-05  0.51946922582953D-05  0.52295828410079D-05  0.52692312346497D-05  0.53141270105088D-05  0.53647605400257D-05  0.54216176259356D-05  0.54851739478200D-05
 0.67997500000000D+02  0.53351023872963D-05  0.53516300240256D-05  0.53700232500314D-05  0.53907526627779D-05  0.54143104400656D-05  0.54412080222297D-05  0.54719727392660D-05  0.55071434729992D-05  0.55472655497549D-05  0.55928851426889D-05
 0.68122500000000D+02  0.55712697130293D-05  0.55839745259315D-05  0.55970388956464D-05  0.56109238243814D-05  0.56261198594901D-05  0.56431456876956D-05  0.56625456462903D-05  0.56848861492092D-05  0.57107511373364D-05  0.57407367647034D-05
 0.68247500000000D+02  0.58140764193908D-05  0.58262673160895D-05  0.58373292227212D-05  0.58476945531928D-05  0.58578322675877D-05  0.58682474243991D-05  0.58794796953460D-05  0.58921007503939D-05  0.59067105283505D-05  0.59239325200381D-05
 0.68372500000000D+02  0.60549347090938D-05  0.60699711873879D-05  0.60824596469082D-05  0.60927855110211D-05  0.61013765900758D-05  0.61087035861142D-05  0.61152796731501D-05  0.61216589794513D-05  0.61284338930166D-05  0.61362312224570D-05
 0.68497500000000D+02  0.62851734722722D-05  0.63063282792411D-05  0.63236372071386D-05  0.63374216090234D-05  0.63480497348360D-05  0.63559381358518D-05  0.63615523143373D-05  0.63654063789876D-05  0.63680615405470D-05  0.63701233826931D-05
 0.68622500000000D+02  0.64963526790916D-05  0.65266727883791D-05  0.65520196409390D-05  0.65726355183472D-05  0.65888126348184D-05  0.66008953478237D-05  0.66092818261042D-05  0.66144248899569D-05  0.66168317855859D-05  0.66170627369841D-05
 0.68747500000000D+02  0.66805846125284D-05  0.67227563944492D-05  0.67590429155900D-05  0.67895952141681D-05  0.68146157107149D-05  0.68343610982437D-05  0.68491449283912D-05  0.68593395859022D-05  0.68653773602613D-05  0.68677503790486D-05
 0.68872500000000D+02  0.68308506212627D-05  0.68870754708716D-05  0.69367567797151D-05  0.69799457038558D-05  0.70167445713435D-05  0.70473103008189D-05  0.70718577640506D-05  0.70906627865046D-05  0.71040644650791D-05  0.71124665074341D-05
 0.68997500000000D+02  0.69413005010565D-05  0.70131873344772D-05  0.70781558436530D-05  0.71361528041431D-05  0.71871742667274D-05  0.72312693373577D-05  0.72685441416590D-05  0.72991656931544D-05  0.73233653397251D-05  0.73414414557312D-05
 0.69122500000000D+02  0.70075206515697D-05  0.70960013693732D-05  0.71774918375226D-05  0.72518345534392D-05  0.73189177381839D-05  0.73786793026251D-05  0.74311112160066D-05  0.74762640418799D-05  0.75142513360890D-05  0.75452535628758D-05
 0.69247500000000D+02  0.70267564335502D-05  0.71320296249837D-05  0.72305509704415D-05  0.73220636585751D-05  0.74063514939407D-05  0.74832428733914D-05  0.75526153467247D-05  0.76144005890026D-05  0.76685895220926D-05  0.77152372562587D-05
 0.69372500000000D+02  0.69980741055905D-05  0.71195810167405D-05  0.72348794221619D-05  0.73436230708137D-05  0.74454998342584D-05  0.75402355230595D-05  0.76275984229681D-05  0.77074044523332D-05  0.77795227400867D-05  0.78438813344695D-05
 0.69497500000000D+02  0.69224490930289D-05  0.70588843104046D-05  0.71899407024929D-05  0.73151971190469D-05  0.74342588953004D-05  0.75467613502593D-05  0.76523740870632D-05  0.77508060767061D-05  0.78418114001680D-05  0.79251954196663D-05
 0.69622500000000D+02  0.68027704183977D-05  0.69521279043924D-05  0.70971911528348D-05  0.72374828275831D-05  0.73725436027475D-05  0.75019352029387D-05  0.76252442713778D-05  0.77420871268824D-05  0.78521153684860D-05  0.79550221752130D-05
 0.69747500000000D+02  0.66437556260154D-05  0.68034087776236D-05  0.69600640073373D-05  0.71132099230887D-05  0.72623441859701D-05  0.74069759761965D-05  0.75466292567934D-05  0.76808469698724D-05  0.78091962096125D-05  0.79312743065202D-05
 0.69872500000000D+02  0.64517759522134D-05  0.66185883761482D-05  0.67838577639306D-05  0.69470632353269D-05  0.71076839125391D-05  0.72652007238562D-05  0.74190989232418D-05  0.75688715235417D-05  0.77140237681582D-05  0.78540786663609D-05
 0.69997500000000D+02  0.62345972940827D-05  0.64050591595630D-05  0.65755306565182D-05  0.67455072746419D-05  0.69144757604588D-05  0.70819152018878D-05  0.72472987029494D-05  0.74100958939216D-05  0.75697764721119D-05  0.77258148857483D-05
 0.70122500000000D+02  0.60010481621864D-05  0.61714314554044D-05  0.63434092017710D-05  0.65165191618188D-05  0.66902822997996D-05  0.68642031247834D-05  0.70377704625050D-05  0.72104589327716D-05  0.73817313826815D-05  0.75510424658377D-05
 0.70247500000000D+02  0.57606306871873D-05  0.59271555660710D-05  0.60968244802008D-05  0.62692421340587D-05  0.64439894309832D-05  0.66206230778952D-05  0.67986754400254D-05  0.69776549303900D-05  0.71570472205909D-05  0.73363175256936D-05
 0.70372500000000D+02  0.55230943866552D-05  0.56820982065870D-05  0.58456944375488D-05  0.60135769583299D-05  0.61854101967078D-05  0.63608280333464D-05  0.65394327666722D-05  0.67207944138578D-05  0.69044506501077D-05  0.70899076823714D-05
 0.70497500000000D+02  0.52979945693424D-05  0.54460950823775D-05  0.56000737903665D-05  0.57597324485341D-05  0.59248393096189D-05  0.60951273861012D-05  0.62702925889490D-05  0.64499919902917D-05  0.66338425068397D-05  0.68214203219497D-05
 0.70622500000000D+02  0.50942581339499D-05  0.52285028847574D-05  0.53696951863518D-05  0.55177589502909D-05  0.56725823011000D-05  0.58340152733833D-05  0.60018672172831D-05  0.61759041165590D-05  0.63558460910764D-05  0.65413654011830D-05
 0.70747500000000D+02  0.49197794389715D-05  0.50377744380987D-05  0.51635262647087D-05  0.52970901863698D-05  0.54384852509793D-05  0.55876915058219D-05  0.57446467830225D-05  0.59092432008379D-05  0.60813236106258D-05  0.62606782855255D-05
 0.70872500000000D+02  0.47810678835913D-05  0.48810800641440D-05  0.49893669582809D-05  0.51061189120226D-05  0.52314914673872D-05  0.53656021942066D-05  0.55085269803051D-05  0.56602958673835D-05  0.58208886074520D-05  0.59902301960407D-05
 0.70997500000000D+02  0.46829663863917D-05  0.47639959198785D-05  0.48535092242956D-05  0.49518298408129D-05  0.50592496780887D-05  0.51760255455701D-05  0.53023750761939D-05  0.54384720612699D-05  0.55844413089664D-05  0.57403532282955D-05
 0.71122500000000D+02  0.46284557124947D-05  0.46902758156109D-05  0.47604771621043D-05  0.48395091325442D-05  0.49277942258944D-05  0.50257243766582D-05  0.51336566339084D-05  0.52519081627883D-05  0.53807506130201D-05  0.55204039921086D-05
 0.71247500000000D+02  0.46185538867150D-05  0.46617172368256D-05  0.47128596731381D-05  0.47725439639366D-05  0.48413120759092D-05  0.49196813488149D-05  0.50081400454163D-05  0.51071421818769D-05  0.52171016178043D-05  0.53383854745902D-05
 0.71372500000000D+02  0.46523135345264D-05  0.46781258039069D-05  0.47112412860538D-05  0.47523191813342D-05  0.48020049877705D-05  0.48609265978996D-05  0.49296898216453D-05  0.50088731956067D-05  0.50990219987441D-05  0.52006414744100D-05
 0.71497500000000D+02  0.47269136391000D-05  0.47373759254429D-05  0.47542302173362D-05  0.47782114617625D-05  0.48100486698173D-05  0.48504609926534D-05  0.49001533052508D-05  0.49598111270781D-05  0.50300947505994D-05  0.51116325141261D-05
 0.71622500000000D+02  0.48378364042133D-05  0.48355594679235D-05  0.48385767219487D-05  0.48476753637744D-05  0.48636447130103D-05  0.48872723176170D-05  0.49193396722865D-05  0.49606173619774D-05  0.50118594658454D-05  0.50737971042299D-05
 0.71747500000000D+02  0.49791151649847D-05  0.49672094070037D-05  0.49593698659643D-05  0.49564107056309D-05  0.49591561802217D-05  0.49684368186923D-05  0.49850853380279D-05  0.50099320984061D-05  0.50437999151353D-05  0.50874980692690D-05
 0.71872500000000D+02  0.51436360857977D-05  0.51255821295188D-05  0.51102974906325D-05  0.50985973045601D-05  0.50913143055474D-05  0.50892951353854D-05  0.50933965000058D-05  0.51044810020704D-05  0.51234124603848D-05  0.51510505327426D-05
 0.71997500000000D+02  0.53234750099511D-05  0.53029805529666D-05  0.52839525138195D-05  0.52671813733572D-05  0.52534819151669D-05  0.52436897052918D-05  0.52386575305825D-05  0.52392516528451D-05  0.52463477015004D-05  0.52608260127814D-05
 0.72122500000000D+02  0.55102512088280D-05  0.54911004042416D-05  0.54721686740646D-05  0.54541976104623D-05  0.54379587023611D-05  0.54242500341199D-05  0.54138930367009D-05  0.54077291887797D-05  0.54066165169844D-05  0.54114257114768D-05
 0.72247500000000D+02  0.56954815478622D-05  0.56813834724410D-05  0.56663699853257D-05  0.56511118652670D-05  0.56363140177377D-05  0.56227124431964D-05  0.56110713281456D-05  0.56021802046600D-05  0.55968510662418D-05  0.55959152799783D-05
 0.72372500000000D+02  0.58709212072461D-05  0.58653639196333D-05  0.58579200734753D-05  0.58491707905871D-05  0.58397339940841D-05  0.58302617011140D-05  0.58214374810381D-05  0.58139740770597D-05  0.58086111266663D-05  0.58061128577675D-05
 0.72497500000000D+02  0.60288800053863D-05  0.60349962921174D-05  0.60384597577977D-05  0.60397467100796D-05  0.60393712589469D-05  0.60378829944209D-05  0.60358648433097D-05  0.60339311551390D-05  0.60327260048849D-05  0.60329216359662D-05
 0.72622500000000D+02  0.61625060833485D-05  0.61829562800988D-05  0.62002233186030D-05  0.62146676549192D-05  0.62266868369075D-05  0.62367136331815D-05  0.62452143266439D-05  0.62526872703590D-05  0.62596617459262D-05  0.62666970998578D-05
 0.72747500000000D+02  0.62660308409089D-05  0.63029071600824D-05  0.63363254936270D-05  0.63665237954471D-05  0.63937747326943D-05  0.64183843358855D-05  0.64406907742927D-05  0.64610633934386D-05  0.64799021032741D-05  0.64976371455761D-05
 0.72872500000000D+02  0.63349703230673D-05  0.63897259664256D-05  0.64410121103021D-05  0.64889420520333D-05  0.65336598757463D-05  0.65753396925342D-05  0.66141849469335D-05  0.66504279537458D-05  0.66843297940509D-05  0.67161806485363D-05
 0.72997500000000D+02  0.63662787354231D-05  0.64396837883726D-05  0.65098674339216D-05  0.65768206154964D-05  0.66405597752910D-05  0.67011267454047D-05  0.67585886335590D-05  0.68130378803359D-05  0.68645926455814D-05  0.69133976441790D-05
 0.73122500000000D+02  0.63584498249150D-05  0.64505746396425D-05  0.65399713254797D-05  0.66265150539631D-05  0.67101000838564D-05  0.67906403475669D-05  0.68680699557971D-05  0.69423437946357D-05  0.70134383876375D-05  0.70813531743010D-05
 0.73247500000000D+02  0.63115622742071D-05  0.64217879059142D-05  0.65299999886580D-05  0.66359684747651D-05  0.67394751408330D-05  0.68403148878380D-05  0.69382968873070D-05  0.70332457293307D-05  0.71250027446943D-05  0.72134276704412D-05
 0.73372500000000D+02  0.62272667087409D-05  0.63543210586451D-05  0.64802659746496D-05  0.66047802759455D-05  0.67275467783428D-05  0.68482542920558D-05  0.69665994064621D-05  0.70822881848259D-05  0.71950379257683D-05  0.73045791641083D-05
 0.73497500000000D+02  0.61087144292949D-05  0.62507320147189D-05  0.63926959467071D-05  0.65342109634739D-05  0.66748776906094D-05  0.68142952803466D-05  0.69520638002661D-05  0.70877864499212D-05  0.72210717326468D-05  0.73515357436811D-05
 0.73622500000000D+02  0.59604308513838D-05  0.61150334263296D-05  0.62707476276089D-05  0.64271234367629D-05  0.65836985984462D-05  0.67400018036074D-05  0.68955556134489D-05  0.70498791500799D-05  0.72024906398653D-05  0.73529099450972D-05
 0.73747500000000D+02  0.57881390064087D-05  0.59525335145697D-05  0.61192696603641D-05  0.62878634649060D-05  0.64578108186384D-05  0.66285910735141D-05  0.67996704013320D-05  0.69705048878208D-05  0.71405433985847D-05  0.73092303147505D-05
 0.73872500000000D+02  0.55985400032969D-05  0.57696296296453D-05  0.59443097744465D-05  0.61220839036567D-05  0.63024279169698D-05  0.64847939849734D-05  0.66686142137486D-05  0.68533040509548D-05  0.70382654147796D-05  0.72228895961348D-05
 0.73997500000000D+02  0.53990583280091D-05  0.55735619019420D-05  0.57528781145044D-05  0.59365190254289D-05  0.61239623672189D-05  0.63146554444702D-05  0.65080189556324D-05  0.67034506009494D-05  0.69003284026221D-05  0.70980137339771D-05
 0.74122500000000D+02  0.51975607152754D-05  0.53721355624445D-05  0.55526742120762D-05  0.57387174024454D-05  0.59297656671592D-05  0.61252831055899D-05  0.63247011981764D-05  0.65274224894049D-05  0.67328240130807D-05  0.69402604011873D-05
 0.74247500000000D+02  0.50020582614648D-05  0.51734218285886D-05  0.53517877826223D-05  0.55367438539569D-05  0.57278327736326D-05  0.59245557256815D-05  0.61263759845901D-05  0.63327225326208D-05  0.65429934884258D-05  0.67565592354907D-05
 0.74372500000000D+02  0.48204023227765D-05  0.49854484040260D-05  0.51583849258751D-05  0.53388625685592D-05  0.55264834834857D-05  0.57208042499601D-05  0.59213391632585D-05  0.61275636360644D-05  0.63389175135308D-05  0.65548081449574D-05
 0.74497500000000D+02  0.46599853023886D-05  0.48158913292904D-05  0.49803920909012D-05  0.51532143621200D-05  0.53340342811059D-05  0.55224796540951D-05  0.57181327308178D-05  0.59205332364192D-05  0.61291814437386D-05  0.63435410945563D-05
 0.74622500000000D+02  0.45274575387343D-05  0.46717800509997D-05  0.48251903032961D-05  0.49875011635498D-05  0.51584742971550D-05  0.53378216936777D-05  0.55252077835170D-05  0.57202519508233D-05  0.59225312264771D-05  0.61315829495578D-05
 0.74747500000000D+02  0.44284711666694D-05  0.45592271992280D-05  0.46993317301947D-05  0.48486903524686D-05  0.50071585082011D-05  0.51745421488808D-05  0.53505990730795D-05  0.55350407836669D-05  0.57275346648697D-05  0.59277062635273D-05
 0.74872500000000D+02  0.43674610174263D-05  0.44831936705720D-05  0.46082896745531D-05  0.47427504927326D-05  0.48865301295608D-05  0.50395348792678D-05  0.52016237987718D-05  0.53726097946205D-05  0.55522611564640D-05  0.57403033340102D-05
 0.74997500000000D+02  0.43474712457469D-05  0.44472981067787D-05  0.45562514494319D-05  0.46744282330333D-05  0.48018822543503D-05  0.49386229880391D-05  0.50846151503789D-05  0.52397789329173D-05  0.54039907838360D-05  0.55770845624446D-05
 0.75122500000000D+02  0.43700343641928D-05  0.44536777162016D-05  0.45459613146352D-05  0.46470737647432D-05  0.47571663153409D-05  0.48763508439943D-05  0.50046985144530D-05  0.51422391140070D-05  0.52889610035618D-05  0.54448115480094D-05
 0.75247500000000D+02  0.44351069007654D-05  0.45029048456634D-05  0.45786180609882D-05  0.46625195929383D-05  0.47548522955286D-05  0.48558260623482D-05  0.49656156307703D-05  0.50843590264882D-05  0.52121566414219D-05  0.53490708651643D-05
 0.75372500000000D+02  0.45410633583576D-05  0.45939611832591D-05  0.46538293262391D-05  0.47210149137333D-05  0.47958431984122D-05  0.48786141839611D-05  0.49695996790274D-05  0.50690409023993D-05  0.51771466930009D-05  0.52940923036966D-05
 0.75497500000000D+02  0.46847478360110D-05  0.47242692143838D-05  0.47696225295688D-05  0.48212157524626D-05  0.48794442023811D-05  0.49446867485208D-05  0.50173022627283D-05  0.50976264890760D-05  0.51859694395269D-05  0.52826133549605D-05
 0.75622500000000D+02  0.48615805353516D-05  0.48897784747249D-05  0.49225102839199D-05  0.49602290319069D-05  0.50033849722198D-05  0.50524215321036D-05  0.51077713524737D-05  0.51698525730134D-05  0.52390655177175D-05  0.53157898768220D-05
 0.75747500000000D+02  0.50657142635095D-05  0.50851021051605D-05  0.51076061820061D-05  0.51337068558614D-05  0.51638918025783D-05  0.51986520158138D-05  0.52384776524644D-05  0.52838539257850D-05  0.53352572337404D-05  0.53931516666624D-05
 0.75872500000000D+02  0.52902342036030D-05  0.53036975432761D-05  0.53187853674230D-05  0.53359860106526D-05  0.53558052028653D-05  0.53787623183510D-05  0.54053862635566D-05  0.54362112031337D-05  0.54717723273206D-05  0.55126018399773D-05
 0.75997500000000D+02  0.55273933782459D-05  0.55380846193045D-05  0.55488840230864D-05  0.55602677002492D-05  0.55727388376969D-05  0.55868244152327D-05  0.56030713783204D-05  0.56220424427345D-05  0.56443117314743D-05  0.56704604423086D-05
 0.76122500000000D+02  0.57688767847350D-05  0.57800951174823D-05  0.57899329269732D-05  0.57988337519972D-05  0.58072771359337D-05  0.58157760128939D-05  0.58248734004386D-05  0.58351385355938D-05  0.58471626339077D-05  0.58615544709025D-05
 0.76247500000000D+02  0.60060884015583D-05  0.60211491012365D-05  0.60334214553409D-05  0.60432967283007D-05  0.60512100228703D-05  0.60576385065661D-05  0.60630988381711D-05  0.60681438802220D-05  0.60733588404963D-05  0.60793570245969D-05
 0.76372500000000D+02  0.62304556479760D-05  0.62525534669464D-05  0.62705883685051D-05  0.62848811302463D-05  0.62958027870000D-05  0.63037738278115D-05  0.63092625364047D-05  0.63127825028247D-05  0.63148893997220D-05  0.63161771713827D-05
 0.76497500000000D+02  0.64337445313511D-05  0.64658165843857D-05  0.64927338909782D-05  0.65147308831228D-05  0.65320969683940D-05  0.65451767795966D-05  0.65543695647793D-05  0.65601276844989D-05  0.65629542516610D-05  0.65634000142601D-05
 0.76622500000000D+02  0.66083762393661D-05  0.66529702571567D-05  0.66915448766200D-05  0.67242355239824D-05  0.67512353815817D-05  0.67727967188930D-05  0.67892314143908D-05  0.68009105766009D-05  0.68082632377536D-05  0.68117741628375D-05
 0.76747500000000D+02  0.67477336895821D-05  0.68068878868125D-05  0.68594224216697D-05  0.69053650301260D-05  0.69448018736166D-05  0.69778799240109D-05  0.70048086401820D-05  0.70258607928768D-05  0.70413723505455D-05  0.70517414063833D-05
 0.76872500000000D+02  0.68464452471523D-05  0.69215861704556D-05  0.69897994908671D-05  0.70510011981792D-05  0.71051641725911D-05  0.71523215400256D-05  0.71925694634905D-05  0.72260691864359D-05  0.72530481859579D-05  0.72738003535614D-05
 0.76997500000000D+02  0.69006321856971D-05  0.69924965716220D-05  0.70774345925740D-05  0.71552515368102D-05  0.72258058456547D-05  0.72890133020890D-05  0.73448508338930D-05  0.73933597206467D-05  0.74346480179085D-05  0.74688920587353D-05
 0.77122500000000D+02  0.69081061692130D-05  0.70166919807325D-05  0.71186662104310D-05  0.72137298302144D-05  0.73016311341463D-05  0.73821705752971D-05  0.74552054176480D-05  0.75206539819428D-05  0.75784992681564D-05  0.76287917668232D-05
 0.77247500000000D+02  0.68685034059595D-05  0.69930538956625D-05  0.71116121583519D-05  0.72237865419606D-05  0.73292250118298D-05  0.74276204114172D-05  0.75187157468686D-05  0.76023092809802D-05  0.76782592050233D-05  0.77464876663426D-05
 0.77372500000000D+02  0.67833437988882D-05  0.69223667716591D-05  0.70562989599741D-05  0.71846727549517D-05  0.73070509130393D-05  0.74230319883624D-05  0.75322559917633D-05  0.76344100850901D-05  0.77292340827144D-05  0.78165255203976D-05
 0.77497500000000D+02  0.66560066471244D-05  0.68073291604046D-05  0.69547090092622D-05  0.70976236347967D-05  0.72355704637248D-05  0.73680722464566D-05  0.74946828049501D-05  0.76149930362334D-05  0.77286369644976D-05  0.78352976022610D-05
 0.77622500000000D+02  0.64916189889981D-05  0.66524756562435D-05  0.68107374626724D-05  0.69658513306702D-05  0.71172731513543D-05  0.72644727644589D-05  0.74069394992872D-05  0.75441881708534D-05  0.76757653606166D-05  0.78012557608969D-05
 0.77747500000000D+02  0.62968580416319D-05  0.64640090631940D-05  0.66300561727991D-05  0.67944424836921D-05  0.69566089556825D-05  0.71159987707974D-05  0.72720623801685D-05  0.74242631711061D-05  0.75720836325349D-05  0.77150318330794D-05
 0.77872500000000D+02  0.60796748617586D-05  0.62495480820423D-05  0.64198880152877D-05  0.65901616464607D-05  0.67598231199186D-05  0.69283172972462D-05  0.70950840495519D-05  0.72595632898521D-05  0.74212006803792D-05  0.75794538777340D-05
 0.77997500000000D+02  0.58489517411912D-05  0.60178015764888D-05  0.61887010474547D-05  0.63611682796368D-05  0.65346988214880D-05  0.67087682151371D-05  0.68828353159481D-05  0.70563464203317D-05  0.72287401962113D-05  0.73994533367477D-05
 0.78122500000000D+02  0.56141103225704D-05  0.57781854252777D-05  0.59458373396688D-05  0.61166608190403D-05  0.62902197153444D-05  0.64660484461334D-05  0.66436541775210D-05  0.68225198294629D-05  0.70021079552439D-05  0.71818654774125D-05
 0.78247500000000D+02  0.53846904789821D-05  0.55404015661218D-05  0.57010954628909D-05  0.58664659865266D-05  0.60361695242241D-05  0.62098253358737D-05  0.63870164979722D-05  0.65672916316162D-05  0.67501675173729D-05  0.69351326396961D-05
 0.78372500000000D+02  0.51699215335262D-05  0.53140009501883D-05  0.54642883275210D-05  0.56205948389802D-05  0.57826897818682D-05  0.59502997114982D-05  0.61231081071548D-05  0.63007557369873D-05  0.64828418654258D-05  0.66689264003139D-05
 0.78497500000000D+02  0.49783077039335D-05  0.51079530125286D-05  0.52447995523958D-05  0.53887891435536D-05  0.55398195446838D-05  0.56977424663008D-05  0.58623619810242D-05  0.60334335090083D-05  0.62106635504311D-05  0.63937103071010D-05
 0.78622500000000D+02  0.48172490979123D-05  0.49302441900941D-05  0.50511619639728D-05  0.51800825888552D-05  0.53170423109806D-05  0.54620304383408D-05  0.56149865727583D-05  0.57757982651066D-05  0.59442992802898D-05  0.61202686466349D-05
 0.78747500000000D+02  0.46927181024198D-05  0.47875268312453D-05  0.48906809366653D-05  0.50024007557878D-05  0.51228651094839D-05  0.52522073879706D-05  0.53905117290676D-05  0.55378094510471D-05  0.56940759278620D-05  0.58592281003256D-05
 0.78872500000000D+02  0.46090081718260D-05  0.46848370888511D-05  0.47691226363412D-05  0.48622212456347D-05  0.49644523393900D-05  0.50760936741703D-05  0.51973766263788D-05  0.53284815598894D-05  0.54695334518681D-05  0.56205979753178D-05
 0.78997500000000D+02  0.45685676122737D-05  0.46253959418406D-05  0.46904827793753D-05  0.47643109514791D-05  0.48473326142999D-05  0.49399640272321D-05  0.50425801348114D-05  0.51555090648230D-05  0.52790266973157D-05  0.54133514947984D-05
 0.79122500000000D+02  0.45719253852327D-05  0.46105018339200D-05  0.46568458304070D-05  0.47115517875400D-05  0.47751912609557D-05  0.48483073373293D-05  0.49314087169613D-05  0.50249635648897D-05  0.51293932555588D-05  0.52450661814885D-05
 0.79247500000000D+02  0.46177099501081D-05  0.46395173086510D-05  0.46683383965123D-05  0.47048600226067D-05  0.47497550071568D-05  0.48036763697087D-05  0.48672511236988D-05  0.49410737177746D-05  0.50256992145265D-05  0.51216363481294D-05
 0.79372500000000D+02  0.47027563679854D-05  0.47099460872618D-05  0.47231745584236D-05  0.47431983162963D-05  0.47707693714911D-05  0.48066293786964D-05  0.48515033519138D-05  0.49060929358381D-05  0.49710692883471D-05  0.50470656806599D-05
 0.79497500000000D+02  0.48222917741363D-05  0.48175917796890D-05  0.48177855304053D-05  0.48236741648053D-05  0.48360638838415D-05  0.48557602696995D-05  0.48835621196577D-05  0.49202547787780D-05  0.49666029927235D-05  0.50233433498001D-05
 0.79622500000000D+02  0.49701853478880D-05  0.49567853161887D-05  0.49470218491281D-05  0.49417142196194D-05  0.49416960070270D-05  0.49478097217511D-05  0.49609009380824D-05  0.49818119010800D-05  0.50113745999958D-05  0.50504033408878D-05
 0.79747500000000D+02  0.51392464420840D-05  0.51206656002546D-05  0.51044136009418D-05  0.50913011634030D-05  0.50821617795201D-05  0.50778467806984D-05  0.50792199271716D-05  0.50871514757699D-05  0.51025116969721D-05  0.51261638416112D-05
 0.79872500000000D+02  0.53215537126469D-05  0.53014969054493D-05  0.52824730595816D-05  0.52652585299402D-05  0.52506597440772D-05  0.52395088264180D-05  0.52326587749293D-05  0.52309781449552D-05  0.52353451976939D-05  0.52466414881847D-05
 0.79997500000000D+02  0.55087987353322D-05  0.54910069630622D-05  0.54730242950909D-05  0.54555687991821D-05  0.54393944227254D-05  0.54252872661944D-05  0.54140614499057D-05  0.54065545350536D-05  0.54036224518916D-05  0.54061338928992D-05
 0.80122500000000D+02  0.56926293094867D-05  0.56807311142820D-05  0.56675454400998D-05  0.56537109127849D-05  0.56399060984881D-05  0.56268464951499D-05  0.56152811644148D-05  0.56059889773572D-05  0.55997744304998D-05  0.55974629820574D-05
 0.80247500000000D+02  0.58649799323239D-05  0.58623498658177D-05  0.58575109331870D-05  0.58510046498138D-05  0.58434146168866D-05  0.58353642779371D-05  0.58275143656536D-05  0.58205600288456D-05  0.58152276064470D-05  0.58122709992813D-05
 0.80372500000000D+02  0.60183793102745D-05  0.60280092624026D-05  0.60347228117573D-05  0.60389507222355D-05  0.60411659975673D-05  0.60418824302696D-05  0.60416528909211D-05  0.60410673656709D-05  0.60407507239571D-05  0.60413601752731D-05
 0.80497500000000D+02  0.61462268788949D-05  0.61706153244220D-05  0.61916216696400D-05  0.62095566757283D-05  0.62247715264537D-05  0.62376571789672D-05  0.62486435036223D-05  0.62581982375710D-05  0.62668257513293D-05  0.62750656005701D-05
 0.80622500000000D+02  0.62430318634715D-05  0.62840951304313D-05  0.63215689599274D-05  0.63556394373830D-05  0.63865293967097D-05  0.64144985649954D-05  0.64398435429605D-05  0.64628976589899D-05  0.64840307125942D-05  0.65036485958717D-05
 0.80747500000000D+02  0.63046093002746D-05  0.63636178234855D-05  0.64190927878032D-05  0.64710955306045D-05  0.65197188065979D-05  0.65650877003256D-05  0.66073604194693D-05  0.66467290139376D-05  0.66834200501415D-05  0.67176952456698D-05
 0.80872500000000D+02  0.63282277741088D-05  0.64057690403166D-05  0.64800894024933D-05  0.65511298451224D-05  0.66188560524667D-05  0.66832600429097D-05  0.67443617283544D-05  0.68022104435868D-05  0.68568864833452D-05  0.69085026667607D-05
 0.80997500000000D+02  0.63127038897522D-05  0.64086725377756D-05  0.65019728596331D-05  0.65924340720116D-05  0.66799023098894D-05  0.67642429145595D-05  0.68453426914676D-05  0.69231121750882D-05  0.69974879402449D-05  0.70684349896736D-05
 0.81122500000000D+02  0.62584393751607D-05  0.63720538243971D-05  0.64837664893653D-05  0.65933071832732D-05  0.67004141439795D-05  0.68048368832614D-05  0.69063390525600D-05  0.70047013477510D-05  0.70997244868557D-05  0.71912322947809D-05
 0.81247500000000D+02  0.61673986566796D-05  0.62972427576153D-05  0.64261321376127D-05  0.65537128138465D-05  0.66796303795774D-05  0.68035332971780D-05  0.69250762575314D-05  0.70439236083069D-05  0.71597528728672D-05  0.72722583916596D-05
 0.81372500000000D+02  0.60430275378057D-05  0.61871150026413D-05  0.63313361943328D-05  0.64752715300235D-05  0.66184921404178D-05  0.67605634658740D-05  0.69010489731748D-05  0.70395139723884D-05  0.71755295381272D-05  0.73086765584349D-05
 0.81497500000000D+02  0.58901165014758D-05  0.60459751668913D-05  0.62031543586372D-05  0.63611889193314D-05  0.65195958379671D-05  0.66778779905313D-05  0.68355280607993D-05  0.69920325972352D-05  0.71468761895316D-05  0.72995457738842D-05
 0.81622500000000D+02  0.57146144439127D-05  0.58793867023670D-05  0.60467193903560D-05  0.62161227976044D-05  0.63870813594203D-05  0.65590573740576D-05  0.67314949648656D-05  0.69038242218554D-05  0.70754654843595D-05  0.72458337556614D-05
 0.81747500000000D+02  0.55234001643001D-05  0.56939552638968D-05  0.58683178388048D-05  0.60459947844485D-05  0.62264599413781D-05  0.64091576226951D-05  0.65935064544280D-05  0.67789034466412D-05  0.69647282362940D-05  0.71503474723142D-05
 0.81872500000000D+02  0.53240199710843D-05  0.54970734822531D-05  0.56751433155112D-05  0.58577534406592D-05  0.60443885737341D-05  0.62344973588747D-05  0.64274959315035D-05  0.66227717700640D-05  0.68196877600649D-05  0.70175864205265D-05
 0.81997500000000D+02  0.51244006771775D-05  0.52966363657141D-05  0.54750155139908D-05  0.56590982022073D-05  0.58484002308014D-05  0.60423958203451D-05  0.62405207564147D-05  0.64421758837863D-05  0.66467308618732D-05  0.68535281135218D-05
 0.82122500000000D+02  0.49325481486689D-05  0.51007377679653D-05  0.52760757311383D-05  0.54581752069478D-05  0.56466013718853D-05  0.58408735170102D-05  0.60404676528869D-05  0.62448195225384D-05  0.64533279295449D-05  0.66653583000598D-05
 0.82247500000000D+02  0.47562422956409D-05  0.49173593073513D-05  0.50864707861465D-05  0.52632574153571D-05  0.54473495936418D-05  0.56383288673980D-05  0.58357298979630D-05  0.60390428875486D-05  0.62477163743526D-05  0.64611603087376D-05
 0.82372500000000D+02  0.46027397558173D-05  0.47540635842258D-05  0.49140377694523D-05  0.50824220192354D-05  0.52589249532279D-05  0.54432048122518D-05  0.56348707173141D-05  0.58334844240012D-05  0.60385624943868D-05  0.62495787992039D-05
 0.82497500000000D+02  0.44784954496227D-05  0.46177034888948D-05  0.47660020069644D-05  0.49232380870357D-05  0.50892084377899D-05  0.52636593646753D-05  0.54462872802427D-05  0.56367397267933D-05  0.58346168530152D-05  0.60394732665041D-05
 0.82622500000000D+02  0.43889136884209D-05  0.45141588646157D-05  0.46487000604774D-05  0.47924767916013D-05  0.49453804143946D-05  0.51072533781403D-05  0.52778889776338D-05  0.54570316109332D-05  0.56443775099080D-05  0.58395758826595D-05
 0.82747500000000D+02  0.43381385546110D-05  0.44481107499446D-05  0.45673384623842D-05  0.46958553576135D-05  0.48336506000491D-05  0.49806674361141D-05  0.51368022121059D-05  0.53019038632715D-05  0.54757738721078D-05  0.56581666590300D-05
 0.82872500000000D+02  0.43288917378804D-05  0.44228617760790D-05  0.45257971186558D-05  0.46378239893391D-05  0.47590291094478D-05  0.48894576914463D-05  0.50291117762863D-05  0.51779489810022D-05  0.53358816864897D-05  0.55027766575996D-05
 0.82997500000000D+02  0.43623638936204D-05  0.44402090671421D-05  0.45264839864120D-05  0.46214026251862D-05  0.47251456545043D-05  0.48378579500873D-05  0.49596463327371D-05  0.50905776329562D-05  0.52306771401643D-05  0.53799274599015D-05
 0.83122500000000D+02  0.44381631063963D-05  0.45003734557445D-05  0.45702450605145D-05  0.46480717746222D-05  0.47341213768904D-05  0.48286327150989D-05  0.49318129588243D-05  0.50438350694999D-05  0.51648355740570D-05  0.52949126960592D-05
 0.83247500000000D+02  0.45543215529747D-05  0.46019863539620D-05  0.46563312583148D-05  0.47177192829881D-05  0.47864954255952D-05  0.48629835809751D-05  0.49474834365767D-05  0.50402674630267D-05  0.51415781051799D-05  0.52516252543308D-05
 0.83372500000000D+02  0.47073591821658D-05  0.47421333880732D-05  0.47824216039219D-05  0.48286427219106D-05  0.48812062774242D-05  0.49405092803294D-05  0.50069328975408D-05  0.50808391010156D-05  0.51625673964548D-05  0.52524317337226D-05
 0.83497500000000D+02  0.48924011017995D-05  0.49164518207333D-05  0.49447000661768D-05  0.49776050885809D-05  0.50156258128583D-05  0.50592177263992D-05  0.51088295013087D-05  0.51648994527610D-05  0.52278519486820D-05  0.52980938835754D-05
 0.83622500000000D+02  0.51033433376379D-05  0.51192768356732D-05  0.51379815386193D-05  0.51599397212757D-05  0.51856424829764D-05  0.52155868282216D-05  0.52502723822942D-05  0.52901978224285D-05  0.53358571294555D-05  0.53877357746944D-05
 0.83747500000000D+02  0.53330600823556D-05  0.53438303933397D-05  0.53558812763350D-05  0.53696993705143D-05  0.53857891510379D-05  0.54046703272096D-05  0.54268748000713D-05  0.54529432314450D-05  0.54834213095701D-05  0.55188558177501D-05
 0.83872500000000D+02  0.55736451261420D-05  0.55824461948656D-05  0.55910221894020D-05  0.55998447012709D-05  0.56094117696478D-05  0.56202457070873D-05  0.56328904367436D-05  0.56479083598112D-05  0.56658768106571D-05  0.56873841878790D-05
 0.83997500000000D+02  0.58166809410921D-05  0.58268252465800D-05  0.58352755007849D-05  0.58424687377885D-05  0.58488763893825D-05  0.58550026306358D-05  0.58613822182473D-05  0.58685778053555D-05  0.58771767570651D-05  0.58877875283092D-05
 0.84122500000000D+02  0.60535299156377D-05  0.60683174996451D-05  0.60800311979949D-05  0.60890546038555D-05  0.60958127374267D-05  0.61007709838212D-05  0.61044335335642D-05  0.61073412757281D-05  0.61100691321353D-05  0.61132228614234D-05
 0.84247500000000D+02  0.62756421547058D-05  0.62982247511318D-05  0.63164942243048D-05  0.63307632471455D-05  0.63413917764974D-05  0.63487866346634D-05  0.63534006292049D-05  0.63557311318121D-05  0.63563180694474D-05  0.63557413203607D-05
 0.84372500000000D+02  0.64748726049632D-05  0.65081181441871D-05  0.65360003573002D-05  0.65587457309241D-05  0.65766324825811D-05  0.65899908153209D-05  0.65992027677523D-05  0.66047015581359D-05  0.66069703442702D-05  0.66065403553734D-05
 0.84497500000000D+02  0.66437978492704D-05  0.66901611006906D-05  0.67303431712870D-05  0.67644721162238D-05  0.67927305448632D-05  0.68153565556208D-05  0.68326443394816D-05  0.68449443376676D-05  0.68526628502458D-05  0.68562610184824D-05
 0.84622500000000D+02  0.67760208975046D-05  0.68374264031178D-05  0.68921012843066D-05  0.69400667017153D-05  0.69813993925419D-05  0.70162332702286D-05  0.70447607762273D-05  0.70672338662131D-05  0.70839645112638D-05  0.70953246093064D-05
 0.84747500000000D+02  0.68664510694374D-05  0.69441946402213D-05  0.70149533304647D-05  0.70786373866874D-05  0.71352117284814D-05  0.71846981747763D-05  0.72271775096753D-05  0.72627912772996D-05  0.72917431799000D-05  0.73142999553075D-05
 0.84872500000000D+02  0.69115453062325D-05  0.70062200233576D-05  0.70939664655503D-05  0.71745848940874D-05  0.72479273587312D-05  0.73139004889289D-05  0.73724682103761D-05  0.74236542928541D-05  0.74675446078356D-05  0.75042889626401D-05
 0.84997500000000D+02  0.69094968521346D-05  0.70209486847594D-05  0.71258428449983D-05  0.72238757797845D-05  0.73147908891197D-05  0.73983817967879D-05  0.74744956254051D-05  0.75430362060084D-05  0.76039671149919D-05  0.76573144066554D-05
 0.85122500000000D+02  0.68603577014946D-05  0.69876745710123D-05  0.71091080703185D-05  0.72242622777364D-05  0.73327815658504D-05  0.74343542429227D-05  0.75287162666197D-05  0.76156549901065D-05  0.76950128564306D-05  0.77666909216642D-05
 0.85247500000000D+02  0.67660831024842D-05  0.69076195570995D-05  0.70442267029593D-05  0.71754327061976D-05  0.73007977744387D-05  0.74199180386195D-05  0.75324295610357D-05  0.76380124623466D-05  0.77363951133286D-05  0.78273582937892D-05
 0.85372500000000D+02  0.66304899193002D-05  0.67839276084976D-05  0.69336327875264D-05  0.70790786015144D-05  0.72197607178622D-05  0.73552013006252D-05  0.74849531491260D-05  0.76086040260364D-05  0.77257811546861D-05  0.78361558178332D-05
 0.85497500000000D+02  0.64591255105695D-05  0.66215674922265D-05  0.67816677513731D-05  0.69388688633609D-05  0.70926255522757D-05  0.72424085985203D-05  0.73877089321578D-05  0.75280419666143D-05  0.76629521874798D-05  0.77920179637566D-05
 0.85622500000000D+02  0.62590495104657D-05  0.64271442717035D-05  0.65944237138403D-05  0.67603267229736D-05  0.69242935804037D-05  0.70857696402523D-05  0.72442091986749D-05  0.73990796327647D-05  0.75498658566678D-05  0.76960750994953D-05
 0.85747500000000D+02  0.60385369297160D-05  0.62086260677278D-05  0.63794966320262D-05  0.65506118118996D-05  0.67214255659411D-05  0.68913859112269D-05  0.70599383963829D-05  0.72265298520397D-05  0.73906124937140D-05  0.75516484175962D-05
 0.85872500000000D+02  0.58067166404244D-05  0.59749986185961D-05  0.61456601078863D-05  0.63182162899601D-05  0.64921631266379D-05  0.66669801150234D-05  0.68421332086719D-05  0.70170780041078D-05  0.71912632873427D-05  0.73641350120310D-05
 0.85997500000000D+02  0.55731638473318D-05  0.57358652511433D-05  0.59024762687099D-05  0.60725900448883D-05  0.62457716320099D-05  0.64215600849371D-05  0.65994706985322D-05  0.67789974824043D-05  0.69596159774053D-05  0.71407865089437D-05
 0.86122500000000D+02  0.53474680609542D-05  0.55010134115428D-05  0.56598642914992D-05  0.58237147418883D-05  0.59922233782702D-05  0.61650147238133D-05  0.63416806601899D-05  0.65217820767680D-05  0.67048508216564D-05  0.68903920631892D-05
 0.86247500000000D+02  0.51387993080942D-05  0.52799707818046D-05  0.54276496951557D-05  0.55816497395714D-05  0.57417437326087D-05  0.59076641136139D-05  0.60791035360710D-05  0.62557156142669D-05  0.64371159163488D-05  0.66228833148337D-05
 0.86372500000000D+02  0.49554951866940D-05  0.50815744953921D-05  0.52151186534686D-05  0.53560746770931D-05  0.55043453950175D-05  0.56597890579426D-05  0.58222190306731D-05  0.59914035955903D-05  0.61670659387706D-05  0.63488844212939D-05
 0.86497500000000D+02  0.48046902409454D-05  0.49135763036291D-05  0.50306014091041D-05  0.51558538699370D-05  0.52893767767854D-05  0.54311666986503D-05  0.55811724614217D-05  0.57392940010591D-05  0.59053813350376D-05  0.60792337363112D-05
 0.86622500000000D+02  0.46920069482699D-05  0.47823046013551D-05  0.48811071836755D-05  0.49886462441889D-05  0.51051093867204D-05  0.52306380635428D-05  0.53653254526478D-05  0.55092143833782D-05  0.56622953224742D-05  0.58245044789194D-05
 0.86747500000000D+02  0.46213240673099D-05  0.46924007105711D-05  0.47720295292499D-05  0.48605811818293D-05  0.49583858890556D-05  0.50657303483454D-05  0.51828547458644D-05  0.53099498034742D-05  0.54471538406760D-05  0.55945498793885D-05
 0.86872500000000D+02  0.45946331903569D-05  0.46466418407969D-05  0.47069360528989D-05  0.47760156466840D-05  0.48543455536194D-05  0.49423519048654D-05  0.50404182367920D-05  0.51488817310401D-05  0.52680294405658D-05  0.53980944975990D-05
 0.86997500000000D+02  0.46119885857159D-05  0.46458572829261D-05  0.46874505260073D-05  0.47373820309922D-05  0.47962379296297D-05  0.48645721108325D-05  0.49429017002726D-05  0.50317025856556D-05  0.51314049169689D-05  0.52423885478086D-05
 0.87122500000000D+02  0.46715494915353D-05  0.46889383480649D-05  0.47132292707812D-05  0.47451300183962D-05  0.47853294558374D-05  0.48344922552066D-05  0.48932537517008D-05  0.49622148641353D-05  0.50419369964702D-05  0.51329368620118D-05
 0.87247500000000D+02  0.47697084747844D-05  0.47729368758591D-05  0.47820279400163D-05  0.47977599446397D-05  0.48209019189915D-05  0.48522078376023D-05  0.48924109755414D-05  0.49422183497289D-05  0.50023051609441D-05  0.50733091620265D-05
 0.87372500000000D+02  0.49012947325430D-05  0.48932422624053D-05  0.48898498414430D-05  0.48919401301971D-05  0.49003366709102D-05  0.49158577311093D-05  0.49393103003902D-05  0.49714841909330D-05  0.50131461666816D-05  0.50650340209163D-05
 0.87497500000000D+02  0.50598377127932D-05  0.50438233313099D-05  0.50311632390406D-05  0.50226968818323D-05  0.50192747129492D-05  0.50217518660740D-05  0.50309819523915D-05  0.50478109687919D-05  0.50730712641973D-05  0.51075754895935D-05
 0.87622500000000D+02  0.52378744853319D-05  0.52175192873277D-05  0.51991728552289D-05  0.51836635417140D-05  0.51718403447079D-05  0.51645666055895D-05  0.51627137786520D-05  0.51671553027357D-05  0.51787605545597D-05  0.51983888269455D-05
 0.87747500000000D+02  0.54272839493179D-05  0.54063634640275D-05  0.53861300804486D-05  0.53673740539209D-05  0.53509149759568D-05  0.53375957038155D-05  0.53282762837851D-05  0.53238279467116D-05  0.53251271958901D-05  0.53330499589524D-05
 0.87872500000000D+02  0.56196319748567D-05  0.56019243409247D-05  0.55836668977606D-05  0.55655867458651D-05  0.55484476505842D-05  0.55330444124991D-05  0.55201971311363D-05  0.55107454876016D-05  0.55055431116158D-05  0.55054520418247D-05
 0.87997500000000D+02  0.58065134967347D-05  0.57956499295769D-05  0.57831398395202D-05  0.57696250050347D-05  0.57557894821873D-05  0.57423546210684D-05  0.57300738573353D-05  0.57197274463761D-05  0.57121172515991D-05  0.57080616386769D-05
 0.88122500000000D+02  0.59798799005976D-05  0.59792036387471D-05  0.59759719765239D-05  0.59707228764983D-05  0.59640402008664D-05  0.59565495671162D-05  0.59489138507581D-05  0.59418285347686D-05  0.59360170593175D-05  0.59322262682598D-05
 0.88247500000000D+02  0.61323423077222D-05  0.61447817050542D-05  0.61539826106402D-05  0.61603649560001D-05  0.61643960227488D-05  0.61665873103527D-05  0.61674909232449D-05  0.61676956952297D-05  0.61678232381174D-05  0.61685240528245D-05
 0.88372500000000D+02  0.62574432293327D-05  0.62854038905362D-05  0.63096956823563D-05  0.63306109904868D-05  0.63484887534488D-05  0.63637124857556D-05  0.63767077045264D-05  0.63879389787736D-05  0.63979068087038D-05  0.64071445074456D-05
 0.88497500000000D+02  0.63498903087569D-05  0.63951701820268D-05  0.64366186868719D-05  0.64743960858583D-05  0.65087061822310D-05  0.65397956023829D-05  0.65679523893892D-05  0.65935041093623D-05  0.66168156821107D-05  0.66382871308461D-05
 0.88622500000000D+02  0.64057464516538D-05  0.64694766353358D-05  0.65294840846065D-05  0.65857973532772D-05  0.66384834481374D-05  0.66876484253639D-05  0.67334372401681D-05  0.67760330150168D-05  0.68156559238575D-05  0.68525618941858D-05
 0.88747500000000D+02  0.64225707930989D-05  0.65051835618475D-05  0.65844451192359D-05  0.66602575920769D-05  0.67325546335325D-05  0.68013033301102D-05  0.68665053479449D-05  0.69281974298585D-05  0.69864514079782D-05  0.70413739234862D-05
 0.88872500000000D+02  0.63995052288810D-05  0.65007295696924D-05  0.65992182843632D-05  0.66947569263245D-05  0.67871541283757D-05  0.68762447524112D-05  0.69618923150224D-05  0.70439907324294D-05  0.71224654995496D-05  0.71972744665422D-05
 0.88997500000000D+02  0.63373023132516D-05  0.64561862043124D-05  0.65731660470391D-05  0.66879247885141D-05  0.68001588675570D-05  0.69095824717868D-05  0.70159311609171D-05  0.71189648223874D-05  0.72184700097923D-05  0.73142617822703D-05
 0.89122500000000D+02  0.62382924975111D-05  0.63732502927468D-05  0.65073159502703D-05  0.66400872781148D-05  0.67711652642700D-05  0.69001592399562D-05  0.70266915525849D-05  0.71504016340769D-05  0.72709494407997D-05  0.73880183237622D-05
 0.89247500000000D+02  0.61062915983422D-05  0.62551741215978D-05  0.64043153215215D-05  0.65532480784755D-05  0.67014978459020D-05  0.68485884607992D-05  0.69940476556830D-05  0.71374120812198D-05  0.72782317375090D-05  0.74160738027464D-05
 0.89372500000000D+02  0.59464522784956D-05  0.61066364897867D-05  0.62683237366223D-05  0.64310040510676D-05  0.65941495577811D-05  0.67572206289570D-05  0.69196719721019D-05  0.70809583943019D-05  0.72405400651039D-05  0.73978871915236D-05
 0.89497500000000D+02  0.57650656044590D-05  0.59335599726062D-05  0.61048477314333D-05  0.62783990577000D-05  0.64536562668275D-05  0.66300399851819D-05  0.68069555133954D-05  0.69837990759972D-05  0.71599637126697D-05  0.73348446499678D-05
 0.89622500000000D+02  0.55693203366075D-05  0.57428814456866D-05  0.59205241501246D-05  0.61017217043777D-05  0.62859104445527D-05  0.64724956485276D-05  0.66608578559954D-05  0.68503593172197D-05  0.70403502741522D-05  0.72301748448906D-05
 0.89747500000000D+02  0.53670287863878D-05  0.55422843627865D-05  0.57228602904939D-05  0.59082548471150D-05  0.60979215654815D-05  0.62912744715403D-05  0.64876940430211D-05  0.66865335560570D-05  0.68871254919361D-05  0.70887877200889D-05
 0.89872500000000D+02  0.51663291088615D-05  0.53399026601653D-05  0.55199407577282D-05  0.57059868344096D-05  0.58975332708173D-05  0.60940257398614D-05  0.62948685051803D-05  0.64994303648863D-05  0.67070509050691D-05  0.69170467427202D-05
 0.89997500000000D+02  0.49753748161466D-05  0.51440073859584D-05  0.53201124618619D-05  0.55032962626369D-05  0.56931093986895D-05  0.58890501073913D-05  0.60905686287247D-05  0.62970724617925D-05  0.65079321843053D-05  0.67224875007783D-05
 0.90122500000000D+02  0.48020229408832D-05  0.49626879915256D-05  0.51316602021285D-05  0.53086231723787D-05  0.54932022547707D-05  0.56849665325339D-05  0.58834320614166D-05  0.60880661866623D-05  0.62982926599736D-05  0.65134972330576D-05
 0.90247500000000D+02  0.46535325034228D-05  0.48035405293442D-05  0.49624856544573D-05  0.51301400402622D-05  0.53062169709225D-05  0.54903715013111D-05  0.56822024176515D-05  0.58812554093097D-05  0.60870272417099D-05  0.62989706428339D-05
 0.90372500000000D+02  0.45362847140909D-05  0.46733747917308D-05  0.48198023745575D-05  0.49754357226506D-05  0.51400856094439D-05  0.53135046461965D-05  0.54953878866156D-05  0.56853747069725D-05  0.58830518347728D-05  0.60879572974450D-05
 0.90497500000000D+02  0.44555356875829D-05  0.45779517358895D-05  0.47098587033224D-05  0.48512247449150D-05  0.50019638728158D-05  0.51619340401088D-05  0.53309363912228D-05  0.55087157726225D-05  0.56949624714935D-05  0.58893150320761D-05
 0.90622500000000D+02  0.44152113083203D-05  0.45217613243507D-05  0.46376991636676D-05  0.47630929511799D-05  0.48979618217095D-05  0.50422729157262D-05  0.51959393536744D-05  0.53588193741918D-05  0.55307167024515D-05  0.57113820898328D-05
 0.90747500000000D+02  0.44177521765368D-05  0.45078490954601D-05  0.46069730203863D-05  0.47152885154197D-05  0.48329179044804D-05  0.49599373900012D-05  0.50963739006163D-05  0.52422029301565D-05  0.53973475282598D-05  0.55616784813612D-05
 0.90872500000000D+02  0.44640143240904D-05  0.45376974511572D-05  0.46197962722366D-05  0.47105648529065D-05  0.48102230982176D-05  0.49189522492971D-05  0.50368908155858D-05  0.51641312608225D-05  0.53007176846056D-05  0.54466446336590D-05
 0.90997500000000D+02  0.45532288704911D-05  0.46111651057348D-05  0.46766707921576D-05  0.47500794237197D-05  0.48316994354878D-05  0.49218093598052D-05  0.50206531023097D-05  0.51284356856838D-05  0.52453197648359D-05  0.53714231325774D-05
 0.91122500000000D+02  0.46830213183409D-05  0.47264857013703D-05  0.47764619347678D-05  0.48333500701121D-05  0.48975348910819D-05  0.49693810189179D-05  0.50492278225920D-05  0.51373844827149D-05  0.52341255497110D-05  0.53396872824154D-05
 0.91247500000000D+02  0.48494888988317D-05  0.48803243566359D-05  0.49164337372979D-05  0.49582683791786D-05  0.50062744905216D-05  0.50608884833694D-05  0.51225318206493D-05  0.51916056978705D-05  0.52684859085143D-05  0.53535182226145D-05
 0.91372500000000D+02  0.50473321889354D-05  0.50678887716496D-05  0.50923387425154D-05  0.51211675091920D-05  0.51548654949122D-05  0.51939239524694D-05  0.52388300443880D-05  0.52900614568392D-05  0.53480808758227D-05  0.54133306708369D-05
 0.91497500000000D+02  0.52700351825496D-05  0.52830895672440D-05  0.52985576286905D-05  0.53169401884716D-05  0.53387529140912D-05  0.53645228231435D-05  0.53947838683665D-05  0.54300717957914D-05  0.54709185565351D-05  0.55178466040015D-05
 0.91622500000000D+02  0.55100865933585D-05  0.55187433205654D-05  0.55282828184472D-05  0.55392017946630D-05  0.55520210195573D-05  0.55672826790790D-05  0.55855466967918D-05  0.56073861271248D-05  0.56333818291740D-05  0.56641167111165D-05
 0.91747500000000D+02  0.57592349637139D-05  0.57668117795587D-05  0.57737404770702D-05  0.57804938702234D-05  0.57875771717532D-05  0.57955262961226D-05  0.58049050988591D-05  0.58163015576165D-05  0.58303230160600D-05  0.58475907141445D-05
 0.91872500000000D+02  0.60087709935323D-05  0.60186716765211D-05  0.60264463240816D-05  0.60325244932533D-05  0.60373753623005D-05  0.60415070263359D-05  0.60454647747252D-05  0.60498282604726D-05  0.60552075853250D-05  0.60622384386543D-05
 0.91997500000000D+02  0.62498312814944D-05  0.62654102236884D-05  0.62774912154918D-05  0.62864423147647D-05  0.62926771116678D-05  0.62966550034131D-05  0.62988805673172D-05  0.62999018567973D-05  0.63003075460791D-05  0.63007229647039D-05
 0.92122500000000D+02  0.64737172137768D-05  0.64981406851381D-05  0.65178515523007D-05  0.65331399787824D-05  0.65443460974186D-05  0.65518612005442D-05  0.65561282039168D-05  0.65576411399789D-05  0.65569435159970D-05  0.65546254782989D-05
 0.92247500000000D+02  0.66722209108778D-05  0.67083304213414D-05  0.67387174397561D-05  0.67635804158511D-05  0.67831706040034D-05  0.67977940636377D-05  0.68078131516254D-05  0.68136472151279D-05  0.68157722453426D-05  0.68147193392179D-05
 0.92372500000000D+02  0.68379479041204D-05  0.68881314871402D-05  0.69318291607476D-05  0.69691371209079D-05  0.70002055102961D-05  0.70252410926419D-05  0.70445096615643D-05  0.70583378705528D-05  0.70671141905385D-05  0.70712887615106D-05
 0.92497500000000D+02  0.69646245187230D-05  0.70307020513373D-05  0.70898106074439D-05  0.71419375108402D-05  0.71871234285629D-05  0.72254655630050D-05  0.72571208256922D-05  0.72823086842760D-05  0.73013133602780D-05  0.73144850834167D-05
 0.92622500000000D+02  0.70473769124311D-05  0.71305055901698D-05  0.72064867215518D-05  0.72751965990104D-05  0.73365625022228D-05  0.73905662425660D-05  0.74372479221600D-05  0.74767096296393D-05  0.75091187483559D-05  0.75347105468659D-05
 0.92747500000000D+02  0.70829680073919D-05  0.71835736678219D-05  0.72771704504994D-05  0.73635263046316D-05  0.74424561041946D-05  0.75138253791761D-05  0.75775544632883D-05  0.76336228333594D-05  0.76820733410579D-05  0.77230159981014D-05
 0.92872500000000D+02  0.70699781885268D-05  0.71877173048644D-05  0.72989034920143D-05  0.74032040851894D-05  0.75003276823412D-05  0.75900279036789D-05  0.76721077250623D-05  0.77464242309782D-05  0.78128935369292D-05  0.78714955613857D-05
 0.92997500000000D+02  0.70089161873822D-05  0.71426720799031D-05  0.72706348480475D-05  0.73923839413514D-05  0.75075329842583D-05  0.76157334177444D-05  0.77166788184599D-05  0.78101098227530D-05  0.78958194741958D-05  0.79736587195838D-05
 0.93122500000000D+02  0.69022485776380D-05  0.70501637603174D-05  0.71933224816579D-05  0.73312337232893D-05  0.74634323709197D-05  0.75894826080981D-05  0.77089820325815D-05  0.78215665086369D-05  0.79269156561677D-05  0.80247587681925D-05
 0.93247500000000D+02  0.67543399063899D-05  0.69138845532546D-05  0.70699463212234D-05  0.72219852393657D-05  0.73694780956385D-05  0.75119214719314D-05  0.76488354879186D-05  0.77797683504974D-05  0.79043016984514D-05  0.80220566162729D-05
 0.93372500000000D+02  0.65713004405459D-05  0.67393748290231D-05  0.69054253673449D-05  0.70688878797341D-05  0.72292052944605D-05  0.73858302306784D-05  0.75382282253110D-05  0.76858817713099D-05  0.78282952449685D-05  0.79650006873916D-05
 0.93497500000000D+02  0.63607444113832D-05  0.65338110495523D-05  0.67064374496152D-05  0.68780621080302D-05  0.70481208652580D-05  0.72160489778922D-05  0.73812837149517D-05  0.75432677096842D-05  0.77014532250280D-05  0.78553073902147D-05
 0.93622500000000D+02  0.61314679394668D-05  0.63057071112520D-05  0.64811467659325D-05  0.66572557991331D-05  0.68334910078385D-05  0.70092986050579D-05  0.71841161068874D-05  0.73573748642470D-05  0.75285034641952D-05  0.76969321444992D-05
 0.93747500000000D+02  0.58930617909127D-05  0.60645426497922D-05  0.62388509839036D-05  0.64155132908783D-05  0.65940352608462D-05  0.67739027140830D-05  0.69545827372758D-05  0.71355253093991D-05  0.73161656900397D-05  0.74959277871597D-05
 0.93872500000000D+02  0.56554789714750D-05  0.58203372409210D-05  0.59895655605362D-05  0.61627733346265D-05  0.63395415707175D-05  0.65194232416210D-05  0.67019436657152D-05  0.68866011916047D-05  0.70728684854580D-05  0.72601946928092D-05
 0.93997500000000D+02  0.54285803460577D-05  0.55831932660265D-05  0.57435674093681D-05  0.59094172145398D-05  0.60804225869452D-05  0.62562287037631D-05  0.64364456655523D-05  0.66206482531253D-05  0.68083760891493D-05  0.69991345084256D-05
 0.94122500000000D+02  0.52216828681929D-05  0.53628323254854D-05  0.55109228832287D-05  0.56657918645200D-05  0.58272376395837D-05  0.59950189028971D-05  0.61688536490760D-05  0.63484180581500D-05  0.65333455668678D-05  0.67232264372887D-05
 0.94247500000000D+02  0.50431348692869D-05  0.51681506293819D-05  0.53010262870533D-05  0.54417347662000D-05  0.55902075153570D-05  0.57463332912413D-05  0.59099565285948D-05  0.60808754432205D-05  0.62588401005251D-05  0.64435507432446D-05
 0.94372500000000D+02  0.48999414019447D-05  0.50068178547201D-05  0.51221747313047D-05  0.52461275611735D-05  0.53787498642353D-05  0.55200714731735D-05  0.56700763740637D-05  0.58287001380745D-05  0.59958271150334D-05  0.61712876422916D-05
 0.94497500000000D+02  0.47974597483802D-05  0.48849413404066D-05  0.49812028131623D-05  0.50865033126197D-05  0.52010614281642D-05  0.53250530795276D-05  0.54586089034341D-05  0.56018111345118D-05  0.57546900781254D-05  0.59172203698073D-05
 0.94622500000000D+02  0.47391807297030D-05  0.48068130628331D-05  0.48831962742006D-05  0.49687281516193D-05  0.50637692758592D-05  0.51686404890678D-05  0.52836198945496D-05  0.54089393064558D-05  0.55447801686071D-05  0.56912690653836D-05
 0.94747500000000D+02  0.47266056412774D-05  0.47747509521179D-05  0.48312978811218D-05  0.48967721796144D-05  0.49716674645130D-05  0.50564422768839D-05  0.51515167500914D-05  0.52572687385436D-05  0.53740293489528D-05  0.55020779185896D-05
 0.94872500000000D+02  0.47592221917728D-05  0.47890395384334D-05  0.48266121346732D-05  0.48725778420876D-05  0.49275489375482D-05  0.49921087657447D-05  0.50668081183438D-05  0.51521611372055D-05  0.52486406135795D-05  0.53566726490700D-05
 0.94997500000000D+02  0.48345764771051D-05  0.48479684147150D-05  0.48682088015882D-05  0.48960273234312D-05  0.49321358026922D-05  0.49772244496064D-05  0.50319579842489D-05  0.50969713918940D-05  0.51728651265040D-05  0.52601996554794D-05
 0.95122500000000D+02  0.49484323198344D-05  0.49479611257954D-05  0.49532192614494D-05  0.49650044336646D-05  0.49841050302414D-05  0.50112959810614D-05  0.50473346478541D-05  0.50929564911883D-05  0.51488702899118D-05  0.52157527453067D-05
 0.95247500000000D+02  0.50950046863997D-05  0.50837823058926D-05  0.50770147459451D-05  0.50755414602370D-05  0.50802015736148D-05  0.50918293784116D-05  0.51112500145520D-05  0.51392750911656D-05  0.51766980061394D-05  0.52242887516376D-05
 0.95372500000000D+02  0.52672507503368D-05  0.52488075811499D-05  0.52334521102402D-05  0.52220379158876D-05  0.52154272951645D-05  0.52144864396970D-05  0.52200809320303D-05  0.52330713519212D-05  0.52543087526663D-05  0.52846297714947D-05
 0.95497500000000D+02  0.54572007278856D-05  0.54353391326352D-05  0.54151709833469D-05  0.53975361587080D-05  0.53832919749841D-05  0.53733081093986D-05  0.53684619477516D-05  0.53696341977062D-05  0.53777045539854D-05  0.53935471777933D-05
 0.95622500000000D+02  0.56563108131288D-05  0.56349497870676D-05  0.56139258781054D-05  0.55940383510782D-05  0.55761119275091D-05  0.55609915521076D-05  0.55495376415400D-05  0.55426217259838D-05  0.55411223166361D-05  0.55459207824168D-05
 0.95747500000000D+02  0.58558220450416D-05  0.58388397231307D-05  0.58209377585066D-05  0.58028498248884D-05  0.57853420286993D-05  0.57692076434389D-05  0.57552623300862D-05  0.57443398351261D-05  0.57372880638659D-05  0.57349653544424D-05
 0.95872500000000D+02  0.60471112448853D-05  0.60381918691271D-05  0.60272512109213D-05  0.60149352152106D-05  0.60019278885145D-05  0.59889461552510D-05  0.59767351457761D-05  0.59660639944771D-05  0.59577221229187D-05  0.59525158937143D-05
 0.95997500000000D+02  0.62220227331427D-05  0.62245143248589D-05  0.62240852898152D-05  0.62212752994510D-05  0.62166661160290D-05  0.62108767518044D-05  0.62045589491770D-05  0.61983931452409D-05  0.61930849797613D-05  0.61893623059748D-05
 0.96122500000000D+02  0.63731719102016D-05  0.63899602390853D-05  0.64031679093144D-05  0.64132139597340D-05  0.64205617602836D-05  0.64257146757242D-05  0.64292118902546D-05  0.64316246321507D-05  0.64335529410438D-05  0.64356230184738D-05
 0.96247500000000D+02  0.64942136344517D-05  0.65276171930659D-05  0.65570450113829D-05  0.65827857509911D-05  0.66051727388038D-05  0.66245803478097D-05  0.66414203411241D-05  0.66561384776849D-05  0.66692115978217D-05  0.66811453112589D-05
 0.96372500000000D+02  0.65800694742163D-05  0.66317590918530D-05  0.66793564624504D-05  0.67230150040692D-05  0.67629311889460D-05  0.67993418506695D-05  0.68325212352624D-05  0.68627781314092D-05  0.68904533586008D-05  0.69159178111427D-05
 0.96497500000000D+02  0.66271083689858D-05  0.66980538803182D-05  0.67650707643059D-05  0.68281773059852D-05  0.68874313278679D-05  0.69429286133531D-05  0.69948008511391D-05  0.70432134464733D-05  0.70883635176095D-05  0.71304783373094D-05
 0.96622500000000D+02  0.66332753418139D-05  0.67237204550395D-05  0.68106706407287D-05  0.68940140709612D-05  0.69736731495789D-05  0.70496042042576D-05  0.71217964926955D-05  0.71902708510857D-05  0.72550783178074D-05  0.73162990346474D-05
 0.96747500000000D+02  0.65981632852677D-05  0.67076286018745D-05  0.68142820806941D-05  0.69178914784431D-05  0.70182518757247D-05  0.71151867353256D-05  0.72085481032087D-05  0.72982162344620D-05  0.73840989646249D-05  0.74661311475461D-05
 0.96872500000000D+02  0.65230241181033D-05  0.66503372430779D-05  0.67757410302111D-05  0.68988967993818D-05  0.70194849313065D-05  0.71372073195179D-05  0.72517888471434D-05  0.73629780986557D-05  0.74705475873937D-05  0.75742938130318D-05
 0.96997500000000D+02  0.64107179401584D-05  0.65540687877591D-05  0.66965945824867D-05  0.68378679060054D-05  0.69774710771568D-05  0.71149999441393D-05  0.72500666525279D-05  0.73823015051520D-05  0.75113541297233D-05  0.76368942353789D-05
 0.97122500000000D+02  0.62656017352915D-05  0.64226203932974D-05  0.65800365943696D-05  0.67373548814160D-05  0.68940794800723D-05  0.70497192923925D-05  0.72037918976916D-05  0.73558265665042D-05  0.75053664168999D-05  0.76519699367480D-05
 0.97247500000000D+02  0.60933619504405D-05  0.62612157364165D-05  0.64307804623042D-05  0.66015154749632D-05  0.67728693743511D-05  0.69442859884114D-05  0.71152094723491D-05  0.72850884203264D-05  0.74533790156444D-05  0.76195473637824D-05
 0.97372500000000D+02  0.59007974456903D-05  0.60763030918285D-05  0.62548740616774D-05  0.64359485365331D-05  0.66189435212860D-05  0.68032615098390D-05  0.69882964765003D-05  0.71734389649878D-05  0.73580801882984D-05  0.75416151873332D-05
 0.97497500000000D+02  0.56955608769276D-05  0.58753072308980D-05  0.60594637764151D-05  0.62474717520603D-05  0.64387411804706D-05  0.66326578806671D-05  0.68285900825044D-05  0.70258943101328D-05  0.72239203336935D-05  0.74220151294266D-05
 0.97622500000000D+02  0.54858678084896D-05  0.56663441648064D-05  0.58525163840834D-05  0.60438522052347D-05  0.62397788977818D-05  0.64396902459223D-05  0.66429534675492D-05  0.68489156518598D-05  0.70569094090597D-05  0.72662575610684D-05
 0.97747500000000D+02  0.52801839510233D-05  0.54579091810215D-05  0.56425093280475D-05  0.58335003994676D-05  0.60303498544543D-05  0.62324831767436D-05  0.64392907472558D-05  0.66501345469689D-05  0.68643542959080D-05  0.70812727513159D-05
 0.97872500000000D+02  0.50869018486349D-05  0.52585498220759D-05  0.54381013630964D-05  0.56251400591534D-05  0.58191944077340D-05  0.60197436114390D-05  0.62262240410021D-05  0.64380358793750D-05  0.66545494920431D-05  0.68751111557171D-05
 0.97997500000000D+02  0.49140189403120D-05  0.50765362180611D-05  0.52477964594716D-05  0.54274670398607D-05  0.56151555556681D-05  0.58104145162044D-05  0.60127470442269D-05  0.62216131197627D-05  0.64364358853635D-05  0.66566075778965D-05
 0.98122500000000D+02  0.47688290816194D-05  0.49195414121777D-05  0.50796141297028D-05  0.52488109976700D-05  0.54268334147033D-05  0.56133237396346D-05  0.58078699104216D-05  0.60100109498240D-05  0.62192428864634D-05  0.64350246205202D-05
 0.98247500000000D+02  0.46576393204717D-05  0.47943440367824D-05  0.49407790655650D-05  0.50968131934061D-05  0.52622525268863D-05  0.54368422673598D-05  0.56202699845508D-05  0.58121700724601D-05  0.60121289640629D-05  0.62196906340474D-05
 0.98372500000000D+02  0.45855229678659D-05  0.47065649145692D-05  0.48374421560272D-05  0.49781329553661D-05  0.51285549247087D-05  0.52885651580081D-05  0.54579619700102D-05  0.56364880395211D-05  0.58238346149498D-05  0.60196463484373D-05
 0.98497500000000D+02  0.45561187164382D-05  0.46604478042269D-05  0.47744435316301D-05  0.48981938283620D-05  0.50317303178700D-05  0.51750268149540D-05  0.53279994293868D-05  0.54905082027942D-05  0.56623600447967D-05  0.58433126063202D-05
 0.98622500000000D+02  0.45714836719429D-05  0.46586925401240D-05  0.47551262332083D-05  0.48609783196717D-05  0.49763925907037D-05  0.51014600284805D-05  0.52362172710853D-05  0.53806466346501D-05  0.55346775839979D-05  0.56981893897846D-05
 0.98747500000000D+02  0.46320057748865D-05  0.47023463768347D-05  0.47812066268149D-05  0.48688776549079D-05  0.49656092970528D-05  0.50716057339868D-05  0.51870224140680D-05  0.53119644483603D-05  0.54464865015225D-05  0.55905940364408D-05
 0.98872500000000D+02  0.47363784931461D-05  0.47907567643455D-05  0.48527051283225D-05  0.49226004390656D-05  0.50007883745503D-05  0.50875780296419D-05  0.51832374897025D-05  0.52879906864419D-05  0.54020156887324D-05  0.55254444160582D-05
 0.98997500000000D+02  0.48816381503023D-05  0.49215863204634D-05  0.49679384058445D-05  0.50211417908397D-05  0.50816240424179D-05  0.51497868068546D-05  0.52260003134339D-05  0.53105988765770D-05  0.54038776658193D-05  0.55060908606017D-05
 0.99122500000000D+02  0.50632618802881D-05  0.50908884529970D-05  0.51235719746055D-05  0.51618123238718D-05  0.52061017091377D-05  0.52569182631789D-05  0.53147198270852D-05  0.53799383732263D-05  0.54529754322789D-05  0.55341987604868D-05
 0.99247500000000D+02  0.52753218789752D-05  0.52932398265263D-05  0.53147299086036D-05  0.53403242322137D-05  0.53705596815130D-05  0.54059716230625D-05  0.54470873697079D-05  0.54944198735500D-05  0.55484620793091D-05  0.56096822745273D-05
