0.100000	0.148645	0.055494
0.100000	0.207098	0.011674
0.120000	0.167272	0.099931
0.120000	0.245449	0.014510
0.140000	0.210579	0.189376
0.140000	0.283478	0.016708
0.160000	0.302157	0.272297
0.160000	0.321609	0.019437
0.180000	0.416837	0.328467
0.180000	0.360566	0.021638
0.200000	0.533994	0.360314
0.200000	0.400855	0.024210
0.220000	0.647068	0.376900
0.220000	0.438893	0.025948
0.240000	0.755357	0.383447
0.240000	0.479325	0.029012
0.260000	0.859090	0.382648
0.260000	0.518957	0.029681
0.280000	0.958498	0.376096
0.300000	1.053744	0.364887
0.320000	1.144948	0.349856
0.320000	0.669503	0.005588
0.340000	1.232212	0.331683
0.360000	1.315628	0.310935
0.380000	1.395278	0.288087
0.400000	1.471062	0.263617
0.420000	1.543140	0.238002
0.420000	0.878739	0.006620
0.440000	1.611493	0.211484
0.440000	0.871704	0.045145
0.460000	0.911075	0.046525
0.480000	0.950267	0.047569
0.500000	0.989231	0.048577
0.520000	1.028049	0.049609
0.540000	1.066655	0.050622
0.560000	1.105296	0.051681
0.580000	1.143960	0.052857
0.600000	1.182702	0.053842
0.620000	1.221416	0.054776
0.640000	1.260156	0.055561
0.660000	1.298804	0.056116
0.680000	1.337308	0.056687
0.700000	1.375736	0.057181
0.720000	1.414134	0.057603
0.740000	1.452467	0.057922
0.760000	1.490580	0.058291
0.780000	1.528826	0.058480
0.800000	1.567016	0.058797
0.820000	1.605056	0.058992
0.840000	1.643327	0.058975
0.860000	1.681470	0.058978
0.880000	1.719708	0.058825
0.900000	1.757714	0.058539
0.920000	1.795660	0.058066
0.940000	1.833473	0.057625
0.960000	1.871480	0.057198
0.980000	1.909438	0.056588
1.000000	1.946985	0.055995
1.020000	1.984849	0.055399
1.040000	2.022521	0.054679
1.060000	2.060273	0.053921
1.080000	2.098095	0.052894
1.100000	2.135849	0.051865
1.120000	2.173646	0.050910
1.140000	2.211179	0.049526
1.160000	2.248944	0.048144
1.180000	2.286368	0.046794
1.200000	2.323739	0.045222
1.220000	2.361372	0.043786
1.240000	2.398491	0.042170
1.260000	2.435766	0.040575
1.280000	2.473736	0.038998
1.300000	2.510791	0.037497
1.320000	2.548475	0.035610
1.340000	2.585661	0.033676
1.360000	2.623230	0.031109
1.380000	2.660708	0.028636
1.400000	2.697734	0.026318
1.420000	2.735166	0.023997
1.440000	2.772250	0.021058
1.460000	2.809230	0.018387
