0.000001	0.655800	1.000000	1.000000	325.571493	1.000000	0.000000
0.000219	0.655800	1.000000	1.000000	325.571493	1.000000	0.000000
0.000876	0.655800	1.000000	1.000000	325.571493	1.000000	0.000000
0.001965	0.655800	1.000000	1.000000	325.571493	1.000000	0.000000
0.003482	0.655800	1.000000	1.000000	325.571493	1.000000	0.000000
0.005417	0.655800	1.000000	1.000000	325.571493	1.000000	0.000000
0.007759	0.655800	1.000000	1.000000	325.571493	1.000000	0.000000
0.010496	0.655800	1.000000	1.000000	325.571493	1.000000	0.000000
0.013611	0.655800	1.000000	1.000000	325.571493	1.000000	0.000000
0.017089	0.655800	1.000000	1.000000	325.571493	1.000000	0.000000
0.020911	0.655800	1.000000	1.000000	325.571493	1.000000	0.000000
0.025057	0.655800	1.000000	1.000000	325.571493	1.000000	0.000000
0.029507	0.655800	1.000000	1.000000	325.571493	1.000000	0.000000
0.034239	0.655800	1.000000	1.000000	325.571493	1.000000	0.000000
0.039232	0.655800	1.000000	1.000000	325.571493	1.000000	0.000000
0.044462	0.655800	1.000000	1.000000	325.571493	1.000000	0.000000
0.049908	0.655800	1.000000	1.000000	325.571493	1.000000	0.000000
0.055547	0.655800	1.000000	1.000000	325.571493	1.000000	0.000000
0.061357	0.655800	1.000000	1.000000	325.571493	1.000000	0.000000
0.067315	0.655800	1.000000	1.000000	325.571493	1.000000	0.000000
0.073402	0.655800	1.000000	1.000000	325.571493	1.000000	0.000000
0.079596	0.655800	1.000000	1.000000	325.571493	1.000000	0.000000
0.085877	0.655800	1.000000	1.000000	325.571493	1.000000	0.000000
0.092228	0.655800	1.000000	1.000000	325.571493	1.000000	0.000000
0.098629	0.655800	1.000000	1.000000	325.571493	1.000000	0.000000
0.105065	0.655800	1.000000	1.000000	325.571493	1.000000	0.000000
0.111519	0.655800	1.000000	1.000000	325.571493	1.000000	0.000000
0.117978	0.655800	1.000000	1.000000	325.571493	1.000000	0.000000
0.124426	0.655800	1.000000	1.000000	325.571493	1.000000	0.000000
0.130853	0.655800	1.000000	1.000000	325.571493	1.000000	0.000000
0.137246	0.655800	1.000000	1.000000	325.571493	1.000000	0.000000
0.143595	0.655800	1.000000	1.000000	325.571493	1.000000	0.000000
0.149891	0.655800	1.000000	1.000000	325.571493	1.000000	0.000000
0.156125	0.655800	1.000000	1.000000	325.571493	1.000000	0.000000
0.162290	0.655800	1.000000	1.000000	325.571493	1.000000	0.000000
0.168379	0.655800	1.000000	1.000000	325.571493	1.000000	0.000000
0.174387	0.655800	1.000000	1.000000	325.571493	1.000000	0.000000
0.180308	0.655800	1.000000	1.000000	325.571493	1.000000	0.000000
0.186138	0.655800	1.000000	1.000000	325.571493	1.000000	0.000000
0.191873	0.655800	1.000000	1.000000	325.571493	1.000000	0.000000
0.197511	0.655800	1.000000	1.000000	325.571493	1.000000	0.000000
0.203050	0.655800	1.000000	1.000000	325.571493	1.000000	0.000000
0.208487	0.655800	1.000000	1.000000	325.571494	1.000000	0.000000
0.213820	0.655800	1.000000	1.000000	325.571494	1.000000	0.000000
0.219050	0.655800	1.000000	1.000000	325.571494	1.000000	0.000000
0.224175	0.655800	1.000000	1.000000	325.571495	1.000000	0.000000
0.229195	0.655800	1.000000	1.000000	325.571496	1.000000	0.000000
0.234111	0.655800	1.000000	1.000000	325.571498	1.000000	0.000000
0.238923	0.655800	1.000000	1.000000	325.571501	1.000000	0.000000
0.243631	0.655800	1.000000	1.000000	325.571505	1.000000	0.000000
0.248237	0.655800	1.000000	1.000000	325.571510	1.000000	0.000000
0.252742	0.655800	1.000000	1.000000	325.571518	1.000000	0.000000
0.257146	0.655800	1.000000	1.000000	325.571529	1.000000	0.000000
0.261452	0.655800	1.000000	1.000000	325.571544	1.000000	0.000000
0.265661	0.655800	1.000000	1.000000	325.571563	1.000000	0.000000
0.269774	0.655800	1.000000	0.999999	325.571589	1.000000	0.000000
0.273794	0.655800	1.000000	0.999999	325.571621	1.000000	0.000000
0.277722	0.655800	1.000000	0.999999	325.571662	1.000000	0.000000
0.281560	0.655800	1.000000	0.999999	325.571713	1.000000	0.000000
0.285310	0.655800	1.000000	0.999998	325.571776	1.000000	0.000000
0.288974	0.655800	1.000000	0.999998	325.571853	1.000000	0.000000
0.292555	0.655800	1.000000	0.999998	325.571946	1.000000	0.000000
0.296053	0.655800	1.000000	0.999997	325.572057	1.000000	0.000000
0.299472	0.655800	1.000000	0.999996	325.572189	1.000000	0.000000
0.302813	0.655800	1.000000	0.999995	325.572343	1.000000	0.000000
0.306078	0.655800	1.000000	0.999994	325.572524	1.000000	0.000000
0.309269	0.655800	1.000000	0.999993	325.572732	1.000000	0.000000
0.312389	0.655800	1.000000	0.999992	325.572972	0.999999	0.000001
0.315439	0.655800	1.000000	0.999991	325.573246	0.999999	0.000001
0.318421	0.655800	1.000000	0.999989	325.573558	0.999999	0.000001
0.321337	0.655800	1.000000	0.999987	325.573909	0.999999	0.000001
0.324190	0.655800	1.000000	0.999985	325.574303	0.999999	0.000001
0.326980	0.655800	1.000000	0.999983	325.574743	0.999999	0.000001
0.329710	0.655800	1.000000	0.999980	325.575232	0.999999	0.000001
0.332381	0.655800	1.000000	0.999977	325.575774	0.999998	0.000002
0.334996	0.655800	1.000000	0.999974	325.576371	0.999998	0.000002
0.337556	0.655800	1.000000	0.999970	325.577025	0.999998	0.000002
0.340062	0.655800	1.000000	0.999966	325.577741	0.999998	0.000002
0.342517	0.655800	1.000000	0.999962	325.578521	0.999997	0.000003
0.344922	0.655799	1.000000	0.999958	325.579369	0.999997	0.000003
0.347278	0.655799	1.000000	0.999953	325.580285	0.999997	0.000003
0.349587	0.655799	1.000000	0.999948	325.581275	0.999996	0.000004
0.351851	0.655799	1.000000	0.999942	325.582340	0.999996	0.000004
0.354071	0.655799	1.000000	0.999936	325.583483	0.999996	0.000004
0.356247	0.655799	1.000000	0.999929	325.584706	0.999995	0.000005
0.358383	0.655799	1.000000	0.999922	325.586013	0.999995	0.000005
0.360479	0.655799	1.000000	0.999915	325.587405	0.999994	0.000006
0.362535	0.655799	1.000000	0.999907	325.588886	0.999994	0.000006
0.364555	0.655799	1.000000	0.999898	325.590457	0.999993	0.000007
0.366538	0.655799	1.000000	0.999889	325.592122	0.999993	0.000007
0.368486	0.655798	1.000000	0.999880	325.593881	0.999992	0.000008
0.370400	0.655798	1.000000	0.999870	325.595739	0.999991	0.000009
0.372282	0.655798	1.000000	0.999859	325.597695	0.999991	0.000009
0.374131	0.655798	1.000000	0.999848	325.599754	0.999990	0.000010
0.375950	0.655798	1.000000	0.999837	325.601918	0.999989	0.000011
0.377740	0.655798	1.000000	0.999825	325.604187	0.999988	0.000012
0.379500	0.655798	1.000000	0.999812	325.606565	0.999987	0.000013
0.381233	0.655797	1.000000	0.999799	325.609053	0.999986	0.000014
0.382939	0.655797	1.000000	0.999785	325.611654	0.999986	0.000014
0.384619	0.655797	1.000000	0.999770	325.614370	0.999985	0.000015
0.386275	0.655797	1.000000	0.999755	325.617203	0.999984	0.000016
0.387905	0.655797	1.000000	0.999739	325.620154	0.999982	0.000018
0.389513	0.655796	1.000000	0.999723	325.623227	0.999981	0.000019
0.391098	0.655796	1.000000	0.999705	325.626423	0.999980	0.000020
0.392661	0.655796	1.000000	0.999688	325.629744	0.999979	0.000021
0.394203	0.655796	1.000000	0.999669	325.633193	0.999978	0.000022
0.395725	0.655795	1.000000	0.999650	325.636771	0.999976	0.000024
0.397227	0.655795	1.000000	0.999630	325.640482	0.999975	0.000025
0.398711	0.655795	1.000000	0.999609	325.644327	0.999974	0.000026
0.400175	0.655795	1.000000	0.999588	325.648308	0.999972	0.000028
0.401623	0.655794	1.000000	0.999566	325.652429	0.999971	0.000029
0.403053	0.655794	1.000000	0.999543	325.656692	0.999969	0.000031
0.404467	0.655794	1.000000	0.999519	325.661098	0.999968	0.000032
0.405865	0.655793	1.000000	0.999495	325.665651	0.999966	0.000034
0.407248	0.655793	1.000000	0.999470	325.670354	0.999964	0.000036
0.408616	0.655793	1.000000	0.999444	325.675208	0.999963	0.000037
0.409970	0.655792	1.000000	0.999417	325.680218	0.999961	0.000039
0.411310	0.655792	1.000000	0.999389	325.685386	0.999959	0.000041
0.412637	0.655792	1.000000	0.999361	325.690714	0.999957	0.000043
0.413952	0.655791	1.000000	0.999331	325.696207	0.999955	0.000045
0.415254	0.655791	1.000000	0.999301	325.701867	0.999953	0.000047
0.416544	0.655790	1.000000	0.999270	325.707697	0.999951	0.000049
0.417824	0.655790	1.000000	0.999237	325.713702	0.999949	0.000051
0.419092	0.655789	1.000000	0.999204	325.719884	0.999946	0.000054
0.420350	0.655789	1.000000	0.999170	325.726247	0.999944	0.000056
0.421598	0.655789	1.000000	0.999135	325.732795	0.999942	0.000058
0.422837	0.655788	1.000000	0.999099	325.739533	0.999939	0.000061
0.424066	0.655788	1.000000	0.999062	325.746463	0.999937	0.000063
0.425287	0.655787	1.000000	0.999024	325.753591	0.999934	0.000066
0.426499	0.655787	1.000000	0.998985	325.760920	0.999932	0.000068
0.427703	0.655786	1.000000	0.998944	325.768455	0.999929	0.000071
0.428899	0.655785	1.000000	0.998903	325.776201	0.999926	0.000074
0.430088	0.655785	1.000000	0.998860	325.784163	0.999923	0.000077
0.431269	0.655784	1.000000	0.998816	325.792345	0.999920	0.000080
0.432444	0.655784	1.000000	0.998771	325.800753	0.999917	0.000083
0.433613	0.655783	1.000000	0.998725	325.809392	0.999914	0.000086
0.434775	0.655782	1.000000	0.998677	325.818267	0.999911	0.000089
0.435932	0.655782	1.000000	0.998629	325.827385	0.999908	0.000092
0.437083	0.655781	1.000000	0.998578	325.836751	0.999904	0.000096
0.438229	0.655780	1.000000	0.998527	325.846371	0.999901	0.000099
0.439370	0.655780	1.000000	0.998474	325.856251	0.999897	0.000103
0.440506	0.655779	1.000000	0.998420	325.866399	0.999894	0.000106
0.441638	0.655778	1.000000	0.998364	325.876820	0.999890	0.000110
0.442765	0.655778	1.000000	0.998307	325.887521	0.999886	0.000114
0.443888	0.655777	1.000000	0.998248	325.898511	0.999882	0.000118
0.445008	0.655776	1.000000	0.998188	325.909796	0.999878	0.000122
0.446125	0.655775	1.000000	0.998126	325.921383	0.999874	0.000126
0.447238	0.655774	1.000000	0.998062	325.933282	0.999869	0.000131
0.448348	0.655773	1.000000	0.997997	325.945499	0.999865	0.000135
0.449455	0.655773	1.000000	0.997929	325.958044	0.999861	0.000139
0.450560	0.655772	1.000000	0.997861	325.970925	0.999856	0.000144
0.451662	0.655771	1.000000	0.997790	325.984151	0.999851	0.000149
0.452762	0.655770	1.000000	0.997717	325.997731	0.999846	0.000154
0.453860	0.655769	1.000000	0.997643	326.011676	0.999841	0.000159
0.454957	0.655768	1.000000	0.997566	326.025994	0.999836	0.000164
0.456052	0.655767	1.000000	0.997488	326.040697	0.999831	0.000169
0.457145	0.655766	1.000000	0.997407	326.055794	0.999825	0.000175
0.458238	0.655765	1.000000	0.997324	326.071297	0.999820	0.000180
0.459329	0.655763	1.000000	0.997239	326.087218	0.999814	0.000186
0.460419	0.655762	1.000000	0.997152	326.103566	0.999808	0.000192
0.461509	0.655761	1.000000	0.997062	326.120356	0.999802	0.000198
0.462598	0.655760	1.000000	0.996970	326.137598	0.999796	0.000204
0.463687	0.655759	1.000000	0.996875	326.155306	0.999789	0.000211
0.464776	0.655757	1.000000	0.996778	326.173493	0.999783	0.000217
0.465865	0.655756	1.000000	0.996679	326.192173	0.999776	0.000224
0.466954	0.655755	1.000000	0.996576	326.211360	0.999769	0.000231
0.468043	0.655753	1.000000	0.996471	326.231068	0.999762	0.000238
0.469133	0.655752	1.000000	0.996363	326.251313	0.999755	0.000245
0.470223	0.655750	1.000000	0.996252	326.272109	0.999747	0.000253
0.471314	0.655749	1.000000	0.996138	326.293473	0.999739	0.000261
0.472406	0.655747	1.000000	0.996021	326.315422	0.999731	0.000269
0.473499	0.655746	1.000000	0.995901	326.337972	0.999723	0.000277
0.474593	0.655744	1.000000	0.995777	326.361141	0.999715	0.000285
0.475689	0.655742	1.000000	0.995651	326.384948	0.999706	0.000294
0.476786	0.655740	1.000000	0.995520	326.409411	0.999697	0.000303
0.477884	0.655739	1.000000	0.995386	326.434549	0.999688	0.000312
0.478984	0.655737	1.000000	0.995249	326.460382	0.999679	0.000321
0.480086	0.655735	1.000000	0.995107	326.486932	0.999669	0.000331
0.481190	0.655733	1.000000	0.994962	326.514219	0.999660	0.000340
0.482296	0.655731	1.000000	0.994813	326.542266	0.999649	0.000351
0.483405	0.655729	1.000000	0.994659	326.571095	0.999639	0.000361
0.484515	0.655727	1.000000	0.994502	326.600729	0.999628	0.000372
0.485628	0.655725	1.000000	0.994340	326.631194	0.999617	0.000383
0.486744	0.655722	1.000000	0.994173	326.662514	0.999606	0.000394
0.487862	0.655720	1.000000	0.994002	326.694714	0.999594	0.000406
0.488983	0.655718	1.000000	0.993826	326.727823	0.999582	0.000418
0.490107	0.655715	1.000000	0.993645	326.761866	0.999570	0.000430
0.491234	0.655713	1.000000	0.993459	326.796874	0.999557	0.000443
0.492364	0.655710	1.000000	0.993268	326.832874	0.999544	0.000456
0.493497	0.655708	1.000000	0.993072	326.869898	0.999531	0.000469
0.494634	0.655705	1.000000	0.992870	326.907978	0.999517	0.000483
0.495774	0.655702	1.000000	0.992662	326.947144	0.999503	0.000497
0.496917	0.655699	1.000000	0.992448	326.987432	0.999488	0.000512
0.498064	0.655696	1.000000	0.992229	327.028875	0.999473	0.000527
0.499215	0.655693	1.000000	0.992003	327.071510	0.999458	0.000542
0.500370	0.655690	1.000000	0.991770	327.115373	0.999442	0.000558
0.501529	0.655687	1.000000	0.991531	327.160502	0.999426	0.000574
0.502692	0.655684	1.000000	0.991286	327.206938	0.999409	0.000591
0.503859	0.655680	1.000000	0.991033	327.254720	0.999392	0.000608
0.505030	0.655677	1.000000	0.990773	327.303891	0.999374	0.000626
0.506205	0.655673	1.000000	0.990505	327.354495	0.999355	0.000645
0.507385	0.655669	1.000000	0.990230	327.406576	0.999337	0.000663
0.508570	0.655666	1.000000	0.989947	327.460181	0.999317	0.000683
0.509759	0.655662	1.000000	0.989655	327.515358	0.999297	0.000703
0.510953	0.655658	1.000000	0.989356	327.572156	0.999277	0.000723
0.512151	0.655654	1.000000	0.989047	327.630628	0.999255	0.000745
0.513355	0.655649	1.000000	0.988730	327.690825	0.999234	0.000766
0.514564	0.655645	1.000000	0.988403	327.752804	0.999211	0.000789
0.515777	0.655640	1.000000	0.988067	327.816619	0.999188	0.000812
0.516996	0.655636	1.000000	0.987721	327.882332	0.999164	0.000836
0.518220	0.655631	1.000000	0.987365	327.950001	0.999140	0.000860
0.519450	0.655626	1.000000	0.986999	328.019689	0.999114	0.000886
0.520685	0.655621	1.000000	0.986622	328.091462	0.999088	0.000912
0.521925	0.655615	1.000000	0.986234	328.165385	0.999062	0.000938
0.523171	0.655610	1.000000	0.985834	328.241530	0.999034	0.000966
0.524423	0.655604	1.000000	0.985423	328.319966	0.999005	0.000995
0.525681	0.655599	1.000000	0.984999	328.400769	0.998976	0.001024
0.526944	0.655593	1.000000	0.984563	328.484014	0.998946	0.001054
0.528214	0.655586	1.000000	0.984114	328.569781	0.998915	0.001085
0.529489	0.655580	1.000000	0.983652	328.658153	0.998883	0.001117
0.530771	0.655574	1.000000	0.983176	328.749213	0.998849	0.001151
0.532059	0.655567	1.000000	0.982686	328.843049	0.998815	0.001185
0.533354	0.655560	1.000000	0.982181	328.939752	0.998780	0.001220
0.534654	0.655553	1.000000	0.981662	329.039415	0.998744	0.001256
0.535962	0.655546	1.000000	0.981126	329.142137	0.998707	0.001293
0.537275	0.655538	1.000000	0.980575	329.248016	0.998668	0.001332
0.538596	0.655530	1.000000	0.980008	329.357158	0.998628	0.001372
0.539923	0.655522	1.000000	0.979423	329.469668	0.998587	0.001413
0.541258	0.655514	1.000000	0.978821	329.585659	0.998545	0.001455
0.542599	0.655505	1.000000	0.978201	329.705246	0.998502	0.001498
0.543947	0.655496	1.000000	0.977562	329.828546	0.998457	0.001543
0.545302	0.655487	1.000000	0.976904	329.955685	0.998410	0.001590
0.546664	0.655478	1.000000	0.976226	330.086787	0.998363	0.001637
0.548034	0.655468	1.000000	0.975528	330.221987	0.998313	0.001687
0.549411	0.655458	1.000000	0.974809	330.361419	0.998263	0.001737
0.550796	0.655448	1.000000	0.974068	330.505225	0.998210	0.001790
0.552188	0.655437	1.000000	0.973305	330.653552	0.998156	0.001844
0.553588	0.655426	1.000000	0.972519	330.806549	0.998100	0.001900
0.554995	0.655415	1.000000	0.971709	330.964374	0.998042	0.001958
0.556411	0.655403	1.000000	0.970874	331.127189	0.997983	0.002017
0.557834	0.655391	1.000000	0.970014	331.295161	0.997922	0.002078
0.559265	0.655379	1.000000	0.969128	331.468463	0.997858	0.002142
0.560704	0.655366	1.000000	0.968216	331.647275	0.997793	0.002207
0.562151	0.655352	1.000000	0.967275	331.831783	0.997725	0.002275
0.563607	0.655339	1.000000	0.966306	332.022179	0.997656	0.002344
0.565071	0.655325	1.000000	0.965308	332.218662	0.997584	0.002416
0.566543	0.655310	1.000000	0.964279	332.421438	0.997509	0.002491
0.568024	0.655295	1.000000	0.963220	332.630721	0.997433	0.002567
0.569514	0.655279	1.000000	0.962128	332.846730	0.997353	0.002647
0.571012	0.655263	1.000000	0.961003	333.069695	0.997272	0.002728
0.572519	0.655247	1.000000	0.959843	333.299852	0.997187	0.002813
0.574035	0.655229	1.000000	0.958649	333.537445	0.997100	0.002900
0.575560	0.655212	1.000000	0.957418	333.782729	0.997010	0.002990
0.577094	0.655193	1.000000	0.956151	334.035965	0.996917	0.003083
0.578637	0.655174	1.000000	0.954844	334.297425	0.996820	0.003180
0.580189	0.655155	1.000000	0.953498	334.567391	0.996721	0.003279
0.581751	0.655135	1.000000	0.952112	334.846152	0.996618	0.003382
0.583322	0.655114	1.000000	0.950683	335.134010	0.996512	0.003488
0.584902	0.655092	1.000000	0.949211	335.431277	0.996403	0.003597
0.586492	0.655070	1.000000	0.947695	335.738275	0.996289	0.003711
0.588092	0.655047	1.000000	0.946133	336.055339	0.996172	0.003828
0.589702	0.655023	1.000000	0.944524	336.382814	0.996051	0.003949
0.591322	0.654998	1.000000	0.942867	336.721057	0.995926	0.004074
0.592951	0.654973	1.000000	0.941160	337.070440	0.995797	0.004203
0.594591	0.654947	1.000000	0.939401	337.431344	0.995663	0.004337
0.596241	0.654920	1.000000	0.937590	337.804167	0.995525	0.004475
0.597901	0.654891	1.000000	0.935724	338.189319	0.995382	0.004618
0.599571	0.654862	1.000000	0.933803	338.587225	0.995234	0.004766
0.601253	0.654832	1.000000	0.931825	338.998324	0.995081	0.004919
0.602944	0.654801	1.000000	0.929788	339.423070	0.994923	0.005077
0.604647	0.654769	1.000000	0.927691	339.861935	0.994759	0.005241
0.606360	0.654736	1.000000	0.925531	340.315405	0.994590	0.005410
0.608084	0.654701	1.000000	0.923308	340.783983	0.994415	0.005585
0.609819	0.654666	1.000000	0.921019	341.268191	0.994234	0.005766
0.611565	0.654629	1.000000	0.918663	341.768566	0.994047	0.005953
0.613322	0.654591	1.000000	0.916239	342.285668	0.993854	0.006146
0.615091	0.654551	1.000000	0.913743	342.820070	0.993653	0.006347
0.616871	0.654511	1.000000	0.911175	343.372371	0.993446	0.006554
0.618663	0.654468	1.000000	0.908533	343.943186	0.993231	0.006769
0.620466	0.654425	1.000000	0.905815	344.533152	0.993009	0.006991
0.622281	0.654379	1.000000	0.903019	345.142928	0.992779	0.007221
0.624108	0.654333	1.000000	0.900143	345.773195	0.992541	0.007459
0.625946	0.654284	1.000000	0.897185	346.424658	0.992295	0.007705
0.627797	0.654234	1.000000	0.894144	347.098042	0.992040	0.007960
0.629660	0.654182	1.000000	0.891017	347.794100	0.991776	0.008224
0.631536	0.654128	1.000000	0.887803	348.513609	0.991503	0.008497
0.633423	0.654073	1.000000	0.884499	349.257370	0.991220	0.008780
0.635324	0.654015	1.000000	0.881104	350.026213	0.990927	0.009073
0.637237	0.653955	1.000000	0.877616	350.820992	0.990624	0.009376
0.639162	0.653894	1.000000	0.874032	351.642591	0.990310	0.009690
0.641101	0.653830	1.000000	0.870352	352.491923	0.989985	0.010015
0.643052	0.653763	1.000000	0.866572	353.369928	0.989648	0.010352
0.645017	0.653695	1.000000	0.862692	354.277579	0.989299	0.010701
0.646995	0.653624	1.000000	0.858709	355.215877	0.988937	0.011063
0.648986	0.653550	1.000000	0.854622	356.185855	0.988563	0.011437
0.650991	0.653474	1.000000	0.850428	357.188582	0.988175	0.011825
0.653010	0.653394	1.000000	0.846127	358.225154	0.987773	0.012227
0.655042	0.653313	1.000000	0.841715	359.296706	0.987357	0.012643
0.657088	0.653228	1.000000	0.837192	360.404405	0.986925	0.013075
0.659148	0.653140	1.000000	0.832557	361.549455	0.986478	0.013522
0.661222	0.653048	1.000000	0.827807	362.733093	0.986015	0.013985
0.663310	0.652954	1.000000	0.822941	363.956597	0.985534	0.014466
0.665413	0.652856	1.000000	0.817958	365.221278	0.985037	0.014963
0.667530	0.652755	1.000000	0.812856	366.528489	0.984521	0.015479
0.669662	0.652649	1.000000	0.807635	367.879620	0.983986	0.016014
0.671809	0.652540	1.000000	0.802293	369.276099	0.983432	0.016568
0.673970	0.652427	1.000000	0.796829	370.719396	0.982857	0.017143
0.676147	0.652310	1.000000	0.791243	372.211021	0.982261	0.017739
0.678339	0.652189	1.000000	0.785533	373.752525	0.981644	0.018356
0.680546	0.652063	1.000000	0.779700	375.345501	0.981003	0.018997
0.682769	0.651932	1.000000	0.773742	376.991582	0.980339	0.019661
0.685007	0.651797	1.000000	0.767660	378.692446	0.979651	0.020349
0.687261	0.651656	1.000000	0.761453	380.449811	0.978937	0.021063
0.689531	0.651510	1.000000	0.755122	382.265440	0.978197	0.021803
0.691817	0.651359	1.000000	0.748666	384.141138	0.977429	0.022571
0.694120	0.651203	1.000000	0.742086	386.078753	0.976633	0.023367
0.696438	0.651040	1.000000	0.735384	388.080177	0.975807	0.024193
0.698774	0.650872	1.000000	0.728558	390.147344	0.974950	0.025050
0.701126	0.650697	1.000000	0.721612	392.282231	0.974062	0.025938
0.703494	0.650516	1.000000	0.714545	394.486859	0.973140	0.026860
0.705880	0.650328	1.000000	0.707359	396.763290	0.972185	0.027815
0.708283	0.650133	1.000000	0.700057	399.113629	0.971193	0.028807
0.710703	0.649930	1.000000	0.692640	401.540020	0.970165	0.029835
0.713141	0.649720	1.000000	0.685109	404.044650	0.969098	0.030902
0.715596	0.649503	1.000000	0.677469	406.629745	0.967991	0.032009
0.718069	0.649277	1.000000	0.669720	409.297568	0.966843	0.033157
0.720560	0.649042	1.000000	0.661867	412.050420	0.965651	0.034349
0.723069	0.648799	1.000000	0.653912	414.890640	0.964416	0.035584
0.725597	0.648547	1.000000	0.645858	417.820600	0.963134	0.036866
0.728143	0.648285	1.000000	0.637710	420.842704	0.961804	0.038196
0.730708	0.648014	1.000000	0.629472	423.959389	0.960424	0.039576
0.733291	0.647732	1.000000	0.621146	427.173120	0.958992	0.041008
0.735894	0.647440	1.000000	0.612739	430.486388	0.957507	0.042493
0.738516	0.647137	1.000000	0.604253	433.901710	0.955966	0.044034
0.741157	0.646822	1.000000	0.595695	437.421622	0.954367	0.045633
0.743818	0.646496	1.000000	0.587069	441.048682	0.952709	0.047291
0.746498	0.646157	1.000000	0.578381	444.785460	0.950989	0.049011
0.749199	0.645806	1.000000	0.569636	448.634542	0.949204	0.050796
0.751919	0.645442	1.000000	0.560839	452.598519	0.947353	0.052647
0.754660	0.645064	1.000000	0.551996	456.679988	0.945432	0.054568
0.757422	0.644672	1.000000	0.543114	460.881547	0.943440	0.056560
0.760204	0.644266	1.000000	0.534198	465.205790	0.941374	0.058626
0.763007	0.643844	1.000000	0.525255	469.655303	0.939231	0.060769
0.765831	0.643407	1.000000	0.516291	474.232657	0.937009	0.062991
0.768677	0.642954	1.000000	0.507312	478.940406	0.934704	0.065296
0.771544	0.642483	1.000000	0.498326	483.781080	0.932314	0.067686
0.774433	0.641996	1.000000	0.489338	488.757177	0.929836	0.070164
0.777344	0.641490	1.000000	0.480355	493.871162	0.927266	0.072734
0.780277	0.640966	1.000000	0.471384	499.125456	0.924603	0.075397
0.783233	0.640423	1.000000	0.462432	504.522431	0.921841	0.078159
0.786211	0.639860	1.000000	0.453505	510.064404	0.918979	0.081021
0.789212	0.639276	1.000000	0.444609	515.753629	0.916013	0.083987
0.792236	0.638672	1.000000	0.435752	521.592289	0.912940	0.087060
0.795284	0.638045	1.000000	0.426940	527.582489	0.909755	0.090245
0.798355	0.637396	1.000000	0.418179	533.726248	0.906456	0.093544
0.801449	0.636724	1.000000	0.409476	540.025488	0.903038	0.096962
0.804568	0.636027	1.000000	0.400836	546.482032	0.899499	0.100501
0.807711	0.635306	1.000000	0.392266	553.097585	0.895834	0.104166
0.810879	0.634560	1.000000	0.383771	559.873736	0.892040	0.107960
0.814071	0.633787	1.000000	0.375357	566.811939	0.888113	0.111887
0.817288	0.632988	1.000000	0.367030	573.913509	0.884049	0.115951
0.820531	0.632160	1.000000	0.358794	581.179610	0.879845	0.120155
0.823799	0.631305	1.000000	0.350655	588.611246	0.875495	0.124505
0.827093	0.630420	1.000000	0.342618	596.209250	0.870997	0.129003
0.830413	0.629505	1.000000	0.334687	603.974272	0.866347	0.133653
0.833759	0.628559	1.000000	0.326866	611.906772	0.861541	0.138459
0.837131	0.627582	1.000000	0.319160	620.007006	0.856574	0.143426
0.840531	0.626573	1.000000	0.311572	628.275015	0.851444	0.148556
0.843957	0.625530	1.000000	0.304105	636.710617	0.846145	0.153855
0.847411	0.624454	1.000000	0.296764	645.313394	0.840676	0.159324
0.850893	0.623344	1.000000	0.289550	654.082681	0.835032	0.164968
0.854402	0.622198	1.000000	0.282467	663.017557	0.829209	0.170791
0.857940	0.621017	1.000000	0.275517	672.116829	0.823205	0.176795
0.861506	0.619799	1.000000	0.268702	681.379030	0.817015	0.182985
0.865102	0.618544	1.000000	0.262023	690.802402	0.810638	0.189362
0.868726	0.617252	1.000000	0.255484	700.384886	0.804070	0.195930
0.872380	0.615922	1.000000	0.249084	710.124118	0.797308	0.202692
0.876063	0.614553	1.000000	0.242825	720.017415	0.790350	0.209650
0.879776	0.613145	1.000000	0.236707	730.061766	0.783194	0.216806
0.883520	0.611697	1.000000	0.230732	740.253829	0.775839	0.224161
0.887295	0.610211	1.000000	0.224899	750.589919	0.768281	0.231719
0.891100	0.608684	1.000000	0.219209	761.066004	0.760521	0.239479
0.894937	0.607117	1.000000	0.213661	771.677699	0.752558	0.247442
0.898806	0.605510	1.000000	0.208256	782.420262	0.744390	0.255610
0.902706	0.603863	1.000000	0.202992	793.288593	0.736017	0.263983
0.906639	0.602175	1.000000	0.197868	804.277226	0.727441	0.272559
0.910604	0.600448	1.000000	0.192885	815.380339	0.718662	0.281338
0.914603	0.598681	1.000000	0.188040	826.591743	0.709681	0.290319
0.918635	0.596874	1.000000	0.183333	837.904895	0.700501	0.299499
0.922701	0.595029	1.000000	0.178761	849.312897	0.691122	0.308878
0.926801	0.593145	1.000000	0.174324	860.808505	0.681549	0.318451
0.930935	0.591224	1.000000	0.170020	872.384136	0.671785	0.328215
0.935104	0.589266	1.000000	0.165846	884.031876	0.661834	0.338166
0.939309	0.587272	1.000000	0.161802	895.743499	0.651700	0.348300
0.943549	0.585243	1.000000	0.157884	907.510475	0.641389	0.358611
0.947825	0.583181	1.000000	0.154091	919.323989	0.630907	0.369093
0.952138	0.581086	1.000000	0.150421	931.174961	0.620261	0.379739
0.956487	0.578960	1.000000	0.146871	943.054063	0.609457	0.390543
0.960874	0.576804	1.000000	0.143439	954.951747	0.598503	0.401497
0.965298	0.574621	1.000000	0.140122	966.858267	0.587408	0.412592
0.969760	0.572412	1.000000	0.136918	978.763706	0.576181	0.423819
0.974261	0.570178	1.000000	0.133825	990.658006	0.564831	0.435169
0.978800	0.567923	1.000000	0.130840	1002.530995	0.553369	0.446631
0.983379	0.565647	1.000000	0.127961	1014.372427	0.541805	0.458195
0.987998	0.563353	1.000000	0.125184	1026.172006	0.530150	0.469850
0.992657	0.561044	1.000000	0.122507	1037.919428	0.518416	0.481584
0.997357	0.558722	1.000000	0.119929	1049.604412	0.506616	0.493384
1.002098	0.556389	1.000000	0.117445	1061.216740	0.494761	0.505239
1.006880	0.554047	1.000000	0.115054	1072.746288	0.482865	0.517135
1.011705	0.551700	1.000000	0.112753	1084.183071	0.470940	0.529060
1.016572	0.549350	1.000000	0.110540	1095.517273	0.459000	0.541000
1.021482	0.546999	1.000000	0.108412	1106.739286	0.447058	0.552942
1.026436	0.544651	1.000000	0.106366	1117.839745	0.435129	0.564871
1.031434	0.542308	1.000000	0.104400	1128.809563	0.423225	0.576775
1.036476	0.539972	1.000000	0.102511	1139.639964	0.411361	0.588639
1.041563	0.537647	1.000000	0.100698	1150.322513	0.399550	0.600450
1.046696	0.535334	1.000000	0.098957	1160.849148	0.387805	0.612195
1.051875	0.533037	1.000000	0.097287	1171.212208	0.376141	0.623859
1.057101	0.530758	1.000000	0.095685	1181.404453	0.364569	0.635431
1.062374	0.528500	1.000000	0.094148	1191.419094	0.353102	0.646898
1.067695	0.526265	1.000000	0.092676	1201.249807	0.341754	0.658246
1.073064	0.524055	1.000000	0.091264	1210.890752	0.330535	0.669465
1.078482	0.521872	1.000000	0.089912	1220.336589	0.319458	0.680542
1.083949	0.519719	1.000000	0.088618	1229.582487	0.308534	0.691466
1.089467	0.517598	1.000000	0.087378	1238.624131	0.297772	0.702228
1.095035	0.515511	1.000000	0.086192	1247.457729	0.287182	0.712818
1.100654	0.513459	1.000000	0.085057	1256.080014	0.276775	0.723225
1.106325	0.511444	1.000000	0.083972	1264.488241	0.266558	0.733442
1.112049	0.509467	1.000000	0.082934	1272.680185	0.256538	0.743462
1.117826	0.507531	1.000000	0.081942	1280.654132	0.246724	0.753276
1.123656	0.505635	1.000000	0.080994	1288.408873	0.237122	0.762878
1.129541	0.503782	1.000000	0.080089	1295.943688	0.227738	0.772262
1.135481	0.501972	1.000000	0.079224	1303.258337	0.218576	0.781424
1.141477	0.500205	1.000000	0.078399	1310.353039	0.209640	0.790360
1.147529	0.498484	1.000000	0.077611	1317.228457	0.200935	0.799065
1.153639	0.496807	1.000000	0.076859	1323.885678	0.192464	0.807536
1.159806	0.495176	1.000000	0.076142	1330.326193	0.184228	0.815772
1.166031	0.493590	1.000000	0.075459	1336.551872	0.176229	0.823771
1.172316	0.492050	1.000000	0.074807	1342.564944	0.168468	0.831532
1.178661	0.490556	1.000000	0.074186	1348.367972	0.160946	0.839054
1.185067	0.489108	1.000000	0.073595	1353.963830	0.153662	0.846338
1.191534	0.487704	1.000000	0.073032	1359.355677	0.146615	0.853385
1.198063	0.486346	1.000000	0.072495	1364.546932	0.139804	0.860196
1.204656	0.485031	1.000000	0.071985	1369.541254	0.133228	0.866772
1.211312	0.483761	1.000000	0.071499	1374.342510	0.126883	0.873117
1.218033	0.482533	1.000000	0.071037	1378.954760	0.120767	0.879233
1.224820	0.481348	1.000000	0.070598	1383.382227	0.114877	0.885123
1.231672	0.480203	1.000000	0.070180	1387.629278	0.109210	0.890790
1.238592	0.479099	1.000000	0.069783	1391.700399	0.103761	0.896239
1.245580	0.478034	1.000000	0.069406	1395.600179	0.098527	0.901473
1.252637	0.477007	1.000000	0.069048	1399.333284	0.093502	0.906498
1.259763	0.476017	1.000000	0.068708	1402.904444	0.088684	0.911316
1.266960	0.475063	1.000000	0.068385	1406.318430	0.084066	0.915934
1.274229	0.474142	1.000000	0.068079	1409.580038	0.079643	0.920357
1.281570	0.473254	1.000000	0.067789	1412.694078	0.075412	0.924588
1.288984	0.472397	1.000000	0.067513	1415.665350	0.071366	0.928634
1.296473	0.471570	1.000000	0.067252	1418.498640	0.067499	0.932501
1.304038	0.470770	1.000000	0.067005	1421.198701	0.063808	0.936192
1.311679	0.469997	1.000000	0.066770	1423.770243	0.060286	0.939714
1.319397	0.469248	1.000000	0.066548	1426.217925	0.056927	0.943073
1.327193	0.468522	1.000000	0.066338	1428.546341	0.053727	0.946273
1.335069	0.467816	1.000000	0.066139	1430.760017	0.050680	0.949320
1.343026	0.467129	1.000000	0.065951	1432.863397	0.047780	0.952220
1.351064	0.466459	1.000000	0.065773	1434.860843	0.045022	0.954978
1.359184	0.465803	1.000000	0.065605	1436.756625	0.042402	0.957598
1.367389	0.465159	1.000000	0.065446	1438.554916	0.039912	0.960088
1.375678	0.464525	1.000000	0.065296	1440.259789	0.037550	0.962450
1.384054	0.463898	1.000000	0.065154	1441.875215	0.035308	0.964692
1.392516	0.463276	1.000000	0.065020	1443.405058	0.033183	0.966817
1.401067	0.462655	1.000000	0.064894	1444.853071	0.031170	0.968830
1.409708	0.462033	1.000000	0.064775	1446.222900	0.029264	0.970736
1.418440	0.461407	1.000000	0.064662	1447.518077	0.027460	0.972540
1.427263	0.460773	1.000000	0.064556	1448.742024	0.025753	0.974247
1.436180	0.460128	1.000000	0.064457	1449.898048	0.024140	0.975860
1.445192	0.459467	1.000000	0.064363	1450.989346	0.022616	0.977384
1.454300	0.458788	1.000000	0.064274	1452.019004	0.021177	0.978823
1.463505	0.458085	1.000000	0.064191	1452.989996	0.019820	0.980180
1.472809	0.457353	1.000000	0.064112	1453.905187	0.018539	0.981461
1.482212	0.456588	1.000000	0.064039	1454.767335	0.017332	0.982668
1.491718	0.455785	1.000000	0.063969	1455.579090	0.016195	0.983805
1.501326	0.454936	1.000000	0.063904	1456.342999	0.015124	0.984876
1.511039	0.454035	1.000000	0.063843	1457.061507	0.014116	0.985884
1.520857	0.453077	1.000000	0.063786	1457.736957	0.013169	0.986831
1.530783	0.452052	1.000000	0.063732	1458.371598	0.012278	0.987722
1.540818	0.450953	1.000000	0.063681	1458.967579	0.011441	0.988559
1.550963	0.449771	1.000000	0.063634	1459.526959	0.010655	0.989345
1.561220	0.448496	1.000000	0.063590	1460.051708	0.009918	0.990082
1.571592	0.447117	1.000000	0.063548	1460.543704	0.009226	0.990774
1.582078	0.445624	1.000000	0.063509	1461.004745	0.008578	0.991422
1.592681	0.444004	1.000000	0.063473	1461.436543	0.007970	0.992030
1.603404	0.442244	1.000000	0.063439	1461.840733	0.007401	0.992599
1.614246	0.440329	1.000000	0.063407	1462.218870	0.006869	0.993131
1.625211	0.438245	1.000000	0.063377	1462.572438	0.006371	0.993629
1.636300	0.435974	1.000000	0.063349	1462.902849	0.005906	0.994094
1.647515	0.433499	1.000000	0.063323	1463.211443	0.005472	0.994528
1.658858	0.430802	1.000000	0.063299	1463.499497	0.005066	0.994934
1.670331	0.427862	1.000000	0.063277	1463.768223	0.004687	0.995313
1.681935	0.424659	1.000000	0.063255	1464.018771	0.004334	0.995666
1.693673	0.421171	1.000000	0.063236	1464.252234	0.004005	0.995995
1.705546	0.417375	1.000000	0.063218	1464.469645	0.003699	0.996301
1.717557	0.413248	1.000000	0.063201	1464.671987	0.003413	0.996587
1.729708	0.408766	1.000000	0.063185	1464.860189	0.003148	0.996852
1.742001	0.403905	1.000000	0.063170	1465.035130	0.002901	0.997099
1.754438	0.398640	1.000000	0.063157	1465.197643	0.002672	0.997328
1.767022	0.392950	1.000000	0.063144	1465.348514	0.002459	0.997541
1.779754	0.386811	1.000000	0.063132	1465.488488	0.002262	0.997738
1.792636	0.380204	1.000000	0.063122	1465.618265	0.002079	0.997921
1.805673	0.373110	1.000000	0.063111	1465.738510	0.001909	0.998091
1.818864	0.365515	1.000000	0.063102	1465.849848	0.001752	0.998248
1.832214	0.357409	1.000000	0.063094	1465.952867	0.001606	0.998394
1.845725	0.348785	1.000000	0.063086	1466.048123	0.001472	0.998528
1.859398	0.339643	1.000000	0.063078	1466.136140	0.001348	0.998652
1.873237	0.329989	1.000000	0.063071	1466.217408	0.001233	0.998767
1.887245	0.319837	1.000000	0.063065	1466.292392	0.001127	0.998873
1.901424	0.309209	1.000000	0.063059	1466.361526	0.001030	0.998970
1.915776	0.298133	1.000000	0.063054	1466.425219	0.000940	0.999060
1.930305	0.286649	1.000000	0.063049	1466.483853	0.000857	0.999143
1.945013	0.274801	1.000000	0.063045	1466.537790	0.000781	0.999219
1.959904	0.262645	1.000000	0.063041	1466.587367	0.000711	0.999289
1.974979	0.250242	1.000000	0.063037	1466.632899	0.000647	0.999353
1.990244	0.237660	1.000000	0.063033	1466.674682	0.000588	0.999412
2.005699	0.224970	1.000000	0.063030	1466.712993	0.000533	0.999467
2.021349	0.212250	1.000000	0.063027	1466.748092	0.000484	0.999516
2.037197	0.199576	1.000000	0.063025	1466.780220	0.000439	0.999561
2.053246	0.187025	1.000000	0.063022	1466.809603	0.000397	0.999603
2.069499	0.174672	1.000000	0.063020	1466.836451	0.000359	0.999641
2.085960	0.162587	1.000000	0.063018	1466.860961	0.000325	0.999675
2.102632	0.150837	1.000000	0.063016	1466.883317	0.000293	0.999707
2.119520	0.139478	1.000000	0.063014	1466.903688	0.000264	0.999736
2.136625	0.128562	1.000000	0.063013	1466.922233	0.000238	0.999762
2.153953	0.118131	1.000000	0.063011	1466.939099	0.000214	0.999786
2.171507	0.108216	1.000000	0.063010	1466.954423	0.000193	0.999807
2.189291	0.098842	1.000000	0.063009	1466.968333	0.000173	0.999827
2.207308	0.090024	1.000000	0.063008	1466.980945	0.000155	0.999845
2.225563	0.081769	1.000000	0.063007	1466.992369	0.000139	0.999861
2.244060	0.074077	1.000000	0.063006	1467.002706	0.000124	0.999876
2.262804	0.066940	1.000000	0.063005	1467.012049	0.000111	0.999889
2.281798	0.060345	1.000000	0.063004	1467.020485	0.000099	0.999901
2.301046	0.054274	1.000000	0.063004	1467.028092	0.000089	0.999911
2.320554	0.048708	1.000000	0.063003	1467.034945	0.000079	0.999921
2.340326	0.043621	1.000000	0.063003	1467.041111	0.000070	0.999930
2.360367	0.038987	1.000000	0.063002	1467.046653	0.000062	0.999938
2.380681	0.034778	1.000000	0.063002	1467.051627	0.000055	0.999945
2.401273	0.030967	1.000000	0.063002	1467.056086	0.000049	0.999951
2.422148	0.027525	1.000000	0.063001	1467.060079	0.000043	0.999957
2.443312	0.024424	1.000000	0.063001	1467.063649	0.000038	0.999962
2.464770	0.021638	1.000000	0.063001	1467.066838	0.000034	0.999966
2.486526	0.019139	1.000000	0.063000	1467.069681	0.000030	0.999970
2.508587	0.016903	1.000000	0.063000	1467.072214	0.000026	0.999974
2.530958	0.014906	1.000000	0.063000	1467.074467	0.000023	0.999977
2.553644	0.013126	1.000000	0.063000	1467.076468	0.000020	0.999980
2.576652	0.011542	1.000000	0.063000	1467.078242	0.000018	0.999982
2.599988	0.010135	1.000000	0.063000	1467.079814	0.000015	0.999985
2.623657	0.008888	1.000000	0.062999	1467.081203	0.000014	0.999986
2.647666	0.007784	1.000000	0.062999	1467.082430	0.000012	0.999988
2.672022	0.006807	1.000000	0.062999	1467.083511	0.000010	0.999990
2.696730	0.005946	1.000000	0.062999	1467.084463	0.000009	0.999991
2.721798	0.005186	1.000000	0.062999	1467.085300	0.000008	0.999992
2.747232	0.004518	1.000000	0.062999	1467.086033	0.000007	0.999993
2.773039	0.003931	1.000000	0.062999	1467.086676	0.000006	0.999994
2.799227	0.003415	1.000000	0.062999	1467.087238	0.000005	0.999995
2.825803	0.002963	1.000000	0.062999	1467.087728	0.000004	0.999996
2.852774	0.002568	1.000000	0.062999	1467.088155	0.000004	0.999996
2.880149	0.002222	1.000000	0.062999	1467.088527	0.000003	0.999997
2.907934	0.001920	1.000000	0.062999	1467.088849	0.000003	0.999997
2.936139	0.001657	1.000000	0.062999	1467.089128	0.000002	0.999998
2.964771	0.001428	1.000000	0.062999	1467.089370	0.000002	0.999998
2.993838	0.001229	1.000000	0.062999	1467.089578	0.000002	0.999998
3.023350	0.001056	1.000000	0.062999	1467.089757	0.000001	0.999999
3.053316	0.000906	1.000000	0.062999	1467.089911	0.000001	0.999999
3.083744	0.000776	1.000000	0.062999	1467.090043	0.000001	0.999999
3.114644	0.000664	1.000000	0.062999	1467.090157	0.000001	0.999999
3.146025	0.000567	1.000000	0.062999	1467.090253	0.000001	0.999999
3.177897	0.000484	1.000000	0.062999	1467.090335	0.000001	0.999999
3.210271	0.000412	1.000000	0.062999	1467.090405	0.000001	0.999999
3.243156	0.000350	1.000000	0.062999	1467.090464	0.000000	1.000000
3.276563	0.000297	1.000000	0.062999	1467.090515	0.000000	1.000000
3.310502	0.000252	1.000000	0.062999	1467.090557	0.000000	1.000000
3.344986	0.000213	1.000000	0.062999	1467.090592	0.000000	1.000000
3.380025	0.000180	1.000000	0.062999	1467.090622	0.000000	1.000000
3.415631	0.000152	1.000000	0.062999	1467.090647	0.000000	1.000000
3.451816	0.000127	1.000000	0.062999	1467.090668	0.000000	1.000000
3.488593	0.000107	1.000000	0.062999	1467.090686	0.000000	1.000000
3.525973	0.000090	1.000000	0.062999	1467.090700	0.000000	1.000000
3.563969	0.000075	1.000000	0.062999	1467.090712	0.000000	1.000000
3.602596	0.000063	1.000000	0.062999	1467.090722	0.000000	1.000000
3.641866	0.000052	1.000000	0.062999	1467.090730	0.000000	1.000000
3.681794	0.000043	1.000000	0.062999	1467.090737	0.000000	1.000000
3.722394	0.000036	1.000000	0.062999	1467.090742	0.000000	1.000000
3.763680	0.000030	1.000000	0.062999	1467.090747	0.000000	1.000000
3.805668	0.000025	1.000000	0.062999	1467.090750	0.000000	1.000000
3.848373	0.000020	1.000000	0.062999	1467.090753	0.000000	1.000000
3.891811	0.000017	1.000000	0.062999	1467.090755	0.000000	1.000000
3.935998	0.000014	1.000000	0.062999	1467.090757	0.000000	1.000000
3.980952	0.000011	1.000000	0.062999	1467.090759	0.000000	1.000000
4.026689	0.000009	1.000000	0.062999	1467.090760	0.000000	1.000000
4.073227	0.000007	1.000000	0.062999	1467.090761	0.000000	1.000000
4.120584	0.000006	1.000000	0.062999	1467.090762	0.000000	1.000000
4.168780	0.000005	1.000000	0.062999	1467.090762	0.000000	1.000000
4.217833	0.000004	1.000000	0.062999	1467.090763	0.000000	1.000000
4.267763	0.000003	1.000000	0.062999	1467.090763	0.000000	1.000000
4.318590	0.000003	1.000000	0.062999	1467.090764	0.000000	1.000000
4.370336	0.000002	1.000000	0.062999	1467.090764	0.000000	1.000000
4.423021	0.000002	1.000000	0.062999	1467.090764	0.000000	1.000000
4.476668	0.000001	1.000000	0.062999	1467.090764	0.000000	1.000000
4.531299	0.000001	1.000000	0.062999	1467.090764	0.000000	1.000000
4.586938	0.000001	1.000000	0.062999	1467.090764	0.000000	1.000000
4.643609	0.000001	1.000000	0.062999	1467.090764	0.000000	1.000000
4.701337	0.000000	1.000000	0.062999	1467.090764	0.000000	1.000000
4.760146	0.000000	1.000000	0.062999	1467.090764	0.000000	1.000000
4.820063	0.000000	1.000000	0.062999	1467.090764	0.000000	1.000000
4.881116	0.000000	1.000000	0.062999	1467.090764	0.000000	1.000000
4.943330	0.000000	1.000000	0.062999	1467.090764	0.000000	1.000000
5.006736	0.000000	1.000000	0.062999	1467.090765	0.000000	1.000000
5.071362	0.000000	1.000000	0.062999	1467.090765	0.000000	1.000000
5.137239	0.000000	1.000000	0.062999	1467.090765	0.000000	1.000000
5.204397	0.000000	1.000000	0.062999	1467.090765	0.000000	1.000000
5.272870	0.000000	1.000000	0.062999	1467.090765	0.000000	1.000000
5.342688	0.000000	1.000000	0.062999	1467.090765	0.000000	1.000000
5.413887	0.000000	1.000000	0.062999	1467.090765	0.000000	1.000000
5.486502	0.000000	1.000000	0.062999	1467.090765	0.000000	1.000000
5.560569	0.000000	1.000000	0.062999	1467.090765	0.000000	1.000000
5.636123	0.000000	1.000000	0.062999	1467.090765	0.000000	1.000000
5.713205	0.000000	1.000000	0.062999	1467.090765	0.000000	1.000000
5.791853	0.000000	1.000000	0.062999	1467.090765	0.000000	1.000000
5.872108	0.000000	1.000000	0.062999	1467.090765	0.000000	1.000000
5.954011	0.000000	1.000000	0.062999	1467.090765	0.000000	1.000000
6.037607	0.000000	1.000000	0.062999	1467.090765	0.000000	1.000000
6.122938	0.000000	1.000000	0.062999	1467.090765	0.000000	1.000000
6.210052	0.000000	1.000000	0.062999	1467.090765	0.000000	1.000000
6.298994	0.000000	1.000000	0.062999	1467.090765	0.000000	1.000000
6.389815	0.000000	1.000000	0.062999	1467.090765	0.000000	1.000000
6.482564	0.000000	1.000000	0.062999	1467.090765	0.000000	1.000000
6.577293	0.000000	1.000000	0.062999	1467.090765	0.000000	1.000000
6.674056	0.000000	1.000000	0.062999	1467.090765	0.000000	1.000000
6.772907	0.000000	1.000000	0.062999	1467.090765	0.000000	1.000000
6.873904	0.000000	1.000000	0.062999	1467.090765	0.000000	1.000000
6.977104	0.000000	1.000000	0.062999	1467.090765	0.000000	1.000000
7.082569	0.000000	1.000000	0.062999	1467.090765	0.000000	1.000000
7.190362	0.000000	1.000000	0.062999	1467.090765	0.000000	1.000000
7.300545	0.000000	1.000000	0.062999	1467.090765	0.000000	1.000000
7.413186	0.000000	1.000000	0.062999	1467.090765	0.000000	1.000000
7.528354	0.000000	1.000000	0.062999	1467.090765	0.000000	1.000000
7.646118	0.000000	1.000000	0.062999	1467.090765	0.000000	1.000000
7.766553	0.000000	1.000000	0.062999	1467.090765	0.000000	1.000000
7.889733	0.000000	1.000000	0.062999	1467.090765	0.000000	1.000000
8.015736	0.000000	1.000000	0.062999	1467.090765	0.000000	1.000000
8.144643	0.000000	1.000000	0.062999	1467.090765	0.000000	1.000000
8.276536	0.000000	1.000000	0.062999	1467.090765	0.000000	1.000000
8.411500	0.000000	1.000000	0.062999	1467.090765	0.000000	1.000000
8.549624	0.000000	1.000000	0.062999	1467.090765	0.000000	1.000000
8.690999	0.000000	1.000000	0.062999	1467.090765	0.000000	1.000000
8.835718	0.000000	1.000000	0.062999	1467.090765	0.000000	1.000000
8.983880	0.000000	1.000000	0.062999	1467.090765	0.000000	1.000000
9.135582	0.000000	1.000000	0.062999	1467.090765	0.000000	1.000000
9.290930	0.000000	1.000000	0.062999	1467.090765	0.000000	1.000000
9.450028	0.000000	1.000000	0.062999	1467.090765	0.000000	1.000000
9.612987	0.000000	1.000000	0.062999	1467.090765	0.000000	1.000000
9.779921	0.000000	1.000000	0.062999	1467.090765	0.000000	1.000000
9.950945	0.000000	1.000000	0.062999	1467.090765	0.000000	1.000000
10.126181	0.000000	1.000000	0.062999	1467.090765	0.000000	1.000000
10.305752	0.000000	1.000000	0.062999	1467.090765	0.000000	1.000000
10.489786	0.000000	1.000000	0.062999	1467.090765	0.000000	1.000000
10.678416	0.000000	1.000000	0.062999	1467.090765	0.000000	1.000000
10.871777	0.000000	1.000000	0.062999	1467.090765	0.000000	1.000000
11.070009	0.000000	1.000000	0.062999	1467.090765	0.000000	1.000000
11.273256	0.000000	1.000000	0.062999	1467.090765	0.000000	1.000000
11.481667	0.000000	1.000000	0.062999	1467.090765	0.000000	1.000000
11.695395	0.000000	1.000000	0.062999	1467.090765	0.000000	1.000000
11.914596	0.000000	1.000000	0.062999	1467.090765	0.000000	1.000000
12.139431	0.000000	1.000000	0.062999	1467.090765	0.000000	1.000000
12.370068	0.000000	1.000000	0.062999	1467.090765	0.000000	1.000000
12.606676	0.000000	1.000000	0.062999	1467.090765	0.000000	1.000000
12.849430	0.000000	1.000000	0.062999	1467.090765	0.000000	1.000000
13.098511	0.000000	1.000000	0.062999	1467.090765	0.000000	1.000000
13.354101	0.000000	1.000000	0.062999	1467.090765	0.000000	1.000000
13.616391	0.000000	1.000000	0.062999	1467.090765	0.000000	1.000000
13.885572	0.000000	1.000000	0.062999	1467.090765	0.000000	1.000000
14.161842	0.000000	1.000000	0.062999	1467.090765	0.000000	1.000000
14.445404	0.000000	1.000000	0.062999	1467.090765	0.000000	1.000000
14.736462	0.000000	1.000000	0.062999	1467.090765	0.000000	1.000000
15.035227	0.000000	1.000000	0.062999	1467.090765	0.000000	1.000000
15.341913	0.000000	1.000000	0.062999	1467.090765	0.000000	1.000000
15.656736	0.000000	1.000000	0.062999	1467.090765	0.000000	1.000000
15.979917	0.000000	1.000000	0.062999	1467.090765	0.000000	1.000000
16.311679	0.000000	1.000000	0.062999	1467.090765	0.000000	1.000000
16.652248	0.000000	1.000000	0.062999	1467.090765	0.000000	1.000000
17.001850	0.000000	1.000000	0.062999	1467.090765	0.000000	1.000000
17.360717	0.000000	1.000000	0.062999	1467.090765	0.000000	1.000000
17.729076	0.000000	1.000000	0.062999	1467.090765	0.000000	1.000000
18.107157	0.000000	1.000000	0.062999	1467.090765	0.000000	1.000000
18.495190	0.000000	1.000000	0.062999	1467.090765	0.000000	1.000000
18.893401	0.000000	1.000000	0.062999	1467.090765	0.000000	1.000000
19.302016	0.000000	1.000000	0.062999	1467.090765	0.000000	1.000000
19.721253	0.000000	1.000000	0.062999	1467.090765	0.000000	1.000000
20.151327	0.000000	1.000000	0.062999	1467.090765	0.000000	1.000000
20.592448	0.000000	1.000000	0.062999	1467.090765	0.000000	1.000000
21.044814	0.000000	1.000000	0.062999	1467.090765	0.000000	1.000000
21.508614	0.000000	1.000000	0.062999	1467.090765	0.000000	1.000000
21.984026	0.000000	1.000000	0.062999	1467.090765	0.000000	1.000000
22.471212	0.000000	1.000000	0.062999	1467.090765	0.000000	1.000000
22.970318	0.000000	1.000000	0.062999	1467.090765	0.000000	1.000000
23.481468	0.000000	1.000000	0.062999	1467.090765	0.000000	1.000000
24.004768	0.000000	1.000000	0.062999	1467.090765	0.000000	1.000000
24.540294	0.000000	1.000000	0.062999	1467.090765	0.000000	1.000000
25.088095	0.000000	1.000000	0.062999	1467.090765	0.000000	1.000000
25.648188	0.000000	1.000000	0.062999	1467.090765	0.000000	1.000000
26.220552	0.000000	1.000000	0.062999	1467.090765	0.000000	1.000000
26.805126	0.000000	1.000000	0.062999	1467.090765	0.000000	1.000000
27.401805	0.000000	1.000000	0.062999	1467.090765	0.000000	1.000000
28.010431	0.000000	1.000000	0.062999	1467.090765	0.000000	1.000000
28.630794	0.000000	1.000000	0.062999	1467.090765	0.000000	1.000000
29.262623	0.000000	1.000000	0.062999	1467.090765	0.000000	1.000000
29.905582	0.000000	1.000000	0.062999	1467.090765	0.000000	1.000000
30.559263	0.000000	1.000000	0.062999	1467.090765	0.000000	1.000000
31.223182	0.000000	1.000000	0.062999	1467.090765	0.000000	1.000000
31.896773	0.000000	1.000000	0.062999	1467.090765	0.000000	1.000000
32.579383	0.000000	1.000000	0.062999	1467.090765	0.000000	1.000000
33.270261	0.000000	1.000000	0.062999	1467.090765	0.000000	1.000000
33.968562	0.000000	1.000000	0.062999	1467.090765	0.000000	1.000000
34.673333	0.000000	1.000000	0.062999	1467.090765	0.000000	1.000000
35.383512	0.000000	1.000000	0.062999	1467.090765	0.000000	1.000000
36.097925	0.000000	1.000000	0.062999	1467.090765	0.000000	1.000000
36.815279	0.000000	1.000000	0.062999	1467.090765	0.000000	1.000000
37.534161	0.000000	1.000000	0.062999	1467.090765	0.000000	1.000000
38.253038	0.000000	1.000000	0.062999	1467.090765	0.000000	1.000000
38.970252	0.000000	1.000000	0.062999	1467.090765	0.000000	1.000000
39.684024	0.000000	1.000000	0.062999	1467.090765	0.000000	1.000000
40.392456	0.000000	1.000000	0.062999	1467.090765	0.000000	1.000000
41.093534	0.000000	1.000000	0.062999	1467.090765	0.000000	1.000000
41.785134	0.000000	1.000000	0.062999	1467.090765	0.000000	1.000000
42.465032	0.000000	1.000000	0.062999	1467.090765	0.000000	1.000000
43.130909	0.000000	1.000000	0.062999	1467.090765	0.000000	1.000000
43.780370	0.000000	1.000000	0.062999	1467.090765	0.000000	1.000000
44.410953	0.000000	1.000000	0.062999	1467.090765	0.000000	1.000000
45.020150	0.000000	1.000000	0.062999	1467.090765	0.000000	1.000000
45.605421	0.000000	1.000000	0.062999	1467.090765	0.000000	1.000000
46.164220	0.000000	1.000000	0.062999	1467.090765	0.000000	1.000000
46.694017	0.000000	1.000000	0.062999	1467.090765	0.000000	1.000000
47.192319	0.000000	1.000000	0.062999	1467.090765	0.000000	1.000000
47.656699	0.000000	1.000000	0.062999	1467.090765	0.000000	1.000000
48.084823	0.000000	1.000000	0.062999	1467.090765	0.000000	1.000000
48.474475	0.000000	1.000000	0.062999	1467.090765	0.000000	1.000000
48.823583	0.000000	1.000000	0.062999	1467.090765	0.000000	1.000000
49.130249	0.000000	1.000000	0.062999	1467.090765	0.000000	1.000000
49.392769	0.000000	1.000000	0.062999	1467.090765	0.000000	1.000000
49.609661	0.000000	1.000000	0.062999	1467.090765	0.000000	1.000000
49.779679	0.000000	1.000000	0.062999	1467.090765	0.000000	1.000000
49.901839	0.000000	1.000000	0.062999	1467.090765	0.000000	1.000000
49.975423	0.000000	1.000000	0.062999	1467.090765	0.000000	1.000000
50.000000	0.000000	1.000000	0.062999	1467.090765	0.000000	1.000000
