0.050000	0.075684	0.013403
0.060000	0.089958	0.019537
0.070000	0.103629	0.026782
0.080000	0.116575	0.035074
0.090000	0.128682	0.044332
0.100000	0.139846	0.054466
0.110000	0.149976	0.065375
0.120000	0.158991	0.076947
0.130000	0.166820	0.089060
0.140000	0.173404	0.101584
0.150000	0.178699	0.114375
0.160000	0.182680	0.127282
0.170000	0.185341	0.140147
0.180000	0.186705	0.152805
0.190000	0.186819	0.165097
0.200000	0.185760	0.176874
0.210000	0.183630	0.188003
0.220000	0.180553	0.198374
0.230000	0.176662	0.207909
0.240000	0.172100	0.216556
0.250000	0.167003	0.224294
0.260000	0.161498	0.231126
0.270000	0.155698	0.237074
0.280000	0.149699	0.242174
0.290000	0.143577	0.246471
0.300000	0.137395	0.250014
0.310000	0.131197	0.252851
0.320000	0.125015	0.255028
0.330000	0.118871	0.256588
0.340000	0.112769	0.257566
0.350000	0.106697	0.257967
0.360000	0.100712	0.257866
0.370000	0.094876	0.257469
