%!PS-Adobe-3.0 EPSF-3.0
%%Title: %omega.eps
%%Creator: matplotlib version 2.2.3, http://matplotlib.org/
%%CreationDate: Mon Jan 21 09:47:50 2019
%%Orientation: portrait
%%BoundingBox: -414 36 1026 756
%%EndComments
%%BeginProlog
/mpldict 9 dict def
mpldict begin
/m { moveto } bind def
/l { lineto } bind def
/r { rlineto } bind def
/c { curveto } bind def
/cl { closepath } bind def
/box {
m
1 index 0 r
0 exch r
neg 0 r
cl
} bind def
/clipbox {
box
clip
newpath
} bind def
%!PS-Adobe-3.0 Resource-Font
%%Title: DejaVu Sans Oblique
%%Copyright: Copyright (c) 2003 by Bitstream, Inc. All Rights Reserved. Copyright (c) 2006 by Tavmjong Bah. All Rights Reserved. DejaVu changes are in public domain 
%%Creator: Converted from TrueType to type 3 by PPR
25 dict begin
/_d{bind def}bind def
/_m{moveto}_d
/_l{lineto}_d
/_cl{closepath eofill}_d
/_c{curveto}_d
/_sc{7 -1 roll{setcachedevice}{pop pop pop pop pop pop}ifelse}_d
/_e{exec}_d
/FontName /DejaVuSans-Oblique def
/PaintType 0 def
/FontMatrix[.001 0 0 .001 0 0]def
/FontBBox[-1016 -350 1659 1068]def
/FontType 3 def
/Encoding [ /i /alpha /omega ] def
/FontInfo 10 dict dup begin
/FamilyName (DejaVu Sans) def
/FullName (DejaVu Sans Oblique) def
/Notice (Copyright (c) 2003 by Bitstream, Inc. All Rights Reserved. Copyright (c) 2006 by Tavmjong Bah. All Rights Reserved. DejaVu changes are in public domain ) def
/Weight (Oblique) def
/Version (Version 2.35) def
/ItalicAngle -11.0 def
/isFixedPitch false def
/UnderlinePosition -130 def
/UnderlineThickness 90 def
end readonly def
/CharStrings 4 dict dup begin
/.notdef 0 def
/i{278 0 35 0 273 760 _sc
183 760 _m
273 760 _l
251 646 _l
161 646 _l
183 760 _l
142 547 _m
232 547 _l
125 0 _l
35 0 _l
142 547 _l
_cl}_d
/alpha{{659 0 55 -11 645 559 _sc
409 254 _m
410 367 _l
410 443 381 482 323 483 _c
279 483 244 465 218 429 _c
184 384 161 332 150 273 _c
136 201 137 148 155 114 _c
173 79 202 62 242 62 _c
285 62 325 96 362 166 _c
409 254 _l
338 559 _m
440 561 490 509 489 404 _c
489 404 514 451 565 547 _c
645 547 _l
487 250 _l
486 144 _l
486 128 490 113 499 100 _c
509 84 519 76 530 76 _c
}_e{573 76 _l
559 0 _l
504 0 _l
473 0 447 13 425 41 _c
415 55 409 76 409 104 _c
387 69 359 37 323 8 _c
305 -5 273 -11 227 -11 _c
151 -10 99 14 71 62 _c
43 112 37 183 55 273 _c
73 369 108 440 158 484 _c
213 533 273 558 338 559 _c
_cl}_e}_d
/omega{{837 0 68 -13 771 547 _sc
214 -13 _m
78 -13 30 83 68 276 _c
82 352 125 443 196 547 _c
293 547 _l
225 443 184 351 170 273 _c
142 132 164 62 237 62 _c
304 62 354 149 387 325 _c
470 325 _l
434 149 450 61 518 62 _c
590 62 640 133 668 273 _c
682 351 677 443 651 547 _c
748 547 _l
778 443 785 352 771 276 _c
733 82 647 -13 512 -13 _c
423 -13 383 35 391 132 _c
}_e{359 35 300 -13 214 -13 _c
_cl}_e}_d
end readonly def

/BuildGlyph
 {exch begin
 CharStrings exch
 2 copy known not{pop /.notdef}if
 true 3 1 roll get exec
 end}_d

/BuildChar {
 1 index /Encoding get exch get
 1 index /BuildGlyph get exec
}_d

FontName currentdict end definefont pop
%!PS-Adobe-3.0 Resource-Font
%%Title: DejaVu Serif
%%Copyright: Copyright (c) 2003 by Bitstream, Inc. All Rights Reserved. DejaVu changes are in public domain 
%%Creator: Converted from TrueType to type 3 by PPR
25 dict begin
/_d{bind def}bind def
/_m{moveto}_d
/_l{lineto}_d
/_cl{closepath eofill}_d
/_c{curveto}_d
/_sc{7 -1 roll{setcachedevice}{pop pop pop pop pop pop}ifelse}_d
/_e{exec}_d
/FontName /DejaVuSerif def
/PaintType 0 def
/FontMatrix[.001 0 0 .001 0 0]def
/FontBBox[-770 -347 2105 1109]def
/FontType 3 def
/Encoding [ /hyphen /period /zero /one /two /three /four /five /six ] def
/FontInfo 10 dict dup begin
/FamilyName (DejaVu Serif) def
/FullName (DejaVu Serif) def
/Notice (Copyright (c) 2003 by Bitstream, Inc. All Rights Reserved. DejaVu changes are in public domain ) def
/Weight (Book) def
/Version (Version 2.35) def
/ItalicAngle 0.0 def
/isFixedPitch false def
/UnderlinePosition -130 def
/UnderlineThickness 90 def
end readonly def
/CharStrings 10 dict dup begin
/.notdef 0 def
/hyphen{338 0 44 230 294 306 _sc
44 306 _m
294 306 _l
294 230 _l
44 230 _l
44 306 _l
_cl}_d
/period{318 0 94 -13 224 116 _sc
94 51 _m
94 69 100 84 112 97 _c
124 109 140 116 159 116 _c
177 116 192 109 205 97 _c
217 84 224 69 224 51 _c
224 33 217 17 205 5 _c
192 -7 177 -13 159 -13 _c
140 -13 124 -7 112 5 _c
100 17 94 32 94 51 _c
_cl}_d
/zero{636 0 66 -13 570 742 _sc
318 34 _m
368 34 405 61 430 116 _c
454 170 467 253 467 364 _c
467 474 454 557 430 612 _c
405 666 368 694 318 694 _c
268 694 230 666 206 612 _c
181 557 169 474 169 364 _c
169 253 181 170 206 116 _c
230 61 268 34 318 34 _c
318 -13 _m
238 -13 176 20 132 86 _c
88 152 66 244 66 364 _c
66 483 88 576 132 642 _c
176 708 238 742 318 742 _c
397 742 459 708 503 642 _c
547 576 570 483 570 364 _c
570 244 547 152 503 86 _c
459 20 397 -13 318 -13 _c
_cl}_d
/one{636 0 122 0 494 742 _sc
142 0 _m
142 52 _l
269 52 _l
269 658 _l
122 563 _l
122 627 _l
300 742 _l
367 742 _l
367 52 _l
494 52 _l
494 0 _l
142 0 _l
_cl}_d
/two{{636 0 68 0 538 742 _sc
128 555 _m
73 555 _l
73 685 _l
107 703 142 717 178 727 _c
213 737 248 742 282 742 _c
358 742 418 723 462 687 _c
506 650 528 600 528 537 _c
528 465 478 380 378 281 _c
370 273 365 268 361 264 _c
177 80 _l
481 80 _l
481 170 _l
538 170 _l
538 0 _l
68 0 _l
68 53 _l
289 274 _l
337 322 372 367 393 408 _c
414 449 425 492 425 537 _c
}_e{425 586 412 624 386 652 _c
360 680 325 694 281 694 _c
234 694 198 682 173 659 _c
147 636 132 601 128 555 _c
_cl}_e}_d
/three{{636 0 76 -13 562 742 _sc
97 698 _m
135 712 171 723 206 731 _c
241 738 274 742 305 742 _c
376 742 432 726 472 696 _c
512 665 532 622 532 568 _c
532 524 518 487 490 458 _c
462 428 423 408 373 398 _c
433 389 479 367 512 332 _c
545 297 562 252 562 197 _c
562 129 539 77 493 41 _c
447 5 382 -13 296 -13 _c
258 -13 220 -9 184 -1 _c
148 6 112 18 76 35 _c
76 177 _l
}_e{131 177 _l
134 129 150 94 178 70 _c
206 46 246 34 298 34 _c
348 34 387 48 416 77 _c
444 106 459 146 459 196 _c
459 253 444 296 414 326 _c
384 355 341 370 284 370 _c
238 370 _l
238 420 _l
262 420 _l
319 420 362 431 390 455 _c
418 479 433 514 433 562 _c
433 604 421 637 398 660 _c
374 682 341 694 297 694 _c
253 694 218 683 194 662 _c
170 641 156 610 152 570 _c
}_e{97 570 _l
97 698 _l
_cl}_e}_d
/four{636 0 31 0 586 742 _sc
349 247 _m
349 635 _l
100 247 _l
349 247 _l
564 0 _m
232 0 _l
232 52 _l
349 52 _l
349 195 _l
31 195 _l
31 248 _l
350 742 _l
447 742 _l
447 247 _l
586 247 _l
586 195 _l
447 195 _l
447 52 _l
564 52 _l
564 0 _l
_cl}_d
/five{{636 0 85 -13 559 729 _sc
503 729 _m
503 649 _l
169 649 _l
169 440 _l
185 452 205 460 228 466 _c
250 472 276 475 304 475 _c
382 475 444 453 490 409 _c
536 365 559 306 559 231 _c
559 153 536 93 490 51 _c
444 8 379 -13 296 -13 _c
262 -13 228 -9 193 -1 _c
157 6 121 18 85 35 _c
85 177 _l
140 177 _l
143 130 158 94 184 70 _c
210 46 248 34 296 34 _c
}_e{347 34 386 51 414 85 _c
442 119 456 167 456 231 _c
456 294 442 342 415 376 _c
387 410 348 427 296 427 _c
266 427 240 421 218 411 _c
196 401 176 385 159 363 _c
117 363 _l
117 729 _l
503 729 _l
_cl}_e}_d
/six{{636 0 67 -13 573 742 _sc
327 34 _m
373 34 408 50 433 84 _c
457 118 470 166 470 230 _c
470 293 457 341 433 375 _c
408 409 373 426 327 426 _c
280 426 244 409 220 377 _c
196 344 184 297 184 236 _c
184 171 196 121 221 86 _c
245 51 281 34 327 34 _c
168 401 _m
190 425 215 444 243 456 _c
271 468 302 474 338 474 _c
410 474 468 452 510 408 _c
552 364 573 305 573 230 _c
}_e{573 156 550 97 505 53 _c
459 9 399 -13 323 -13 _c
241 -13 177 17 133 78 _c
89 139 67 227 67 341 _c
67 468 93 567 145 637 _c
197 707 271 742 367 742 _c
393 742 420 739 448 735 _c
476 730 505 723 535 713 _c
535 593 _l
480 593 _l
476 625 463 650 442 668 _c
421 685 393 694 357 694 _c
293 694 246 670 215 622 _c
184 574 168 500 168 401 _c
_cl}_e}_d
end readonly def

/BuildGlyph
 {exch begin
 CharStrings exch
 2 copy known not{pop /.notdef}if
 true 3 1 roll get exec
 end}_d

/BuildChar {
 1 index /Encoding get exch get
 1 index /BuildGlyph get exec
}_d

FontName currentdict end definefont pop
end
%%EndProlog
mpldict begin
-414 36 translate
1440 720 0 0 clipbox
gsave
0 0 m
1440 0 l
1440 720 l
0 720 l
cl
1.000 setgray
fill
grestore
gsave
180 79.2 m
1296 79.2 l
1296 633.6 l
180 633.6 l
cl
1.000 setgray
fill
grestore
0.800 setlinewidth
1 setlinejoin
0 setlinecap
[] 0 setdash
0.000 setgray
gsave
/o {
gsave
newpath
translate
0.8 setlinewidth
1 setlinejoin
0 setlinecap
0 0 m
0 -3.5 l

gsave
0.000 setgray
fill
grestore
stroke
grestore
} bind def
188.307 79.2 o
grestore
/DejaVuSerif findfont
15.000 scalefont
setfont
gsave
176.377566 60.809375 translate
0.000000 rotate
0.000000 0.000000 m /zero glyphshow
9.543457 0.000000 m /period glyphshow
14.311523 0.000000 m /zero glyphshow
grestore
gsave
/o {
gsave
newpath
translate
0.8 setlinewidth
1 setlinejoin
0 setlinecap
0 0 m
0 -3.5 l

gsave
0.000 setgray
fill
grestore
stroke
grestore
} bind def
365.057 79.2 o
grestore
gsave
353.127645 60.809375 translate
0.000000 rotate
0.000000 0.000000 m /zero glyphshow
9.543457 0.000000 m /period glyphshow
14.311523 0.000000 m /five glyphshow
grestore
gsave
/o {
gsave
newpath
translate
0.8 setlinewidth
1 setlinejoin
0 setlinecap
0 0 m
0 -3.5 l

gsave
0.000 setgray
fill
grestore
stroke
grestore
} bind def
541.807 79.2 o
grestore
gsave
529.877725 60.809375 translate
0.000000 rotate
0.000000 0.000000 m /one glyphshow
9.543457 0.000000 m /period glyphshow
14.311523 0.000000 m /zero glyphshow
grestore
gsave
/o {
gsave
newpath
translate
0.8 setlinewidth
1 setlinejoin
0 setlinecap
0 0 m
0 -3.5 l

gsave
0.000 setgray
fill
grestore
stroke
grestore
} bind def
718.557 79.2 o
grestore
gsave
706.627804 60.809375 translate
0.000000 rotate
0.000000 0.000000 m /one glyphshow
9.543457 0.000000 m /period glyphshow
14.311523 0.000000 m /five glyphshow
grestore
gsave
/o {
gsave
newpath
translate
0.8 setlinewidth
1 setlinejoin
0 setlinecap
0 0 m
0 -3.5 l

gsave
0.000 setgray
fill
grestore
stroke
grestore
} bind def
895.308 79.2 o
grestore
gsave
883.377883 60.809375 translate
0.000000 rotate
0.000000 0.000000 m /two glyphshow
9.543457 0.000000 m /period glyphshow
14.311523 0.000000 m /zero glyphshow
grestore
gsave
/o {
gsave
newpath
translate
0.8 setlinewidth
1 setlinejoin
0 setlinecap
0 0 m
0 -3.5 l

gsave
0.000 setgray
fill
grestore
stroke
grestore
} bind def
1072.06 79.2 o
grestore
gsave
1060.127962 60.809375 translate
0.000000 rotate
0.000000 0.000000 m /two glyphshow
9.543457 0.000000 m /period glyphshow
14.311523 0.000000 m /five glyphshow
grestore
gsave
/o {
gsave
newpath
translate
0.8 setlinewidth
1 setlinejoin
0 setlinecap
0 0 m
0 -3.5 l

gsave
0.000 setgray
fill
grestore
stroke
grestore
} bind def
1248.81 79.2 o
grestore
gsave
1236.878041 60.809375 translate
0.000000 rotate
0.000000 0.000000 m /three glyphshow
9.543457 0.000000 m /period glyphshow
14.311523 0.000000 m /zero glyphshow
grestore
gsave
729.500000 38.481250 translate
0.000000 rotate
/DejaVuSans-Oblique findfont
20.0 scalefont
setfont
0.000000 0.062500 moveto
/omega glyphshow


grestore
gsave
/o {
gsave
newpath
translate
0.8 setlinewidth
1 setlinejoin
0 setlinecap
0 0 m
-3.5 0 l

gsave
0.000 setgray
fill
grestore
stroke
grestore
} bind def
180 101.115 o
grestore
gsave
149.140625 95.419429 translate
0.000000 rotate
0.000000 0.000000 m /zero glyphshow
9.543457 0.000000 m /period glyphshow
14.311523 0.000000 m /zero glyphshow
grestore
gsave
/o {
gsave
newpath
translate
0.8 setlinewidth
1 setlinejoin
0 setlinecap
0 0 m
-3.5 0 l

gsave
0.000 setgray
fill
grestore
stroke
grestore
} bind def
180 182.716 o
grestore
gsave
149.140625 177.020493 translate
0.000000 rotate
0.000000 0.000000 m /zero glyphshow
9.543457 0.000000 m /period glyphshow
14.311523 0.000000 m /one glyphshow
grestore
gsave
/o {
gsave
newpath
translate
0.8 setlinewidth
1 setlinejoin
0 setlinecap
0 0 m
-3.5 0 l

gsave
0.000 setgray
fill
grestore
stroke
grestore
} bind def
180 264.317 o
grestore
gsave
149.140625 258.621558 translate
0.000000 rotate
0.000000 0.000000 m /zero glyphshow
9.543457 0.000000 m /period glyphshow
14.311523 0.000000 m /two glyphshow
grestore
gsave
/o {
gsave
newpath
translate
0.8 setlinewidth
1 setlinejoin
0 setlinecap
0 0 m
-3.5 0 l

gsave
0.000 setgray
fill
grestore
stroke
grestore
} bind def
180 345.918 o
grestore
gsave
149.140625 340.222623 translate
0.000000 rotate
0.000000 0.000000 m /zero glyphshow
9.543457 0.000000 m /period glyphshow
14.311523 0.000000 m /three glyphshow
grestore
gsave
/o {
gsave
newpath
translate
0.8 setlinewidth
1 setlinejoin
0 setlinecap
0 0 m
-3.5 0 l

gsave
0.000 setgray
fill
grestore
stroke
grestore
} bind def
180 427.519 o
grestore
gsave
149.140625 421.823687 translate
0.000000 rotate
0.000000 0.000000 m /zero glyphshow
9.543457 0.000000 m /period glyphshow
14.311523 0.000000 m /four glyphshow
grestore
gsave
/o {
gsave
newpath
translate
0.8 setlinewidth
1 setlinejoin
0 setlinecap
0 0 m
-3.5 0 l

gsave
0.000 setgray
fill
grestore
stroke
grestore
} bind def
180 509.12 o
grestore
gsave
149.140625 503.424752 translate
0.000000 rotate
0.000000 0.000000 m /zero glyphshow
9.543457 0.000000 m /period glyphshow
14.311523 0.000000 m /five glyphshow
grestore
gsave
/o {
gsave
newpath
translate
0.8 setlinewidth
1 setlinejoin
0 setlinecap
0 0 m
-3.5 0 l

gsave
0.000 setgray
fill
grestore
stroke
grestore
} bind def
180 590.721 o
grestore
gsave
149.140625 585.025817 translate
0.000000 rotate
0.000000 0.000000 m /zero glyphshow
9.543457 0.000000 m /period glyphshow
14.311523 0.000000 m /six glyphshow
grestore
gsave
140.984375 343.900000 translate
90.000000 rotate
/DejaVuSerif findfont
20.0 scalefont
setfont
0.000000 0.765625 moveto
/hyphen glyphshow

/DejaVuSans-Oblique findfont
20.0 scalefont
setfont
6.757812 0.765625 moveto
/alpha glyphshow

/DejaVuSans-Oblique findfont
14.0 scalefont
setfont
19.941406 -2.515625 moveto
/i glyphshow


grestore
2.000 setlinewidth
[2 0] 0 setdash
0.000 0.500 0.000 setrgbcolor
gsave
1116 554.4 180 79.2 clipbox
234.262274 152.49322 m
237.797276 162.50159 l
241.332277 173.498966 l
244.867279 185.531859 l
248.402281 198.655758 l
251.937282 212.937576 l
255.472284 228.455651 l
259.007285 245.303822 l
262.542287 263.588989 l
269.61229 304.968889 l
273.147292 328.339434 l
276.682293 353.678196 l
280.217295 381.08065 l
283.752296 410.542714 l
290.8223 474.329451 l
294.357301 506.724257 l
297.892303 537.0007 l
301.427304 562.855182 l
304.962306 582.617328 l
308.497308 595.859548 l
312.032309 603.162844 l
315.567311 605.530091 l
322.637314 599.312089 l
326.172315 592.233197 l
329.707317 583.235864 l
333.242319 572.706878 l
336.77732 560.946533 l
340.312322 548.189838 l
343.847323 534.625293 l
347.382325 520.40794 l
350.917327 505.669972 l
354.452328 489.986247 l
357.98733 474.230713 l
361.522331 458.134087 l
368.592334 425.10932 l
372.127336 408.253805 l
375.662338 391.206526 l
379.197339 373.987885 l
389.802344 321.57797 l
393.337346 304.053325 l
396.872347 285.732254 l
400.407349 267.355694 l
403.94235 250.209678 l
407.477352 234.354592 l
411.012354 218.363231 l
414.547355 201.589316 l
418.082357 183.763564 l
421.617358 175.582241 l
425.15236 161.482393 l
428.687361 146.21157 l
432.222363 115.389215 l
stroke
grestore
gsave
1116 554.4 180 79.2 clipbox
230.727273 113.165586 m
234.262274 115.270894 l
237.797276 117.536139 l
244.867279 122.535837 l
248.402281 125.261312 l
255.472284 131.141485 l
262.542287 137.556961 l
269.61229 144.450619 l
276.682293 151.753914 l
283.752296 159.377901 l
290.8223 167.222212 l
312.032309 190.945273 l
319.102312 198.575789 l
326.172315 205.945997 l
329.707317 209.521756 l
336.77732 216.442342 l
347.382325 226.245078 l
354.452328 232.410038 l
361.522331 238.299187 l
365.057333 241.145432 l
372.127336 246.65432 l
382.732341 254.488022 l
389.802344 259.444471 l
396.872347 264.201813 l
403.94235 268.769841 l
411.012354 273.155898 l
418.082357 277.367329 l
428.687361 283.365007 l
435.757365 287.157825 l
446.362369 292.545127 l
456.967374 297.577465 l
467.572379 302.261366 l
478.177384 306.602542 l
488.782388 310.606707 l
499.387393 314.277122 l
509.992398 317.619502 l
517.062401 319.666873 l
527.667406 322.469869 l
538.272411 324.955438 l
548.877415 327.128474 l
559.48242 328.992242 l
570.087425 330.551639 l
580.69243 331.811559 l
591.297434 332.7769 l
601.902439 333.450925 l
612.507444 333.839346 l
623.112449 333.947059 l
633.717453 333.777329 l
644.322458 333.336683 l
654.927463 332.629202 l
665.532468 331.659781 l
676.137472 330.432501 l
683.207475 329.472873 l
697.347482 327.223947 l
707.952487 325.252466 l
718.557491 323.041893 l
729.162496 320.597941 l
739.767501 317.923058 l
750.372506 315.023772 l
760.97751 311.904163 l
771.582515 308.567496 l
782.18752 305.018666 l
799.862528 298.644806 l
810.467532 294.551697 l
821.072537 290.261113 l
831.677542 285.777951 l
842.282547 281.10629 l
852.887551 276.249394 l
867.027558 269.49201 l
881.167564 262.421278 l
895.30757 255.045358 l
909.447577 247.372409 l
920.052582 241.426956 l
934.192588 233.250529 l
948.332594 224.796659 l
962.472601 216.072689 l
976.612607 207.090044 l
990.752613 197.868308 l
1008.427621 186.07369 l
1019.032626 178.918092 l
1026.102629 173.864538 l
1040.242635 163.754166 l
1061.452645 148.347069 l
1064.987646 145.841101 l
1079.127653 135.125249 l
1089.732658 127.335611 l
1107.407666 115.310062 l
1110.942667 112.912623 l
1110.942667 112.912623 l
stroke
grestore
[4 4] 0 setdash
0.000 0.000 1.000 setrgbcolor
gsave
1116 554.4 180 79.2 clipbox
230.727273 123.386936 m
234.262274 128.065125 l
237.797276 133.226392 l
241.332277 138.88869 l
244.867279 145.071603 l
251.937282 159.107802 l
255.472284 167.024737 l
262.542287 184.851306 l
266.077289 194.85478 l
269.61229 205.655497 l
273.147292 217.310577 l
276.682293 229.879589 l
280.217295 243.425366 l
283.752296 258.009924 l
287.287298 273.696097 l
294.357301 308.601768 l
297.892303 327.914292 l
301.427304 348.495713 l
308.497308 393.310202 l
312.032309 417.270722 l
319.102312 466.678535 l
322.637314 491.001364 l
329.707317 535.269942 l
333.242319 553.905177 l
336.77732 569.673767 l
340.312322 582.481054 l
343.847323 592.42496 l
347.382325 599.720911 l
350.917327 604.634111 l
354.452328 607.439555 l
357.98733 608.4 l
361.522331 607.750456 l
365.057333 605.698189 l
368.592334 602.423538 l
372.127336 598.082361 l
375.662338 592.808485 l
379.197339 586.716965 l
382.732341 579.905724 l
386.267342 572.462891 l
389.802344 564.461091 l
393.337346 555.968052 l
396.872347 547.039263 l
400.407349 537.728582 l
403.94235 528.080888 l
407.477352 518.140246 l
411.012354 507.945009 l
414.547355 497.532713 l
418.082357 486.938447 l
421.617358 475.371496 l
425.15236 464.177462 l
428.687361 452.79901 l
432.222363 441.245931 l
435.757365 429.52965 l
439.292366 417.657511 l
442.827368 405.640938 l
446.362369 394.795341 l
449.897371 382.757552 l
453.432373 370.588385 l
456.967374 358.272336 l
460.502376 347.121551 l
471.10738 310.942087 l
474.642382 298.227825 l
478.177384 286.300197 l
481.712385 270.689098 l
485.247387 261.82151 l
488.782388 250.367169 l
492.31739 235.439886 l
495.852392 220.868384 l
506.457396 192.028935 l
509.992398 182.223751 l
520.597403 141.96913 l
stroke
grestore
gsave
1116 554.4 180 79.2 clipbox
234.262274 113.518919 m
241.332277 117.388441 l
248.402281 121.614561 l
255.472284 126.097723 l
276.682293 139.82139 l
283.752296 144.068726 l
290.8223 148.021481 l
301.427304 153.394911 l
308.497308 156.654058 l
315.567311 159.705938 l
322.637314 162.592167 l
336.77732 167.990078 l
343.847323 170.544191 l
357.98733 175.425567 l
372.127336 180.047451 l
386.267342 184.43514 l
400.407349 188.600059 l
414.547355 192.544654 l
428.687361 196.270559 l
442.827368 199.774508 l
456.967374 203.056503 l
467.572379 205.372341 l
485.247387 208.952996 l
502.922395 212.185214 l
517.062401 214.521453 l
531.202407 216.637368 l
548.877415 218.974423 l
566.552423 220.972833 l
580.69243 222.331491 l
598.367437 223.732581 l
612.507444 224.618769 l
626.64745 225.299321 l
640.787456 225.776688 l
654.927463 226.053315 l
669.067469 226.133284 l
683.207475 226.017411 l
697.347482 225.709775 l
711.487488 225.212008 l
725.627494 224.528191 l
739.767501 223.65914 l
757.442509 222.319251 l
775.117517 220.700285 l
792.792525 218.808773 l
810.467532 216.647977 l
828.14254 214.225241 l
845.817548 211.543014 l
863.492556 208.607824 l
881.167564 205.424566 l
898.842572 201.996505 l
916.51758 198.329354 l
930.657586 195.226881 l
951.867596 190.294913 l
969.542604 185.9366 l
990.752613 180.413024 l
1011.962623 174.576916 l
1029.637631 169.480113 l
1047.312639 164.177676 l
1068.522648 157.554934 l
1089.732658 150.682492 l
1125.082673 138.916434 l
1132.152677 136.572036 l
1135.687678 134.550777 l
1149.827685 129.209172 l
1163.967691 123.608075 l
1171.037694 120.714501 l
1174.572696 120.066588 l
1181.642699 117.405578 l
1192.247704 113.251267 l
1195.782705 112.249206 l
1202.852708 109.592276 l
1206.38771 108.418852 l
1209.922711 107.108339 l
1213.457713 105.17929 l
1216.992715 104.4 l
1216.992715 104.4 l
stroke
grestore
[6 2] 0 setdash
0.750 0.000 0.750 setrgbcolor
gsave
1116 554.4 180 79.2 clipbox
230.727273 117.173015 m
234.262274 121.007449 l
237.797276 125.275184 l
244.867279 134.943279 l
248.402281 140.330581 l
251.937282 146.093248 l
255.472284 152.242704 l
259.007285 158.790374 l
262.542287 165.750128 l
266.077289 173.136657 l
269.61229 180.967911 l
273.147292 189.261027 l
276.682293 198.03559 l
280.217295 207.313631 l
294.357301 249.915099 l
297.892303 262.057337 l
301.427304 274.84096 l
304.962306 288.281471 l
308.497308 302.387031 l
312.032309 317.156008 l
315.567311 332.570449 l
319.102312 348.592002 l
322.637314 365.157018 l
326.172315 382.172472 l
329.707317 399.51025 l
333.242319 417.007151 l
336.77732 434.471411 l
340.312322 451.690051 l
343.847323 468.441934 l
347.382325 484.51408 l
350.917327 499.717174 l
354.452328 513.897807 l
357.98733 526.940921 l
361.522331 538.77226 l
365.057333 549.356734 l
368.592334 558.688631 l
372.127336 566.784273 l
375.662338 573.680379 l
379.197339 579.425094 l
382.732341 584.073091 l
386.267342 587.68557 l
389.802344 590.322916 l
393.337346 592.047147 l
396.872347 592.919462 l
400.407349 592.999431 l
403.94235 592.341726 l
407.477352 591.001837 l
411.012354 589.027907 l
414.547355 586.468898 l
418.082357 583.368057 l
421.617358 579.766186 l
425.15236 575.702453 l
432.222363 566.324859 l
435.757365 561.073831 l
442.827368 549.590929 l
446.362369 543.408832 l
449.897371 536.96398 l
453.432373 530.276773 l
456.967374 523.368427 l
460.502376 516.25771 l
464.037377 508.963391 l
467.572379 501.501789 l
471.10738 493.890042 l
474.642382 486.146101 l
478.177384 478.284654 l
481.712385 469.646366 l
485.247387 461.364674 l
488.782388 452.954052 l
492.31739 444.421844 l
495.852392 435.7705 l
499.387393 427.005729 l
502.922395 418.130797 l
506.457396 409.149784 l
509.992398 400.067586 l
513.527399 390.888282 l
517.062401 383.267559 l
520.597403 374.146192 l
524.132404 364.936695 l
527.667406 355.63091 l
531.202407 346.216595 l
534.737409 338.110345 l
538.272411 328.98653 l
541.807412 319.848027 l
545.342414 310.693204 l
548.877415 300.596704 l
552.412417 291.450857 l
555.947418 282.372738 l
559.48242 273.379485 l
563.017422 261.641172 l
566.552423 252.155864 l
570.087425 242.086292 l
573.622426 231.915536 l
580.69243 216.904204 l
584.227431 207.928087 l
587.762433 198.255913 l
591.297434 186.981093 l
594.832436 178.534567 l
598.367437 166.202198 l
601.902439 162.085425 l
605.437441 155.016324 l
608.972442 147.801158 l
612.507444 135.50551 l
616.042445 128.243831 l
619.577447 117.478203 l
stroke
grestore
gsave
1116 554.4 180 79.2 clipbox
230.727273 108.39274 m
237.797276 109.145102 l
259.007285 111.183497 l
287.287298 114.18968 l
333.242319 119.028623 l
365.057333 122.138439 l
393.337346 124.683577 l
421.617358 127.001863 l
449.897371 129.085138 l
481.712385 131.145565 l
509.992398 132.72781 l
538.272411 134.079939 l
563.017422 135.078736 l
594.832436 136.117518 l
623.112449 136.815207 l
654.927463 137.356222 l
683.207475 137.626322 l
715.02249 137.700578 l
746.837504 137.538192 l
778.652518 137.148139 l
810.467532 136.534499 l
842.282547 135.704616 l
874.097561 134.663387 l
905.912575 133.416523 l
937.727589 131.968104 l
969.542604 130.321394 l
1004.89262 128.266679 l
1040.242635 125.978586 l
1072.05765 123.723948 l
1110.942667 120.723477 l
1146.292683 117.773598 l
1192.247704 113.687833 l
1245.272727 108.956603 l
1245.272727 108.956603 l
stroke
grestore
0.800 setlinewidth
0 setlinejoin
2 setlinecap
[] 0 setdash
0.000 setgray
gsave
180 79.2 m
180 633.6 l
stroke
grestore
gsave
1296 79.2 m
1296 633.6 l
stroke
grestore
gsave
180 79.2 m
1296 79.2 l
stroke
grestore
gsave
180 633.6 m
1296 633.6 l
stroke
grestore

end
showpage
