%!PS-Adobe-3.0 EPSF-3.0
%%Title: 0160.eps
%%Creator: matplotlib version 2.2.3, http://matplotlib.org/
%%CreationDate: Wed Nov 14 14:20:29 2018
%%Orientation: portrait
%%BoundingBox: 75 223 536 568
%%EndComments
%%BeginProlog
/mpldict 9 dict def
mpldict begin
/m { moveto } bind def
/l { lineto } bind def
/r { rlineto } bind def
/c { curveto } bind def
/cl { closepath } bind def
/box {
m
1 index 0 r
0 exch r
neg 0 r
cl
} bind def
/clipbox {
box
clip
newpath
} bind def
%!PS-Adobe-3.0 Resource-Font
%%Title: DejaVu Sans
%%Copyright: Copyright (c) 2003 by Bitstream, Inc. All Rights Reserved. Copyright (c) 2006 by Tavmjong Bah. All Rights Reserved. DejaVu changes are in public domain 
%%Creator: Converted from TrueType to type 3 by PPR
25 dict begin
/_d{bind def}bind def
/_m{moveto}_d
/_l{lineto}_d
/_cl{closepath eofill}_d
/_c{curveto}_d
/_sc{7 -1 roll{setcachedevice}{pop pop pop pop pop pop}ifelse}_d
/_e{exec}_d
/FontName /DejaVuSans def
/PaintType 0 def
/FontMatrix[.001 0 0 .001 0 0]def
/FontBBox[-1021 -463 1793 1232]def
/FontType 3 def
/Encoding [ /period /zero /one /two /three /four /five /minus ] def
/FontInfo 10 dict dup begin
/FamilyName (DejaVu Sans) def
/FullName (DejaVu Sans) def
/Notice (Copyright (c) 2003 by Bitstream, Inc. All Rights Reserved. Copyright (c) 2006 by Tavmjong Bah. All Rights Reserved. DejaVu changes are in public domain ) def
/Weight (Book) def
/Version (Version 2.35) def
/ItalicAngle 0.0 def
/isFixedPitch false def
/UnderlinePosition -130 def
/UnderlineThickness 90 def
end readonly def
/CharStrings 9 dict dup begin
/.notdef 0 def
/period{318 0 107 0 210 124 _sc
107 124 _m
210 124 _l
210 0 _l
107 0 _l
107 124 _l
_cl}_d
/zero{636 0 66 -13 570 742 _sc
318 664 _m
267 664 229 639 203 589 _c
177 539 165 464 165 364 _c
165 264 177 189 203 139 _c
229 89 267 64 318 64 _c
369 64 407 89 433 139 _c
458 189 471 264 471 364 _c
471 464 458 539 433 589 _c
407 639 369 664 318 664 _c
318 742 _m
399 742 461 709 505 645 _c
548 580 570 486 570 364 _c
570 241 548 147 505 83 _c
461 19 399 -13 318 -13 _c
236 -13 173 19 130 83 _c
87 147 66 241 66 364 _c
66 486 87 580 130 645 _c
173 709 236 742 318 742 _c
_cl}_d
/one{636 0 110 0 544 729 _sc
124 83 _m
285 83 _l
285 639 _l
110 604 _l
110 694 _l
284 729 _l
383 729 _l
383 83 _l
544 83 _l
544 0 _l
124 0 _l
124 83 _l
_cl}_d
/two{{636 0 73 0 536 742 _sc
192 83 _m
536 83 _l
536 0 _l
73 0 _l
73 83 _l
110 121 161 173 226 239 _c
290 304 331 346 348 365 _c
380 400 402 430 414 455 _c
426 479 433 504 433 528 _c
433 566 419 598 392 622 _c
365 646 330 659 286 659 _c
255 659 222 653 188 643 _c
154 632 117 616 78 594 _c
78 694 _l
118 710 155 722 189 730 _c
223 738 255 742 284 742 _c
}_e{359 742 419 723 464 685 _c
509 647 532 597 532 534 _c
532 504 526 475 515 449 _c
504 422 484 390 454 354 _c
446 344 420 317 376 272 _c
332 227 271 164 192 83 _c
_cl}_e}_d
/three{{636 0 76 -13 556 742 _sc
406 393 _m
453 383 490 362 516 330 _c
542 298 556 258 556 212 _c
556 140 531 84 482 45 _c
432 6 362 -13 271 -13 _c
240 -13 208 -10 176 -4 _c
144 1 110 10 76 22 _c
76 117 _l
103 101 133 89 166 81 _c
198 73 232 69 268 69 _c
330 69 377 81 409 105 _c
441 129 458 165 458 212 _c
458 254 443 288 413 312 _c
383 336 341 349 287 349 _c
}_e{202 349 _l
202 430 _l
291 430 _l
339 430 376 439 402 459 _c
428 478 441 506 441 543 _c
441 580 427 609 401 629 _c
374 649 336 659 287 659 _c
260 659 231 656 200 650 _c
169 644 135 635 98 623 _c
98 711 _l
135 721 170 729 203 734 _c
235 739 266 742 296 742 _c
370 742 429 725 473 691 _c
517 657 539 611 539 553 _c
539 513 527 479 504 451 _c
481 423 448 403 406 393 _c
_cl}_e}_d
/four{636 0 49 0 580 729 _sc
378 643 _m
129 254 _l
378 254 _l
378 643 _l
352 729 _m
476 729 _l
476 254 _l
580 254 _l
580 172 _l
476 172 _l
476 0 _l
378 0 _l
378 172 _l
49 172 _l
49 267 _l
352 729 _l
_cl}_d
/five{{636 0 77 -13 549 729 _sc
108 729 _m
495 729 _l
495 646 _l
198 646 _l
198 467 _l
212 472 227 476 241 478 _c
255 480 270 482 284 482 _c
365 482 429 459 477 415 _c
525 370 549 310 549 234 _c
549 155 524 94 475 51 _c
426 8 357 -13 269 -13 _c
238 -13 207 -10 175 -6 _c
143 -1 111 6 77 17 _c
77 116 _l
106 100 136 88 168 80 _c
199 72 232 69 267 69 _c
}_e{323 69 368 83 401 113 _c
433 143 450 183 450 234 _c
450 284 433 324 401 354 _c
368 384 323 399 267 399 _c
241 399 214 396 188 390 _c
162 384 135 375 108 363 _c
108 729 _l
_cl}_e}_d
/minus{838 0 106 272 732 355 _sc
106 355 _m
732 355 _l
732 272 _l
106 272 _l
106 355 _l
_cl}_d
end readonly def

/BuildGlyph
 {exch begin
 CharStrings exch
 2 copy known not{pop /.notdef}if
 true 3 1 roll get exec
 end}_d

/BuildChar {
 1 index /Encoding get exch get
 1 index /BuildGlyph get exec
}_d

FontName currentdict end definefont pop
%!PS-Adobe-3.0 Resource-Font
%%Title: DejaVu Sans Oblique
%%Copyright: Copyright (c) 2003 by Bitstream, Inc. All Rights Reserved. Copyright (c) 2006 by Tavmjong Bah. All Rights Reserved. DejaVu changes are in public domain 
%%Creator: Converted from TrueType to type 3 by PPR
25 dict begin
/_d{bind def}bind def
/_m{moveto}_d
/_l{lineto}_d
/_cl{closepath eofill}_d
/_c{curveto}_d
/_sc{7 -1 roll{setcachedevice}{pop pop pop pop pop pop}ifelse}_d
/_e{exec}_d
/FontName /DejaVuSans-Oblique def
/PaintType 0 def
/FontMatrix[.001 0 0 .001 0 0]def
/FontBBox[-1016 -350 1659 1068]def
/FontType 3 def
/Encoding [ /i /r /alpha ] def
/FontInfo 10 dict dup begin
/FamilyName (DejaVu Sans) def
/FullName (DejaVu Sans Oblique) def
/Notice (Copyright (c) 2003 by Bitstream, Inc. All Rights Reserved. Copyright (c) 2006 by Tavmjong Bah. All Rights Reserved. DejaVu changes are in public domain ) def
/Weight (Oblique) def
/Version (Version 2.35) def
/ItalicAngle -11.0 def
/isFixedPitch false def
/UnderlinePosition -130 def
/UnderlineThickness 90 def
end readonly def
/CharStrings 4 dict dup begin
/.notdef 0 def
/i{278 0 35 0 273 760 _sc
183 760 _m
273 760 _l
251 646 _l
161 646 _l
183 760 _l
142 547 _m
232 547 _l
125 0 _l
35 0 _l
142 547 _l
_cl}_d
/r{411 0 35 0 463 560 _sc
446 464 _m
436 468 426 472 414 475 _c
402 477 390 479 377 479 _c
329 479 287 460 251 424 _c
215 388 192 339 180 279 _c
125 0 _l
35 0 _l
142 547 _l
232 547 _l
215 462 _l
238 493 266 517 300 534 _c
333 551 368 560 406 560 _c
415 560 424 559 434 558 _c
444 557 453 555 463 553 _c
446 464 _l
_cl}_d
/alpha{{659 0 55 -11 645 559 _sc
409 254 _m
410 367 _l
410 443 381 482 323 483 _c
279 483 244 465 218 429 _c
184 384 161 332 150 273 _c
136 201 137 148 155 114 _c
173 79 202 62 242 62 _c
285 62 325 96 362 166 _c
409 254 _l
338 559 _m
440 561 490 509 489 404 _c
489 404 514 451 565 547 _c
645 547 _l
487 250 _l
486 144 _l
486 128 490 113 499 100 _c
509 84 519 76 530 76 _c
}_e{573 76 _l
559 0 _l
504 0 _l
473 0 447 13 425 41 _c
415 55 409 76 409 104 _c
387 69 359 37 323 8 _c
305 -5 273 -11 227 -11 _c
151 -10 99 14 71 62 _c
43 112 37 183 55 273 _c
73 369 108 440 158 484 _c
213 533 273 558 338 559 _c
_cl}_e}_d
end readonly def

/BuildGlyph
 {exch begin
 CharStrings exch
 2 copy known not{pop /.notdef}if
 true 3 1 roll get exec
 end}_d

/BuildChar {
 1 index /Encoding get exch get
 1 index /BuildGlyph get exec
}_d

FontName currentdict end definefont pop
end
%%EndProlog
mpldict begin
75.6 223.2 translate
460.8 345.6 0 0 clipbox
gsave
0 0 m
460.8 0 l
460.8 345.6 l
0 345.6 l
cl
1.000 setgray
fill
grestore
gsave
57.6 38.016 m
414.72 38.016 l
414.72 304.128 l
57.6 304.128 l
cl
1.000 setgray
fill
grestore
0.800 setlinewidth
1 setlinejoin
0 setlinecap
[] 0 setdash
0.000 setgray
gsave
/o {
gsave
newpath
translate
0.8 setlinewidth
1 setlinejoin
0 setlinecap
0 0 m
0 -3.5 l

gsave
0.000 setgray
fill
grestore
stroke
grestore
} bind def
132.937 38.016 o
grestore
/DejaVuSans findfont
10.000 scalefont
setfont
gsave
129.757341 23.422250 translate
0.000000 rotate
0.000000 0.000000 m /one glyphshow
grestore
gsave
/o {
gsave
newpath
translate
0.8 setlinewidth
1 setlinejoin
0 setlinecap
0 0 m
0 -3.5 l

gsave
0.000 setgray
fill
grestore
stroke
grestore
} bind def
210.114 38.016 o
grestore
gsave
206.934433 23.422250 translate
0.000000 rotate
0.000000 0.000000 m /two glyphshow
grestore
gsave
/o {
gsave
newpath
translate
0.8 setlinewidth
1 setlinejoin
0 setlinecap
0 0 m
0 -3.5 l

gsave
0.000 setgray
fill
grestore
stroke
grestore
} bind def
287.291 38.016 o
grestore
gsave
284.111525 23.422250 translate
0.000000 rotate
0.000000 0.000000 m /three glyphshow
grestore
gsave
/o {
gsave
newpath
translate
0.8 setlinewidth
1 setlinejoin
0 setlinecap
0 0 m
0 -3.5 l

gsave
0.000 setgray
fill
grestore
stroke
grestore
} bind def
364.468 38.016 o
grestore
gsave
361.288618 23.422250 translate
0.000000 rotate
0.000000 0.000000 m /four glyphshow
grestore
gsave
231.160000 9.750375 translate
0.000000 rotate
/DejaVuSans-Oblique findfont
10.0 scalefont
setfont
0.000000 0.390625 moveto
/alpha glyphshow

/DejaVuSans-Oblique findfont
7.0 scalefont
setfont
6.591797 -1.250000 moveto
/r glyphshow


grestore
gsave
/o {
gsave
newpath
translate
0.8 setlinewidth
1 setlinejoin
0 setlinecap
0 0 m
-3.5 0 l

gsave
0.000 setgray
fill
grestore
stroke
grestore
} bind def
57.6 67.0688 o
grestore
gsave
28.334375 63.271915 translate
0.000000 rotate
0.000000 0.000000 m /zero glyphshow
6.362305 0.000000 m /period glyphshow
9.541016 0.000000 m /zero glyphshow
15.903320 0.000000 m /five glyphshow
grestore
gsave
/o {
gsave
newpath
translate
0.8 setlinewidth
1 setlinejoin
0 setlinecap
0 0 m
-3.5 0 l

gsave
0.000 setgray
fill
grestore
stroke
grestore
} bind def
57.6 97.0989 o
grestore
gsave
28.334375 93.302005 translate
0.000000 rotate
0.000000 0.000000 m /zero glyphshow
6.362305 0.000000 m /period glyphshow
9.541016 0.000000 m /one glyphshow
15.903320 0.000000 m /zero glyphshow
grestore
gsave
/o {
gsave
newpath
translate
0.8 setlinewidth
1 setlinejoin
0 setlinecap
0 0 m
-3.5 0 l

gsave
0.000 setgray
fill
grestore
stroke
grestore
} bind def
57.6 127.129 o
grestore
gsave
28.334375 123.332095 translate
0.000000 rotate
0.000000 0.000000 m /zero glyphshow
6.362305 0.000000 m /period glyphshow
9.541016 0.000000 m /one glyphshow
15.903320 0.000000 m /five glyphshow
grestore
gsave
/o {
gsave
newpath
translate
0.8 setlinewidth
1 setlinejoin
0 setlinecap
0 0 m
-3.5 0 l

gsave
0.000 setgray
fill
grestore
stroke
grestore
} bind def
57.6 157.159 o
grestore
gsave
28.334375 153.362184 translate
0.000000 rotate
0.000000 0.000000 m /zero glyphshow
6.362305 0.000000 m /period glyphshow
9.541016 0.000000 m /two glyphshow
15.903320 0.000000 m /zero glyphshow
grestore
gsave
/o {
gsave
newpath
translate
0.8 setlinewidth
1 setlinejoin
0 setlinecap
0 0 m
-3.5 0 l

gsave
0.000 setgray
fill
grestore
stroke
grestore
} bind def
57.6 187.189 o
grestore
gsave
28.334375 183.392274 translate
0.000000 rotate
0.000000 0.000000 m /zero glyphshow
6.362305 0.000000 m /period glyphshow
9.541016 0.000000 m /two glyphshow
15.903320 0.000000 m /five glyphshow
grestore
gsave
/o {
gsave
newpath
translate
0.8 setlinewidth
1 setlinejoin
0 setlinecap
0 0 m
-3.5 0 l

gsave
0.000 setgray
fill
grestore
stroke
grestore
} bind def
57.6 217.219 o
grestore
gsave
28.334375 213.422364 translate
0.000000 rotate
0.000000 0.000000 m /zero glyphshow
6.362305 0.000000 m /period glyphshow
9.541016 0.000000 m /three glyphshow
15.903320 0.000000 m /zero glyphshow
grestore
gsave
/o {
gsave
newpath
translate
0.8 setlinewidth
1 setlinejoin
0 setlinecap
0 0 m
-3.5 0 l

gsave
0.000 setgray
fill
grestore
stroke
grestore
} bind def
57.6 247.249 o
grestore
gsave
28.334375 243.452453 translate
0.000000 rotate
0.000000 0.000000 m /zero glyphshow
6.362305 0.000000 m /period glyphshow
9.541016 0.000000 m /three glyphshow
15.903320 0.000000 m /five glyphshow
grestore
gsave
/o {
gsave
newpath
translate
0.8 setlinewidth
1 setlinejoin
0 setlinecap
0 0 m
-3.5 0 l

gsave
0.000 setgray
fill
grestore
stroke
grestore
} bind def
57.6 277.279 o
grestore
gsave
28.334375 273.482543 translate
0.000000 rotate
0.000000 0.000000 m /zero glyphshow
6.362305 0.000000 m /period glyphshow
9.541016 0.000000 m /four glyphshow
15.903320 0.000000 m /zero glyphshow
grestore
gsave
22.256250 162.072000 translate
90.000000 rotate
/DejaVuSans findfont
10.0 scalefont
setfont
0.000000 0.390625 moveto
/minus glyphshow

/DejaVuSans-Oblique findfont
10.0 scalefont
setfont
8.378906 0.390625 moveto
/alpha glyphshow

/DejaVuSans-Oblique findfont
7.0 scalefont
setfont
14.970703 -1.250000 moveto
/i glyphshow


grestore
1.500 setlinewidth
2 setlinecap
1.000 0.000 0.000 setrgbcolor
gsave
357.1 266.1 57.6 38.02 clipbox
73.832727 50.112 m
73.889067 50.499388 l
77.512145 58.451356 l
81.121409 68.891617 l
84.738159 82.494046 l
88.44922 100.229817 l
92.48288 122.955388 l
97.199172 150.001688 l
102.822604 178.56691 l
109.291974 205.794591 l
116.429774 230.045691 l
124.061508 250.516602 l
132.032976 266.845163 l
140.209271 278.955698 l
148.475555 286.984543 l
156.738752 291.218785 l
164.927473 292.032 l
172.990473 289.833797 l
180.892867 285.033187 l
188.6132 278.018158 l
196.139356 269.14727 l
203.467012 258.751453 l
stroke
grestore
0 setlinecap
[9.6 2.4 1.5 2.4] 0 setdash
0.000 0.000 1.000 setrgbcolor
gsave
357.1 266.1 57.6 38.02 clipbox
73.832727 50.112 m
73.889067 50.499388 l
76.580463 54.039335 l
79.430922 58.155259 l
82.392361 62.029141 l
85.428277 65.226144 l
88.476232 67.652575 l
91.494242 69.501828 l
94.464402 70.988318 l
97.372126 72.360693 l
100.241493 74.057393 l
103.142966 75.854393 l
106.038265 77.344487 l
108.882086 78.789534 l
111.70152 80.699448 l
114.580688 82.847801 l
117.49451 84.659816 l
120.392123 86.168528 l
123.254622 87.611174 l
126.093272 89.273639 l
128.955153 91.197367 l
131.856395 93.035208 l
134.767669 94.617794 l
137.666209 96.0208 l
140.545223 97.383565 l
143.413201 98.843028 l
146.291675 100.417806 l
149.19199 101.961352 l
152.103342 103.354148 l
155.011683 104.604 l
157.910455 105.778177 l
160.801046 106.950551 l
163.691791 108.162566 l
166.592029 109.380586 l
169.502377 110.530138 l
172.416275 111.573984 l
175.327395 112.527139 l
178.233499 113.428042 l
181.136361 114.312728 l
184.040535 115.194412 l
186.950034 116.05087 l
189.864704 116.844865 l
192.781072 117.560783 l
195.695819 118.20643 l
198.607711 118.803428 l
201.51775 119.371597 l
204.428484 119.918145 l
207.342074 120.430458 l
210.258442 120.890519 l
213.175813 121.286916 l
216.092181 121.623854 l
219.006774 121.913344 l
221.9199 122.166798 l
224.83295 122.390822 l
227.747311 122.580012 l
230.663293 122.722955 l
233.579815 122.811844 l
236.49572 122.84728 l
239.410159 122.836469 l
242.323208 122.78782 l
245.23564 122.706138 l
248.148458 122.590222 l
251.062048 122.432864 l
253.975946 122.22866 l
256.88915 121.975206 l
259.801118 121.677908 l
262.711698 121.342172 l
265.621352 120.972201 l
268.530619 120.569197 l
271.440119 120.128956 l
274.349618 119.646072 l
277.2585 119.118744 l
280.166146 118.549373 l
283.072404 117.942165 l
285.97735 117.300722 l
288.881447 116.627447 l
291.785389 115.92114 l
294.689023 115.175793 l
297.592039 114.389605 l
300.493821 113.563177 l
303.394059 112.700112 l
306.292753 111.803414 l
309.190367 110.876685 l
312.087364 109.919326 l
314.983897 108.927132 l
317.879736 107.8977 l
320.774417 106.82923 l
323.667478 105.725324 l
326.55884 104.588384 l
329.448814 103.422616 l
332.337706 102.228019 l
335.226059 101.002792 l
338.113563 99.742729 l
340.999909 98.44603 l
343.884557 97.115096 l
346.767353 95.753532 l
349.648528 94.36434 l
352.528391 92.949923 l
355.407714 91.509079 l
358.286729 90.036404 l
361.16474 88.526491 l
364.041284 86.981743 l
366.916131 85.405163 l
369.789434 83.798553 l
372.661348 82.161914 l
375.531796 80.497045 l
378.40124 78.803348 l
381.269835 77.080222 l
384.137813 75.325864 l
387.004942 73.539674 l
389.871145 71.723454 l
392.736808 69.888616 l
395.605866 68.057982 l
398.487273 66.184104 l
stroke
grestore
0.800 setlinewidth
0 setlinejoin
2 setlinecap
[] 0 setdash
0.000 setgray
gsave
57.6 38.016 m
57.6 304.128 l
stroke
grestore
gsave
414.72 38.016 m
414.72 304.128 l
stroke
grestore
gsave
57.6 38.016 m
414.72 38.016 l
stroke
grestore
gsave
57.6 304.128 m
414.72 304.128 l
stroke
grestore

end
showpage
