#0.100000	0.153767	0.009114
#0.110000	0.169370	0.010993
#0.120000	0.185043	0.013025
#0.130000	0.200794	0.015201
0.120000	0.262165	0.027294
0.130000	0.283982	0.033027
0.140000	0.305755	0.039352
0.150000	0.327480	0.046291
0.160000	0.349157	0.053868
0.170000	0.370789	0.062116
0.180000	0.392383	0.071069
0.190000	0.413954	0.080771
0.200000	0.435520	0.091268
0.210000	0.457111	0.102617
0.220000	0.478765	0.114876
0.230000	0.500532	0.128112
0.240000	0.522476	0.142395
0.250000	0.544676	0.157798
0.260000	0.567230	0.174398
0.270000	0.590258	0.192271
0.280000	0.613900	0.211494
0.290000	0.638331	0.232139
0.300000	0.663757	0.254270
0.310000	0.690429	0.277937
0.320000	0.718649	0.303159
0.330000	0.748775	0.329909
0.340000	0.781228	0.358078
0.350000	0.816472	0.387441
0.360000	0.854986	0.417608
0.370000	0.897190	0.447989
0.380000	0.943338	0.477796
0.390000	0.993410	0.506113
0.400000	1.047051	0.532046
0.410000	1.103610	0.554883
0.420000	1.162271	0.574207
0.430000	1.222211	0.589902
0.440000	1.282713	0.602088
0.450000	1.343213	0.611029
0.460000	1.403299	0.617050
0.470000	1.462690	0.620489
0.480000	1.521204	0.621666
0.490000	1.578730	0.620870
0.500000	1.635208	0.618355
0.510000	1.690613	0.614343
0.520000	1.744941	0.609024
0.530000	1.798207	0.602562
0.540000	1.850433	0.595097
0.550000	1.901648	0.586751
0.560000	1.951886	0.577628
0.570000	2.001182	0.567818
0.580000	2.049571	0.557401
0.590000	2.097089	0.546443
0.600000	2.143771	0.535005
0.610000	2.189652	0.523137
0.620000	2.234766	0.510885
0.630000	2.279143	0.498287
0.640000	2.322777	0.485327
0.650000	2.365749	0.472116
0.660000	2.408010	0.458867
0.670000	2.449701	0.445246
0.680000	2.490794	0.431428
0.690000	2.531315	0.417431
0.700000	2.571292	0.403272
0.710000	2.610459	0.388974
0.720000	2.649307	0.374579
0.730000	2.687658	0.360087
0.740000	2.725534	0.345515
0.750000	2.762963	0.330880
0.760000	2.799704	0.315729
0.770000	2.836114	0.300877
0.780000	2.872072	0.286001
0.790000	2.908032	0.270640
0.800000	2.943191	0.255475
0.810000	2.978471	0.240591
0.820000	3.013069	0.225307
0.830000	3.047090	0.210660
0.840000	3.080428	0.195431
0.850000	3.113814	0.179800
0.860000	3.147318	0.164423
0.870000	3.180335	0.149558
0.880000	3.214022	0.137007
0.890000	3.247588	0.122580
0.900000	3.272962	0.105322
0.910000	3.303736	0.092033
0.920000	3.342724	0.074899
0.930000	3.375158	0.064108
0.940000	3.409376	0.050066
0.950000	3.436462	0.038047
0.960000	3.470584	0.021840
