0.125000	0.234226	-0.033385	0.224591	-0.000011
0.150000	0.294863	-0.058162	0.293428	-0.000003
0.175000	0.358050	-0.090813	0.304128	-0.000012
0.200000	0.423853	-0.128485	0.347386	-0.000488
0.225000	0.495026	-0.178994	0.440140	-0.000000
0.250000	0.572456	-0.235752	0.421734	-0.000003
0.275000	0.661069	-0.301494	0.451150	-0.001735
0.300000	0.768192	-0.373726	0.493499	-0.004288
0.325000	0.901291	-0.442137	0.535867	-0.006851
0.350000	1.056304	-0.489722	0.578333	-0.009387
0.375000	1.216773	-0.509995	0.620805	-0.011849
0.400000	1.371145	-0.509337	0.663363	-0.014280
0.425000	1.516196	-0.495248	0.705978	-0.016666
0.450000	1.652075	-0.472639	0.748631	-0.018995
0.475000	1.779752	-0.444458	0.791425	-0.021253
0.500000	1.900254	-0.412516	0.834236	-0.023444
0.525000	2.014493	-0.377976	0.877115	-0.025565
0.550000	2.123237	-0.341615	0.920060	-0.027605
0.575000	2.227128	-0.303971	0.963087	-0.029558
0.600000	2.326704	-0.265423	1.006135	-0.031439
0.625000	2.422417	-0.226250	1.049263	-0.033225
0.650000	2.514650	-0.186657	1.092451	-0.034913
0.675000	2.603732	-0.146795	1.135691	-0.036505
0.700000	2.689943	-0.106783	1.178985	-0.037997
0.725000	2.773529	-0.066708	1.222332	-0.039386
0.750000	1.265726	-0.040669	2.854703	-0.026640
0.775000	1.309174	-0.041841	1.515995	-0.000032
0.800000	1.352650	-0.042910	1.610465	-0.000002
0.825000	1.396174	-0.043862	1.357316	-0.000012
0.850000	1.439735	-0.044702	1.370644	-0.000014
0.875000	1.483332	-0.045427	1.656489	-0.000006
0.900000	1.526960	-0.046035	1.428896	-0.000001
0.925000	1.570617	-0.046525	1.560419	-0.000003
0.950000	1.614302	-0.046896	1.602596	-0.000048
0.975000	1.658008	-0.047149	1.644804	-0.000045
1.000000	1.701738	-0.047280	1.737865	-0.000049
1.025000	1.745478	-0.047257	0.802620	-0.002344
1.050000	1.789245	-0.047186	1.709208	-0.000009
1.075000	1.068938	-0.262375	1.833028	-0.046962
1.100000	1.876806	-0.046609	2.117692	-0.000000
1.125000	1.920600	-0.046140	2.129771	-0.000003
1.150000	1.964399	-0.045550	1.825809	-0.000000
1.175000	2.008203	-0.044841	1.912681	-0.000025
1.200000	2.052007	-0.044011	2.271754	-0.000001
1.225000	2.095812	-0.043063	2.128845	-0.000013
1.250000	2.139613	-0.041996	2.325794	-0.000002
1.275000	2.183411	-0.040810	2.494136	-0.000027
1.300000	2.227201	-0.039508	2.164405	-0.000007
1.325000	2.270983	-0.038088	2.235173	-0.000019
1.350000	2.314755	-0.036553	2.717660	-0.000002
1.375000	2.358516	-0.034903	2.319542	-0.000000
1.400000	2.402270	-0.033136	2.278930	-0.000033
1.425000	2.445998	-0.031258	2.651417	-0.000037
1.450000	2.489713	-0.029267	0.217710	-0.014405
1.475000	2.533412	-0.027163	2.488235	-0.000003
1.500000	2.577093	-0.024947	2.606735	-0.000044
1.525000	2.620751	-0.022623	2.693802	-0.000005
1.550000	2.664390	-0.020188	2.550136	-0.000006
1.575000	2.708017	-0.017649	2.591306	-0.000122
1.600000	2.751597	-0.014996	2.925282	-0.000002
1.625000	2.795164	-0.012242	2.823987	-0.000013
1.725000	0.759328	-0.017464	2.969164	-0.000171
2.625000	0.435359	-0.215854	4.232843	-0.000040
2.775000	1.578391	-0.010723	0.802322	-0.000976
