0.0 		0.0		0.0
0.100000	0.155155	0.008298
0.120000	0.186640	0.010531
0.140000	0.218212	0.012839
0.160000	0.249875	0.015235
0.180000	0.281637	0.017727
0.200000	0.313506	0.020320
0.220000	0.345491	0.023013
0.240000	0.377598	0.025807
0.260000	0.409834	0.028696
0.280000	0.442205	0.031677
0.300000	0.474716	0.034743
0.320000	0.507369	0.037885
0.340000	0.540169	0.041095
0.360000	0.573116	0.044364
0.380000	0.606213	0.047681
0.400000	0.639460	0.051036
0.420000	0.672855	0.054418
0.440000	0.706397	0.057818
0.460000	0.740083	0.061224
0.480000	0.773911	0.064627
0.500000	0.807877	0.068017
0.520000	0.841976	0.071385
0.540000	0.876204	0.074722
0.560000	0.910555	0.078021
0.580000	0.945025	0.081273
0.600000	0.979606	0.084473
0.620000	1.014294	0.087613
0.640000	1.049082	0.090689
0.660000	1.083963	0.093696
0.680000	1.118934	0.096629
0.700000	1.153986	0.099485
0.720000	1.189114	0.102260
0.740000	1.224313	0.104953
0.760000	1.259578	0.107559
0.780000	1.294902	0.110079
0.800000	1.330280	0.112510
0.820000	1.365709	0.114852
0.840000	1.401182	0.117103
0.860000	1.436696	0.119263
0.880000	1.472247	0.121332
0.900000	1.507830	0.123309
0.920000	1.543442	0.125196
0.940000	1.579079	0.126992
0.960000	1.614738	0.128698
0.980000	1.650416	0.130314
1.000000	1.686110	0.131841
1.020000	1.721817	0.133280
1.040000	1.757536	0.134632
1.060000	1.793262	0.135897
1.080000	1.828995	0.137077
1.100000	1.864733	0.138172
1.120000	1.900472	0.139184
1.140000	1.936213	0.140113
1.160000	1.971952	0.140961
1.180000	2.007689	0.141729
1.200000	2.043423	0.142418
1.220000	2.079151	0.143028
1.240000	2.114873	0.143561
1.260000	2.150587	0.144018
1.280000	2.186293	0.144401
1.300000	2.221990	0.144709
1.320000	2.257676	0.144944
1.340000	2.293352	0.145108
1.360000	2.329016	0.145200
1.380000	2.364667	0.145222
1.400000	2.400306	0.145176
1.420000	2.435931	0.145061
1.440000	2.471541	0.144879
1.460000	2.507138	0.144631
1.480000	2.542719	0.144318
1.500000	2.578284	0.143940
1.520000	2.613834	0.143498
1.540000	2.649368	0.142993
1.560000	2.684885	0.142427
1.580000	2.720385	0.141798
1.600000	2.755868	0.141110
1.620000	2.791334	0.140361
1.640000	2.826783	0.139554
1.660000	2.862213	0.138688
1.680000	2.897626	0.137764
1.700000	2.933020	0.136784
1.720000	2.968396	0.135747
1.740000	3.003754	0.134654
1.760000	3.039093	0.133507
1.780000	3.074414	0.132304
1.800000	3.109715	0.131048
1.820000	3.144998	0.129739
1.840000	3.180261	0.128377
1.860000	3.215506	0.126963
1.880000	3.250731	0.125497
1.900000	3.285937	0.123981
1.920000	3.321123	0.122413
1.940000	3.356290	0.120796
1.960000	3.391438	0.119129
1.980000	3.426566	0.117414
2.000000	3.461674	0.115649
2.020000	3.496763	0.113837
2.040000	3.531832	0.111977
2.060000	3.566882	0.110070
2.080000	3.601911	0.108116
2.100000	3.636921	0.106116
2.120000	3.671911	0.104070
2.140000	3.706881	0.101979
2.160000	3.741831	0.099842
2.180000	3.776761	0.097662
2.200000	3.811671	0.095436
2.220000	3.846561	0.093167
2.240000	3.881431	0.090855
2.260000	3.916281	0.088499
2.280000	3.951111	0.086101
2.300000	3.985920	0.083660
2.320000	4.020710	0.081177
2.340000	4.055478	0.078652
2.360000	4.090227	0.076086
2.380000	4.124954	0.073478
2.400000	4.159659	0.070828
2.420000	4.194343	0.068137
2.440000	4.229004	0.065405
2.460000	4.263642	0.062631
2.480000	4.298253	0.059815
2.500000	4.332836	0.056957
2.520000	4.367388	0.054057
2.540000	4.401903	0.051114
2.560000	4.436374	0.048129
2.580000	4.471207	0.045136
2.600000	4.505740	0.042039
2.620000	4.540261	0.038871
2.640000	4.574758	0.036111
2.660000	4.609303	0.033002
2.680000	4.643384	0.029901
2.700000	4.677759	0.026824
2.720000	4.711891	0.023127
2.740000	4.745965	0.019851
2.760000	4.780880	0.016928
2.780000	4.815192	0.013873
2.800000	4.848538	0.010027
