0.000001	0.600000	0.000000
0.001005	0.600000	0.000000
0.003993	0.600000	-0.000000
0.008884	0.600000	-0.000000
0.015555	0.600000	-0.000000
0.023840	0.600000	-0.000000
0.033547	0.600000	0.000000
0.044462	0.600000	-0.000000
0.056367	0.600000	0.000000
0.069042	0.600000	0.000000
0.082278	0.600000	0.000000
0.095880	0.600000	-0.000000
0.109674	0.600000	0.000000
0.123506	0.600000	-0.000000
0.137246	0.600000	0.000000
0.150785	0.600000	-0.000000
0.164038	0.600000	-0.000000
0.176935	0.600000	-0.000000
0.189427	0.600000	-0.000000
0.201478	0.600000	-0.000000
0.213065	0.600000	-0.000000
0.224175	0.600000	-0.000000
0.234805	0.600000	-0.000000
0.244958	0.600000	-0.000000
0.254642	0.600000	-0.000000
0.263869	0.600000	-0.000000
0.272655	0.600000	-0.000001
0.281017	0.600000	-0.000001
0.288974	0.600000	-0.000002
0.296546	0.600000	-0.000003
0.303753	0.600000	-0.000004
0.310615	0.600000	-0.000006
0.317151	0.600000	-0.000008
0.323381	0.600000	-0.000010
0.329323	0.600000	-0.000014
0.334996	0.600000	-0.000018
0.340416	0.600000	-0.000022
0.345600	0.599999	-0.000028
0.350563	0.599999	-0.000034
0.355320	0.599999	-0.000041
0.359884	0.599999	-0.000049
0.364269	0.599999	-0.000058
0.368486	0.599998	-0.000068
0.372548	0.599998	-0.000079
0.376465	0.599998	-0.000091
0.380246	0.599997	-0.000105
0.383902	0.599997	-0.000119
0.387442	0.599997	-0.000134
0.390873	0.599996	-0.000151
0.394203	0.599995	-0.000168
0.397440	0.599995	-0.000187
0.400591	0.599994	-0.000207
0.403661	0.599994	-0.000228
0.406657	0.599993	-0.000251
0.409584	0.599992	-0.000274
0.412448	0.599991	-0.000300
0.415254	0.599990	-0.000326
0.418006	0.599990	-0.000354
0.420708	0.599989	-0.000383
0.423365	0.599987	-0.000414
0.425980	0.599986	-0.000447
0.428558	0.599985	-0.000481
0.431101	0.599984	-0.000517
0.433613	0.599983	-0.000555
0.436097	0.599981	-0.000594
0.438555	0.599980	-0.000636
0.440991	0.599978	-0.000680
0.443407	0.599976	-0.000725
0.445806	0.599974	-0.000773
0.448189	0.599973	-0.000824
0.450560	0.599971	-0.000877
0.452919	0.599968	-0.000932
0.455270	0.599966	-0.000990
0.457614	0.599964	-0.001052
0.459952	0.599961	-0.001116
0.462287	0.599959	-0.001183
0.464621	0.599956	-0.001254
0.466954	0.599953	-0.001329
0.469289	0.599950	-0.001407
0.471626	0.599946	-0.001489
0.473968	0.599943	-0.001576
0.476315	0.599939	-0.001666
0.478670	0.599935	-0.001762
0.481032	0.599930	-0.001863
0.483405	0.599926	-0.001969
0.485787	0.599921	-0.002080
0.488182	0.599916	-0.002198
0.490589	0.599910	-0.002322
0.493011	0.599905	-0.002452
0.495447	0.599899	-0.002590
0.497900	0.599892	-0.002735
0.500370	0.599885	-0.002888
0.502858	0.599878	-0.003050
0.505365	0.599870	-0.003220
0.507892	0.599861	-0.003401
0.510440	0.599853	-0.003591
0.513011	0.599843	-0.003792
0.515604	0.599833	-0.004004
0.518220	0.599822	-0.004228
0.520861	0.599811	-0.004466
0.523528	0.599799	-0.004717
0.526222	0.599785	-0.004982
0.528942	0.599772	-0.005264
0.531691	0.599757	-0.005561
0.534468	0.599741	-0.005876
0.537275	0.599724	-0.006210
0.540114	0.599706	-0.006564
0.542983	0.599686	-0.006939
0.545885	0.599666	-0.007337
0.548820	0.599643	-0.007758
0.551790	0.599620	-0.008206
0.554794	0.599594	-0.008680
0.557834	0.599567	-0.009184
0.560910	0.599538	-0.009719
0.564025	0.599507	-0.010287
0.567177	0.599474	-0.010891
0.570369	0.599438	-0.011532
0.573601	0.599400	-0.012214
0.576874	0.599358	-0.012939
0.580189	0.599314	-0.013710
0.583547	0.599267	-0.014531
0.586948	0.599216	-0.015404
0.590395	0.599161	-0.016333
0.593887	0.599102	-0.017322
0.597426	0.599039	-0.018376
0.601012	0.598971	-0.019499
0.604647	0.598898	-0.020695
0.608331	0.598820	-0.021970
0.612066	0.598735	-0.023329
0.615852	0.598644	-0.024779
0.619692	0.598546	-0.026325
0.623584	0.598440	-0.027974
0.627532	0.598327	-0.029735
0.631536	0.598204	-0.031614
0.635596	0.598071	-0.033619
0.639715	0.597929	-0.035761
0.643893	0.597774	-0.038049
0.648131	0.597608	-0.040492
0.652431	0.597428	-0.043103
0.656795	0.597234	-0.045892
0.661222	0.597024	-0.048873
0.665714	0.596798	-0.052059
0.670274	0.596553	-0.055465
0.674901	0.596288	-0.059105
0.679598	0.596001	-0.062997
0.684366	0.595691	-0.067157
0.689206	0.595355	-0.071605
0.694120	0.594992	-0.076360
0.699109	0.594598	-0.081442
0.704174	0.594172	-0.086873
0.709318	0.593710	-0.092678
0.714542	0.593210	-0.098879
0.719847	0.592668	-0.105503
0.725235	0.592081	-0.112576
0.730708	0.591444	-0.120126
0.736267	0.590754	-0.128180
0.741915	0.590006	-0.136769
0.747653	0.589195	-0.145922
0.753483	0.588316	-0.155670
0.759407	0.587364	-0.166042
0.765427	0.586331	-0.177069
0.771544	0.585213	-0.188779
0.777762	0.584000	-0.201201
0.784081	0.582688	-0.214361
0.790505	0.581266	-0.228282
0.797036	0.579728	-0.242984
0.803675	0.578063	-0.258482
0.810425	0.576264	-0.274787
0.817288	0.574319	-0.291901
0.824268	0.572220	-0.309819
0.831366	0.569955	-0.328529
0.838585	0.567513	-0.348005
0.845928	0.564884	-0.368211
0.853397	0.562056	-0.389098
0.860995	0.559018	-0.410600
0.868726	0.555758	-0.432640
0.876592	0.552267	-0.455120
0.884596	0.548533	-0.477929
0.892741	0.544546	-0.500940
0.901030	0.540297	-0.524010
0.909468	0.535779	-0.546982
0.918057	0.530983	-0.569688
0.926801	0.525903	-0.591954
0.935703	0.520537	-0.613599
0.944767	0.514879	-0.634445
0.953997	0.508931	-0.654318
0.963397	0.502691	-0.673053
0.972971	0.496162	-0.690502
0.982723	0.489349	-0.706533
0.992657	0.482256	-0.721037
1.002779	0.474892	-0.733928
1.013091	0.467263	-0.745142
1.023600	0.459381	-0.754632
1.034310	0.451256	-0.762367
1.045225	0.442901	-0.768321
1.056352	0.434327	-0.772471
1.067695	0.425550	-0.774780
1.079260	0.416585	-0.775195
1.091052	0.407451	-0.773637
1.103078	0.398167	-0.770002
1.115343	0.388756	-0.764156
1.127854	0.379245	-0.755944
1.140617	0.369663	-0.745199
1.153639	0.360044	-0.731759
1.166926	0.350427	-0.715486
1.180485	0.340852	-0.696284
1.194325	0.331367	-0.674122
1.208452	0.322018	-0.649053
1.222874	0.312855	-0.621224
1.237599	0.303928	-0.590879
1.252637	0.295286	-0.558359
1.267994	0.286973	-0.524088
1.283681	0.279031	-0.488554
1.299706	0.271492	-0.452284
1.316079	0.264387	-0.415817
1.332811	0.257734	-0.379679
1.349910	0.251546	-0.344355
1.367389	0.245828	-0.310276
1.385257	0.240578	-0.277799
1.403527	0.235786	-0.247204
1.422210	0.231438	-0.218692
1.441318	0.227515	-0.192387
1.460865	0.223994	-0.168345
1.480863	0.220850	-0.146560
1.501326	0.218056	-0.126979
1.522269	0.215584	-0.109508
1.543705	0.213406	-0.094027
1.565651	0.211496	-0.080397
1.588123	0.209827	-0.068466
1.611136	0.208374	-0.058080
1.634709	0.207114	-0.049085
1.658858	0.206025	-0.041333
1.683603	0.205087	-0.034681
1.708964	0.204282	-0.028999
1.734959	0.203593	-0.024163
1.761611	0.203005	-0.020066
1.788940	0.202506	-0.016606
1.816970	0.202083	-0.013696
1.845725	0.201725	-0.011256
1.875228	0.201424	-0.009219
1.905506	0.201171	-0.007524
1.936586	0.200960	-0.006119
1.968495	0.200784	-0.004957
2.001264	0.200638	-0.004001
2.034921	0.200517	-0.003217
2.069499	0.200417	-0.002576
2.105032	0.200335	-0.002054
2.141553	0.200268	-0.001631
2.179100	0.200214	-0.001290
2.217710	0.200170	-0.001015
2.257423	0.200134	-0.000795
2.298281	0.200105	-0.000619
2.340326	0.200082	-0.000480
2.383605	0.200064	-0.000371
2.428165	0.200049	-0.000284
2.474057	0.200038	-0.000217
2.521332	0.200029	-0.000164
2.570045	0.200022	-0.000124
2.620255	0.200016	-0.000093
2.672022	0.200012	-0.000069
2.725408	0.200009	-0.000051
2.780482	0.200007	-0.000037
2.837313	0.200005	-0.000027
2.895975	0.200004	-0.000020
2.956546	0.200003	-0.000014
3.019107	0.200002	-0.000010
3.083744	0.200001	-0.000007
3.150548	0.200001	-0.000005
3.219614	0.200001	-0.000003
3.291042	0.200000	-0.000002
3.364940	0.200000	-0.000002
3.441418	0.200000	-0.000001
3.520595	0.200000	-0.000001
3.602596	0.200000	-0.000000
3.687553	0.200000	-0.000000
3.775604	0.200000	-0.000000
3.866898	0.200000	-0.000000
3.961591	0.200000	-0.000000
4.059847	0.200000	-0.000000
4.161843	0.200000	-0.000000
4.267763	0.200000	-0.000000
4.377804	0.200000	-0.000000
4.492175	0.200000	-0.000000
4.611098	0.200000	-0.000000
4.734808	0.200000	-0.000000
4.863555	0.200000	-0.000000
4.997604	0.200000	-0.000000
5.137239	0.200000	-0.000000
5.282760	0.200000	-0.000000
5.434489	0.200000	-0.000000
5.592765	0.200000	-0.000000
5.757952	0.200000	-0.000000
5.930440	0.200000	-0.000000
6.110640	0.200000	-0.000000
6.298994	0.200000	-0.000000
6.495975	0.200000	-0.000000
6.702084	0.200000	-0.000000
6.917859	0.200000	-0.000000
7.143876	0.200000	-0.000000
7.380748	0.200000	-0.000000
7.629133	0.200000	-0.000000
7.889733	0.200000	-0.000000
8.163300	0.200000	-0.000000
8.450638	0.200000	0.000000
8.752606	0.200000	0.000000
9.070127	0.200000	-0.000000
9.404182	0.200000	0.000000
9.755825	0.200000	-0.000000
10.126181	0.200000	-0.000000
10.516449	0.200000	0.000000
10.927911	0.200000	-0.000000
11.361934	0.200000	0.000000
11.819972	0.200000	0.000000
12.303570	0.200000	-0.000000
12.814368	0.200000	0.000000
13.354101	0.200000	-0.000000
13.924600	0.200000	-0.000000
14.527789	0.200000	-0.000000
15.165682	0.200000	-0.000000
15.840373	0.200000	0.000000
16.554030	0.200000	-0.000000
17.308874	0.200000	0.000000
18.107157	0.200000	0.000000
18.951133	0.200000	0.000000
19.843016	0.200000	0.000000
20.784931	0.200000	-0.000000
21.778846	0.200000	-0.000000
22.826492	0.200000	0.000000
23.929264	0.200000	0.000000
25.088095	0.200000	-0.000000
26.303317	0.200000	-0.000000
27.574487	0.200000	0.000000
28.900192	0.200000	-0.000000
30.277830	0.200000	-0.000000
31.703368	0.200000	0.000000
33.171089	0.200000	0.000000
34.673333	0.200000	-0.000000
36.200256	0.200000	0.000000
37.739626	0.200000	0.000000
39.276684	0.200000	0.000000
40.794106	0.200000	0.000000
42.272103	0.200000	0.000000
43.688688	0.200000	0.000000
45.020150	0.200000	-0.000000
46.241740	0.200000	-0.000000
47.328564	0.200000	0.000000
48.256652	0.200000	-0.000000
49.004132	0.200000	0.000000
49.552425	0.200000	0.000000
49.887348	0.200000	0.000000
50.000000	0.200000	0.000000
