0.100000	0.142474	0.018144	0.101578	0.006869
0.120000	0.170639	0.026175	0.122374	0.009275
0.140000	0.198668	0.035659	0.143388	0.011946
0.160000	0.226495	0.046414	0.164607	0.014667
0.180000	0.254199	0.058639	0.186027	0.017481
0.200000	0.281762	0.072331	0.207640	0.020323
0.220000	0.309266	0.087569	0.229418	0.023125
0.240000	0.336775	0.104422	0.251334	0.025877
0.260000	0.364354	0.122966	0.273358	0.028578
0.280000	0.392071	0.143346	0.295471	0.031178
0.300000	0.420065	0.165645	0.317643	0.033725
0.320000	0.448363	0.190044	0.339865	0.036197
0.340000	0.477135	0.216758	0.362119	0.038608
0.360000	0.506530	0.246053	0.384396	0.040962
0.380000	0.536773	0.278272	0.406692	0.043265
0.400000	0.568166	0.313899	0.429004	0.045526
0.420000	0.601186	0.353576	0.451326	0.047747
0.440000	0.636637	0.398162	0.473662	0.049931
0.460000	0.675951	0.448828	0.496007	0.052085
0.480000	0.721924	0.506974	0.518381	0.054201
0.500000	0.780333	0.573059	0.540730	0.056302
0.520000	0.860384	0.641127	0.563110	0.058372
0.540000	0.962242	0.693983	0.585501	0.060418
0.560000	1.069476	0.724310	0.607905	0.062438
0.580000	1.172268	0.739106	0.630322	0.064438
0.600000	1.269132	0.744682	0.652753	0.066416
0.620000	1.360677	0.744361	0.675198	0.068352
0.640000	1.447707	0.739944	0.697660	0.070306
0.660000	1.530857	0.732476	0.720136	0.072219
0.680000	1.610627	0.722659	0.742628	0.074114
0.700000	1.687405	0.710946	0.765135	0.075978
0.720000	1.761502	0.697688	0.787659	0.077827
0.740000	1.833172	0.683173	0.810199	0.079654
0.760000	1.902631	0.667602	0.832756	0.081458
0.780000	1.970061	0.651135	0.855330	0.083241
0.800000	2.035623	0.633929	0.877923	0.085002
0.820000	2.099435	0.616080	0.900538	0.086738
0.840000	2.161645	0.597689	0.923149	0.088448
0.860000	2.222335	0.578840	0.945789	0.090137
0.880000	2.281629	0.559585	0.968448	0.091808
0.900000	2.339599	0.539990	0.991122	0.093446
0.920000	2.396334	0.520128	1.013810	0.095061
0.940000	2.451920	0.500008	1.036516	0.096657
0.960000	2.506388	0.479675	1.059239	0.098225
0.980000	2.559857	0.459139	1.081976	0.099767
1.000000	2.612357	0.438427	1.104726	0.101284
