0.100000	0.153460	0.006116
0.120000	0.184521	0.008661
0.140000	0.215767	0.011532
0.160000	0.247218	0.014670
0.180000	0.278887	0.018018
0.200000	0.310781	0.021524
0.220000	0.342893	0.025145
0.240000	0.375217	0.028844
0.260000	0.407738	0.032595
0.280000	0.440443	0.036379
0.300000	0.473320	0.040182
0.320000	0.506358	0.043995
0.340000	0.539550	0.047812
0.360000	0.572888	0.051627
0.380000	0.606367	0.055437
0.400000	0.639985	0.059237
0.420000	0.673737	0.063021
0.440000	0.707620	0.066785
0.460000	0.741633	0.070523
0.480000	0.775772	0.074229
0.500000	0.810033	0.077897
0.520000	0.844413	0.081520
0.540000	0.878909	0.085093
0.560000	0.913515	0.088610
0.580000	0.948227	0.092065
0.600000	0.983041	0.095453
0.620000	1.017950	0.098768
0.640000	1.052949	0.102006
0.660000	1.088034	0.105163
0.680000	1.123197	0.108236
0.700000	1.158433	0.111221
0.720000	1.193737	0.114115
0.740000	1.229104	0.116917
0.760000	1.264527	0.119625
0.780000	1.300001	0.122236
0.800000	1.335522	0.124751
0.820000	1.371084	0.127169
0.840000	1.406683	0.129489
0.860000	1.442314	0.131711
0.880000	1.477974	0.133836
0.900000	1.513659	0.135863
0.920000	1.549364	0.137794
0.940000	1.585086	0.139629
0.960000	1.620823	0.141369
0.980000	1.656572	0.143015
1.000000	1.692329	0.144568
1.020000	1.728092	0.146029
1.040000	1.763859	0.147400
1.060000	1.799628	0.148682
1.080000	1.835397	0.149875
1.100000	1.871164	0.150982
1.120000	1.906928	0.152003
1.140000	1.942687	0.152941
1.160000	1.978439	0.153795
1.180000	2.014185	0.154568
1.200000	2.049921	0.155261
1.220000	2.085649	0.155874
1.240000	2.121366	0.156410
1.260000	2.157071	0.156870
1.280000	2.192765	0.157254
1.300000	2.228446	0.157564
1.320000	2.264115	0.157800
1.340000	2.299769	0.157965
1.360000	2.335409	0.158059
1.380000	2.371035	0.158083
1.400000	2.406645	0.158039
1.420000	2.442241	0.157927
1.440000	2.477820	0.157747
1.460000	2.513384	0.157502
1.480000	2.548931	0.157192
1.520000	2.619976	0.156380
1.540000	2.655473	0.155881
1.560000	2.690953	0.155319
1.580000	2.726416	0.154697
1.600000	2.761862	0.154015
1.620000	2.797290	0.153273
1.640000	2.832701	0.152473
1.660000	2.868094	0.151615
1.680000	2.903469	0.150700
1.720000	2.974166	0.148701
1.740000	3.009488	0.147618
1.760000	3.044791	0.146481
1.800000	3.115344	0.144046
1.820000	3.150593	0.142749
1.860000	3.221036	0.139998
1.900000	3.291406	0.137043
1.920000	3.326563	0.135490
1.940000	3.361701	0.133888
1.980000	3.431923	0.130537
2.000000	3.467006	0.128788
2.020000	3.502071	0.126993
2.040000	3.537116	0.125150
2.060000	3.572143	0.123260
2.080000	3.607152	0.121324
2.100000	3.642141	0.119342
2.140000	3.712064	0.115242
2.160000	3.746997	0.113125
2.220000	3.851684	0.106510
2.240000	3.886541	0.104218
2.260000	3.921380	0.101883
2.280000	3.956200	0.099506
2.300000	3.991000	0.097087
2.320000	4.025782	0.094627
2.340000	4.060544	0.092125
2.360000	4.095288	0.089581
2.380000	4.130012	0.086997
2.400000	4.164717	0.084373
2.420000	4.199403	0.081708
2.440000	4.234069	0.079003
2.460000	4.268716	0.076258
2.480000	4.303344	0.073473
2.500000	4.337952	0.070647
2.520000	4.372539	0.067781
2.540000	4.407106	0.064874
2.560000	4.441651	0.061924
2.580000	4.476173	0.058931
2.600000	4.510670	0.055892
2.620000	4.545138	0.052804
2.640000	4.579729	0.049845
2.660000	4.614215	0.046712
2.680000	4.648698	0.043533
2.700000	4.682983	0.040472
2.720000	4.717397	0.037296
2.740000	4.751810	0.034113
2.760000	4.785911	0.030643
2.780000	4.820402	0.027087
2.800000	4.854923	0.023891
2.820000	4.889037	0.020702
2.840000	4.923005	0.017070
2.860000	4.957498	0.013814
2.880000	4.991663	0.010276
