 0.10000000000000D+01
 0.60095000000000D+02  0.24091381230193D-06  0.23606873142262D-06  0.23032893535195D-06  0.22412098745294D-06  0.21791482231731D-06  0.21220636045654D-06  0.20749844202622D-06  0.20428051837128D-06  0.20300789052487D-06  0.20408107892135D-06
 0.60195000000000D+02  0.25139392796019D-06  0.24776541821187D-06  0.24281584909105D-06  0.23691932797751D-06  0.23051036730061D-06  0.22406863574994D-06  0.21810141567103D-06  0.21312410499858D-06  0.20963949724900D-06  0.20811636506618D-06
 0.60295000000000D+02  0.26066378950761D-06  0.25864541792691D-06  0.25493886057503D-06  0.24984996888637D-06  0.24375958011562D-06  0.23711101178584D-06  0.23039474627792D-06  0.22413052635849D-06  0.21884751676636D-06  0.21506297413130D-06
 0.60395000000000D+02  0.26835660227031D-06  0.26827780553227D-06  0.26621736761214D-06  0.26239977773460D-06  0.25713607716921D-06  0.25081459512765D-06  0.24388847458321D-06  0.23686007899039D-06  0.23026283722950D-06  0.22464086495929D-06
 0.60495000000000D+02  0.27416819239380D-06  0.27628128454754D-06  0.27620452331650D-06  0.27407112763358D-06  0.27010897568520D-06  0.26463495374964D-06  0.25804582500607D-06  0.25080557240843D-06  0.24342965982944D-06  0.23646642905161D-06
 0.60595000000000D+02  0.27786906083957D-06  0.28233924533439D-06  0.28450485219329D-06  0.28440150179995D-06  0.28216381074732D-06  0.27802358503049D-06  0.27230440296400D-06  0.26541240330204D-06  0.25782359886693D-06  0.25006780104950D-06
 0.60695000000000D+02  0.27931353767374D-06  0.28621231123998D-06  0.29078986836413D-06  0.29298172729194D-06  0.29282280240369D-06  0.29044952498692D-06  0.28609836738774D-06  0.28010045093632D-06  0.27287242810229D-06  0.26490358565958D-06
 0.60795000000000D+02  0.27844567727619D-06  0.28774788502372D-06  0.29481109197192D-06  0.29947213441868D-06  0.30166369128170D-06  0.30142026484368D-06  0.29888072132017D-06  0.29428694511819D-06  0.28797866638065D-06  0.28038426899045D-06
 0.60895000000000D+02  0.27530165751765D-06  0.28688632062080D-06  0.29640995761625D-06  0.30361601655826D-06  0.30833641555847D-06  0.31050116791778D-06  0.31014486000546D-06  0.30740942240786D-06  0.30254312695208D-06  0.29589548141790D-06
 0.60995000000000D+02  0.27000857765958D-06  0.28366347214921D-06  0.29552422543125D-06  0.30524986665345D-06  0.31257698357936D-06  0.31733263675637D-06  0.31944454459693D-06  0.31894788382114D-06  0.31598851942334D-06  0.31082220987403D-06
 0.61095000000000D+02  0.26277968605580D-06  0.27820950865059D-06  0.29219063697575D-06  0.30430998782590D-06  0.31421800194421D-06  0.32164436537670D-06  0.32641152939682D-06  0.32844529808024D-06  0.32778219212546D-06  0.32457302239965D-06
 0.61195000000000D+02  0.25390620482598D-06  0.27074402452331D-06  0.28654369978728D-06  0.30083521203633D-06  0.31319544469184D-06  0.32326612121178D-06  0.33077015914618D-06  0.33552565730619D-06  0.33745713580141D-06  0.33660336813565D-06
 0.61295000000000D+02  0.24374604964813D-06  0.26156761691287D-06  0.27881063121888D-06  0.29496560766898D-06  0.30955139081532D-06  0.32213463200763D-06  0.33234836705833D-06  0.33990888453862D-06  0.34463043559411D-06  0.34643705154042D-06
 0.61395000000000D+02  0.23270986392337D-06  0.25105023739253D-06  0.26930263879429D-06  0.28693720910188D-06  0.30343260968807D-06  0.31829629977189D-06  0.33108463991075D-06  0.34142201121828D-06  0.34901845484722D-06  0.35368504908153D-06
 0.61495000000000D+02  0.22124489332918D-06  0.23961675115479D-06  0.25840285550704D-06  0.27707295329751D-06  0.29508503164361D-06  0.31190562170070D-06  0.32703066870977D-06  0.34000618346429D-06  0.35044815765234D-06  0.35806093731877D-06
 0.61595000000000D+02  0.20981731514968D-06  0.22773024798313D-06  0.24655137911207D-06  0.26577015473975D-06  0.28484429828722D-06  0.30321936117443D-06  0.32034956677957D-06  0.33571921356334D-06  0.34886412289428D-06  0.35939232943230D-06
 0.61695000000000D+02  0.19889370325151D-06  0.21587374126678D-06  0.23422797968303D-06  0.25348498532096D-06  0.27312273844600D-06  0.29258667455985D-06  0.31130970575742D-06  0.32873356191231D-06  0.34433096549606D-06  0.35762786816674D-06
 0.61795000000000D+02  0.18892235133218D-06  0.20453096062106D-06  0.22193313515075D-06  0.24071454502744D-06  0.26039325546136D-06  0.28043555581088D-06  0.30027438784022D-06  0.31932980866288D-06  0.33703105479228D-06  0.35283949139835D-06
 0.61895000000000D+02  0.18031519204073D-06  0.19416698732684D-06  0.21016812641395D-06  0.22797720794459D-06  0.24717073460161D-06  0.26725610500167D-06  0.28768773364204D-06  0.30788584724353D-06  0.32725759920181D-06  0.34521986602163D-06
 0.61995000000000D+02  0.17343103653490D-06  0.18520949765031D-06  0.19941496886348D-06  0.21579200228685D-06  0.23399168102195D-06  0.25358125358877D-06  0.27405731328936D-06  0.29486219750510D-06  0.31540334416251D-06  0.33507507013646D-06
 0.62095000000000D+02  0.16856081770237D-06  0.17803136587950D-06  0.19011697354674D-06  0.20465782967983D-06  0.22139287488346D-06  0.23996568354415D-06  0.25993417836800D-06  0.28078398837188D-06  0.30194530017323D-06  0.32281278594133D-06
 0.62195000000000D+02  0.16591545132181D-06  0.17293533629769D-06  0.18266071740401D-06  0.19503334548650D-06  0.20988987770269D-06  0.22696375536343D-06  0.24589105906598D-06  0.26622029290231D-06  0.28742607352205D-06  0.30892643967069D-06
 0.62295000000000D+02  0.16561683457667D-06  0.17014140201396D-06  0.17736015771806D-06  0.18731830722574D-06  0.19995624037734D-06  0.21510730799970D-06  0.23249957007236D-06  0.25176160747296D-06  0.27243250804080D-06  0.29397588396283D-06
 0.62395000000000D+02  0.16769238332851D-06  0.16977743036271D-06  0.17444355187181D-06  0.18183715177347D-06  0.19200424726678D-06  0.20488420960590D-06  0.22030731708845D-06  0.23799634704609D-06  0.25757245681401D-06  0.27856535626641D-06
 0.62495000000000D+02  0.17207337221721D-06  0.17187345232828D-06  0.17404374155882D-06  0.17882548486328D-06  0.18636798191656D-06  0.19671852022568D-06  0.20981581076324D-06  0.22548727671855D-06  0.24345058376088D-06  0.26331955898542D-06
 0.62595000000000D+02  0.17859718980230D-06  0.17635989111034D-06  0.17619223372840D-06  0.17842006035909D-06  0.18328941936809D-06  0.19095307602064D-06  0.20146007513849D-06  0.21474881353868D-06  0.23064414291236D-06  0.24885878854348D-06
 0.62695000000000D+02  0.18701346033908D-06  0.18306984752630D-06  0.18081736288665D-06  0.18065269498176D-06  0.18290813954786D-06  0.18783522020677D-06  0.19559078309389D-06  0.20622611060362D-06  0.21967969558893D-06  0.23577408790285D-06
 0.62795000000000D+02  0.19699382090598D-06  0.19174539341135D-06  0.18774665612673D-06  0.18544841093174D-06  0.18525511925714D-06  0.18750629077310D-06  0.19245966286402D-06  0.20027677759802D-06  0.21101170126851D-06  0.22460340787209D-06
 0.62895000000000D+02  0.20814498452344D-06  0.20204765528787D-06  0.19671334962329D-06  0.19262792957760D-06  0.19025090126402D-06  0.18999533270688D-06  0.19220879976805D-06  0.19715599934642D-06  0.20500385667380D-06  0.21580973555054D-06
 0.62995000000000D+02  0.22002457394578D-06  0.21357030666257D-06  0.20736683031553D-06  0.20191446051562D-06  0.19770826357788D-06  0.19521733752886D-06  0.19486430944931D-06  0.19700568908125D-06  0.20191396076261D-06  0.20976208352058D-06
 0.63095000000000D+02  0.23215908416687D-06  0.22585593596128D-06  0.21928660672975D-06  0.21294454913772D-06  0.20733932684816D-06  0.20297613131548D-06  0.20033468804764D-06  0.19984815974949D-06  0.20188295346493D-06  0.20672013227837D-06
 0.63195000000000D+02  0.24406323103568D-06  0.23841462580165D-06  0.23199925622385D-06  0.22528257025810D-06  0.21876685053455D-06  0.21297184099762D-06  0.20841395691937D-06  0.20558461987671D-06  0.20492861712691D-06  0.20682318362979D-06
 0.63295000000000D+02  0.25525987444188D-06  0.25074397495730D-06  0.24499766011854D-06  0.23843829349770D-06  0.23153928721377D-06  0.22481267540690D-06  0.21878952197446D-06  0.21399860660592D-06  0.21094424698024D-06  0.21008391848835D-06
 0.63395000000000D+02  0.26529967161236D-06  0.26234972289950D-06  0.25776173037819D-06  0.25188680601973D-06  0.24514899754951D-06  0.23803057073782D-06  0.23105446851841D-06  0.22476426497800D-06  0.21970239710709D-06  0.21638726417558D-06
 0.63495000000000D+02  0.27377962169241D-06  0.27276610267060D-06  0.26977975783208D-06  0.26508996725223D-06  0.25905288432965D-06  0.25210007851471D-06  0.24472382038791D-06  0.23745917767905D-06  0.23086359900378D-06  0.22549447071085D-06
 0.63595000000000D+02  0.28035970744300D-06  0.28157505365676D-06  0.28056947697475D-06  0.27751849471957D-06  0.27269459019423D-06  0.26645972631571D-06  0.25925411612124D-06  0.25158125233317D-06  0.24398973957379D-06  0.23705228060412D-06
 0.63695000000000D+02  0.28477692184808D-06  0.28842347205200D-06  0.28969794881500D-06  0.28867374474368D-06  0.28552732670349D-06  0.28053496524968D-06  0.27406550366796D-06  0.26656899318477D-06  0.25856158343577D-06  0.25060686118397D-06
 0.63795000000000D+02  0.28685608280731D-06  0.29303776162955D-06  0.29679941149724D-06  0.29810825926517D-06  0.29703636703497D-06  0.29376174012263D-06  0.28856543674735D-06  0.28182432967639D-06  0.27399974027401D-06  0.26562196198214D-06
 0.63895000000000D+02  0.28651698205132D-06  0.29523506680559D-06  0.30159033656732D-06  0.30544420076223D-06  0.30676024356403D-06  0.30560968325544D-06  0.30217297716843D-06  0.29673705420244D-06  0.28968822078766D-06  0.28150057184332D-06
 0.63995000000000D+02  0.28377757755613D-06  0.29493071782256D-06  0.30388105254884D-06  0.31038888914375D-06  0.31430974518937D-06  0.31560394373293D-06  0.31434267317478D-06  0.31070984208505D-06  0.30499960299804D-06  0.29760919064559D-06
 0.64095000000000D+02  0.27875311359069D-06  0.29214158650954D-06  0.30358345060674D-06  0.31274678309774D-06  0.31938390528568D-06  0.32334472069966D-06  0.32458699686890D-06  0.32318279358034D-06  0.31932075124978D-06  0.31330370735852D-06
 0.64195000000000D+02  0.27165123019903D-06  0.28698523174092D-06  0.30071446152045D-06  0.31242740708051D-06  0.32178230489990D-06  0.32852366976702D-06  0.33249638411974D-06  0.33365645314462D-06  0.33207799824052D-06  0.32795579674499D-06
 0.64295000000000D+02  0.26276329564728D-06  0.27967489720464D-06  0.29539517989645D-06  0.30944890564060D-06  0.32141318035917D-06  0.33093649070979D-06  0.33775602547212D-06  0.34171232527275D-06  0.34276071846224D-06  0.34097871641925D-06
 0.64395000000000D+02  0.25245235312507D-06  0.27051060138873D-06  0.28784570101418D-06  0.30393709969053D-06  0.31829701120579D-06  0.33049117520873D-06  0.34015870124990D-06  0.34703001617567D-06  0.35094228941393D-06  0.35185140679236D-06
 0.64495000000000D+02  0.24113820993214D-06  0.25986672254496D-06  0.27837591862411D-06  0.29612011484959D-06  0.31256546359405D-06  0.32721158648634D-06  0.33961313076324D-06  0.34940028091241D-06  0.35629755185448D-06  0.36013986841564D-06
 0.64595000000000D+02  0.22928030813976D-06  0.24817662276060D-06  0.26737269992433D-06  0.28631884052163D-06  0.30445576584885D-06  0.32123624822804D-06  0.33614750500469D-06  0.34873343850572D-06  0.35861603645299D-06  0.36551491116406D-06
 0.64695000000000D+02  0.21735909657150D-06  0.23591496967651D-06  0.25528399963327D-06  0.27493365124140D-06  0.29430078696464D-06  0.31281242774472D-06  0.32990808405677D-06  0.34506282341597D-06  0.35781041330625D-06  0.36776553154835D-06
 0.64795000000000D+02  0.20585667283433D-06  0.22357849803600D-06  0.24260059294856D-06  0.26242797166348D-06  0.28251526650553D-06  0.30228579782329D-06  0.32115295389338D-06  0.33854315979970D-06  0.35391983295659D-06  0.36680736972560D-06
 0.64895000000000D+02  0.19523748052563D-06  0.21166600402584D-06  0.22983619337369D-06  0.24930938767722D-06  0.26957879814753D-06  0.29008614401589D-06  0.31024124199181D-06  0.32944396419489D-06  0.34710805169658D-06  0.36268591617321D-06
 0.64995000000000D+02  0.18592983148330D-06  0.20065838275152D-06  0.21750677377772D-06  0.23610909459506D-06  0.25601629318913D-06  0.27670974159712D-06  0.29761827788242D-06  0.31813829206202D-06  0.33765645875343D-06  0.35557436811132D-06
 0.65095000000000D+02  0.17830897801580D-06  0.19099950402488D-06  0.20610992710070D-06  0.22336052704307D-06  0.24237674080267D-06  0.26269915320810D-06  0.28379734568491D-06  0.30508733449301D-06  0.32595233758102D-06  0.34576626598033D-06
 0.65195000000000D+02  0.17268238833654D-06  0.18307867593776D-06  0.19610508771153D-06  0.21157803357820D-06  0.22921113647213D-06  0.24862129034079D-06  0.26933880489873D-06  0.29082153551224D-06  0.31247288830957D-06  0.33366325955175D-06
 0.65295000000000D+02  0.16927778354040D-06  0.17721537238781D-06  0.18789538760868D-06  0.20123644308064D-06  0.21705046849223D-06  0.23504463718489D-06  0.25482744925844D-06  0.27591903177465D-06  0.29776570545548D-06  0.31975855178343D-06
 0.65395000000000D+02  0.16823438054486D-06  0.17364680346773D-06  0.18181184641466D-06  0.19275232172295D-06  0.20638463555802D-06  0.22251655353656D-06  0.24084902925471D-06  0.26098231115694D-06  0.28242653828976D-06  0.30461673828748D-06
 0.65495000000000D+02  0.16959765702280D-06  0.17251879064328D-06  0.17810049417260D-06  0.18646764184360D-06  0.19764311850878D-06  0.21154155547929D-06  0.22796688158805D-06  0.24661404270277D-06  0.26707525686372D-06  0.28885089525875D-06
 0.65595000000000D+02  0.17331781631147D-06  0.17388027656437D-06  0.17691290560029D-06  0.18263648114134D-06  0.19117814931746D-06  0.20256142061711D-06  0.21669958945783D-06  0.23339304731486D-06  0.25233100261301D-06  0.27309786500848D-06
 0.65695000000000D+02  0.17925198760123D-06  0.17768165711722D-06  0.17830048842070D-06  0.18141524663290D-06  0.18725101430148D-06  0.19593788194885D-06  0.20750054348607D-06  0.22185135764963D-06  0.23878751846951D-06  0.25799274394028D-06
 0.65795000000000D+02  0.18717005445990D-06  0.18377697607562D-06  0.18221272172652D-06  0.18285677760610D-06  0.18602200072964D-06  0.19193856496044D-06  0.20074018748828D-06  0.21245325922917D-06  0.22698963074106D-06  0.24414359273120D-06
 0.65895000000000D+02  0.19676386794047D-06  0.19192987566840D-06  0.18849938832440D-06  0.18690853052920D-06  0.18754435144325D-06  0.19072669072645D-06  0.19669162025122D-06  0.20557711616773D-06  0.21741179611363D-06  0.23210736395734D-06
 0.65995000000000D+02  0.20765947395048D-06  0.20182305472876D-06  0.19691669302714D-06  0.19341489196249D-06  0.19176243609383D-06  0.19235491878376D-06  0.19552008859155D-06  0.20150066821358D-06  0.21043953538979D-06  0.22236798094422D-06
 0.66095000000000D+02  0.21943187266539D-06  0.21307085480824D-06  0.20713701227352D-06  0.20212350850869D-06  0.19851418568862D-06  0.19676354269177D-06  0.19727675339105D-06  0.20039034575303D-06  0.20635445517590D-06  0.21531740670325D-06
 0.66195000000000D+02  0.23162173445855D-06  0.22523447834697D-06  0.21876188442510D-06  0.21269537126815D-06  0.20753767504315D-06  0.20378308423726D-06  0.20189694457804D-06  0.20229499125578D-06  0.20532341447850D-06  0.21124041768772D-06
 0.66295000000000D+02  0.24375342533932D-06  0.23783924578199D-06  0.23133772942781D-06  0.22471825149716D-06  0.21848158118800D-06  0.21314116506046D-06  0.20920294901420D-06  0.20714420503315D-06  0.20739223041535D-06  0.21030364865872D-06
 0.66395000000000D+02  0.25535364768959D-06  0.25039322375076D-06  0.24437368550384D-06  0.23772295920221D-06  0.23091910031965D-06  0.22447337298176D-06  0.21891120300641D-06  0.21475135614507D-06  0.21248414178710D-06  0.21254930764341D-06
 0.66495000000000D+02  0.26596998073567D-06  0.26240650689322D-06  0.25736087272104D-06  0.25120179169266D-06  0.24436477671821D-06  0.23733769024542D-06  0.23064359478959D-06  0.22482112205455D-06  0.22040306725363D-06  0.21789377971741D-06
 0.66595000000000D+02  0.27518861032449D-06  0.27341041284157D-06  0.26979234138748D-06  0.26462845838114D-06  0.25829358880825D-06  0.25123191765500D-06  0.24394242776627D-06  0.23696124947370D-06  0.23084151271076D-06  0.22613115145661D-06
 0.66695000000000D+02  0.28265056888694D-06  0.28297585451351D-06  0.28118293900301D-06  0.27747871420538D-06  0.27216155408997D-06  0.26561341696392D-06  0.25828845811918D-06  0.25069806991406D-06  0.24339280663973D-06  0.23694150094937D-06
 0.66795000000000D+02  0.28806586274920D-06  0.29073018551235D-06  0.29108833372150D-06  0.28925090879985D-06  0.28542705897856D-06  0.27992040793066D-06  0.27312130561829D-06  0.26549516251358D-06  0.25756717903725D-06  0.24990361789279D-06
 0.66895000000000D+02  0.29122494311773D-06  0.29637187205447D-06  0.29912246467121D-06  0.29948566276703D-06  0.29757209358766D-06  0.29359399922677D-06  0.28786144819784D-06  0.28077443891995D-06  0.27281105498535D-06  0.26451165104505D-06
 0.66995000000000D+02  0.29200707626369D-06  0.29968242626245D-06  0.30497274878483D-06  0.30778391582288D-06  0.30812257601321D-06  0.30610010589670D-06  0.30193295236271D-06  0.29593883467966D-06  0.28852881331290D-06  0.28019503231316D-06
 0.67095000000000D+02  0.29038528413696D-06  0.30053513794465D-06  0.30841245781515D-06  0.31382265291650D-06  0.31666698543808D-06  0.31695041116921D-06  0.31478606476283D-06  0.31039573200075D-06  0.30410616859032D-06  0.29634090351703D-06
 0.67195000000000D+02  0.28642765476329D-06  0.29890026148633D-06  0.30930978491933D-06  0.31736770138084D-06  0.32287258703406D-06  0.32572156681277D-06  0.32591879621943D-06  0.32358021204375D-06  0.31893427426875D-06  0.31231817797786D-06
 0.67295000000000D+02  0.28029495780626D-06  0.29484644697737D-06  0.30763324381736D-06  0.31828310161454D-06  0.32649862182596D-06  0.33207189249592D-06  0.33489666777254D-06  0.33497724193117D-06  0.33243361829549D-06  0.32750230800776D-06
 0.67395000000000D+02  0.27223463981516D-06  0.28853834552571D-06  0.30345318069163D-06  0.31653668181673D-06  0.32740594813584D-06  0.33575492829894D-06  0.34136985745459D-06  0.34414194208428D-06  0.34407679088894D-06  0.34129980334242D-06
 0.67495000000000D+02  0.26257141100754D-06  0.28023046288575D-06  0.29693932485349D-06  0.31220160936083D-06  0.32556275388913D-06  0.33662931222642D-06  0.34508708391070D-06  0.35071715172278D-06  0.35340924692158D-06  0.35317155542787D-06
 0.67595000000000D+02  0.25169476605857D-06  0.27025747795992D-06  0.28835445360894D-06  0.30545384248222D-06  0.32104610623183D-06  0.33466459207803D-06  0.34590568514138D-06  0.35444761170859D-06  0.36006726087130D-06  0.36265406776901D-06
 0.67695000000000D+02  0.24004390057678D-06  0.25902137832763D-06  0.27804439441062D-06  0.29656556072545D-06  0.31403926137548D-06  0.32994273346277D-06  0.34379749315664D-06  0.35519021068256D-06  0.36379237773330D-06  0.36937777149494D-06
 0.67795000000000D+02  0.22809058836274D-06  0.24697588882431D-06  0.26642472801312D-06  0.28589480555539D-06  0.30482481781405D-06  0.32265524769053D-06  0.33885026312755D-06  0.35291988807414D-06  0.36444179477850D-06  0.37308171492484D-06
 0.67895000000000D+02  0.21632066826231D-06  0.23460877677774D-06  0.25396468486621D-06  0.27387170820998D-06  0.29377395434712D-06  0.31309602900040D-06  0.33126458310274D-06  0.34773095078747D-06  0.36199426185097D-06  0.37362405219290D-06
 0.67995000000000D+02  0.20521485012210D-06  0.22242270473764D-06  0.24116883865282D-06  0.26098181498100D-06  0.28133214502015D-06  0.30165015418177D-06  0.32134636156683D-06  0.33983373337433D-06  0.35655125654417D-06  0.37098791397165D-06
 0.68095000000000D+02  0.19522958440494D-06  0.21091536494318D-06  0.22855729146710D-06  0.24774713573795D-06  0.26800188068255D-06  0.28877905323151D-06  0.30949515894167D-06  0.32954670812797D-06  0.34833336906274D-06  0.36528241734054D-06
 0.68195000000000D+02  0.18677874759076D-06  0.20055966661736D-06  0.21664511102805D-06  0.23470563526041D-06  0.25432304627226D-06  0.27500260160142D-06  0.29618878948334D-06  0.31728432544820D-06  0.33767201348840D-06  0.35673875565332D-06
 0.68295000000000D+02  0.18021687459420D-06  0.19178475552735D-06  0.20592181867744D-06  0.22238995507342D-06  0.24085169960579D-06  0.26087880755554D-06  0.28196476605543D-06  0.30354102975398D-06  0.32499676099539D-06  0.34570149628278D-06
 0.68395000000000D+02  0.17582462003076D-06  0.18495862407271D-06  0.19683173570500D-06  0.21130619302502D-06  0.22813806751583D-06  0.24698186747279D-06  0.26739928652498D-06  0.28887204612283D-06  0.31081875983376D-06  0.33261539764354D-06
 0.68495000000000D+02  0.17379705319452D-06  0.18037301939165D-06  0.18975597370227D-06  0.20191357672430D-06  0.21670461557570D-06  0.23387943360904D-06  0.25308456219147D-06  0.27387166212464D-06  0.29571086041472D-06  0.31800823026341D-06
 0.68595000000000D+02  0.17423528903880D-06  0.17823127756792D-06  0.18499680209537D-06  0.19460584406289D-06  0.20702505624684D-06  0.22210997973894D-06  0.23960536163196D-06  0.25914983302764D-06  0.28028519585927D-06  0.30247024353523D-06
 0.68695000000000D+02  0.17714183229243D-06  0.17863960600540D-06  0.18276504374337D-06  0.18969508931326D-06  0.19950513595710D-06  0.21216115805397D-06  0.22751568442418D-06  0.24530801250728D-06  0.26516907383522D-06  0.28663105427244D-06
 0.68795000000000D+02  0.18241986815702D-06  0.18160220653393D-06  0.18317103961962D-06  0.18739874778321D-06  0.19446598433454D-06  0.20445001457860D-06  0.21731648619470D-06  0.23291515193290D-06  0.25098011015445D-06  0.27113484014177D-06
 0.68895000000000D+02  0.18987657587589D-06  0.18702048302788D-06  0.18621958936433D-06  0.18783027791306D-06  0.19213071970231D-06  0.19930587019471D-06  0.20943534822544D-06  0.22248481702962D-06  0.23830157514220D-06  0.25661479613848D-06
 0.68995000000000D+02  0.19923037680558D-06  0.19469641450878D-06  0.19180912028213D-06  0.19099396041710D-06  0.19261488630763D-06  0.19695658134082D-06  0.20420892150991D-06  0.21445434014056D-06  0.22765892801306D-06  0.24366785218828D-06
 0.69095000000000D+02  0.21012186315917D-06  0.20434000405284D-06  0.19973516861545D-06  0.19678407415023D-06  0.19592115415072D-06  0.19751877102599D-06  0.20186887798640D-06  0.20916685958525D-06  0.21949848135908D-06  0.23283065250564D-06
 0.69195000000000D+02  0.22212799454039D-06  0.21558054229716D-06  0.20969808008309D-06  0.20498853349977D-06  0.20193854644994D-06  0.20099247067579D-06  0.20253197327362D-06  0.20685699613999D-06  0.21416906759328D-06  0.22455776152562D-06
 0.69295000000000D+02  0.23477900415933D-06  0.22798125942215D-06  0.22131465896299D-06  0.21529688894391D-06  0.21044627863284D-06  0.20726044146380D-06  0.20619466947863D-06  0.20764078318418D-06  0.21190747332540D-06  0.21920298735771D-06
 0.69395000000000D+02  0.24757733244706D-06  0.24105678887947D-06  0.23413332419440D-06  0.22731240848713D-06  0.22112210321873D-06  0.21609225631846D-06  0.21273258870141D-06  0.21151030562879D-06  0.21282826905770D-06  0.21700460343298D-06
 0.69495000000000D+02  0.26001780929710D-06  0.25429273734382D-06  0.24765217506064D-06  0.24056778104374D-06  0.23355486484466D-06  0.22715302793527D-06  0.22190487410516D-06  0.21833331874241D-06  0.21691849452022D-06  0.21807510536083D-06
 0.69595000000000D+02  0.27160824292570D-06  0.26716655527094D-06  0.26133923577652D-06  0.25454382176705D-06  0.24726078733591D-06  0.24001647193506D-06  0.23336333332367D-06  0.22785791803729D-06  0.22403747000279D-06  0.22239596739792D-06
 0.69695000000000D+02  0.28188954744218D-06  0.27916883681971D-06  0.27465404486541D-06  0.26869042187068D-06  0.26170284869440D-06  0.25418180643039D-06  0.24666603687765D-06  0.23972212319394D-06  0.23392179803367D-06  0.22981766714720D-06
 0.69795000000000D+02  0.29045455487141D-06  0.28982415096679D-06  0.28706968754178D-06  0.28244887901819D-06  0.27631245849357D-06  0.26909381853117D-06  0.26129485109169D-06  0.25346803119973D-06  0.24619540567420D-06  0.24006503521957D-06
 0.69895000000000D+02  0.29696471066208D-06  0.29871051969087D-06  0.29809434176601D-06  0.29527467501925D-06  0.29051254300773D-06  0.28416528330886D-06  0.27667620984393D-06  0.26855999564060D-06  0.26038426441331D-06  0.25274776681413D-06
 0.69995000000000D+02  0.30116394249495D-06  0.30547671420128D-06  0.30729142353804D-06  0.30665973982343D-06  0.30374107278294D-06  0.29880080923641D-06  0.29220428115378D-06  0.28440610977376D-06  0.27593522159818D-06  0.26737571362179D-06
 0.70095000000000D+02  0.30288911614215D-06  0.30985663407472D-06  0.31429747437354D-06  0.31615325699927D-06  0.31547403982215D-06  0.31242111258903D-06  0.30726557110069D-06  0.30038211966013D-06  0.29223819413071D-06  0.28337836682150D-06
 0.70195000000000D+02  0.30207664295848D-06  0.31168016232794D-06  0.31883703137176D-06  0.32338012598858D-06  0.32524690946617D-06  0.32448669634883D-06  0.32126393546390D-06  0.31585677841185D-06  0.30865082104686D-06  0.30012775505846D-06
 0.70295000000000D+02  0.29876497353030D-06  0.31088004538102D-06  0.32073385311176D-06  0.32805629788908D-06  0.33267363527653D-06  0.33451992914357D-06  0.33364494345302D-06  0.33021758022744D-06  0.32452455491479D-06  0.31696382463504D-06
 0.70395000000000D+02  0.29309289231758D-06  0.30749452248692D-06  0.31991803602005D-06  0.33000033938553D-06  0.33746243104837D-06  0.34212458643384D-06  0.34391856027314D-06  0.34289578806482D-06  0.33923109956633D-06  0.33322125121221D-06
 0.70495000000000D+02  0.28529370969991D-06  0.30166561545964D-06  0.31642873745923D-06  0.32914074664680D-06  0.33942763729337D-06  0.34700202663655D-06  0.35167918568536D-06  0.35338969381080D-06  0.35218807827100D-06  0.34825656005026D-06
 0.70595000000000D+02  0.27568562184237D-06  0.29363317702680D-06  0.31041241421511D-06  0.32551871883166D-06  0.33849719275800D-06  0.34896332366327D-06  0.35662220107213D-06  0.36128512416562D-06  0.36288284429718D-06  0.36147441000094D-06
 0.70695000000000D+02  0.26465866722179D-06  0.28372497575502D-06  0.30211667860268D-06  0.31928629959194D-06  0.33471541574499D-06  0.34793685677043D-06  0.35855633205482D-06  0.36627232585005D-06  0.37089342426391D-06  0.37235192726872D-06
 0.70795000000000D+02  0.25265884475051D-06  0.27234325901397D-06  0.29188005969040D-06  0.31069999461119D-06  0.32824100514449D-06  0.34397105928789D-06  0.35741131942242D-06  0.36815852413399D-06  0.37590571022599D-06  0.38046005762664D-06
 0.70895000000000D+02  0.24017006700717D-06  0.25994837593521D-06  0.28011812570246D-06  0.30011016412248D-06  0.31934037682811D-06  0.33723223933510D-06  0.35324059829732D-06  0.36687564073728D-06  0.37772618273903D-06  0.38548103652806D-06
 0.70995000000000D+02  0.22769469962039D-06  0.24704015447068D-06  0.26730656841348D-06  0.28794666284190D-06  0.30837664750305D-06  0.32799759741192D-06  0.34621890336722D-06  0.36248287079658D-06  0.37628964554309D-06  0.38722124879114D-06
 0.71095000000000D+02  0.21573348250783D-06  0.23413780687737D-06  0.25396196587702D-06  0.27470134859295D-06  0.29579475638886D-06  0.31664376759806D-06  0.33663493571156D-06  0.35516404277136D-06  0.37166167256317D-06  0.38561895422889D-06
 0.71195000000000D+02  0.20476564015032D-06  0.22175918437256D-06  0.24062102248396D-06  0.26090819956648D-06  0.28210336778636D-06  0.30363139193804D-06  0.32487943382839D-06  0.34521990863695D-06  0.36403569826256D-06  0.38074658198540D-06
 0.71295000000000D+02  0.19522996742797D-06  0.21040021401432D-06  0.22781913323389D-06  0.24712186497021D-06  0.26785431915744D-06  0.28948639392120D-06  0.31142917866903D-06  0.33305572382599D-06  0.35372491146711D-06  0.37280753269509D-06
 0.71395000000000D+02  0.18750762692988D-06  0.20051533012853D-06  0.21606913192569D-06  0.23389552287279D-06  0.25362046601095D-06  0.27477874112545D-06  0.29682762219351D-06  0.31916466770699D-06  0.34114932971866D-06  0.36212766208850D-06
 0.71495000000000D+02  0.18190731613933D-06  0.19249966102660D-06  0.20584106182777D-06  0.22175893206629D-06  0.23997282480121D-06  0.26009957534787D-06  0.28166295545671D-06  0.30410781821311D-06  0.32681862643314D-06  0.34914184121963D-06
 0.71595000000000D+02  0.17865336225376D-06  0.18667365244854D-06  0.19754375451506D-06  0.21119754289380D-06  0.22745792795726D-06  0.24603763902997D-06  0.26654452179403D-06  0.28849152280640D-06  0.31131144883202D-06  0.33437618736257D-06
 0.71695000000000D+02  0.17787718292149D-06  0.18327070594403D-06  0.19150892112450D-06  0.20263347751032D-06  0.21657628225918D-06  0.23315593930960D-06  0.25207853146448D-06  0.27294309856875D-06  0.29525209501516D-06  0.31842672794666D-06
 0.71795000000000D+02  0.17961241755495D-06  0.18242828764174D-06  0.18797835417066D-06  0.19640910619246D-06  0.20776276541810D-06  0.22196956684402D-06  0.23884404599818D-06  0.25808584506352D-06  0.27928550995854D-06  0.30193539189203D-06
 0.71895000000000D+02  0.18379389108761D-06  0.18418282533850D-06  0.18709471173011D-06  0.19277383704558D-06  0.20136970919458D-06  0.21292552807018D-06  0.22737017479458D-06  0.24451436464671D-06  0.26405161092320D-06  0.28556431471811D-06
 0.71995000000000D+02  0.19026042522057D-06  0.18846856465599D-06  0.18889621413326D-06  0.19187460631420D-06  0.19765330474174D-06  0.20638536016627D-06  0.21811536572330D-06  0.23277115750410D-06  0.25015996275535D-06  0.26996949416248D-06
 0.72095000000000D+02  0.19876136655212D-06  0.19512040344536D-06  0.19331543150735D-06  0.19375041047263D-06  0.19676383171256D-06  0.20261118176842D-06  0.21144957902844D-06  0.22332539542028D-06  0.23816579429975D-06  0.25577484184492D-06
 0.72195000000000D+02  0.20896656161394D-06  0.20388057302942D-06  0.20018218402326D-06  0.19833106469754D-06  0.19874006212468D-06  0.20175569419796D-06  0.20764001392950D-06  0.21655468266071D-06  0.22854828128252D-06  0.24354764528049D-06
 0.72295000000000D+02  0.22047938063509D-06  0.21440889055183D-06  0.20923042103812D-06  0.20544021078069D-06  0.20350802849724D-06  0.20385649277631D-06  0.20684091475774D-06  0.21273048864821D-06  0.22169192213554D-06  0.23377638600256D-06
 0.72395000000000D+02  0.23285227930853D-06  0.22629617372777D-06  0.22010879597608D-06  0.21480243672763D-06  0.21088417909818D-06  0.20883488134776D-06  0.20908782358868D-06  0.21200779024688D-06  0.21787170569306D-06  0.22685175736913D-06
 0.72495000000000D+02  0.24560429487559D-06  0.23908029234031D-06  0.23239451601900D-06  0.22605421587660D-06  0.22058277713992D-06  0.21649921128404D-06  0.21429647486266D-06  0.21441929686197D-06  0.21724261849075D-06  0.22305159423172D-06
 0.72595000000000D+02  0.25823980269330D-06  0.25226423401217D-06  0.24560992436147D-06  0.23875823082764D-06  0.23222724129919D-06  0.22655259506207D-06  0.22226635047414D-06  0.21987445509136D-06  0.21983387008010D-06  0.22253027113412D-06
 0.72695000000000D+02  0.27026781450144D-06  0.26533548848683D-06  0.25924117221305D-06  0.25242052186434D-06  0.24536497768007D-06  0.23860468004387D-06  0.23268873748895D-06  0.22816324753008D-06  0.22554803333948D-06  0.22531295172809D-06
 0.72795000000000D+02  0.28122108133396D-06  0.27778600739804D-06  0.27275826144673D-06  0.26650979535426D-06  0.25948512355296D-06  0.25218701621253D-06  0.24515896126780D-06  0.23896461894278D-06  0.23416510957650D-06  0.23129488577512D-06
 0.72895000000000D+02  0.29067427293752D-06  0.28913197686167D-06  0.28563568944386D-06  0.28047814852679D-06  0.27403851554066D-06  0.26677141779096D-06  0.25919231040076D-06  0.25185918882626D-06  0.24535134186503D-06  0.24024575796216D-06
 0.72995000000000D+02  0.29826054121784D-06  0.29893264875659D-06  0.29737290692974D-06  0.29378241581691D-06  0.28845911323612D-06  0.28179060772248D-06  0.27424303214540D-06  0.26634574864902D-06  0.25867242117788D-06  0.25181890155794D-06
 0.73095000000000D+02  0.30368583624848D-06  0.30680751283531D-06  0.30751380804184D-06  0.30590532036627D-06  0.30218605640588D-06  0.29666034991984D-06  0.28972566301526D-06  0.28186090062303D-06  0.27361056492731D-06  0.26556500650096D-06
 0.73195000000000D+02  0.30674042749566D-06  0.31245115440983D-06  0.31566450908976D-06  0.31637562293568D-06  0.31468551176685D-06  0.31080221998192D-06  0.30503787292263D-06  0.29780107790784D-06  0.28958480254098D-06  0.28094978249880D-06
 0.73295000000000D+02  0.30730718710291D-06  0.31564522898115D-06  0.32150873700395D-06  0.32478649895957D-06  0.32547147448989D-06  0.32366614260334D-06  0.31958394593159D-06  0.31354609794510D-06  0.30597368302462D-06  0.29737488935069D-06
 0.73395000000000D+02  0.30536631263375D-06  0.31626709269180D-06  0.32482023793764D-06  0.33081144126394D-06  0.33412472961783D-06  0.33475183384614D-06  0.33279799814532D-06  0.32848334435767D-06  0.32213952950313D-06  0.31420132449030D-06
 0.73495000000000D+02  0.30099629932952D-06  0.31429475204905D-06  0.32547172764733D-06  0.33421707859454D-06  0.34030924792216D-06  0.34362832830684D-06  0.34416604422766D-06  0.34203165049203D-06  0.33745330876586D-06  0.33077436622386D-06
 0.73595000000000D+02  0.29437111203352D-06  0.30980793358547D-06  0.32344003416171D-06  0.33487241520447D-06  0.34378538678532D-06  0.34995084336093D-06  0.35324606800381D-06  0.35366396992491D-06  0.35131916188024D-06  0.34644911367126D-06
 0.73695000000000D+02  0.28575364952820D-06  0.30298521915709D-06  0.31880722529479D-06  0.33275413021515D-06  0.34441938599461D-06  0.35347433241127D-06  0.35968532778137D-06  0.36292796550697D-06  0.36319765566029D-06  0.36061564305082D-06
 0.73795000000000D+02  0.27548573409195D-06  0.29409734031474D-06  0.31175766375305D-06  0.32794772256009D-06  0.34218878659964D-06  0.35406320278089D-06  0.36323423067313D-06  0.36946372696749D-06  0.37262686353497D-06  0.37272281533947D-06
 0.73895000000000D+02  0.26397499162791D-06  0.28349687039758D-06  0.30257108562898D-06  0.32064444285206D-06  0.33718355331090D-06  0.35169681713771D-06  0.36375623851042D-06  0.37301793481840D-06  0.37924046624221D-06  0.38229982177299D-06
 0.73995000000000D+02  0.25167910798453D-06  0.27160469052120D-06  0.29161194854888D-06  0.31113411198718D-06  0.32960284191583D-06  0.34647055502932D-06  0.36123341630216D-06  0.37345392133540D-06  0.38278217469988D-06  0.38897463909453D-06
 0.74095000000000D+02  0.23908805067795D-06  0.25889373051844D-06  0.27931543828793D-06  0.29979408209887D-06  0.31974751716716D-06  0.33859237765495D-06  0.35576739733679D-06  0.37075723296967D-06  0.38311591526925D-06  0.39248868268633D-06
 0.74195000000000D+02  0.22670492824245D-06  0.24587059356479D-06  0.26617065214591D-06  0.28707474304087D-06  0.30800868773639D-06  0.32837500850928D-06  0.34757571115272D-06  0.36503646717026D-06  0.38023137644624D-06  0.39270708844446D-06
 0.74295000000000D+02  0.21502621859866D-06  0.23305575962748D-06  0.25270158904219D-06  0.27348211158427D-06  0.29485267736150D-06  0.31622400897069D-06  0.33698359560819D-06  0.35651933427917D-06  0.37424469010607D-06  0.38962421830097D-06
 0.74395000000000D+02  0.20452213058481D-06  0.22096312459977D-06  0.23944666592501D-06  0.25955815603389D-06  0.28080298973353D-06  0.30262218531041D-06  0.32441158592499D-06  0.34554407557527D-06  0.36539420357765D-06  0.38336416377166D-06
 0.74495000000000D+02  0.19561786739869D-06  0.21007966635464D-06  0.22693754414610D-06  0.24585960163282D-06  0.26641994386099D-06  0.28811090625916D-06  0.31035933569713D-06  0.33254654524540D-06  0.35403148450773D-06  0.37417621039436D-06
 0.74595000000000D+02  0.18867653628391D-06  0.20084603414407D-06  0.21567808515433D-06  0.23293602825079D-06  0.25227875210214D-06  0.27326903291522D-06  0.29538627155267D-06  0.31804343069171D-06  0.34060788204435D-06  0.36242541669274D-06
 0.74695000000000D+02  0.18398439544838D-06  0.19363883287190D-06  0.20612426030903D-06  0.22130810857094D-06  0.23894688096189D-06  0.25869026074565D-06  0.28008980900114D-06  0.30261223607451D-06  0.32565713878195D-06  0.34857864751702D-06
 0.74795000000000D+02  0.18173904800731D-06  0.18875531885116D-06  0.19866581385766D-06  0.21144684033803D-06  0.22696157215544D-06  0.24495974281212D-06  0.26508195719662D-06  0.28686878275883D-06  0.30977470193300D-06  0.33318657655878D-06
 0.74895000000000D+02  0.18204108581703D-06  0.18640113982993D-06  0.19361042123752D-06  0.20375459923855D-06  0.21680840633489D-06  0.23263090111268D-06  0.25096521088726D-06  0.27144308246502D-06  0.29359451360545D-06  0.31686233012841D-06
 0.74995000000000D+02  0.18488955658471D-06  0.18668164152259D-06  0.19117099800231D-06  0.19854877974459D-06  0.20890176328086D-06  0.22220333702993D-06  0.23830866562016D-06  0.25695451032969D-06  0.27776416385188D-06  0.30025757807800D-06
 0.75095000000000D+02  0.19018147982614D-06  0.18959712890156D-06  0.19145670011503D-06  0.19604870098292D-06  0.20356797040899D-06  0.21410272134442D-06  0.22762529526217D-06  0.24398724262762D-06  0.26291936215367D-06  0.28403698293727D-06
 0.75195000000000D+02  0.19771547631872D-06  0.19504231746639D-06  0.19446801750678D-06  0.19636633576826D-06  0.20103183742325D-06  0.20866347929188D-06  0.21935129813793D-06  0.23306692552110D-06  0.24965872004424D-06  0.26885199068551D-06
 0.75295000000000D+02  0.20719940777765D-06  0.20281004302593D-06  0.20009620422258D-06  0.19950127692638D-06  0.20140715136244D-06  0.20611498809545D-06  0.21382834981797D-06  0.22463950597882D-06  0.23851983759755D-06  0.25531498291880D-06
 0.75395000000000D+02  0.21826175541208D-06  0.21259912455296D-06  0.20812711578556D-06  0.20534019066130D-06  0.20469155685386D-06  0.20657187592197D-06  0.21128949829971D-06  0.21905308425623D-06  0.22995764864285D-06  0.24397480844149D-06
 0.75495000000000D+02  0.23046630512736D-06  0.22402610050201D-06  0.21824934419822D-06  0.21366082783677D-06  0.21076607603860D-06  0.21002885618284D-06  0.21184930378267D-06  0.21654354065348D-06  0.22432590421112D-06  0.23529467169672D-06
 0.75595000000000D+02  0.24332956092758D-06  0.23664039222858D-06  0.23006636063739D-06  0.22414047748854D-06  0.21939933744366D-06  0.21636035466297D-06  0.21549866451644D-06  0.21722455058317D-06  0.22186256258847D-06  0.22963327643518D-06
 0.75695000000000D+02  0.25634018382668D-06  0.24994229659781D-06  0.24311220328206D-06  0.23636856030843D-06  0.23025639014872D-06  0.22532499542995D-06  0.22210458764251D-06  0.22108243554065D-06  0.22267971051670D-06  0.22723000743998D-06
 0.75795000000000D+02  0.26897965792787D-06  0.26340308108032D-06  0.25687009091179D-06  0.24986288142802D-06  0.24291178685958D-06  0.23657481221546D-06  0.23141496611473D-06  0.22797610893356D-06  0.22675846797470D-06  0.22819478419597D-06
 0.75895000000000D+02  0.28074332381045D-06  0.27648635548572D-06  0.27079320976238D-06  0.26408889993678D-06  0.25686643542690D-06  0.24966885318146D-06  0.24306821729634D-06  0.23764217168897D-06  0.23394913436388D-06  0.23250304272445D-06
 0.75995000000000D+02  0.29116089595282D-06  0.28866983070527D-06  0.28432681874517D-06  0.27848123529919D-06  0.27156755157994D-06  0.26409065744021D-06  0.25660743417793D-06  0.24970500100025D-06  0.24397662383241D-06  0.23999610136727D-06
 0.76095000000000D+02  0.29981559769396D-06  0.29946655054793D-06  0.29693075244439D-06  0.29246652553892D-06  0.28643090454163D-06  0.27926891030695D-06  0.27149850537402D-06  0.26369146525415D-06  0.25645102003823D-06  0.25038695034453D-06
 0.76195000000000D+02  0.30636110409507D-06  0.30844470008690D-06  0.30810137654375D-06  0.30548668482785D-06  0.30086443932190D-06  0.29460043963453D-06  0.28715148431565D-06  0.27904969838940D-06  0.27088286487889D-06  0.26327128179636D-06
 0.76295000000000D+02  0.31053557763909D-06  0.31524515276188D-06  0.31739206866796D-06  0.31702158329473D-06  0.31429229110127D-06  0.30947460548324D-06  0.30294434020632D-06  0.29517118711672D-06  0.28670259116275D-06  0.27814335600905D-06
 0.76395000000000D+02  0.31217220943932D-06  0.31959601632281D-06  0.32443135887837D-06  0.32661019163696D-06  0.32617818263752D-06  0.32329806620500D-06  0.31824811130863D-06  0.31141527363957D-06  0.30328332553607D-06  0.29441609042065D-06
 0.76495000000000D+02  0.31120583303279D-06  0.32132356979929D-06  0.32893796561318D-06  0.33386929722655D-06  0.33604721723490D-06  0.33551888025621D-06  0.33245241149539D-06  0.32713506289755D-06  0.31996613449691D-06  0.31144457071545D-06
 0.76595000000000D+02  0.30767535093704D-06  0.32035914329670D-06  0.33073209973986D-06  0.33850900406366D-06  0.34350514715890D-06  0.34564892685288D-06  0.34499021826616D-06  0.34170365353733D-06  0.33608667132770D-06  0.32855202734229D-06
 0.76695000000000D+02  0.30172189704962D-06  0.31674167128470D-06  0.32974257457281D-06  0.34034437093757D-06  0.34825430749356D-06  0.35328369948440D-06  0.35536089671895D-06  0.35453959037838D-06  0.35100211200503D-06  0.34505720460447D-06
 0.76795000000000D+02  0.29358284147072D-06  0.31061583894738D-06  0.32600944462123D-06  0.33930271319526D-06  0.35010555285901D-06  0.35811864114517D-06  0.36315048868849D-06  0.36513046515203D-06  0.36411724820642D-06  0.36030197991631D-06
 0.76895000000000D+02  0.28358191956064D-06  0.30222593060887D-06  0.31968209093863D-06  0.33542628468396D-06  0.34898571151471D-06  0.35996134319434D-06  0.36804841604727D-06  0.37305367103344D-06  0.37490863744778D-06  0.37367807253950D-06
 0.76995000000000D+02  0.27211592601521D-06  0.29190567009719D-06  0.31101286644482D-06  0.32887025786563D-06  0.34494026892961D-06  0.35873911307717D-06  0.36985990600100D-06  0.37799344136474D-06  0.38294579328939D-06  0.38465171606153D-06
 0.77095000000000D+02  0.25963855077625D-06  0.28006450695148D-06  0.30034660107894D-06  0.31989612169146D-06  0.33813120070956D-06  0.35450162015744D-06  0.36851363583835D-06  0.37975346768825D-06  0.38790852862261D-06  0.39278525604357D-06
 0.77195000000000D+02  0.24664204159797D-06  0.26717094276926D-06  0.28810643569250D-06  0.30886080890294D-06  0.32883008242265D-06  0.34741854309021D-06  0.36406430508778D-06  0.37826458817815D-06  0.38959973570620D-06  0.39775476959537D-06
 0.77295000000000D+02  0.23363745467159D-06  0.25373360352465D-06  0.27477659820178D-06  0.29620203836104D-06  0.31740680142745D-06  0.33777235579293D-06  0.35669006353163D-06  0.37358725450399D-06  0.38795308892794D-06  0.39936298023809D-06
 0.77395000000000D+02  0.22113429814778D-06  0.24028084290560D-06  0.26088285038069D-06  0.28242050664588D-06  0.30431437445571D-06  0.32594659197201D-06  0.34668494301256D-06  0.36590871188269D-06  0.38303537960173D-06  0.39754695002239D-06
 0.77495000000000D+02  0.20962038350007D-06  0.22733970686687D-06  0.24697141527432D-06  0.26805968111853D-06  0.29007052714733D-06  0.31241011131452D-06  0.33444664902174D-06  0.35553505226883D-06  0.37504342494164D-06  0.39238026050189D-06
 0.77595000000000D+02  0.19954267757968D-06  0.21541510048365D-06  0.23358724178297D-06  0.25368403034114D-06  0.27523681250774D-06  0.29769804645635D-06  0.32046025548934D-06  0.34287851364389D-06  0.36429572408862D-06  0.38406963296464D-06
 0.77695000000000D+02  0.19128989615899D-06  0.20496997597176D-06  0.22125247432421D-06  0.23985657544183D-06  0.26039613078054D-06  0.28239023315987D-06  0.30527850549838D-06  0.32844058984189D-06  0.35121925182710D-06  0.37294617442040D-06
 0.77795000000000D+02  0.18517750085590D-06  0.19640730768188D-06  0.21044597281080D-06  0.22711665752888D-06  0.24612956174233D-06  0.26708801318747D-06  0.28949954623921D-06  0.31279167769247D-06  0.33633197591827D-06  0.35945165814525D-06
 0.77895000000000D+02  0.18143565936479D-06  0.19005453912760D-06  0.20158467379228D-06  0.21595879282972D-06  0.23299343181110D-06  0.25239034841168D-06  0.27374301483185D-06  0.29654811587136D-06  0.32022184911812D-06  0.34412044645861D-06
 0.77995000000000D+02  0.18020060819973D-06  0.18615108251793D-06  0.19500750070317D-06  0.20681343121131D-06  0.22149751388913D-06  0.23887019568200D-06  0.25862544097296D-06  0.28034755915846D-06  0.30352315632509D-06  0.32755783111427D-06
 0.78095000000000D+02  0.18150972238308D-06  0.18483932721534D-06  0.19096242365130D-06  0.20003034839649D-06  0.21208519995126D-06  0.22705206620494D-06  0.24473594269334D-06  0.26482368116813D-06  0.28689118737870D-06  0.31041569760431D-06
 0.78195000000000D+02  0.18530045266543D-06  0.18615947482397D-06  0.18959714152850D-06  0.19586529150490D-06  0.20511639836995D-06  0.21739163316612D-06  0.23261316423531D-06  0.25058120807860D-06  0.27097625521771D-06  0.29336651030936D-06
 0.78295000000000D+02  0.19141314309394D-06  0.19004837032485D-06  0.19095371632461D-06  0.19447036606551D-06  0.20085379389460D-06  0.21025816042838D-06  0.22272434272343D-06  0.23817225691121D-06  0.25639808751670D-06  0.27707666425482D-06
 0.78395000000000D+02  0.19959759526485D-06  0.19634234610947D-06  0.19496733659337D-06  0.19588850536702D-06  0.19945297270900D-06  0.20592040750979D-06  0.21544729637276D-06  0.22807488710994D-06  0.24372158909040D-06  0.26218025643976D-06
 0.78495000000000D+02  0.20952310553259D-06  0.20478394429231D-06  0.20146922949532D-06  0.20005220527722D-06  0.20095676318140D-06  0.20453652640318D-06  0.21105600566512D-06  0.22067467708623D-06  0.23343490497132D-06  0.24925429690469D-06
 0.78595000000000D+02  0.22079157270510D-06  0.21503223762106D-06  0.21019358426999D-06  0.20678654506565D-06  0.20529398027326D-06  0.20614830935978D-06  0.20971031504159D-06  0.21625001231015D-06  0.22593061374054D-06  0.23879630965662D-06
 0.78695000000000D+02  0.23295316083799D-06  0.22667633574339D-06  0.22078819986821D-06  0.21581635302035D-06  0.21228259383123D-06  0.21067997913135D-06  0.21145012153165D-06  0.21496162335344D-06  0.22149075178783D-06  0.23120516995723D-06
 0.78795000000000D+02  0.24552390859308D-06  0.23925154623107D-06  0.23282843109594D-06  0.22677722045208D-06  0.22163717404809D-06  0.21794154025402D-06  0.21619424411063D-06  0.21684674645629D-06  0.22027621669270D-06  0.22676589174422D-06
 0.78895000000000D+02  0.25800460648167D-06  0.25225756273260D-06  0.24583388587767D-06  0.23922992451778D-06  0.23298030712686D-06  0.22763653783704D-06  0.22374398951073D-06  0.22181810157735D-06  0.22232092739759D-06  0.22563892218243D-06
 0.78995000000000D+02  0.26990021856020D-06  0.26517797931740D-06  0.25928722545086D-06  0.25267769426056D-06  0.24585752631215D-06  0.23937390507432D-06  0.23379125296339D-06  0.22966769971588D-06  0.22753093629610D-06  0.22785432518017D-06
 0.79095000000000D+02  0.28073910725522D-06  0.27750038301142D-06  0.27265434300477D-06  0.26658564984912D-06  0.25975517325117D-06  0.25268342822051D-06  0.24593082220224D-06  0.24007530900435D-06  0.23568850016394D-06  0.23331104829775D-06
 0.79195000000000D+02  0.29009132946202D-06  0.28873625726977D-06  0.28540514712824D-06  0.28040166591244D-06  0.27412049678746D-06  0.26703422355176D-06  0.25967639610125D-06  0.25262123413246D-06  0.24646092963207D-06  0.24178127435183D-06
 0.79295000000000D+02  0.29758530841119D-06  0.29843993823650D-06  0.29703415608138D-06  0.29357785887630D-06  0.28838321463106D-06  0.28185550971350D-06  0.27447969124357D-06  0.26680290237680D-06  0.25941385730717D-06  0.25291966697273D-06
 0.79395000000000D+02  0.30292224761429D-06  0.30622590264439D-06  0.30708011795026D-06  0.30559187704440D-06  0.30197771077319D-06  0.29655887484918D-06  0.28975189553454D-06  0.28205460774386D-06  0.27402839917897D-06  0.26627713526037D-06
 0.79495000000000D+02  0.30588773819055D-06  0.31178372966324D-06  0.31514390972184D-06  0.31596718145649D-06  0.31436501981671D-06  0.31056118399174D-06  0.30488664183354D-06  0.29776964768293D-06  0.28972153867640D-06  0.28131857319763D-06
 0.79595000000000D+02  0.30636011596360D-06  0.31489016655858D-06  0.32090403374199D-06  0.32429154482520D-06  0.32505375922498D-06  0.32330725024009D-06  0.31928361957247D-06  0.31332399877095D-06  0.30586894300605D-06  0.29744388086585D-06
 0.79695000000000D+02  0.30431524614133D-06  0.31541783649585D-06  0.32412912046060D-06  0.33023306356496D-06  0.33361921135427D-06  0.33429140389558D-06  0.33237192035810D-06  0.32810062189547D-06  0.32182933164328D-06  0.31401145229163D-06
 0.79795000000000D+02  0.29982754684555D-06  0.31334025233382D-06  0.32468695853469D-06  0.33355307155576D-06  0.33971982742520D-06  0.34307713646787D-06  0.34363222528782D-06  0.34151346571723D-06  0.33696946031841D-06  0.33036322348195D-06
 0.79895000000000D+02  0.29306720352058D-06  0.30873293833561D-06  0.32254970323243D-06  0.33411546042215D-06  0.34311052268082D-06  0.34931406959482D-06  0.35261698656609D-06  0.35303025023868D-06  0.35068876253859D-06  0.34585031722987D-06
 0.79995000000000D+02  0.28429366934322D-06  0.30177060749471D-06  0.31779505703498D-06  0.33189204558256D-06  0.34365225233074D-06  0.35275159972089D-06  0.35896783222747D-06  0.36219315951171D-06  0.36244270525707D-06  0.35985830061589D-06
 0.80095000000000D+02  0.27384568710745D-06  0.29272049046814D-06  0.31060336730338D-06  0.32696376534681D-06  0.34131749716491D-06  0.35324869415666D-06  0.36242952749087D-06  0.36863665202465D-06  0.37176396505282D-06  0.37183108741453D-06
 0.80195000000000D+02  0.26212820065878D-06  0.28193205766167D-06  0.30125073951189D-06  0.31951765665735D-06  0.33619144096993D-06  0.35077945840591D-06  0.36285995565159D-06  0.37210170612185D-06  0.37828061414824D-06  0.38129257007506D-06
 0.80295000000000D+02  0.24959664402637D-06  0.26982351362700D-06  0.29009841538780D-06  0.30983971013672D-06  0.32846878365160D-06  0.34543425324270D-06  0.36023573079140D-06  0.37244595192781D-06  0.38173061863005D-06  0.38786515249306D-06
 0.80395000000000D+02  0.23673919954744D-06  0.25686556763915D-06  0.27757880794463D-06  0.29830386325868D-06  0.31844629851287D-06  0.33741630730742D-06  0.35465321860677D-06  0.36964929581559D-06  0.38197209017795D-06  0.39128447213213D-06
 0.80495000000000D+02  0.22405769861327D-06  0.24356309155116D-06  0.26417871469657D-06  0.28535753810976D-06  0.30651140359031D-06  0.32703394101334D-06  0.34632491447263D-06  0.36381481292829D-06  0.37898889239472D-06  0.39140974384050D-06
 0.80595000000000D+02  0.21204789694301D-06  0.23043536172703D-06  0.25042034154236D-06  0.27150426400410D-06  0.29312716952110D-06  0.31468868424258D-06  0.33557130330990D-06  0.35516486157348D-06  0.37289137771785D-06  0.38822932268699D-06
 0.80695000000000D+02  0.20117988799913D-06  0.21799564264898D-06  0.23684085870631D-06  0.25728404022791D-06  0.27881432455700D-06  0.30085972766555D-06  0.32280849763020D-06  0.34403255409044D-06  0.36391221460767D-06  0.38186126335638D-06
 0.80795000000000D+02  0.19187942161375D-06  0.20673090306156D-06  0.22397127320247D-06  0.24325218606406D-06  0.26413093595997D-06  0.28608528981687D-06  0.30853211209614D-06  0.33084889555352D-06  0.35239745066840D-06  0.37254884262186D-06
 0.80895000000000D+02  0.18451086930823D-06  0.19708245948837D-06  0.21231543682292D-06  0.22995749033475D-06  0.24965054160034D-06  0.27094160403373D-06  0.29329797915634D-06  0.31612606803715D-06  0.33879313888381D-06  0.36065120236833D-06
 0.80995000000000D+02  0.17936252333022D-06  0.18942831580512D-06  0.20233001280715D-06  0.21792050818427D-06  0.23593957236924D-06  0.25602032636812D-06  0.27770043536590D-06  0.30043748805477D-06  0.32362802467335D-06  0.34662945670644D-06
 0.81095000000000D+02  0.17663483427587D-06  0.18406791143881D-06  0.19440619726440D-06  0.20761285681136D-06  0.22353494211110D-06  0.24190523375164D-06  0.26234900711750D-06  0.28439539262658D-06  0.30749294476204D-06  0.33102878115557D-06
 0.81195000000000D+02  0.17643208452539D-06  0.18120990589426D-06  0.18885393326410D-06  0.19943833347161D-06  0.21292268524605D-06  0.22914911805471D-06  0.24784439372687D-06  0.26862681034976D-06  0.29101771921076D-06  0.31445715830398D-06
 0.81295000000000D+02  0.17875786486250D-06  0.18096351597710D-06  0.18588926754163D-06  0.19371661849957D-06  0.20451849220178D-06  0.21825178427766D-06  0.23475468211812D-06  0.25374884380517D-06  0.27484642039321D-06  0.29756158695875D-06
 0.81395000000000D+02  0.18351457387433D-06  0.18333378766892D-06  0.18562538436923D-06  0.19067023467356D-06  0.19865092944579D-06  0.20964002906973D-06  0.22359272876555D-06  0.24034422557697D-06  0.25961197313310D-06  0.28100266550920D-06
 0.81495000000000D+02  0.19050699931811D-06  0.18822103157740D-06  0.18806771183355D-06  0.19041531445532D-06  0.19554803570893D-06  0.20365040938313D-06  0.21479561022545D-06  0.22893811011334D-06  0.24591107554657D-06  0.26542853089603D-06
 0.81595000000000D+02  0.19944987374041D-06  0.19542448470938D-06  0.19311333717956D-06  0.19295658215021D-06  0.19532786153448D-06  0.20051551183478D-06  0.20870697389104D-06  0.21997702681327D-06  0.23428042840704D-06  0.25144916910343D-06
 0.81695000000000D+02  0.20997913008356D-06  0.20465008837724D-06  0.20055479571446D-06  0.19818679367730D-06  0.19799336940494D-06  0.20035430401793D-06  0.20556301713503D-06  0.21381084652202D-06  0.22517522131189D-06  0.23961210953190D-06
 0.81795000000000D+02  0.22166642409612D-06  0.21552209944734D-06  0.21008811864022D-06  0.20589069832691D-06  0.20343194141546D-06  0.20316699358107D-06  0.20548268865822D-06  0.21067850577954D-06  0.21895074710143D-06  0.23038047327065D-06
 0.81895000000000D+02  0.23403634648896D-06  0.22759808743379D-06  0.22132484646497D-06  0.21575340149377D-06  0.21141955692637D-06  0.20883464460548D-06  0.20846254482218D-06  0.21069809373397D-06  0.21584790370777D-06  0.22411426478201D-06
 0.81995000000000D+02  0.24658562609967D-06  0.24038672082175D-06  0.23380754417604D-06  0.22737282254830D-06  0.22162951097303D-06  0.21712361004772D-06  0.21437651145022D-06  0.21386173996991D-06  0.21598319808752D-06  0.22105567980453D-06
 0.82095000000000D+02  0.25880353231037D-06  0.25336761989235D-06  0.24702820011124D-06  0.24027576587439D-06  0.23364535335941D-06  0.22769464116786D-06  0.22298060465534D-06  0.22003555326152D-06  0.21934369466408D-06  0.22131905272166D-06
 0.82195000000000D+02  0.27019262594313D-06  0.26601245692112D-06  0.26044876012831D-06  0.25393696391277D-06  0.24697754672276D-06  0.24011633813217D-06  0.23392246035169D-06  0.22896465829788D-06  0.22578715663107D-06  0.22488588895215D-06
 0.82295000000000D+02  0.28028898661754D-06  0.27780642345973D-06  0.27352294917984D-06  0.26780031674933D-06  0.26108317795920D-06  0.25388241904905D-06  0.24675531969046D-06  0.24028316764874D-06  0.23504741962952D-06  0.23160522815292D-06
 0.82395000000000D+02  0.28868106297652D-06  0.28826916239708D-06  0.28571846945766D-06  0.28130145053567D-06  0.27538791943919D-06  0.26843211636438D-06  0.26095592568938D-06  0.25352871836513D-06  0.24674482185523D-06  0.24119936948466D-06
 0.82495000000000D+02  0.29502635001193D-06  0.29697428156219D-06  0.29653864189725D-06  0.29389065269044D-06  0.28930933178224D-06  0.28317286823931D-06  0.27594561384515D-06  0.26816100585444D-06  0.26040130154821D-06  0.25327476925240D-06
 0.82595000000000D+02  0.29906519246714D-06  0.30356662548297D-06  0.30554257798682D-06  0.30505521951648D-06  0.30228053461281D-06  0.29750436581592D-06  0.29111373518799D-06  0.28358357132402D-06  0.27545957152459D-06  0.26733770310730D-06
 0.82695000000000D+02  0.30063114034705D-06  0.30777657995052D-06  0.31236303115535D-06  0.31434027354295D-06  0.31377324986712D-06  0.31084295128510D-06  0.30584244178832D-06  0.29916795201988D-06  0.29130560045246D-06  0.28281407937937D-06
 0.82795000000000D+02  0.29965743545590D-06  0.30943081545064D-06  0.31672117877272D-06  0.32136717312958D-06  0.32331924581073D-06  0.32264534064161D-06  0.31953179841639D-06  0.31427919359625D-06  0.30729348102043D-06  0.29907260675137D-06
 0.82895000000000D+02  0.29617937871808D-06  0.30845903358569D-06  0.31843772195637D-06  0.32584874273830D-06  0.33052927842305D-06  0.33243067086080D-06  0.33162416415945D-06  0.32830165760051D-06  0.32277165405796D-06  0.31545036765162D-06
 0.82995000000000D+02  0.29033250805410D-06  0.30489645713909D-06  0.31743985394283D-06  0.32760069352113D-06  0.33510873710876D-06  0.33979994330405D-06  0.34162681619285D-06  0.34066403855148D-06  0.33710939150112D-06  0.33127973665134D-06
 0.83095000000000D+02  0.28234669676983D-06  0.29888199036402D-06  0.31376383025831D-06  0.32654877320145D-06  0.33686934828804D-06  0.34445205015950D-06  0.34913186379546D-06  0.35086253624853D-06  0.34972242418561D-06  0.34591551735409D-06
 0.83195000000000D+02  0.27253645410404D-06  0.29065216210095D-06  0.30755306593020D-06  0.32273137282961D-06  0.33573646570477D-06  0.34619572286432D-06  0.35383262058995D-06  0.35848120885094D-06  0.36009663455223D-06  0.35876115610989D-06
 0.83295000000000D+02  0.26128786498907D-06  0.28053114151929D-06  0.29905187691841D-06  0.31629751617393D-06  0.33175167113769D-06  0.34495692283063D-06  0.35553576081355D-06  0.36320865718686D-06  0.36780881839767D-06  0.36929292806758D-06
 0.83395000000000D+02  0.24904273872757D-06  0.26891727664319D-06  0.28859516562726D-06  0.30750035536543D-06  0.32507061358361D-06  0.34078139594023D-06  0.35416877296122D-06  0.36485035434539D-06  0.37254364984648D-06  0.37708107937347D-06
 0.83495000000000D+02  0.23628064124941D-06  0.25626674271444D-06  0.27659451558469D-06  0.29668648451119D-06  0.31595621870757D-06  0.33383232283805D-06  0.34978243158650D-06  0.36333612832539D-06  0.37410615312432D-06  0.38180704454695D-06
 0.83595000000000D+02  0.22349955962705D-06  0.24307499583297D-06  0.26352130134902D-06  0.28428155292794D-06  0.30476759373995D-06  0.32438320655336D-06  0.34254822472416D-06  0.35872251921758D-06  0.37242918460074D-06  0.38327603328739D-06
 0.83695000000000D+02  0.21119598896411D-06  0.22985680386982D-06  0.24988753129170D-06  0.27077280448805D-06  0.29194512745484D-06  0.31280633748680D-06  0.33275088953956D-06  0.35118995508897D-06  0.36757564845998D-06  0.38142448698000D-06
 0.83795000000000D+02  0.19984524049895D-06  0.21712566971377D-06  0.23622521973134D-06  0.25668928409933D-06  0.27799243332806D-06  0.29955735455596D-06  0.32077641225564D-06  0.34103491136339D-06  0.35973539793712D-06  0.37632213115089D-06
 0.83895000000000D+02  0.18988274694444D-06  0.20537347135516D-06  0.22306512928877D-06  0.24258053314608D-06  0.26345590116226D-06  0.28515657311937D-06  0.30709603123129D-06  0.32865742667319D-06  0.34921699999241D-06  0.36816858444370D-06
 0.83995000000000D+02  0.18168708895129D-06  0.19505112030982D-06  0.21091573417243D-06  0.22899464113066D-06  0.24890270495021D-06  0.27016786986306D-06  0.29224693699406D-06  0.31454453481241D-06  0.33643475400295D-06  0.35728471575451D-06
 0.84095000000000D+02  0.17556538822412D-06  0.18655098670867D-06  0.20024323159838D-06  0.21645653067674D-06  0.23489816086966D-06  0.25517599870003D-06  0.27681048469363D-06  0.29925033019890D-06  0.32189154530529D-06  0.34409915818004D-06
 0.84195000000000D+02  0.17174161199081D-06  0.18019175915786D-06  0.19145337400919D-06  0.20544732873806D-06  0.22198333900613D-06  0.24076325827344D-06  0.26138881941302D-06  0.28337350775517D-06  0.30615827480379D-06  0.32913058205987D-06
 0.84295000000000D+02  0.17034821448620D-06  0.17620630402119D-06  0.18487581236633D-06  0.19638562065982D-06  0.21065380698473D-06  0.22748644085986D-06  0.24658086146574D-06  0.26753330393885D-06  0.28985073095875D-06  0.31296649214555D-06
 0.84395000000000D+02  0.17142140850175D-06  0.17473296642623D-06  0.18075153442879D-06  0.18961129891133D-06  0.20134032557797D-06  0.21585496569998D-06  0.23295860726631D-06  0.25234481225712D-06  0.27360485691113D-06  0.29623944040195D-06
 0.84495000000000D+02  0.17490021877982D-06  0.17581061878075D-06  0.17922385601058D-06  0.18537260879236D-06  0.19439222885309D-06  0.20631103952245D-06  0.22104467301502D-06  0.23839465409703D-06  0.25805141180870D-06  0.27960163280549D-06
 0.84595000000000D+02  0.18062932416526D-06  0.17937761693217D-06  0.18033328256555D-06  0.18381686371336D-06  0.19006410854989D-06  0.19921259665095D-06  0.21129194583402D-06  0.22621795559144D-06  0.24379103175385D-06  0.26369895433846D-06
 0.84695000000000D+02  0.18836555208160D-06  0.18527467451794D-06  0.18401640822507D-06  0.18498515769650D-06  0.18850628872504D-06  0.19481965469010D-06  0.20406611358221D-06  0.21627751613794D-06  0.23137066376557D-06  0.24914544144597D-06
 0.84795000000000D+02  0.19778775210044D-06  0.19325151781667D-06  0.19010886496801D-06  0.18881124781287D-06  0.18975942730307D-06  0.19328458404922D-06  0.19963172453250D-06  0.20894595762002D-06  0.22126227843050D-06  0.23649919716765D-06
 0.84895000000000D+02  0.20850964991011D-06  0.20297704172203D-06  0.19835218137573D-06  0.19512461986577D-06  0.19375342143957D-06  0.19464663563323D-06  0.19814228618560D-06  0.20449151959760D-06  0.21384466710858D-06  0.22624067374846D-06
 0.84995000000000D+02  0.22009517325119D-06  0.21405255730316D-06  0.20840426380798D-06  0.20365759236597D-06  0.20031062918571D-06  0.19883090644072D-06  0.19963475397838D-06  0.20306801959811D-06  0.20938900198913D-06  0.21875414444068D-06
 0.85095000000000D+02  0.23207565120303D-06  0.22602760736231D-06  0.21985307799648D-06  0.21405616229891D-06  0.20915325663469D-06  0.20565175337136D-06  0.20402859118626D-06  0.20470933451909D-06  0.20804868691467D-06  0.21431305484332D-06
 0.85195000000000D+02  0.24396822069943D-06  0.23841773246208D-06  0.23223299076195D-06  0.22589415672111D-06  0.21991460329753D-06  0.21482049722551D-06  0.21112940688769D-06  0.20932858484574D-06  0.20985385918217D-06  0.21306978952534D-06
 0.85295000000000D+02  0.25529473162289D-06  0.25072349934931D-06  0.24504313400075D-06  0.23869013180384D-06  0.23215371446039D-06  0.22595709763653D-06  0.22063700559439D-06  0.21672202401617D-06  0.21471072342267D-06  0.21505021743151D-06
 0.85395000000000D+02  0.26560042566696D-06  0.26245005897825D-06  0.25776707969405D-06  0.25192635992768D-06  0.24537286286869D-06  0.23860533126870D-06  0.23215751620560D-06  0.22657745714982D-06  0.22240571442784D-06  0.22015319573156D-06
 0.85495000000000D+02  0.27447167480727D-06  0.27312648391320D-06  0.26989306801292D-06  0.26506916940519D-06  0.25903717780086D-06  0.25225087538310D-06  0.24521911526911D-06  0.23848684282997D-06  0.23261430292804D-06  0.22815502277436D-06
 0.85595000000000D+02  0.28155210217588D-06  0.28232414526475D-06  0.28093401218996D-06  0.27758985303260D-06  0.27259566116451D-06  0.26634159152393D-06  0.25929072565377D-06  0.25196257484265D-06  0.24491408335528D-06  0.23871864331237D-06
 0.85695000000000D+02  0.28655646996224D-06  0.28967342698530D-06  0.29044651423769D-06  0.28898534258056D-06  0.28550278043749D-06  0.28030922347745D-06  0.27380296152926D-06  0.26645680343230D-06  0.25880162187996D-06  0.25140722987869D-06
 0.85795000000000D+02  0.28928180338327D-06  0.29487813886214D-06  0.29804816431259D-06  0.29879785709117D-06  0.29723980878533D-06  0.29359167266977D-06  0.28817050800799D-06  0.28138304277091D-06  0.27371240238356D-06  0.26570159965297D-06
 0.85895000000000D+02  0.28961532372200D-06  0.29772707654983D-06  0.30343246205454D-06  0.30663277293733D-06  0.30733509409297D-06  0.30565499455306D-06  0.30181507189149D-06  0.29613922708065D-06  0.28904309270956D-06  0.28102078241179D-06
 0.85995000000000D+02  0.28753888320966D-06  0.29810228432601D-06  0.30638078814268D-06  0.31217403146464D-06  0.31538248040963D-06  0.31601427186666D-06  0.31418802047749D-06  0.31013132524517D-06  0.30417526777530D-06  0.29674493757171D-06
 0.86095000000000D+02  0.28312972586533D-06  0.29598370009126D-06  0.30677096533989D-06  0.31519649315656D-06  0.32105717579739D-06  0.32425256437030D-06  0.32479183891035D-06  0.32279660463045D-06  0.31849967305221D-06  0.31223973126917D-06
 0.86195000000000D+02  0.27655753665022D-06  0.29144999805657D-06  0.30458207646396D-06  0.31557476225304D-06  0.32412845717331D-06  0.33003720802928D-06  0.33319958246817D-06  0.33362564978814D-06  0.33144009340276D-06  0.32688123108238D-06
 0.86295000000000D+02  0.26807788153500D-06  0.28467558774560D-06  0.29989534745900D-06  0.31328813848230D-06  0.32446872192340D-06  0.33313283694969D-06  0.33907157668626D-06  0.34218229004860D-06  0.34247590885494D-06  0.34008035827748D-06
 0.86395000000000D+02  0.25802227831831D-06  0.27592387329241D-06  0.29289105204154D-06  0.30842149829960D-06  0.32205853355736D-06  0.33341062495482D-06  0.34216872245941D-06  0.34812066984283D-06  0.35116246985012D-06  0.35130595588282D-06
 0.86495000000000D+02  0.24678526734687D-06  0.26553701935304D-06  0.28384154498467D-06  0.30116206157920D-06  0.31698745955538D-06  0.33085338610822D-06  0.34236189143098D-06  0.35119880392610D-06  0.35714850782165D-06  0.36010558463206D-06
 0.86595000000000D+02  0.23480896797521D-06  0.25392260415364D-06  0.27310067860092D-06  0.29179215560640D-06  0.30945065845527D-06  0.32555632962956D-06  0.33963704443552D-06  0.35128809253812D-06  0.36018990951198D-06  0.36612324575191D-06
 0.86695000000000D+02  0.22256570634785D-06  0.24153766138788D-06  0.26108999607984D-06  0.28067824088717D-06  0.29974133447199D-06  0.31772342894240D-06  0.33409586722614D-06  0.34837842410922D-06  0.36015932106657D-06  0.36911334641108D-06
 0.86795000000000D+02  0.21053937908803D-06  0.22887071636094D-06  0.24828222096081D-06  0.26825660722746D-06  0.28823933575149D-06  0.30765953116547D-06  0.32595188740988D-06  0.34257865992230D-06  0.35705120564982D-06  0.36895036606672D-06
 0.86895000000000D+02  0.19920627256619D-06  0.21642250399888D-06  0.23518266951217D-06  0.25501627847728D-06  0.27539632103450D-06  0.29575849622775D-06  0.31552220835387D-06  0.33411247018165D-06  0.35098215041975D-06  0.36563384474248D-06
 0.86995000000000D+02  0.18901608616985D-06  0.20468611379882D-06  0.22230929803084D-06  0.24147977544889D-06  0.26171805360040D-06  0.28248780805187D-06  0.30321516362492D-06  0.32330966793444D-06  0.34218639898517D-06  0.35928849155921D-06
 0.87095000000000D+02  0.18037390879967D-06  0.19412733695262D-06  0.21017215664196D-06  0.22818247454152D-06  0.24774449587260D-06  0.26837023828697D-06  0.28951435319123D-06  0.31059335985143D-06  0.33100676746074D-06  0.35015939722135D-06
 0.87195000000000D+02  0.17362386996857D-06  0.18516599205358D-06  0.19925305243160D-06  0.21565136098431D-06  0.23402846858943D-06  0.25396326071606D-06  0.27495966435084D-06  0.29646339472077D-06  0.31788127935151D-06  0.33860252095720D-06
 0.87295000000000D+02  0.16903513063603D-06  0.17815897724906D-06  0.18998622594343D-06  0.20438400762154D-06  0.22111370131511D-06  0.23983700717811D-06  0.26012600084184D-06  0.28147673568207D-06  0.30332602028672D-06  0.32507080385639D-06
 0.87395000000000D+02  0.16679079553038D-06  0.17338573868233D-06  0.18274081544118D-06  0.19482861101550D-06  0.20951313348514D-06  0.22655161987046D-06  0.24560053818138D-06  0.26622550527491D-06  0.28791486196605D-06  0.31009643002758D-06
 0.87495000000000D+02  0.16698022050025D-06  0.17103675887728D-06  0.17780582315012D-06  0.18736588555046D-06  0.19968832531999D-06  0.21463488737463D-06  0.23195938812963D-06  0.25131354853951D-06  0.27225683000798D-06  0.29426990825704D-06
 0.87595000000000D+02  0.16959505874553D-06  0.17120555674294D-06  0.17537820830044D-06  0.18229355348417D-06  0.19203080502222D-06  0.20456105082718D-06  0.21974458737871D-06  0.23733242477387D-06  0.25697198784587D-06  0.27821677419942D-06
 0.87695000000000D+02  0.17452924298772D-06  0.17388455658710D-06  0.17555461568599D-06  0.17981407594297D-06  0.18684611304159D-06  0.19673163158118D-06  0.20944232326885D-06  0.22483777018774D-06  0.24266677443612D-06  0.26257281164166D-06
 0.87795000000000D+02  0.18158294209259D-06  0.17896503147391D-06  0.17832710923956D-06  0.18002614929059D-06  0.18434120736925D-06  0.19145906287914D-06  0.20146327181348D-06  0.21432696975205D-06  0.22990976436954D-06  0.24795875703728D-06
 0.87895000000000D+02  0.19047036653823D-06  0.18624116198562D-06  0.18358312253612D-06  0.18292034689116D-06  0.18461576853360D-06  0.18895380710695D-06  0.19612585105183D-06  0.20621903634705D-06  0.21920881318380D-06  0.23495548134616D-06
 0.87995000000000D+02  0.20083113426848D-06  0.19541808137179D-06  0.19110966792917D-06  0.18837912295245D-06  0.18765779315644D-06  0.18931550998728D-06  0.19364308747664D-06  0.20083751943011D-06  0.21099050764308D-06  0.22408063543375D-06
 0.88095000000000D+02  0.21224475412185D-06  0.20612360929226D-06  0.20060166986969D-06  0.19618121886491D-06  0.19334369571121D-06  0.19252858771808D-06  0.19411365802139D-06  0.19839715572962D-06  0.20558276113866D-06  0.21576769932665D-06
 0.88195000000000D+02  0.22424764548441D-06  0.21792321639385D-06  0.21167411322037D-06  0.20601033016625D-06  0.20144295572930D-06  0.19846246789933D-06  0.19751750913758D-06  0.19899483409608D-06  0.20320128015350D-06  0.21034829224360D-06
 0.88295000000000D+02  0.23635199706515D-06  0.23033761838636D-06  0.22387753185200D-06  0.21746771160359D-06  0.21162715930682D-06  0.20687651658347D-06  0.20371627339458D-06  0.20260528009375D-06  0.20394048225385D-06  0.20803848163061D-06
 0.88395000000000D+02  0.24806568096772D-06  0.24286227834728D-06  0.23671621435134D-06  0.23008822680661D-06  0.22348309728984D-06  0.21742948937270D-06  0.21245850949536D-06  0.20908167895480D-06  0.20776927399455D-06  0.20892967891086D-06
 0.88495000000000D+02  0.25891238557685D-06  0.25498800614585D-06  0.24966837978302D-06  0.24335919595786D-06  0.23652940631250D-06  0.22969315236033D-06  0.22338959131846D-06  0.21816125508083D-06  0.21453190441940D-06  0.21298453216531D-06
 0.88595000000000D+02  0.26845111563836D-06  0.26622178935937D-06  0.26220748381174D-06  0.25674126730016D-06  0.25023608132565D-06  0.24316953749552D-06  0.23606587402735D-06  0.22947562031141D-06  0.22395390366894D-06  0.22003802765862D-06
 0.88695000000000D+02  0.27629423181297D-06  0.27610697441470D-06  0.27382375949058D-06  0.26969044324294D-06  0.26404605737269D-06  0.25731113529444D-06  0.24997257931419D-06  0.24256550039602D-06  0.23565290476144D-06  0.22980380039698D-06
 0.88795000000000D+02  0.28212326431238D-06  0.28424194148339D-06  0.28404508130833D-06  0.28168033475056D-06  0.27739796122134D-06  0.27154319393818D-06  0.26454467636448D-06  0.25689925863757D-06  0.24915393884309D-06  0.24188543716877D-06
 0.88895000000000D+02  0.28570183318408D-06  0.29029648122406D-06  0.29245626722854D-06  0.29222370233925D-06  0.28974907570311D-06  0.28528719494056D-06  0.27918989856353D-06  0.27189446665064D-06  0.26390859948202D-06  0.25579234296301D-06
 0.88995000000000D+02  0.28688513653728D-06  0.29402518286963D-06  0.29871600070669D-06  0.30089236992869D-06  0.30059754502195D-06  0.29798451750672D-06  0.29331293572842D-06  0.28694163321634D-06  0.27931729925784D-06  0.27095954288975D-06
 0.89095000000000D+02  0.28562562087495D-06  0.29527727633324D-06  0.30257065994890D-06  0.30733466815090D-06  0.30950287938843D-06  0.30911929024350D-06  0.30633978360543D-06  0.30142910088088D-06  0.29475370078424D-06  0.28677061630638D-06
 0.89195000000000D+02  0.28197461678492D-06  0.29400252907244D-06  0.30386447968152D-06  0.31128967324401D-06  0.31610389115946D-06  0.31823946149496D-06  0.31774122035159D-06  0.31476806219002D-06  0.30959030210341D-06  0.30258281678138D-06
 0.89295000000000D+02  0.27607989986970D-06  0.29025297318604D-06  0.30254563427522D-06  0.31259765080948D-06  0.32013330874926D-06  0.32497519716937D-06  0.32705441512696D-06  0.32641663711625D-06  0.32322409914103D-06  0.31775332864793D-06
 0.89395000000000D+02  0.26817931213877D-06  0.28418042064390D-06  0.29866801168214D-06  0.31120628303556D-06  0.32142846312209D-06  0.32905383381909D-06  0.33390175552381D-06  0.33590199165535D-06  0.33510123945465D-06  0.33166555432424D-06
 0.89495000000000D+02  0.25859074477580D-06  0.27602990556758D-06  0.29238863601827D-06  0.30717244464515D-06  0.31993761692451D-06  0.33031076885875D-06  0.33800610445118D-06  0.34283956335297D-06  0.34473962310433D-06  0.34375432014971D-06
 0.89595000000000D+02  0.24769893179992D-06  0.26612936346667D-06  0.28396088336886D-06  0.30065948721894D-06  0.31572169910224D-06  0.32869585108981D-06  0.33920185692184D-06  0.34694858854077D-06  0.35174849656927D-06  0.35352893338027D-06
 0.89695000000000D+02  0.23593962956823D-06  0.25487601066769D-06  0.27372381164859D-06  0.29193018400626D-06  0.30895140826757D-06  0.32427503365350D-06  0.33744135456743D-06  0.34806329167009D-06  0.35584421986086D-06  0.36059311747808D-06
 0.89795000000000D+02  0.22378185477324D-06  0.24272001660652D-06  0.26208808329344D-06  0.28133566876284D-06  0.29989984618893D-06  0.31722725794182D-06  0.33279642081788D-06  0.34613929061974D-06  0.35686155840291D-06  0.36466099231178D-06
 0.89895000000000D+02  0.21170892066275D-06  0.23014616254837D-06  0.24951909281610D-06  0.26930086454767D-06  0.28893102923095D-06  0.30783674063114D-06  0.32545499199505D-06  0.34125498307391D-06  0.35476005082479D-06  0.36556844311269D-06
 0.89995000000000D+02  0.20019904631730D-06  0.21765424968839D-06  0.23651801509717D-06  0.25630703526436D-06  0.27648479220925D-06  0.29648102731057D-06  0.31571302859146D-06  0.33360789717852D-06  0.34962522106344D-06  0.36327942764236D-06
 0.90095000000000D+02  0.18970631705932D-06  0.20573905611330D-06  0.22360156170145D-06  0.24287219924864D-06  0.26305873932294D-06  0.28361534682649D-06  0.30396208696473D-06  0.32350620392839D-06  0.34166462695189D-06  0.35788699420826D-06
 0.90195000000000D+02  0.18064274676396D-06  0.19487064587289D-06  0.21128127014306D-06  0.22953021735146D-06  0.24918800573731D-06  0.26975394374309D-06  0.29067310610137D-06  0.31135578914490D-06  0.33119895676689D-06  0.34960901247065D-06
 0.90295000000000D+02  0.17336213732812D-06  0.18547580576303D-06  0.20004315498892D-06  0.21680940639009D-06  0.23542366796453D-06  0.25544917733387D-06  0.27637711019557D-06  0.29764346086267D-06  0.31864858985500D-06  0.33877884314927D-06
 0.90395000000000D+02  0.16814634996788D-06  0.17792132872766D-06  0.19032852136827D-06  0.20521153268482D-06  0.22231068009719D-06  0.24126925122964D-06  0.26164364063179D-06  0.28291701659531D-06  0.30451621872439D-06  0.32583138141983D-06
 0.90495000000000D+02  0.16519450111321D-06  0.17249978022675D-06  0.18251668325525D-06  0.19519201108851D-06  0.21036621637595D-06  0.22777547695286D-06  0.24705780752978D-06  0.26776300936214D-06  0.28936628096175D-06  0.31128509314683D-06
 0.90595000000000D+02  0.16461547668539D-06  0.16941827930681D-06  0.17691024404906D-06  0.18714207491295D-06  0.20005926999061D-06  0.21549997730413D-06  0.23319689004941D-06  0.25278312853544D-06  0.27380206507957D-06  0.29572081617127D-06
 0.90695000000000D+02  0.16642402706360D-06  0.16879070375873D-06  0.17372348937346D-06  0.18137359475733D-06  0.19179229594771D-06  0.20492470346447D-06  0.22060741645542D-06  0.23857015030567D-06  0.25844143196095D-06  0.27975821573932D-06
 0.90795000000000D+02  0.17054056590893D-06  0.17063359333700D-06  0.17307431604496D-06  0.17810711340375D-06  0.18588559564870D-06  0.19646257532527D-06  0.20978362110444D-06  0.22568441322033D-06  0.24389213180315D-06  0.26403086091011D-06
 0.90895000000000D+02  0.17679465419150D-06  0.17486588149812D-06  0.17497998159976D-06  0.17746353413873D-06  0.18256502653993D-06  0.19044146138428D-06  0.20114810869228D-06  0.21463173849611D-06  0.23072769579845D-06  0.24916092634272D-06
 0.90995000000000D+02  0.18493201126531D-06  0.18131243961240D-06  0.17935681069995D-06  0.17945975597686D-06  0.18195348638570D-06  0.18709159665993D-06  0.19503545978838D-06  0.20584364535600D-06  0.21946484396950D-06  0.23573452173986D-06
 0.91095000000000D+02  0.19462476254974D-06  0.18971127327885D-06  0.18602384342489D-06  0.18400839650699D-06  0.18406647337534D-06  0.18653689913351D-06  0.19167939007299D-06  0.19966061207718D-06  0.21054327839167D-06  0.22427861123368D-06
 0.91195000000000D+02  0.20548451294637D-06  0.19972407330205D-06  0.19471026122600D-06  0.19092158686804D-06  0.18881186574065D-06  0.18879049234014D-06  0.19120393353323D-06  0.19631900801799D-06  0.20430862813484D-06  0.21524041000522D-06
 0.91295000000000D+02  0.21707773076864D-06  0.21094969889725D-06  0.20506628444088D-06  0.19991866919466D-06  0.19599390340061D-06  0.19375457936418D-06  0.19361896238720D-06  0.19594217546912D-06  0.20099918298902D-06  0.20897003915621D-06
 0.91395000000000D+02  0.22894284233974D-06  0.22294006218534D-06  0.21667710573955D-06  0.21063748019589D-06  0.20532119504570D-06  0.20122464738027D-06  0.19882018929904D-06  0.19853597808083D-06  0.20073690234217D-06  0.20570708672677D-06
