0.510000	1.251353	0.153924
0.520000	1.274692	0.154786
0.530000	1.298014	0.155588
0.540000	1.321319	0.156331
0.550000	1.344606	0.157014
0.560000	1.367875	0.157637
0.570000	1.391126	0.158201
0.580000	1.414357	0.158705
0.590000	1.437569	0.159150
0.600000	1.460762	0.159534
0.610000	1.483935	0.159859
0.620000	1.507088	0.160125
0.630000	1.530221	0.160330
0.640000	1.553333	0.160476
0.650000	1.576425	0.160563
0.660000	1.599497	0.160589
0.670000	1.622548	0.160557
0.680000	1.645578	0.160465
0.690000	1.668587	0.160313
0.700000	1.691576	0.160102
0.710000	1.714544	0.159831
0.720000	1.737490	0.159502
0.730000	1.760416	0.159113
0.740000	1.783320	0.158665
0.750000	1.806203	0.158158
0.760000	1.829065	0.157592
0.770000	1.851905	0.156967
0.780000	1.874724	0.156284
0.790000	1.897522	0.155541
0.800000	1.920298	0.154740
0.810000	1.943053	0.153881
0.820000	1.965786	0.152962
0.830000	1.988497	0.151986
0.840000	2.011187	0.150951
0.850000	2.033854	0.149858
0.860000	2.056500	0.148706
0.870000	2.079124	0.147497
0.880000	2.101725	0.146230
0.890000	2.124304	0.144904
0.900000	2.146861	0.143521
0.910000	2.169396	0.142081
0.920000	2.191908	0.140582
0.930000	2.214397	0.139027
0.940000	2.236864	0.137413
0.950000	2.259307	0.135743
0.960000	2.281728	0.134016
0.970000	2.304125	0.132231
0.980000	2.326499	0.130389
0.990000	2.348849	0.128491
1.000000	2.371176	0.126536
1.010000	2.393479	0.124524
1.020000	2.415758	0.122456
1.030000	2.438013	0.120331
1.040000	2.460243	0.118150
1.050000	2.482448	0.115913
1.060000	2.504629	0.113620
1.070000	2.526784	0.111271
1.080000	2.548914	0.108866
1.090000	2.571018	0.106406
1.100000	2.593096	0.103891
1.110000	2.615148	0.101321
1.120000	2.637172	0.098696
1.130000	2.659169	0.096018
1.140000	2.681137	0.093286
1.150000	2.703078	0.090503
1.160000	2.724990	0.087668
1.170000	2.746874	0.084785
1.180000	2.768730	0.081855
1.190000	2.790560	0.078880
1.200000	2.812410	0.075714
1.210000	2.834174	0.072602
1.220000	2.855902	0.069441
1.230000	2.877592	0.066238
1.240000	2.899245	0.062997
1.250000	2.921027	0.059568
1.260000	2.942621	0.056172
1.270000	2.964159	0.052730
1.280000	2.985906	0.049231
1.290000	3.007413	0.045628
1.300000	3.028839	0.041954
1.310000	3.050579	0.038396
1.320000	3.072112	0.034902
1.330000	3.093470	0.031332
1.340000	3.114709	0.027639
1.350000	3.135863	0.023805
1.360000	3.156940	0.019803
1.370000	3.178988	0.015860
1.380000	3.200334	0.012212
