0.180000	0.417226	0.356311	0.361053	0.021620
0.190000	0.469966	0.366391	0.380811	0.022611
0.200000	0.518592	0.374903	0.400571	0.023594
0.210000	0.564614	0.382525	0.420330	0.024568
0.220000	0.608846	0.389542	0.440088	0.025534
0.230000	0.651784	0.396093	0.459843	0.026491
0.240000	0.693752	0.402253	0.479595	0.027439
0.250000	0.734973	0.408063	0.499342	0.028378
0.260000	0.775607	0.413547	0.519085	0.029306
0.270000	0.815773	0.418718	0.538821	0.030225
0.280000	0.855561	0.423582	0.558552	0.031132
0.290000	0.895039	0.428142	0.578276	0.032029
0.300000	0.934261	0.432398	0.597993	0.032914
0.310000	0.973267	0.436348	0.617702	0.033788
0.320000	1.012092	0.439990	0.637404	0.034649
0.330000	1.050759	0.443321	0.657098	0.035499
0.340000	1.089288	0.446339	0.676783	0.036335
0.350000	1.127694	0.449041	0.696460	0.037158
0.360000	1.165989	0.451424	0.716128	0.037968
0.370000	1.204181	0.453487	0.735787	0.038764
0.380000	1.242275	0.455229	0.755437	0.039546
0.390000	1.280276	0.456648	0.775077	0.040314
0.400000	1.318184	0.457745	0.794708	0.041068
0.410000	1.356001	0.458519	0.814330	0.041806
0.420000	1.393727	0.458972	0.833941	0.042529
0.430000	1.431359	0.459105	0.853543	0.043237
0.440000	1.468896	0.458920	0.873135	0.043930
0.450000	1.506335	0.458419	0.892716	0.044606
0.460000	1.543673	0.457606	0.912288	0.045267
0.470000	1.580907	0.456483	0.931850	0.045911
0.480000	1.618033	0.455056	0.951401	0.046539
0.490000	1.655048	0.453328	0.970942	0.047150
0.500000	1.691948	0.451303	0.990472	0.047744
0.510000	1.728729	0.448988	1.009993	0.048321
0.520000	1.765388	0.446386	1.029503	0.048881
0.530000	1.801921	0.443503	1.049002	0.049424
0.540000	1.838325	0.440346	1.068491	0.049948
0.550000	1.874596	0.436919	1.087970	0.050455
0.560000	1.910732	0.433229	1.107439	0.050944
0.570000	1.946730	0.429281	1.126897	0.051415
0.580000	1.982587	0.425082	1.146344	0.051868
0.590000	2.018300	0.420638	1.165782	0.052302
0.600000	2.053867	0.415955	1.185209	0.052718
0.610000	2.089287	0.411038	1.204626	0.053115
0.620000	2.124556	0.405896	1.224033	0.053494
0.630000	2.159674	0.400532	1.243429	0.053853
0.640000	2.194638	0.394954	1.262815	0.054194
0.650000	2.229447	0.389167	1.282192	0.054515
0.660000	2.264099	0.383179	1.301558	0.054817
0.670000	2.298594	0.376994	1.320914	0.055100
0.680000	2.332929	0.370620	1.340260	0.055363
0.690000	2.367104	0.364062	1.359596	0.055607
0.700000	2.401118	0.357328	1.378923	0.055831
