0.270000	0.416894	0.010029
0.290000	0.447993	0.010904
0.310000	0.479109	0.011779
0.330000	0.510241	0.012653
0.350000	0.541390	0.013526
0.370000	0.572555	0.014398
0.390000	0.603736	0.015269
0.410000	0.634934	0.016138
0.430000	0.666149	0.017006
0.450000	0.697381	0.017871
0.470000	0.728631	0.018733
0.490000	0.759898	0.019592
0.510000	0.791183	0.020448
0.530000	0.822485	0.021300
0.550000	0.853806	0.022147
0.570000	0.885146	0.022989
0.590000	0.916503	0.023826
0.610000	0.947880	0.024657
0.630000	0.979275	0.025481
0.650000	1.010689	0.026298
0.670000	1.042121	0.027107
0.690000	1.073573	0.027908
0.710000	1.105043	0.028699
0.730000	1.136532	0.029481
0.750000	1.168039	0.030253
0.770000	1.199565	0.031014
0.790000	1.231109	0.031763
0.810000	1.262672	0.032500
0.830000	1.294253	0.033224
0.850000	1.325851	0.033934
0.870000	1.357467	0.034631
0.890000	1.389100	0.035312
0.910000	1.420750	0.035979
0.930000	1.452417	0.036629
0.950000	1.484101	0.037263
0.970000	1.515800	0.037880
0.990000	1.547515	0.038480
1.010000	1.579245	0.039061
1.030000	1.610990	0.039623
1.050000	1.642750	0.040167
1.070000	1.674523	0.040690
1.090000	1.706310	0.041193
1.110000	1.738110	0.041676
1.130000	1.769922	0.042138
1.150000	1.801747	0.042578
1.170000	1.833583	0.042996
1.190000	1.865430	0.043391
1.210000	1.897288	0.043764
1.230000	1.929155	0.044114
1.250000	1.961032	0.044440
1.270000	1.992918	0.044743
1.290000	2.024812	0.045022
1.310000	2.056713	0.045276
1.330000	2.088622	0.045506
1.350000	2.120538	0.045712
1.370000	2.152460	0.045892
1.390000	2.184387	0.046047
1.410000	2.216319	0.046177
1.430000	2.248255	0.046281
1.450000	2.280195	0.046360
1.470000	2.312139	0.046414
1.490000	2.344085	0.046441
1.510000	2.376033	0.046442
1.530000	2.407982	0.046418
1.550000	2.439933	0.046368
1.570000	2.471884	0.046292
1.590000	2.503835	0.046189
1.610000	2.535785	0.046061
1.630000	2.567734	0.045907
1.650000	2.599681	0.045727
1.670000	2.631626	0.045521
1.690000	2.663569	0.045289
1.710000	2.695508	0.045032
1.730000	2.727443	0.044749
1.750000	2.759374	0.044441
1.770000	2.791300	0.044108
1.790000	2.823220	0.043749
1.810000	2.855135	0.043365
1.830000	2.887044	0.042956
1.850000	2.918946	0.042523
1.870000	2.950841	0.042065
1.890000	2.982729	0.041583
1.910000	3.014609	0.041077
1.930000	3.046480	0.040547
1.950000	3.078342	0.039993
1.970000	3.110195	0.039416
1.990000	3.142038	0.038816
2.010000	3.173872	0.038192
2.030000	3.205695	0.037546
2.050000	3.237507	0.036878
2.070000	3.269308	0.036188
2.090000	3.301098	0.035475
2.110000	3.332876	0.034742
2.130000	3.364641	0.033987
2.150000	3.396394	0.033211
2.170000	3.428135	0.032414
2.190000	3.459862	0.031597
2.210000	3.491576	0.030760
2.230000	3.523276	0.029903
2.250000	3.554962	0.029027
2.270000	3.586634	0.028132
2.290000	3.618291	0.027218
2.310000	3.649934	0.026286
2.330000	3.681561	0.025335
2.350000	3.713173	0.024368
2.370000	3.744770	0.023383
2.390000	3.776351	0.022381
2.410000	3.807915	0.021364
2.430000	3.839463	0.020331
2.450000	3.870995	0.019283
2.470000	3.902511	0.018223
2.490000	3.934010	0.017151
2.510000	3.965494	0.016069
2.530000	3.996965	0.014979
2.550000	4.028425	0.013885
2.570000	4.059878	0.012789
2.590000	4.091329	0.011694
2.610000	4.122785	0.010603
