0.0181086519114687         -2.22044604925031e-16
0.114496502826483         0.0142857142857140
0.194883587237712         0.0214285714285714
0.291303375810418         0.0333333333333332
0.411836095940724         0.0476190476190474
0.532432691386414         0.0571428571428569
0.652997349174411         0.0690476190476188
0.789658586439270         0.0809523809523809
0.934400051100252         0.0904761904761904
1.11931908913800         0.104761904761905
1.25601226406055         0.114285714285714
1.40078566637923         0.121428571428571
1.63405831816295         0.130952380952381
1.80297658969691         0.138095238095238
1.97997508862700         0.142857142857143
2.12484430391875         0.142857142857143
2.26166522947207         0.142857142857143
2.43067931397911         0.142857142857143
2.56746830187474         0.145238095238095
2.75264284117403         0.140476190476190
2.89754399412347         0.138095238095238
3.03442879499217         0.133333333333333
3.15521701638402         0.128571428571428
3.28402158985660         0.126190476190476
3.43706684551755         0.116666666666666
3.56593529430552         0.109523809523809
3.71894861230877         0.102380952380952
3.86394557823129         0.0928571428571427
4.00894254415381         0.0833333333333333
4.12174635112261         0.0738095238095235
4.22650186835298         0.0642857142857141
4.36345054453706         0.0547619047619046
4.50039922072115         0.0452380952380951
4.63741177222063         0.0309523809523808
4.75826386892785         0.0214285714285714
4.85500303407748         0.00952380952380927
4.93561368209256         -2.22044604925031e-16

