1.800000 
0.180388 0.008988
0.488958 0.012294
0.706892 0.009813
0.877455 0.013727
1.206386 1.172815
1.006344 0.005103
1.115349 0.006076
1.197156 0.001147
1.265993 0.000222
1.318067 -0.000300
1.355616 -0.000400
1.378114 0.000069
2.641816 0.559416
4.897231 0.987277
4.654940 1.103290
3.875364 1.194010
3.898088 1.182519
3.886714 1.083926
3.901104 1.090693
4.161949 1.078803
3.877143 1.013917
3.903012 0.987663
4.997158 0.333256
4.202178 0.920503
3.902778 0.914329
4.628456 0.675156
4.870522 0.359961
3.895148 0.882391
3.838190 0.827422
4.800210 0.000006
3.916900 0.832015
3.959769 0.825531
3.858100 0.789775
4.253972 0.787972
3.841503 0.706807
3.793579 0.639134
3.820585 0.695655
4.129158 0.766380
4.060542 0.739704
4.565922 0.578027
3.774501 0.572681
4.771308 0.310025
3.786616 0.606747
4.283754 0.658527
3.748163 0.502360
4.299955 0.635378
4.155212 0.625373
3.724828 0.439085
3.756028 0.523168
3.703860 0.380709
3.728755 0.444824
3.922158 -0.102644
4.239858 0.520106
4.361803 0.531047
3.688044 0.323729
4.659350 0.000008
4.375065 0.490919
4.641788 0.276928
3.704382 0.371685
3.670847 0.271265
4.038634 0.000019
4.094295 0.000031
3.984080 0.000074
3.932080 0.000038
4.149446 0.000040
3.883974 0.000032
3.682663 0.304333
3.840345 0.000039
3.656761 0.221423
4.315008 0.422118
3.801747 0.000056
3.664159 0.242843
3.644911 0.177431
4.202359 0.000047
3.768147 0.000089
4.416687 0.412479
4.251659 0.000040
3.739285 0.000061
3.633521 0.136335
3.647949 0.186377
4.296176 0.000019
4.426926 0.353878
4.385506 0.333568
3.714974 0.000039
4.335345 0.000059
4.488108 0.311566
4.531184 0.257152
4.580849 0.000005
4.452240 0.289886
4.368914 0.000035
4.473282 0.258994
4.444721 0.228812
4.397037 0.000012
4.489805 0.198557
4.503617 0.161500
4.420106 0.000012
4.474124 0.158585
4.540082 0.000005
4.494103 0.141577
4.438751 -0.000002
4.487296 0.112500
4.492085 0.098688
4.453501 0.000008
4.492415 0.069369
4.519508 0.000011
4.465064 0.000045
4.492654 0.047262
4.492604 0.056302
4.473999 0.000021
4.509136 0.000009
4.480831 -0.000145
4.503657 0.000528
4.486322 -0.000915
4.499451 -0.002696
4.495783 -0.002529
4.491193 -0.002084
4.502430 0.000197
4.488115 0.002926
4.496968 0.004777
4.496487 0.024470
3.694502 0.000020
3.631853 0.138038
3.622815 0.099371
3.677440 -0.000067
3.616939 0.069078
3.663462 0.000049
3.622400 0.100190
3.651923 -0.000029
3.611595 0.045542
3.642435 -0.000030
3.616495 0.060314
3.634821 -0.000013
3.628350 -0.000054
3.623251 -0.000021
3.609212 0.015872
3.603389 0.016248
3.619112 0.000023
3.607210 0.024526
3.615651 -0.000026
3.612833 -0.000004
3.610555 -0.000016
3.608669 0.000029
3.607142 0.000008
3.605895 0.000025
3.604887 0.000004
3.604010 0.000000
3.599997 0.003955
3.603343 -0.000014
3.602748 -0.000005
3.602284 -0.000014
3.601905 0.000009
3.601549 -0.000131
3.601464 0.000165
3.601098 -0.000273
3.601018 0.000298
3.600692 -0.000287
3.600602 0.000294
3.600548 0.000015
3.600338 -0.000218
3.600251 0.000203
3.600402 -0.000012
3.600294 0.000004
3.600083 -0.000124
3.600234 -0.000008
3.600027 0.000093
3.600177 0.000001
3.600130 0.000028
3.599970 -0.000019
3.600116 -0.000026
3.600095 -0.000014
3.600071 0.000011
3.600055 -0.000015
3.600052 0.000015
3.600035 -0.000006
3.600031 0.000007
3.600025 -0.000003
3.600011 -0.000007
3.600020 0.000008
3.600001 0.000001
3.600002 -0.000002
3.599999 0.000000
3.600018 0.000005
3.600007 0.000003
3.600560 0.000837
3.599588 -0.000644
3.599874 -0.000203
3.600006 0.000000
3.600003 0.000000
3.600003 -0.000000
3.600003 -0.000000
3.600002 -0.000000
3.600002 0.000000
3.600001 -0.000000
3.600001 -0.000000
3.600001 -0.000000
3.600001 -0.000000
3.600000 -0.000000
3.600000 -0.000000
3.600000 0.000000
3.600000 -0.000000
3.600000 -0.000000
3.600000 0.000000
3.600000 0.000000
3.600000 -0.000000
3.600000 0.000000
3.600000 -0.000000
3.600000 0.000000
3.600000 -0.000000
3.600000 0.000000
3.600000 -0.000000
3.600000 0.000000
3.600000 0.000000
3.600000 0.000000
3.600000 0.000000
3.600000 0.000000
3.600000 -0.000000
3.600000 -0.000000
3.600000 0.000000
3.600000 0.000000
3.600000 0.000000
3.600000 -0.000000
3.600000 -0.000000
3.600000 0.000000
3.600000 -0.000000
3.600000 -0.000000
3.600000 -0.000000
3.600000 0.000000
3.600000 -0.000000
3.600000 -0.000000
3.600000 0.000000
3.600000 0.000000
