0.100000	0.087349	-0.229535
0.120000	0.114259	-0.234267
0.140000	0.140238	-0.234024
0.160000	0.164630	-0.230151
0.180000	0.187185	-0.223691
0.200000	0.207866	-0.215450
0.220000	0.226767	-0.206047
0.240000	0.244053	-0.195944
0.260000	0.259927	-0.185469
0.280000	0.274595	-0.174840
0.300000	0.288247	-0.164194
0.320000	0.924543	-0.055429
0.320000	0.301039	-0.153607
0.340000	1.023806	-0.067635
0.340000	0.313100	-0.143116
0.360000	1.126042	-0.073306
0.360000	0.324527	-0.132741
0.380000	1.228907	-0.071662
0.380000	0.335395	-0.122490
0.400000	1.330211	-0.063080
0.400000	0.345761	-0.112368
0.420000	0.355671	-0.102377
0.440000	0.365163	-0.092522
0.460000	0.374270	-0.082806
0.480000	0.383021	-0.073234
0.500000	0.391442	-0.063808
0.520000	0.399558	-0.054531
