 0.97142857142857D+00
 0.60095000000000D+02  0.13150582297321D-12  0.13140709510964D-12  0.13111331870965D-12  0.13077390137800D-12  0.13056369159219D-12  0.13067790698614D-12  0.13132583359184D-12  0.13272343893355D-12  0.13508513414552D-12  0.13861498069528D-12
 0.60195000000000D+02  0.13483950057048D-12  0.13525797524981D-12  0.13535753515075D-12  0.13525780960886D-12  0.13510789675825D-12  0.13508256440230D-12  0.13537708817220D-12  0.13620081101121D-12  0.13776959401775D-12  0.14029743134055D-12
 0.60295000000000D+02  0.13772035725870D-12  0.13877153464769D-12  0.13940982931830D-12  0.13972159698197D-12  0.13982540641100D-12  0.13986962946908D-12  0.14002858794869D-12  0.14049728140125D-12  0.14148479043234D-12  0.14320659575282D-12
 0.60395000000000D+02  0.14004320186095D-12  0.14181439843553D-12  0.14311179155126D-12  0.14398625830103D-12  0.14452225491208D-12  0.14483685984667D-12  0.14507734916861D-12  0.14541726971203D-12  0.14605102148232D-12  0.14718714888339D-12
 0.60495000000000D+02  0.14172723791898D-12  0.14427455768854D-12  0.14632206341199D-12  0.14788431392657D-12  0.14900939291240D-12  0.14977941415251D-12  0.15030959111678D-12  0.15074578110179D-12  0.15126042804138D-12  0.15204705611757D-12
 0.60595000000000D+02  0.14271895975261D-12  0.14606549260481D-12  0.14892162574477D-12  0.15126614852928D-12  0.15310991202283D-12  0.15449775058469D-12  0.15550905498272D-12  0.15625685732066D-12  0.15688526365758D-12  0.15756533399526D-12
 0.60695000000000D+02  0.14299396358716D-12  0.14712927098866D-12  0.15081817370281D-12  0.15400559927507D-12  0.15666572953082D-12  0.15880523968903D-12  0.16046532784429D-12  0.16172235232662D-12  0.16268682702980D-12  0.16350081890620D-12
 0.60795000000000D+02  0.14255761193206D-12  0.14743851083959D-12  0.15194941832849D-12  0.15600458594972D-12  0.15954348274095D-12  0.16253520402766D-12  0.16498185565173D-12  0.16692069706410D-12  0.16842471329529D-12  0.16960160357519D-12
 0.60895000000000D+02  0.14144453371041D-12  0.14699714000759D-12  0.15228519632944D-12  0.15719661348858D-12  0.16163941439409D-12  0.16554712141544D-12  0.16888334332092D-12  0.17164532106875D-12  0.17386603112922D-12  0.17561477884722D-12
 0.60995000000000D+02  0.13971698737857D-12  0.14583993233046D-12  0.15182831599305D-12  0.15754902152303D-12  0.16288307055570D-12  0.16773176207771D-12  0.17202226554351D-12  0.17571241410590D-12  0.17879423673468D-12  0.18129610970209D-12
 0.61095000000000D+02  0.13746215773937D-12  0.14403084664830D-12  0.15061411594980D-12  0.15706390419032D-12  0.16323967881211D-12  0.16901507223158D-12  0.17428424767380D-12  0.17896773841150D-12  0.18301725295429D-12  0.18641927981488D-12
 0.61195000000000D+02  0.13478849769587D-12  0.14166024081231D-12  0.14870876287644D-12  0.15577767471787D-12  0.16271112578851D-12  0.16936066556889D-12  0.17559212066023D-12  0.18129224019072D-12  0.18637457124920D-12  0.19078435805325D-12
 0.61295000000000D+02  0.13182126228899D-12  0.13884107553965D-12  0.14620636234800D-12  0.15375930123546D-12  0.16133550694797D-12  0.16877083804285D-12  0.17590850572651D-12  0.18260625635358D-12  0.18874307499325D-12  0.19422517227664D-12
 0.61395000000000D+02  0.12869741265662D-12  0.13570426110561D-12  0.14322500208699D-12  0.15110729092049D-12  0.15918527629631D-12  0.16728607817241D-12  0.17523684138992D-12  0.18287216720098D-12  0.19004137283189D-12  0.19661531940739D-12
 0.61495000000000D+02  0.12556009091620D-12  0.13239333197852D-12  0.13990188712361D-12  0.14794554703042D-12  0.15636407693167D-12  0.16498310262029D-12  0.17362082526172D-12  0.18209540582050D-12  0.19023248881794D-12  0.19787259428287D-12
 0.61595000000000D+02  0.12255288254392D-12  0.12905865939679D-12  0.13638776036431D-12  0.14441826583920D-12  0.15300238333042D-12  0.16197150289485D-12  0.17114230363509D-12  0.18032379802172D-12  0.18932481943974D-12  0.19796168120971D-12
 0.61695000000000D+02  0.11981409003878D-12  0.12585142864184D-12  0.13284082850445D-12  0.14068407638167D-12  0.14925213097527D-12  0.15838914155850D-12  0.16791770083938D-12  0.17764527034301D-12  0.18737133408905D-12  0.19689501907717D-12
 0.61795000000000D+02  0.11747124027261D-12  0.12291761577072D-12  0.12942043113835D-12  0.13690965388873D-12  0.14528054673653D-12  0.15439648332461D-12  0.16409313550540D-12  0.17418402558955D-12  0.18446706245852D-12  0.19473182080247D-12
 0.61895000000000D+02  0.11563603802119D-12  0.12039219756235D-12  0.12628069966934D-12  0.13326305683429D-12  0.14126342290861D-12  0.15017008613588D-12  0.15983842017651D-12  0.17009534318639D-12  0.18074497728507D-12  0.19157529812909D-12
 0.61995000000000D+02  0.11439996015197D-12  0.11839381847482D-12  0.12356445190406D-12  0.12990704692668D-12  0.13737809789606D-12  0.14589550826545D-12  0.15534018227496D-12  0.16555921318351D-12  0.17637044132679D-12  0.18756821073155D-12
 0.62095000000000D+02  0.11383065952399D-12  0.11702011991447D-12  0.12139755809149D-12  0.12699265083848D-12  0.13379641651221D-12  0.14175990853148D-12  0.15079437675095D-12  0.16077305611126D-12  0.17153444121193D-12  0.18288692164564D-12
 0.62195000000000D+02  0.11396931582741D-12  0.11634391081587D-12  0.11988399505415D-12  0.12465321203826D-12  0.13067794235644D-12  0.13794462710601D-12  0.14639848261718D-12  0.15594381444709D-12  0.16644587582869D-12  0.17773419688303D-12
 0.62295000000000D+02  0.11482903358823D-12  0.11641032545101D-12  0.11910177771638D-12  0.12299916119539D-12  0.12816368383329D-12  0.13461803377710D-12  0.14234368621641D-12  0.15127972398940D-12  0.16132320156762D-12  0.17233103362678D-12
 0.62395000000000D+02  0.11639434681443D-12  0.11723507580902D-12  0.11909992282923D-12  0.12211370506527D-12  0.12637057451710D-12  0.13192891895353D-12  0.13880735312293D-12  0.14698208412976D-12  0.15638575971549D-12  0.16690783691853D-12
 0.62495000000000D+02  0.11862184683211D-12  0.11880386330291D-12  0.11989655936187D-12  0.12204959764169D-12  0.12538691857862D-12  0.13000068066218D-12  0.13594607812037D-12  0.14323734451293D-12  0.15184512180811D-12  0.16169528794295D-12
 0.62595000000000D+02  0.12144190639823D-12  0.12107296960385D-12  0.12147825542986D-12  0.12282711508686D-12  0.12526897404559D-12  0.12892652915418D-12  0.13388957924203D-12  0.14020981197583D-12  0.14789678642785D-12  0.15691525705950D-12
 0.62695000000000D+02  0.12476143084650D-12  0.12397100080049D-12  0.12380058447708D-12  0.12443330914666D-12  0.12603880223826D-12  0.12876589074154D-12  0.13273566833557D-12  0.13803525652273D-12  0.14471254591701D-12  0.15277211129748D-12
 0.62795000000000D+02  0.12846752743986D-12  0.12740171457563D-12  0.12678990552514D-12  0.12682256422770D-12  0.12768346251512D-12  0.12954214568024D-12  0.13254648832894D-12  0.13681565941819D-12  0.14243381438489D-12  0.14944474929708D-12
 0.62895000000000D+02  0.13243194877853D-12  0.13124781838438D-12  0.13034628548686D-12  0.12991843295128D-12  0.13015557937362D-12  0.13124178310206D-12  0.13334615796629D-12  0.13661530165296D-12  0.14116617028538D-12  0.14707966732942D-12
 0.62995000000000D+02  0.13651613638981D-12  0.13537558929682D-12  0.13434744759238D-12  0.13361667573185D-12  0.13337525596970D-12  0.13381500116347D-12  0.13511991015237D-12  0.13745833879465D-12  0.14097531921662D-12  0.14578531921915D-12
 0.63095000000000D+02  0.14057666763603D-12  0.13964013465403D-12  0.13865359057470D-12  0.13778938363379D-12  0.13723325627272D-12  0.13717772482534D-12  0.13781475228816D-12  0.13932795058419D-12  0.14188462728546D-12  0.14562798231242D-12
 0.63195000000000D+02  0.14447089368899D-12  0.14389108817546D-12  0.14311288990184D-12  0.14229002220226D-12  0.14159532933509D-12  0.14121495912962D-12  0.14134161830715D-12  0.14216709279183D-12  0.14387431451275D-12  0.14662928303635D-12
 0.63295000000000D+02  0.14806254911427D-12  0.14797851957535D-12  0.14756746629209D-12  0.14695919872082D-12  0.14630750538249D-12  0.14578534457741D-12  0.14557892477062D-12  0.14588081712700D-12  0.14688233366393D-12  0.14876547133553D-12
 0.63395000000000D+02  0.15122711485340D-12  0.15175882772046D-12  0.15185958899040D-12  0.15163092775510D-12  0.15120215628394D-12  0.15072673518504D-12  0.15037738953362D-12  0.15034006475955D-12  0.15080689501951D-12  0.15196846580610D-12
 0.63495000000000D+02  0.15385672602956D-12  0.15510038818755D-12  0.15583787248730D-12  0.15613915094195D-12  0.15610458384579D-12  0.15586258074830D-12  0.15556592319821D-12  0.15538678254697D-12  0.15551053442503D-12  0.15612862325399D-12
 0.63595000000000D+02  0.15586443365843D-12  0.15788873571549D-12  0.15936322584919D-12  0.16032425748440D-12  0.16083987939080D-12  0.16100886425524D-12  0.16095836265705D-12  0.16084016051655D-12  0.16082556288163D-12  0.16109912027385D-12
 0.63695000000000D+02  0.15718765433718D-12  0.16003108011706D-12  0.16231432357330D-12  0.16403935206673D-12  0.16523978797993D-12  0.16598132441011D-12  0.16636078404457D-12  0.16650374643877D-12  0.16656068319737D-12  0.16670177279211D-12
 0.63795000000000D+02  0.15779067335104D-12  0.16145998002035D-12  0.16459238549830D-12  0.16715602688744D-12  0.16914931078326D-12  0.17060268264877D-12  0.17157911056108D-12  0.17217316006026D-12  0.17250851481355D-12  0.17273406467867D-12
 0.63895000000000D+02  0.15766610317318D-12  0.16213603135637D-12  0.16612508007242D-12  0.16956941382979D-12  0.17243278948814D-12  0.17470959422832D-12  0.17642671973176D-12  0.17764410699451D-12  0.17845373352325D-12  0.17897711058106D-12
 0.63995000000000D+02  0.15683523964069D-12  0.16204946554848D-12  0.16686939917466D-12  0.17120232069989D-12  0.17497923683787D-12  0.17815905393864D-12  0.18073175510863D-12  0.18272038123736D-12  0.18418150970622D-12  0.18520424280572D-12
 0.64095000000000D+02  0.15534730062081D-12  0.16122059443160D-12  0.16681339239877D-12  0.17200829088787D-12  0.17670670663993D-12  0.18083400827704D-12  0.18434385918494D-12  0.18722154618495D-12  0.18948591777262D-12  0.19118988868780D-12
 0.64195000000000D+02  0.15327757511043D-12  0.15969908342307D-12  0.16597669272216D-12  0.17197346738601D-12  0.17756553374293D-12  0.18264795672559D-12  0.18714006690371D-12  0.19098999683211D-12  0.19417799113822D-12  0.19671839432572D-12
 0.64295000000000D+02  0.15072455278525D-12  0.15756207967922D-12  0.16440981210593D-12  0.17111718823604D-12  0.17754031812802D-12  0.18354836388546D-12  0.18902963172934D-12  0.19389713001325D-12  0.19809311116084D-12  0.20159245318813D-12
 0.64395000000000D+02  0.14780614342260D-12  0.15491126617064D-12  0.16219223302325D-12  0.16949128940745D-12  0.17665057571967D-12  0.18351875015293D-12  0.18995759755689D-12  0.19584838417886D-12  0.20109744449862D-12  0.20564081381087D-12
 0.64495000000000D+02  0.14465513085413D-12  0.15186895410315D-12  0.15942936837488D-12  0.16717814095787D-12  0.17495002993757D-12  0.18257937960524D-12  0.18990697817191D-12  0.19678695394450D-12  0.20309318029497D-12  0.20872496896917D-12
 0.64595000000000D+02  0.14141403581030D-12  0.14857336331209D-12  0.15624850594533D-12  0.16428749118680D-12  0.17252457041725D-12  0.18078651784996D-12  0.18889945968769D-12  0.19669603582469D-12  0.20402236502992D-12  0.21074456824655D-12
 0.64695000000000D+02  0.13822958505863D-12  0.14517327173884D-12  0.15279389280770D-12  0.16095223949730D-12  0.16948895671727D-12  0.17823028770912D-12  0.18699459831941D-12  0.19559951821244D-12  0.20386918702078D-12  0.21164134530351D-12
 0.64795000000000D+02  0.13524699972550D-12  0.14182223965436D-12  0.14922114839775D-12  0.15732330006558D-12  0.16598239324144D-12  0.17503120465123D-12  0.18428754382982D-12  0.19356108861514D-12  0.20266062233188D-12  0.21140140848062D-12
 0.64895000000000D+02  0.13260432302855D-12  0.13867263098015D-12  0.14569122107087D-12  0.15356375360306D-12  0.16216314518227D-12  0.17133552478543D-12  0.18090537578043D-12  0.19068179211951D-12  0.20046541697568D-12  0.21005580645688D-12
 0.64995000000000D+02  0.13042700654537D-12  0.13586966223044D-12  0.14236412082808D-12  0.14984251213119D-12  0.15820240237210D-12  0.16730958404534D-12  0.17700219317727D-12  0.18709613470090D-12  0.19739144434473D-12  0.20767934711122D-12
 0.65095000000000D+02  0.12882296463869D-12  0.13354570893978D-12  0.13939266986101D-12  0.14632774071718D-12  0.15427762709056D-12  0.16313334616607D-12  0.17275314616701D-12  0.18296688103758D-12  0.19358153935570D-12  0.20438771496542D-12
 0.65195000000000D+02  0.12787828910185D-12  0.13181508996611D-12  0.13691651227148D-12  0.14318028980620D-12  0.15056564200467D-12  0.15899340770404D-12  0.16834763928275D-12  0.17847874679898D-12  0.18920796942853D-12  0.20033299805134D-12
 0.65295000000000D+02  0.12765379114335D-12  0.13076953212325D-12  0.13505661477305D-12  0.14054739175718D-12  0.14723572473719D-12  0.15507572949378D-12  0.16398196779604D-12  0.17383122802581D-12  0.18446575492344D-12  0.19569779624782D-12
 0.65395000000000D+02  0.12818250643932D-12  0.13047449187600D-12  0.13391047173673D-12  0.13855686543916D-12  0.14444297567132D-12  0.15155837476659D-12  0.15985167077816D-12  0.16923084358119D-12  0.17956509601482D-12  0.19068813773510D-12
 0.65495000000000D+02  0.12946826233765D-12  0.13096647829801D-12  0.13354820129579D-12  0.13731205363751D-12  0.14232221549329D-12  0.14860453425496D-12  0.15614389566310D-12  0.16488308944981D-12  0.17472319749893D-12  0.18552547613562D-12
 0.65595000000000D+02  0.13148536578999D-12  0.13225148338216D-12  0.13400968538593D-12  0.13688769027635D-12  0.14098264902911D-12  0.14635610796373D-12  0.15303006900602D-12  0.16098441502333D-12  0.17015580639342D-12  0.18043807639581D-12
 0.65695000000000D+02  0.13417942775757D-12  0.13430458355308D-12  0.13530286684936D-12  0.13732685913594D-12  0.14050350289997D-12  0.14492809230404D-12  0.15065915674214D-12  0.15771453099777D-12  0.16606878849746D-12  0.17565212116052D-12
 0.65795000000000D+02  0.13746929631553D-12  0.13707073146770D-12  0.13740327258622D-12  0.13863916417257D-12  0.14093080750439D-12  0.14440399075273D-12  0.14915177500129D-12  0.15522934613648D-12  0.16265006890622D-12  0.17138288039257D-12
 0.65895000000000D+02  0.14125002812700D-12  0.14046671160786D-12  0.14025478487239D-12  0.14080018531320D-12  0.14227545023822D-12  0.14483242727582D-12  0.14859538026291D-12  0.15365480638723D-12  0.16006224785341D-12  0.16782628487333D-12
 0.65995000000000D+02  0.14539678799768D-12  0.14438418850583D-12  0.14377163516451D-12  0.14375224445706D-12  0.14451257834360D-12  0.14622509591781D-12  0.14904072657228D-12  0.15308187558341D-12  0.15843617770352D-12  0.16515122906154D-12
 0.66095000000000D+02  0.14976953038257D-12  0.14869373440554D-12  0.14784154780247D-12  0.14740645624243D-12  0.14758237818152D-12  0.14855612895204D-12  0.15049972923749D-12  0.15356285350791D-12  0.15786575040164D-12  0.16349290116075D-12
 0.66195000000000D+02  0.15421828637234D-12  0.15324968535508D-12  0.15232991678848D-12  0.15164598884173D-12  0.15139220501275D-12  0.15176291175062D-12  0.15294482072743D-12  0.15510917610468D-12  0.15840409859686D-12  0.16294739919760D-12
 0.66295000000000D+02  0.15858885600530D-12  0.15789564260077D-12  0.15708485895927D-12  0.15633041351375D-12  0.15581998556017D-12  0.15574831713198D-12  0.15630982743494D-12  0.15769078602574D-12  0.16006135973939D-12  0.16356784292749D-12
 0.66395000000000D+02  0.16272868964650D-12  0.16247041094211D-12  0.16194295290349D-12  0.16130097964576D-12  0.16071876668679D-12  0.16038427749087D-12  0.16049233773015D-12  0.16123710165406D-12  0.16280409275921D-12  0.16536213432123D-12
 0.66495000000000D+02  0.16649273427864D-12  0.16681414838628D-12  0.16673544621245D-12  0.16638661617022D-12  0.16592223933000D-12  0.16551656158717D-12  0.16535747452570D-12  0.16563955153247D-12  0.16655637373880D-12  0.16829245641763D-12
 0.66595000000000D+02  0.16974902117580D-12  0.17077449268407D-12  0.17129469512345D-12  0.17141043191620D-12  0.17125102907458D-12  0.17097057643183D-12  0.17074293159066D-12  0.17075558108673D-12  0.17120253269861D-12  0.17227653384672D-12
 0.66695000000000D+02  0.17238378057822D-12  0.17421243048820D-12  0.17546059104233D-12  0.17619646774747D-12  0.17651951487483D-12  0.17655797503711D-12  0.17646508414629D-12  0.17641398194916D-12  0.17659143067318D-12  0.17719061086965D-12
 0.66795000000000D+02  0.17430588632209D-12  0.17700768396205D-12  0.17908672819650D-12  0.18057644301378D-12  0.18154291660073D-12  0.18208381941740D-12  0.18232594271671D-12  0.18242134322766D-12  0.18254211706722D-12  0.18287403691279D-12
 0.66895000000000D+02  0.17545045826459D-12  0.17906340735523D-12  0.18204607580128D-12  0.18439623831017D-12  0.18614438109435D-12  0.18735402634358D-12  0.18812068638664D-12  0.18856938067364D-12  0.18885065410614D-12  0.18913528780907D-12
 0.66995000000000D+02  0.17578148185038D-12  0.18031001169865D-12  0.18423593629091D-12  0.18752186584047D-12  0.19016179571662D-12  0.19218281181999D-12  0.19364548879960D-12  0.19464286554536D-12  0.19529785006766D-12  0.19575919565543D-12
 0.67095000000000D+02  0.17529334111087D-12  0.18070796839817D-12  0.18558199770086D-12  0.18984469748115D-12  0.19345406798777D-12  0.19639984952334D-12  0.19870533829928D-12  0.20042785135519D-12  0.20165760763066D-12  0.20251511346891D-12
 0.67195000000000D+02  0.17401120238059D-12  0.18024948089923D-12  0.18604132219816D-12  0.19128574824547D-12  0.19590662953104D-12  0.19985686856750D-12  0.20312155304657D-12  0.20571988454628D-12  0.20770556946498D-12  0.20916570446434D-12
 0.67295000000000D+02  0.17199022950844D-12  0.17895895630857D-12  0.18560415276902D-12  0.19179884822323D-12  0.19743595139268D-12  0.20243343656980D-12  0.20673870277691D-12  0.21033188494688D-12  0.21322773105031D-12  0.21547602118426D-12
 0.67395000000000D+02  0.16931365569164D-12  0.17689225428197D-12  0.18429446468165D-12  0.19137257789136D-12  0.19799289485303D-12  0.20404170433140D-12  0.20943067070613D-12  0.21410139362759D-12  0.21802869113488D-12  0.22122252784056D-12
 0.67495000000000D+02  0.16608978058362D-12  0.17413473689984D-12  0.18216923586236D-12  0.19003088837953D-12  0.19756476567295D-12  0.20462992737100D-12  0.21110562113683D-12  0.21689690911022D-12  0.22193922323011D-12  0.22620172054753D-12
 0.67595000000000D+02  0.16244800237273D-12  0.17079818889641D-12  0.17931645895699D-12  0.18783237806936D-12  0.19617598868572D-12  0.20418462560578D-12  0.21170967936388D-12  0.21862306688231D-12  0.22482287661341D-12  0.23023801461040D-12
 0.67695000000000D+02  0.15853403153201D-12  0.16701672074937D-12  0.17585196575438D-12  0.18486824792358D-12  0.19388737189668D-12  0.20273129392054D-12  0.21122917898304D-12  0.21922446058401D-12  0.22658135154571D-12  0.23319059515163D-12
 0.67795000000000D+02  0.15450446448850D-12  0.16294180613238D-12  0.17191518000322D-12  0.18125900824580D-12  0.19079398281626D-12  0.20033363126181D-12  0.20969138584386D-12  0.21868795442278D-12  0.22715843944543D-12  0.23495896610078D-12
 0.67895000000000D+02  0.15052092034459D-12  0.15873663859353D-12  0.16766395573260D-12  0.17715005725406D-12  0.18702171259305D-12  0.19709131216173D-12  0.20716366561062D-12  0.21704339340632D-12  0.22654237286554D-12  0.23548698148968D-12
 0.67995000000000D+02  0.14674396104252D-12  0.15457001877073D-12  0.16326869342043D-12  0.17270629509495D-12  0.18272265362759D-12  0.19313638010210D-12  0.20375112101934D-12  0.21436267870956D-12  0.22476649025430D-12  0.23476520024295D-12
 0.68095000000000D+02  0.14332702432427D-12  0.15061000196901D-12  0.15890595439298D-12  0.16810597408003D-12  0.17806946182469D-12  0.18862839476447D-12  0.19959278320207D-12  0.21075723760887D-12  0.22190818436993D-12  0.23283146907437D-12
 0.68195000000000D+02  0.14041059914064D-12  0.14701754578480D-12  0.15475181360280D-12  0.16353401556803D-12  0.17324891374786D-12  0.18374851297331D-12  0.19485649667779D-12  0.20637397857112D-12  0.21808616844777D-12  0.22976970529503D-12
 0.68295000000000D+02  0.13811686477246D-12  0.14394039827155D-12  0.15097520165095D-12  0.15917504490460D-12  0.16845490017484D-12  0.17869272420301D-12  0.18973268768028D-12  0.20138987995124D-12  0.21345615830857D-12  0.22570691976515D-12
 0.68395000000000D+02  0.13654499813717D-12  0.14150745884680D-12  0.14773148816462D-12  0.15520640734745D-12  0.16388111971612D-12  0.17366449431364D-12  0.18442724849528D-12  0.19600541312914D-12  0.20820512911646D-12  0.22080858728246D-12
 0.68495000000000D+02  0.13576732918021D-12  0.13982382703287D-12  0.14515655034206D-12  0.15179142949140D-12  0.15971374838628D-12  0.16886709444123D-12  0.17915380476584D-12  0.19043704580402D-12  0.20254436013807D-12  0.21527253484694D-12
 0.68595000000000D+02  0.13582649279982D-12  0.13896672882619D-12  0.14336155292235D-12  0.14907318227803D-12  0.15612436282456D-12  0.16449590479299D-12  0.17412565697606D-12  0.18490910684302D-12  0.19670152753597D-12  0.20932157507177D-12
 0.68695000000000D+02  0.13673368859920D-12  0.13898247794058D-12  0.14242863966979D-12  0.14716898352491D-12  0.15326338615116D-12  0.16073098497448D-12  0.16954770059658D-12  0.17964531917843D-12  0.19091214216169D-12  0.20319516035232D-12
 0.68795000000000D+02  0.13846811828847D-12  0.13988459057828D-12  0.14240770264881D-12  0.14616585069977D-12  0.15125430652475D-12  0.15773019330791D-12  0.16560863114154D-12  0.17486032078759D-12  0.18541065507455D-12  0.19714037140850D-12
 0.68895000000000D+02  0.14097762632841D-12  0.14165312919344D-12  0.14331435536494D-12  0.14611707940496D-12  0.15018889002447D-12  0.15562311770796D-12  0.16247373055317D-12  0.17075149523219D-12  0.18042156709968D-12  0.19140258001694D-12
 0.68995000000000D+02  0.14418052408051D-12  0.14423530454600D-12  0.14512919076420D-12  0.14704008103814D-12  0.15012357256994D-12  0.15450605079219D-12  0.16027851024018D-12  0.16749142249741D-12  0.17615087961173D-12  0.18621613912905D-12
 0.69095000000000D+02  0.14796853301289D-12  0.14754731793611D-12  0.14779835680881D-12  0.14891556592946D-12  0.15107717158981D-12  0.15443820312220D-12  0.15912345452210D-12  0.16522123833273D-12  0.17277821182524D-12  0.18179545359336D-12
 0.69195000000000D+02  0.15221074009904D-12  0.15147737864739D-12  0.15123543269715D-12  0.15168810769227D-12  0.15303000870105D-12  0.15543930224717D-12  0.15907006734389D-12  0.16404515678240D-12  0.17044988561206D-12  0.17832677133522D-12
 0.69295000000000D+02  0.15675842004187D-12  0.15588978708323D-12  0.15532453964305D-12  0.15526807246685D-12  0.15592448162205D-12  0.15748867328062D-12  0.16013837644697D-12  0.16402636734610D-12  0.16927324313921D-12  0.17596100856961D-12
 0.69395000000000D+02  0.16145054582359D-12  0.16062993354026D-12  0.15992457333089D-12  0.15953484514733D-12  0.15966706890971D-12  0.16052584103669D-12  0.16230599453802D-12  0.16518446684304D-12  0.16931241675350D-12  0.17480788439834D-12
 0.69495000000000D+02  0.16611978258449D-12  0.16553002756832D-12  0.16487440249144D-12  0.16434123551088D-12  0.16413169694389D-12  0.16445263637898D-12  0.16550877843695D-12  0.16749452848931D-12  0.17058571624392D-12  0.17493159139244D-12
 0.69595000000000D+02  0.17059874098816D-12  0.17041534475049D-12  0.16999884112092D-12  0.16951890227872D-12  0.16916434692959D-12  0.16913673255743D-12  0.16964306691470D-12  0.17088784910156D-12  0.17306473792327D-12  0.17634817130237D-12
 0.69695000000000D+02  0.17472625576648D-12  0.17511075757817D-12  0.17511517209867D-12  0.17488459423467D-12  0.17458873250482D-12  0.17441648307767D-12  0.17456941822430D-12  0.17525435202780D-12  0.17667523516752D-12  0.17902470102903D-12
 0.69795000000000D+02  0.17835345347084D-12  0.17944730567544D-12  0.18003997848995D-12  0.18024697609424D-12  0.18021283762356D-12  0.18010688311682D-12  0.18011771144204D-12  0.18044656076975D-12  0.18129972357508D-12  0.18288032583069D-12
 0.69895000000000D+02  0.18134938067075D-12  0.18326855839592D-12  0.18459602647859D-12  0.18541378405766D-12  0.18583607128736D-12  0.18600643355265D-12  0.18609342382528D-12  0.18628499866662D-12  0.18678172826828D-12  0.18778910700478D-12
 0.69995000000000D+02  0.18360597968896D-12  0.18643652988151D-12  0.18861894114892D-12  0.19019904277673D-12  0.19125677169608D-12  0.19190465194576D-12  0.19228485143294D-12  0.19256481571866D-12  0.19293151853731D-12  0.19358458260019D-12
 0.70095000000000D+02  0.18504222286647D-12  0.18883692279306D-12  0.19196342335347D-12  0.19443007233694D-12  0.19627977840420D-12  0.19758994963940D-12  0.19847100395708D-12  0.19906339670211D-12  0.19953311838665D-12  0.20006587468385D-12
 0.70195000000000D+02  0.18560724743239D-12  0.19038350151202D-12  0.19450877242249D-12  0.19795402094789D-12  0.20072378765734D-12  0.20285757949039D-12  0.20442987847166D-12  0.20554866695542D-12  0.20635233273787D-12  0.20700511777161D-12
 0.70295000000000D+02  0.18528237015943D-12  0.19102142776585D-12  0.19616350489411D-12  0.20064367610325D-12  0.20442821339851D-12  0.20751735519646D-12  0.20994680163125D-12  0.21178778504827D-12  0.21314548993205D-12  0.21415593247636D-12
 0.70395000000000D+02  0.18408190273368D-12  0.19072943015479D-12  0.19686889283389D-12  0.20240233339763D-12  0.20725929422486D-12  0.21140085090147D-12  0.21482252634804D-12  0.21755589602945D-12  0.21966857326053D-12  0.22126262815617D-12
 0.70495000000000D+02  0.18205273359835D-12  0.18952072251929D-12  0.19660128543214D-12  0.20316753699955D-12  0.20911521419926D-12  0.21436780847532D-12  0.21888077729967D-12  0.22264461570205D-12  0.22568639861339D-12  0.22806978990571D-12
 0.70595000000000D+02  0.17927268826522D-12  0.18744263286248D-12  0.19537312292126D-12  0.20291354768530D-12  0.20993004185856D-12  0.21631150890247D-12  0.22197495948820D-12  0.22686992554489D-12  0.23098149259115D-12  0.23433188972727D-12
 0.70695000000000D+02  0.17584772598957D-12  0.18457495287724D-12  0.19323260075019D-12  0.20165244177788D-12  0.20967633566156D-12  0.21716290250092D-12  0.22399377475973D-12  0.23007917917251D-12  0.23536233570973D-12  0.23982255975877D-12
 0.70795000000000D+02  0.17190807454728D-12  0.18102706620949D-12  0.19026199255556D-12  0.19943379553405D-12  0.20836631384779D-12  0.21689333881306D-12  0.22486553157509D-12  0.23215695382797D-12  0.23867065828571D-12  0.24434317713026D-12
 0.70895000000000D+02  0.16760344498325D-12  0.17693395960805D-12  0.18657469088089D-12  0.19634296256460D-12  0.20605154037505D-12  0.21551578924063D-12  0.22456098189401D-12  0.23302952313193D-12  0.24078751138098D-12  0.24773043495978D-12
 0.70995000000000D+02  0.16309750310180D-12  0.17245126333191D-12  0.18231107291799D-12  0.19249800476413D-12  0.20282113425735D-12  0.21308451188744D-12  0.22309457398971D-12  0.23266777858048D-12  0.24163788053043D-12  0.24986261127235D-12
 0.71095000000000D+02  0.15856180281737D-12  0.16774950401233D-12  0.17763334295711D-12  0.18804538797860D-12  0.19879856514435D-12  0.20969316650993D-12  0.22052406929154D-12  0.23108848518194D-12  0.24119366418834D-12  0.25066429585801D-12
 0.71195000000000D+02  0.15416940719971D-12  0.16300778320240D-12  0.17271954205517D-12  0.18315460033615D-12  0.19413715128011D-12  0.20547144576419D-12  0.21694853273836D-12  0.22835381898339D-12  0.23947489988569D-12  0.25010939248130D-12
 0.71295000000000D+02  0.15008843533388D-12  0.15840711694700D-12  0.16775694719168D-12  0.17801189204445D-12  0.18901442504201D-12  0.20058034488240D-12  0.21250476730872D-12  0.22456919872301D-12  0.23654918670912D-12  0.24822227827522D-12
 0.71395000000000D+02  0.14647577649414D-12  0.15412368502321D-12  0.16293510567095D-12  0.17281336896519D-12  0.18362557423508D-12  0.19520624340342D-12  0.20736232207204D-12  0.21987948803088D-12  0.23252932042933D-12  0.24507707118553D-12
 0.71495000000000D+02  0.14347120745359D-12  0.15032224251493D-12  0.15843876484453D-12  0.16775769713782D-12  0.17817620257246D-12  0.18955401767258D-12  0.20171725706356D-12  0.21446370607218D-12  0.22756922487947D-12  0.24079502738650D-12
 0.71595000000000D+02  0.14119213421316D-12  0.14714994092521D-12  0.15444096181200D-12  0.16303869068498D-12  0.17287467896695D-12  0.18383943980515D-12  0.19578489548452D-12  0.20852844096244D-12  0.22185832747645D-12  0.23554016099610D-12
 0.71695000000000D+02  0.13972915656057D-12  0.14473079127908D-12  0.15109653241727D-12  0.15883806059828D-12  0.16792436138558D-12  0.17828114626692D-12  0.18979183237699D-12  0.20230020955002D-12  0.21561458566577D-12  0.22951324552375D-12
 0.71795000000000D+02  0.13914262350223D-12  0.14316097816350D-12  0.14853628377068D-12  0.15531859656072D-12  0.16351598645181D-12  0.17309247611107D-12  0.18396749754666D-12  0.19601704738693D-12  0.20907642232261D-12  0.22294441775472D-12
 0.71895000000000D+02  0.13946031087463D-12  0.14250520225222D-12  0.14686205023934D-12  0.15261803839042D-12  0.15982051048892D-12  0.16847348456377D-12  0.17853558800913D-12  0.18991964236123D-12  0.20249386981554D-12  0.21608465789162D-12
 0.71995000000000D+02  0.14067631069940D-12  0.14279419073425D-12  0.14614282025279D-12  0.15084386845112D-12  0.15698267146794D-12  0.16460343183606D-12  0.17370569093293D-12  0.18424234340587D-12  0.19611925294343D-12  0.20919646272024D-12
 0.72095000000000D+02  0.14275117665631D-12  0.14402347162264D-12  0.14641208157324D-12  0.15006922239650D-12  0.15511551493884D-12  0.16163402994874D-12  0.16966541170482D-12  0.17920438122772D-12  0.19019775912032D-12  0.20254405970373D-12
 0.72195000000000D+02  0.14561332309723D-12  0.14615346078402D-12  0.14766648735514D-12  0.15033007415418D-12  0.15429609145526D-12  0.15968370260897D-12  0.16657330356450D-12  0.17500163088340D-12  0.18495824929705D-12  0.19638352804134D-12
 0.72295000000000D+02  0.14916162807106D-12  0.14911086146003D-12  0.14986589605738D-12  0.15162380365233D-12  0.15456248956643D-12  0.15883307579193D-12  0.16455286590152D-12  0.17179922650439D-12  0.18060465495065D-12  0.19095319714333D-12
 0.72395000000000D+02  0.15326914563411D-12  0.15279132688738D-12  0.15293478691317D-12  0.15390920421498D-12  0.15591231875964D-12  0.15912187104037D-12  0.16368783885873D-12  0.16972530725115D-12  0.17730828532310D-12  0.18646468347773D-12
 0.72495000000000D+02  0.15778779098259D-12  0.15706328920620D-12  0.15676500113064D-12  0.15710793272759D-12  0.15830270264584D-12  0.16054732129839D-12  0.16401897380247D-12  0.16886613180131D-12  0.17520133571475D-12  0.18309490366460D-12
 0.72595000000000D+02  0.16255382523443D-12  0.16177281396027D-12  0.16121970922454D-12  0.16110735161812D-12  0.16165178621007D-12  0.16306417228704D-12  0.16554240428909D-12  0.16926274789956D-12  0.17437184326501D-12  0.18097936586723D-12
 0.72695000000000D+02  0.16739393639298D-12  0.16674930078987D-12  0.16613845873665D-12  0.16576465943899D-12  0.16584170421291D-12  0.16658627313336D-12  0.16820968242783D-12  0.17090934560320D-12  0.17486028292639D-12  0.18020699427757D-12
 0.72795000000000D+02  0.17213169029386D-12  0.17181181885887D-12  0.17134311582782D-12  0.17091215833502D-12  0.17072290295742D-12  0.17098970040144D-12  0.17192948324568D-12  0.17375336000845D-12  0.17665793525712D-12  0.18081668456623D-12
 0.72895000000000D+02  0.17659411103446D-12  0.17677584135961D-12  0.17664448035716D-12  0.17636346377034D-12  0.17611965669066D-12  0.17611730207846D-12  0.17657091713252D-12  0.17769732378770D-12  0.17970709150112D-12  0.18279572368475D-12
 0.72995000000000D+02  0.18061814506442D-12  0.18146012802107D-12  0.18184932838815D-12  0.18192042618239D-12  0.18183657480923D-12  0.18178449460706D-12  0.18196833003227D-12  0.18260240425920D-12  0.18390309266665D-12  0.18608013777492D-12
 0.73095000000000D+02  0.18405676699311D-12  0.18569349850573D-12  0.18676761955468D-12  0.18738050708723D-12  0.18766585848758D-12  0.18778609874094D-12  0.18792741501959D-12  0.18829349641145D-12  0.18909813053214D-12  0.19055695976378D-12
 0.73195000000000D+02  0.18678449811519D-12  0.18932124315943D-12  0.19121960001951D-12  0.19254433461250D-12  0.19339503676964D-12  0.19390396062108D-12  0.19423240937217D-12  0.19456568469447D-12  0.19510667228280D-12  0.19606833620579D-12
 0.73295000000000D+02  0.18870213020225D-12  0.19221093066198D-12  0.19504253513254D-12  0.19722315615742D-12  0.19881489364737D-12  0.19991507451832D-12  0.20065411008851D-12  0.20119183467946D-12  0.20171230930529D-12  0.20241732378306D-12
 0.73395000000000D+02  0.18974047646264D-12  0.19425739424040D-12  0.19809681923857D-12  0.20124590916673D-12  0.20372728990809D-12  0.20559990430571D-12  0.20695840956954D-12  0.20793103283014D-12  0.20867577684646D-12  0.20937516218979D-12
 0.73495000000000D+02  0.18986300764872D-12  0.19538670843914D-12  0.20027123291264D-12  0.20446564475307D-12  0.20795258687665D-12  0.21075059265818D-12  0.21291503307164D-12  0.21453756024913D-12  0.21574384681030D-12  0.21668975431119D-12
 0.73595000000000D+02  0.18906727275009D-12  0.19555900587074D-12  0.20148714937676D-12  0.20676506261427D-12  0.21133639350358D-12  0.21517875055206D-12  0.21830615132308D-12  0.22077006559684D-12  0.22265876261052D-12  0.22409503877011D-12
 0.73695000000000D+02  0.18738504900904D-12  0.19477002650575D-12  0.20170153081137D-12  0.20806094849779D-12  0.21375538304015D-12  0.21872253474011D-12  0.22293454570721D-12  0.22640059422475D-12  0.22916786398750D-12  0.23132090579591D-12
 0.73795000000000D+02  0.18488121344040D-12  0.19305133929663D-12  0.20090860027023D-12  0.20830734615091D-12  0.21512195988567D-12  0.22125274696448D-12  0.22663101952611D-12  0.23122313525126D-12  0.23503304184996D-12  0.23810328627306D-12
 0.73895000000000D+02  0.18165137585823D-12  0.19046922550354D-12  0.19914012426539D-12  0.20749734275112D-12  0.21538759982028D-12  0.22267772478272D-12  0.22926077648633D-12  0.23506136568306D-12  0.24003966883264D-12  0.24419403656771D-12
 0.73995000000000D+02  0.17781835981553D-12  0.18712226314761D-12  0.19646429296486D-12  0.20566339848500D-12  0.21454473616698D-12  0.22294683868430D-12  0.23072852567928D-12  0.23777530012206D-12  0.24400467018593D-12  0.24937024860857D-12
 0.74095000000000D+02  0.17352766111030D-12  0.18313770068475D-12  0.19298323740279D-12  0.20287620530674D-12  0.21262711862064D-12  0.22205246200473D-12  0.23098211955221D-12  0.23926659501430D-12  0.24678343114716D-12  0.25344263548123D-12
 0.74195000000000D+02  0.16894205197641D-12  0.17866675344502D-12  0.18882927417389D-12  0.19924211492725D-12  0.20970862851796D-12  0.22003033706914D-12  0.23001458592773D-12  0.23948230629853D-12  0.24827527992622D-12  0.25626267673018D-12
 0.74295000000000D+02  0.16423553131258D-12  0.17387899691096D-12  0.18416001585674D-12  0.19489922970096D-12  0.20590059206856D-12  0.21695832089457D-12  0.22786447499803D-12  0.23841695684443D-12  0.24842733828029D-12  0.25772825340136D-12
 0.74395000000000D+02  0.15958684608994D-12  0.16895606498704D-12  0.17915252808713D-12  0.19001230027890D-12  0.20134768935941D-12  0.21295355440905D-12  0.22461450516023D-12  0.23611283308984D-12  0.24723659238945D-12  0.25778755890288D-12
 0.74495000000000D+02  0.15517282547825D-12  0.16408488775469D-12  0.17399675017808D-12  0.18476661879660D-12  0.19622260967288D-12  0.20816815823537D-12  0.22038855521708D-12  0.23265849644157D-12  0.24475010311464D-12  0.25644113592934D-12
 0.74595000000000D+02  0.15116177661514D-12  0.15945072081385D-12  0.16888842409664D-12  0.17936113427304D-12  0.19071965083919D-12  0.20278361342193D-12  0.21534711245876D-12  0.22818556181952D-12  0.24106334424278D-12  0.25374195959547D-12
 0.74695000000000D+02  0.14770718902170D-12  0.15523022650987D-12  0.16402179540238D-12  0.17400104638050D-12  0.18504750020131D-12  0.19700403500108D-12  0.20968134413973D-12  0.22286386069688D-12  0.23631672740099D-12  0.24979355994541D-12
 0.74795000000000D+02  0.14494198349848D-12  0.15158486581184D-12  0.15958235870887D-12  0.16889015368685D-12  0.17942146579849D-12  0.19104858805355D-12  0.20360601169026D-12  0.21689516668109D-12  0.23069044032596D-12  0.24474625041459D-12
 0.74895000000000D+02  0.14297352132336D-12  0.14865484838698D-12  0.15573991899681D-12  0.16422324210873D-12  0.17405544739617D-12  0.18514332847619D-12  0.19735149070174D-12  0.21050571580899D-12  0.22439778855388D-12  0.23879159986878D-12
 0.74995000000000D+02  0.14187956145219D-12  0.14655386791210D-12  0.15264222871613D-12  0.16017879826907D-12  0.16915394720280D-12  0.17951277265598D-12  0.19115519364757D-12  0.20393779925615D-12  0.21767728696623D-12  0.23215535186350D-12
 0.75095000000000D+02  0.14170531823629D-12  0.14536482062953D-12  0.15040943947494D-12  0.15691232074808D-12  0.16490441911604D-12  0.17437151090458D-12  0.18525271516058D-12  0.19744074136301D-12  0.21078379486438D-12  0.22508905327194D-12
 0.75195000000000D+02  0.14246173122415D-12  0.14513666866727D-12  0.14912957700285D-12  0.15455048027383D-12  0.16147024315323D-12  0.16991617838667D-12  0.17986903060750D-12  0.19126159942409D-12  0.20397902456317D-12  0.21786070321643D-12
 0.75295000000000D+02  0.14412501343407D-12  0.14588256705556D-12  0.14885521010827D-12  0.15318634852471D-12  0.15898458878229D-12  0.16631808440588D-12  0.17521007725414D-12  0.18563593266902D-12  0.19752177751350D-12  0.21074477046107D-12
 0.75395000000000D+02  0.14663749675384D-12  0.14757932627119D-12  0.14960143993505D-12  0.15287587556967D-12  0.15754539802095D-12  0.16371677675700D-12  0.17145503353445D-12  0.18077898585345D-12  0.19165827276464D-12  0.20401195166827D-12
 0.75495000000000D+02  0.14990974462830D-12  0.15016823228305D-12  0.15134528661538D-12  0.15363574952823D-12  0.15721167763118D-12  0.16221478330003D-12  0.16874958632024D-12  0.17687761792853D-12  0.18661292973206D-12  0.19791905325824D-12
 0.75595000000000D+02  0.15382385474888D-12  0.15355719532147D-12  0.15402649825032D-12  0.15544272051698D-12  0.15800124104260D-12  0.16187372923861D-12  0.16720043957632D-12  0.17408327890944D-12  0.18257995083157D-12  0.19269937562884D-12
 0.75695000000000D+02  0.15823782983941D-12  0.15762414884762D-12  0.15754975397515D-12  0.15823441628736D-12  0.15988998660843D-12  0.16271197741357D-12  0.16687127172933D-12  0.17250629932004D-12  0.17971602016711D-12  0.18855396031860D-12
 0.75795000000000D+02  0.16299085451437D-12  0.16222157332282D-12  0.16178818067296D-12  0.16191162119072D-12  0.16281274144328D-12  0.16470388215838D-12  0.16778029518781D-12  0.17221170788735D-12  0.17813439319838D-12  0.18564402898697D-12
 0.75895000000000D+02  0.16790928207634D-12  0.16718197712904D-12  0.16658805364369D-12  0.16634193531947D-12  0.16666564155983D-12  0.16778068702333D-12  0.16989951173299D-12  0.17321673630391D-12  0.17790060069226D-12  0.18408489900923D-12
 0.75995000000000D+02  0.17281310830464D-12  0.17232413096017D-12  0.17177450706398D-12  0.17136467891977D-12  0.17130996149812D-12  0.17183303521138D-12  0.17315569418194D-12  0.17549010698609D-12  0.17902993019708D-12  0.18394160567063D-12
 0.76095000000000D+02  0.17752269078007D-12  0.17745982354509D-12  0.17715804205855D-12  0.17679686039370D-12  0.17657725228550D-12  0.17671500118027D-12  0.17743306017410D-12  0.17895313317886D-12  0.18148678200758D-12  0.18522639743255D-12
 0.76195000000000D+02  0.18186546279505D-12  0.18240088675532D-12  0.18254159007782D-12  0.18243998616620D-12  0.18227559741456D-12  0.18224949481582D-12  0.18257754056342D-12  0.18348259297964D-12  0.18518592658470D-12  0.18789820089839D-12
 0.76295000000000D+02  0.18568239078128D-12  0.18696622774300D-12  0.18772786817805D-12  0.18808745889239D-12  0.18819675443033D-12  0.18823483801234D-12  0.18840248508764D-12  0.18891527241435D-12  0.18999561927447D-12  0.19186407853559D-12
 0.76395000000000D+02  0.18883393346482D-12  0.19098860515321D-12  0.19252675153143D-12  0.19353228812608D-12  0.19412391626154D-12  0.19445226934507D-12  0.19469559397790D-12  0.19505401008562D-12  0.19574245859658D-12  0.19698262766297D-12
 0.76495000000000D+02  0.19120527929597D-12  0.19432089569156D-12  0.19676238748851D-12  0.19857482551049D-12  0.19983980287922D-12  0.20067409745226D-12  0.20122681799708D-12  0.20167501947959D-12  0.20221780895381D-12  0.20306919648070D-12
 0.76595000000000D+02  0.19271066542267D-12  0.19684161607160D-12  0.20027978482620D-12  0.20303023525240D-12  0.20513478111402D-12  0.20667219908489D-12  0.20775693279423D-12  0.20853621688388D-12  0.20918554980545D-12  0.20990272473063D-12
 0.76695000000000D+02  0.19329661559256D-12  0.19845949292657D-12  0.20295063110523D-12  0.20673542016353D-12  0.20981470900405D-12  0.21222654446890D-12  0.21404646781961D-12  0.21538624485130D-12  0.21639086336211D-12  0.21723395548826D-12
 0.76795000000000D+02  0.19294397461135D-12  0.19911690862610D-12  0.20467811962221D-12  0.20955514355675D-12  0.21370821094673D-12  0.21713343117158D-12  0.21986465633445D-12  0.22197385467891D-12  0.22356973358211D-12  0.22479471290306D-12
 0.76895000000000D+02  0.19166866185585D-12  0.19879209277670D-12  0.20540060421630D-12  0.21138711703298D-12  0.21667311083606D-12  0.22121311814064D-12  0.22499807180284D-12  0.22805729746721D-12  0.23045880216544D-12  0.23230790036995D-12
 0.76995000000000D+02  0.18952111416372D-12  0.19749997594727D-12  0.20509394381208D-12  0.21216586258752D-12  0.21860178151198D-12  0.22431657361568D-12  0.22925862723250D-12  0.23341337251805D-12  0.23680521338315D-12  0.23949784615864D-12
 0.77095000000000D+02  0.18658443741397D-12  0.19529167210290D-12  0.20377244742452D-12  0.21186520307448D-12  0.21942520907845D-12  0.22633108338686D-12  0.23249063743124D-12  0.23784579416972D-12  0.24237607948390D-12  0.24610060999561D-12
 0.77195000000000D+02  0.18297133443840D-12  0.19225260748667D-12  0.20148838259693D-12  0.21049928619783D-12  0.21911561846736D-12  0.22718450818223D-12  0.23457667880755D-12  0.24119256320994D-12  0.24696721210825D-12  0.25187386501162D-12
 0.77295000000000D+02  0.17881992275634D-12  0.18849936434284D-12  0.19833006393684D-12  0.20812210193952D-12  0.21768756025525D-12  0.22684802923114D-12  0.23544202598231D-12  0.24333206583065D-12  0.25041079212147D-12  0.25660598482163D-12
 0.77395000000000D+02  0.17428859728383D-12  0.18417535602940D-12  0.19441859155070D-12  0.20482550964460D-12  0.21519741617947D-12  0.22533727740521D-12  0.23505749743758D-12  0.24418767033012D-12  0.25258168955441D-12  0.26012399473857D-12
 0.77495000000000D+02  0.16955012906988D-12  0.17944549391818D-12  0.18990335976525D-12  0.20073584675496D-12  0.21174133990349D-12  0.22271180167849D-12  0.23344060173431D-12  0.24373064767216D-12  0.25340219546452D-12  0.26230008816086D-12
 0.77595000000000D+02  0.16478521990665D-12  0.17449004438078D-12  0.18495650266642D-12  0.19600924432817D-12  0.20745170813872D-12  0.21907289472066D-12  0.23065493927247D-12  0.24198130449800D-12  0.25284498663404D-12  0.26305646246013D-12
 0.77695000000000D+02  0.16017575326187D-12  0.16949790468221D-12  0.17976648295301D-12  0.19082582300495D-12  0.20249221304792D-12  0.21455985492017D-12  0.22680787977431D-12  0.23900828392190D-12  0.25093420990724D-12  0.26236829124813D-12
 0.77795000000000D+02  0.15589799361015D-12  0.16465954860247D-12  0.17453106288845D-12  0.18538298517478D-12  0.19705177784263D-12  0.20934482272579D-12  0.22204660020524D-12  0.23492605793438D-12  0.24774464317589D-12  0.26026471939208D-12
 0.77895000000000D+02  0.15211598845017D-12  0.16015990524460D-12  0.16944991952426D-12  0.17988805315292D-12  0.19133752172828D-12  0.20362638269883D-12  0.21655262929118D-12  0.22989070292510D-12  0.24339896192939D-12  0.25682784098142D-12
 0.77995000000000D+02  0.14897541999439D-12  0.15617143728361D-12  0.16471717997601D-12  0.17455052793814D-12  0.18556703618256D-12  0.19762216907490D-12  0.21053510084171D-12  0.22409411418587D-12  0.23806321120205D-12  0.25218969586793D-12
 0.78095000000000D+02  0.14659813696840D-12  0.15284767774862D-12  0.16051415583784D-12  0.16957425763264D-12  0.17996026062472D-12  0.19156075019867D-12  0.20422296664090D-12  0.21775687384972D-12  0.23194065002036D-12  0.24652739458407D-12
 0.78195000000000D+02  0.14507757176974D-12  0.15031746756694D-12  0.15700254868865D-12  0.16514980831832D-12  0.17473126085733D-12  0.18567309450111D-12  0.19785645889572D-12  0.21112003736522D-12  0.22526419655323D-12  0.24005655161200D-12
 0.78295000000000D+02  0.14447521534172D-12  0.14868011015474D-12  0.15431838132802D-12  0.16144732294623D-12  0.17008021765363D-12  0.18018393670181D-12  0.19167812065607D-12  0.20443614438934D-12  0.21828775480530D-12  0.23302327049595D-12
 0.78395000000000D+02  0.14481828274089D-12  0.14800162527491D-12  0.15256688251866D-12  0.15861013586662D-12  0.16618592535843D-12  0.17530336702709D-12  0.18592373916389D-12  0.19795978937008D-12  0.21127674588456D-12  0.22569497877842D-12
 0.78495000000000D+02  0.14609865798297D-12  0.14831224346447D-12  0.15181851760010D-12  0.15674938266481D-12  0.16319908163859D-12  0.17121895827040D-12  0.18081352111931D-12  0.19193810396800D-12  0.20449819703110D-12  0.21835045414410D-12
 0.78595000000000D+02  0.14827315899688D-12  0.14960523608562D-12  0.15210631469033D-12  0.15593980800864D-12  0.16123662024687D-12  0.16808872576837D-12  0.17654384020229D-12  0.18660150718606D-12  0.19821075856874D-12  0.21126941383681D-12
 0.78695000000000D+02  0.15126511418375D-12  0.15183712620020D-12  0.15342458789694D-12  0.15621692962834D-12  0.16037729993486D-12  0.16603518455082D-12  0.17327986616990D-12  0.18215506948768D-12  0.19265502208592D-12  0.20472205621066D-12
 0.78795000000000D+02  0.15496719301089D-12  0.15492927386904D-12  0.15572910681696D-12  0.15757566600111D-12  0.16065871590575D-12  0.16514072718515D-12  0.17114935223238D-12  0.17877081462366D-12  0.18804450233161D-12  0.19895894554130D-12
 0.78895000000000D+02  0.15924538610641D-12  0.15877077806379D-12  0.15893870756312D-12  0.15997048068332D-12  0.16207584717484D-12  0.16544449668999D-12  0.17023781440489D-12  0.17658124819253D-12  0.18455762091584D-12  0.19420161885441D-12
 0.78995000000000D+02  0.16394398721677D-12  0.16322258807326D-12  0.16293828663185D-12  0.16331703956437D-12  0.16458119588380D-12  0.16694087316744D-12  0.17058528473244D-12  0.17567435640686D-12  0.18233099282816D-12  0.19063426697335D-12
 0.79095000000000D+02  0.16889139176456D-12  0.16812267193532D-12  0.16758306714445D-12  0.16749532072479D-12  0.16808651513191D-12  0.16957963257685D-12  0.17218476162205D-12  0.17609026382583D-12  0.18145426840637D-12  0.18839680222122D-12
 0.79195000000000D+02  0.17390649600974D-12  0.17329204973101D-12  0.17270397928549D-12  0.17235406218490D-12  0.17246606246878D-12  0.17326777359422D-12  0.17498241717617D-12  0.17781967697586D-12  0.18196672549723D-12  0.18757957371033D-12
 0.79295000000000D+02  0.17880545813121D-12  0.17854146702904D-12  0.17811395492194D-12  0.17771638266697D-12  0.17756125906047D-12  0.17787294610443D-12  0.17887955576945D-12  0.18080417412480D-12  0.18385574130806D-12  0.18821992982501D-12
 0.79395000000000D+02  0.18340856876438D-12  0.18367845959243D-12  0.18361490198314D-12  0.18338636644421D-12  0.18318658183481D-12  0.18322835489439D-12  0.18373625260103D-12  0.18493833248788D-12  0.18705720328517D-12  0.19030075863821D-12
 0.79495000000000D+02  0.18754697417799D-12  0.18851454556725D-12  0.18900509851157D-12  0.18915636706849D-12  0.18913646960896D-12  0.18913895679976D-12  0.18937653803816D-12  0.19007361540576D-12  0.19145784589230D-12  0.19375106316544D-12
 0.79595000000000D+02  0.19106900052284D-12  0.19287227633251D-12  0.19408673032537D-12  0.19481475762126D-12  0.19519298604135D-12  0.19538872098085D-12  0.19559493560042D-12  0.19602387611750D-12  0.19689942810842D-12  0.19844855230863D-12
 0.79695000000000D+02  0.19384584224883D-12  0.19659188219918D-12  0.19867329057398D-12  0.20015383814327D-12  0.20113395366801D-12  0.20174868198986D-12  0.20216411059245D-12  0.20257227412421D-12  0.20318459751596D-12  0.20422415292213D-12
 0.79795000000000D+02  0.19577640132621D-12  0.19953726402799D-12  0.20259656434031D-12  0.20497760471489D-12  0.20674125535878D-12  0.20798548534667D-12  0.20884334458475D-12  0.20947934707699D-12  0.21008422359124D-12  0.21086827646406D-12
 0.79895000000000D+02  0.19679109545013D-12  0.20160110604211D-12  0.20571293667425D-12  0.20910908952225D-12  0.21180899294354D-12  0.21387010659626D-12  0.21538751974311D-12  0.21649193761789D-12  0.21734592761102D-12  0.21813860787733D-12
 0.79995000000000D+02  0.19685449178202D-12  0.20270891774777D-12  0.20790878747477D-12  0.21239699698478D-12  0.21615119777167D-12  0.21918641798935D-12  0.22155627759356D-12  0.22335264229430D-12  0.22470349152786D-12  0.22576912714393D-12
 0.80095000000000D+02  0.19596666655956D-12  0.20282185272902D-12  0.20910477054401D-12  0.21472138705893D-12  0.21960880440191D-12  0.22373928227796D-12  0.22712300992259D-12  0.22980942977528D-12  0.23188679493782D-12  0.23348002752412D-12
 0.80195000000000D+02  0.19416323845464D-12  0.20193819766953D-12  0.20925881565788D-12  0.21599819220785D-12  0.22205562587408D-12  0.22736187046123D-12  0.23188334542050D-12  0.23562506888074D-12  0.23863190912474D-12  0.24098816057714D-12
 0.80295000000000D+02  0.19151407310341D-12  0.20009347457530D-12  0.20836774008737D-12  0.21618239792289D-12  0.22340310607800D-12  0.22992192901814D-12  0.23566281417327D-12  0.24058601365628D-12  0.24469097088170D-12  0.24801761794554D-12
 0.80395000000000D+02  0.18812070592061D-12  0.19735915097401D-12  0.20646740789019D-12  0.21526976648607D-12  0.22360367023384D-12  0.23132676116043D-12  0.23832340251547D-12  0.24451041265076D-12  0.24984146663336D-12  0.25431005433780D-12
 0.80495000000000D+02  0.18411257828540D-12  0.19384000491562D-12  0.20363142953549D-12  0.21329703801534D-12  0.22265254673723D-12  0.23152673448314D-12  0.23976875194879D-12  0.24725494194887D-12  0.25389457903492D-12  0.25963436538709D-12
 0.80595000000000D+02  0.17964222665037D-12  0.18967024194677D-12  0.19996844899996D-12  0.21034059970863D-12  0.22058799065585D-12  0.23051718230128D-12  0.23994780627780D-12  0.24872020517803D-12  0.25670228290859D-12  0.26379535776823D-12
 0.80695000000000D+02  0.17487960341393D-12  0.18500850799443D-12  0.19561811833985D-12  0.20651367147367D-12  0.21748989886191D-12  0.22833862589151D-12  0.23885676893948D-12  0.24885449702667D-12  0.25816292381353D-12  0.26664108624838D-12
 0.80795000000000D+02  0.17000574103371D-12  0.18003198351987D-12  0.19074590892123D-12  0.20196211165630D-12  0.21347686691803D-12  0.22507530757216D-12  0.23653929554970D-12  0.24765578779432D-12  0.25822506900496D-12  0.26806858184903D-12
 0.80895000000000D+02  0.16520599561866D-12  0.17492977883654D-12  0.18553695213815D-12  0.19685899828156D-12  0.20870179615292D-12  0.22085208770919D-12  0.23308491260600D-12  0.24517185287006D-12  0.25688948492171D-12  0.26802775516870D-12
 0.80995000000000D+02  0.16066312218610D-12  0.16989587682885D-12  0.18018913892590D-12  0.19139818716293D-12  0.20334621368456D-12  0.21582981996829D-12  0.22862571960836D-12  0.24149854032710D-12  0.25420916524742D-12  0.26652332692864D-12
 0.81095000000000D+02  0.15655044030348D-12  0.16512188646810D-12  0.17490573531487D-12  0.18578708669016D-12  0.19761351643802D-12  0.21019937615247D-12  0.22333149610805D-12  0.23677623943895D-12  0.25028740641113D-12  0.26361471142168D-12
 0.81195000000000D+02  0.15302534569858D-12  0.16078987784807D-12  0.16988778961504D-12  0.18023891863139D-12  0.19172139064828D-12  0.20417454263281D-12  0.21740339496405D-12  0.23118468026267D-12  0.24527400040615D-12  0.25941385501917D-12
 0.81295000000000D+02  0.15022341072659D-12  0.15706556667203D-12  0.16532661487788D-12  0.17496475376638D-12  0.18589368941779D-12  0.19798405279614D-12  0.21106645613641D-12  0.22493625697649D-12  0.23935968528102D-12  0.25408110836557D-12
 0.81395000000000D+02  0.14825329479232D-12  0.15409210331103D-12  0.16139662773983D-12  0.17016561986776D-12  0.18035207144019D-12  0.19186305250301D-12  0.20456121968577D-12  0.21826812305784D-12  0.23276905895485D-12  0.24781928450328D-12
 0.81495000000000D+02  0.14719265574908D-12  0.15198469918952D-12  0.15824881169515D-12  0.16602497712971D-12  0.17530771322901D-12  0.18604431704473D-12  0.19813475061096D-12  0.21143335256444D-12  0.22575221968320D-12  0.24086612316523D-12
 0.81595000000000D+02  0.14708521604865D-12  0.15082629216681D-12  0.15600504975428D-12  0.16270184268935D-12  0.17095340474648D-12  0.18074954769428D-12  0.19203141046128D-12  0.20469149700021D-12  0.21857544438515D-12  0.23348544130155D-12
 0.81695000000000D+02  0.14793909438707D-12  0.15066441392670D-12  0.15475353917126D-12  0.16032482188741D-12  0.16745632429336D-12  0.17618107329267D-12  0.18648372046220D-12  0.19829889017911D-12  0.21151125233609D-12  0.22595729932134D-12
 0.81795000000000D+02  0.14972646638198D-12  0.15150937760068D-12  0.15454546066942D-12  0.15898727025989D-12  0.16495176341027D-12  0.17251426748671D-12  0.18170365781279D-12  0.19249906327674D-12  0.20482822506625D-12  0.21856754967440D-12
 0.81895000000000D+02  0.15238456819101D-12  0.15333385460356D-12  0.15539302785574D-12  0.15874376819118D-12  0.16353803728282D-12  0.16989096577972D-12  0.17787471095388D-12  0.18751362850024D-12  0.19878096279432D-12  0.21159715786740D-12
 0.81995000000000D+02  0.15581800679147D-12  0.15607385778989D-12  0.15726899103407D-12  0.15960804125624D-12  0.16327277204640D-12  0.16841412945131D-12  0.17514499154919D-12  0.18353397264193D-12  0.19360055300295D-12  0.20531169491407D-12
 0.82095000000000D+02  0.15990229176489D-12  0.15963109548475D-12  0.16010761532642D-12  0.16155240535879D-12  0.16417070909265D-12  0.16814395702465D-12  0.17362166170351D-12  0.18071407183800D-12  0.18948590798853D-12  0.19995139421184D-12
 0.82195000000000D+02  0.16448845769551D-12  0.16387660966629D-12  0.16380709791763D-12  0.16450875884474D-12  0.16620310990035D-12  0.16909559003448D-12  0.17336688602114D-12  0.17916469724032D-12  0.18659629608227D-12  0.19572214512803D-12
 0.82295000000000D+02  0.16940860541124D-12  0.16865556349949D-12  0.16823333541179D-12  0.16837108596220D-12  0.16929878515972D-12  0.17123850038741D-12  0.17439546130254D-12  0.17894922957043D-12  0.18504534693119D-12  0.19278776092738D-12
 0.82395000000000D+02  0.17448215580323D-12  0.17379300034089D-12  0.17322490174321D-12  0.17299937951267D-12  0.17334671126260D-12  0.17449758382548D-12  0.17667421410633D-12  0.18008124058741D-12  0.18489675639198D-12  0.19126381136240D-12
 0.82495000000000D+02  0.17952258314897D-12  0.17910035986765D-12  0.17859905171167D-12  0.17822483740597D-12  0.17820013786056D-12  0.17875592024983D-12  0.18012319040096D-12  0.18252393359772D-12  0.18616185326881D-12  0.19121325203573D-12
 0.82595000000000D+02  0.18434437674438D-12  0.18438250850055D-12  0.18415852671472D-12  0.18385614008553D-12  0.18368203437050D-12  0.18385909931708D-12  0.18461859456158D-12  0.18619146572620D-12  0.18879912067863D-12  0.19264401569636D-12
 0.82695000000000D+02  0.18876997090543D-12  0.18944502186022D-12  0.18969890907116D-12  0.18968657521920D-12  0.18959167312217D-12  0.18962095111839D-12  0.18999736953567D-12  0.19095210434425D-12  0.19271569184510D-12  0.19550865744498D-12
 0.82795000000000D+02  0.19263638436533D-12  0.19410144735392D-12  0.19501625060746D-12  0.19550174417803D-12  0.19571210417664D-12  0.19583046908592D-12  0.19606324855462D-12  0.19663310144364D-12  0.19777076633194D-12  0.19970606912859D-12
 0.82895000000000D+02  0.19580132073926D-12  0.19818027550351D-12  0.19991469069336D-12  0.20108756284952D-12  0.20181824330039D-12  0.20225966751708D-12  0.20259405360877D-12  0.20302710541951D-12  0.20378082088652D-12  0.20508520086704D-12
 0.82995000000000D+02  0.19814850166577D-12  0.20153135928397D-12  0.20421377906527D-12  0.20623825808323D-12  0.20768527141814D-12  0.20867208094429D-12  0.20934996909770D-12  0.20989987209241D-12  0.21052642186336D-12  0.21145065256419D-12
 0.83095000000000D+02  0.19959203272310D-12  0.20403154115453D-12  0.20775522956954D-12  0.21076406097398D-12  0.21309703196343D-12  0.21483158832936D-12  0.21608248237514D-12  0.21699898801905D-12  0.21776038615200D-12  0.21856992822618D-12
 0.83195000000000D+02  0.20007963820177D-12  0.20558927687578D-12  0.21040885199587D-12  0.21449830926433D-12  0.21785411235428D-12  0.22051123264358D-12  0.22254365770670D-12  0.22406328104483D-12  0.22521698689613D-12  0.22618208356030D-12
 0.83295000000000D+02  0.19959464295188D-12  0.20614808252349D-12  0.21207743967693D-12  0.21730369298743D-12  0.22178130735720D-12  0.22550170628033D-12  0.22849539740316D-12  0.23083256707338D-12  0.23262186096248D-12  0.23400744499973D-12
 0.83395000000000D+02  0.19815662624440D-12  0.20568867494397D-12  0.21270042936915D-12  0.21907740926675D-12  0.22473418494651D-12  0.22961918495166D-12  0.23371834406784D-12  0.23705736914972D-12  0.23970224857951D-12  0.24175803795702D-12
 0.83495000000000D+02  0.19582072214673D-12  0.20422972461332D-12  0.21225619565732D-12  0.21975503275861D-12  0.22660450857007D-12  0.23271221679672D-12  0.23802009100853D-12  0.24250824566769D-12  0.24619718281986D-12  0.24914833527168D-12
 0.83595000000000D+02  0.19267559146378D-12  0.20182719164534D-12  0.21076289303659D-12  0.21931295605789D-12  0.22732431226215D-12  0.23466740848847D-12  0.24124239343275D-12  0.24698437880284D-12  0.25186724813622D-12  0.25590592449963D-12
 0.83695000000000D+02  0.18884013994811D-12  0.19857226860851D-12  0.20827781302183D-12  0.21776930770342D-12  0.22686847521550D-12  0.23541369486248D-12  0.24326711012367D-12  0.25032110161610D-12  0.25650354293098D-12  0.26178169536737D-12
 0.83795000000000D+02  0.18445910437889D-12  0.19458800588232D-12  0.20489527909128D-12  0.21518331222913D-12  0.22525569836806D-12  0.23492503134449D-12  0.24402065250597D-12  0.25239608166007D-12  0.25993551056868D-12  0.26655916629458D-12
 0.83895000000000D+02  0.17969767049629D-12  0.19002474456197D-12  0.20074315691808D-12  0.21165311488821D-12  0.22254784518885D-12  0.23322140725442D-12  0.24347677359943D-12  0.25313392888453D-12  0.26203734523760D-12  0.27006260072954D-12
 0.83995000000000D+02  0.17473532306684D-12  0.18505452656355D-12  0.19597810913631D-12  0.20731215105804D-12  0.21884766993582D-12  0.23036814072130D-12  0.24165759125089D-12  0.25250905432309D-12  0.26273273207258D-12  0.27216360896482D-12
 0.84095000000000D+02  0.16975915718665D-12  0.17986468991790D-12  0.19077977088898D-12  0.20232419476634D-12  0.21429501692342D-12  0.22647348011642D-12  0.23863280592471D-12  0.25054667125974D-12  0.26199774299278D-12  0.27278598743592D-12
 0.84195000000000D+02  0.16495690022052D-12  0.17465088783310D-12  0.18534406285534D-12  0.19687727022918D-12  0.20906163152691D-12  0.22168460020349D-12  0.23451714075691D-12  0.24732189989133D-12  0.25986177847321D-12  0.27190861315675D-12
 0.84295000000000D+02  0.16050990476193D-12  0.16960979180446D-12  0.17987589083669D-12  0.19117665290600D-12  0.20334477562325D-12  0.21618214124844D-12  0.22946609802064D-12  0.24295700733063D-12  0.25640651839231D-12  0.26956628346634D-12
 0.84395000000000D+02  0.15658637426508D-12  0.16493175104089D-12  0.17458150407806D-12  0.18543722075927D-12  0.19735988497958D-12  0.21017349388092D-12  0.22367018912516D-12  0.23761688448831D-12  0.25176291945646D-12  0.26584846794404D-12
 0.84495000000000D+02  0.15333507449174D-12  0.16079368230153D-12  0.16966079744852D-12  0.17987544087286D-12  0.19133254206959D-12  0.20388507951215D-12  0.21734785242261D-12  0.23150292732593D-12  0.24610636971824D-12  0.26089601733429D-12
 0.84595000000000D+02  0.15087976594495D-12  0.15735245582380D-12  0.16529984490525D-12  0.17470129041332D-12  0.18549006357480D-12  0.19755391382726D-12  0.21073732228411D-12  0.22484554971653D-12  0.23965017964795D-12  0.25489595069096D-12
 0.84695000000000D+02  0.14931456569337D-12  0.15473902467946D-12  0.16166394323118D-12  0.17011041358731D-12  0.18005301644260D-12  0.19141876786785D-12  0.20408775228669D-12  0.21789560644888D-12  0.23263765150713D-12  0.24807451385093D-12
 0.84795000000000D+02  0.14870041241936D-12  0.15305351729897D-12  0.15889142617406D-12  0.16627680765033D-12  0.17522697927094D-12  0.18571125648717D-12  0.19764992344629D-12  0.21091504584058D-12  0.22533302207677D-12  0.24068876708493D-12
 0.84895000000000D+02  0.14906276743779D-12  0.15236147708192D-12  0.15708848052100D-12  0.16334631146925D-12  0.17119485685558D-12  0.18064718691647D-12  0.19166688418094D-12  0.20416714044915D-12  0.21801161611115D-12  0.23301701492722D-12
 0.84995000000000D+02  0.15039063836175D-12  0.15269139029452D-12  0.15632515838187D-12  0.16143114035827D-12  0.16811003529521D-12  0.17641849070830D-12  0.18636487149655D-12  0.19790666039395D-12  0.21094957763306D-12  0.22534843468466D-12
 0.85095000000000D+02  0.15263696275408D-12  0.15403359543793D-12  0.15663273541247D-12  0.16060567200135D-12  0.16609063385918D-12  0.17318604076638D-12  0.18194485264052D-12  0.19237035621866D-12  0.20441356223578D-12  0.21797229033694D-12
 0.85195000000000D+02  0.15572033834158D-12  0.15634061574183D-12  0.15800251454404D-12  0.16090364169024D-12  0.16521506904005D-12  0.17107362232998D-12  0.17857500354030D-12  0.18776810693429D-12  0.19865077530287D-12  0.21116713432445D-12
 0.85295000000000D+02  0.15952803607709D-12  0.15952890332149D-12  0.16038612087096D-12  0.16231685258341D-12  0.16551909735651D-12  0.17016328387243D-12  0.17638440558350D-12  0.18427506429796D-12  0.19387972842322D-12  0.20519040047815D-12
 0.85395000000000D+02  0.16392018439246D-12  0.16348193081507D-12  0.16369727769395D-12  0.16479545018500D-12  0.16699444836192D-12  0.17049224249597D-12  0.17545819699357D-12  0.18202508741395D-12  0.19028205972816D-12  0.20026877703856D-12
 0.85495000000000D+02  0.16873496918499D-12  0.16805451596200D-12  0.16781499840139D-12  0.16824975186299D-12  0.16958910000396D-12  0.17205146047220D-12  0.17583436089660D-12  0.18110571376288D-12  0.18799572439246D-12  0.19658971986198D-12
 0.85595000000000D+02  0.17379465606002D-12  0.17307821847491D-12  0.17258807596145D-12  0.17255356415234D-12  0.17320918718602D-12  0.17478594724931D-12  0.17750227117851D-12  0.18155485555803D-12  0.18710981058822D-12  0.19429442359088D-12
 0.85695000000000D+02  0.17891221053599D-12  0.17836760842183D-12  0.17784070327221D-12  0.17754886499123D-12  0.17772247338830D-12  0.17859677684985D-12  0.18040305167115D-12  0.18335934602662D-12  0.18766117565661D-12  0.19347251434204D-12
 0.85795000000000D+02  0.18389826946092D-12  0.18372717267454D-12  0.18337901528943D-12  0.18305167699518D-12  0.18296325679617D-12  0.18334474652067D-12  0.18443173652855D-12  0.18645539121507D-12  0.18963302942157D-12  0.19415866336123D-12
 0.85895000000000D+02  0.18856820363385D-12  0.18895860201723D-12  0.18899830930771D-12  0.18885891329417D-12  0.18873852873729D-12  0.18885554116275D-12  0.18944115238636D-12  0.19073091179706D-12  0.19295551894231D-12  0.19633124949296D-12
 0.85995000000000D+02  0.19274900807208D-12  0.19386818714758D-12  0.19449067430539D-12  0.19475594101039D-12  0.19483515535538D-12  0.19492621175622D-12  0.19524737855251D-12  0.19602968877548D-12  0.19750829429772D-12  0.19991312189034D-12
 0.86095000000000D+02  0.19628576265205D-12  0.19827404758012D-12  0.19965274483132D-12  0.20052458050614D-12  0.20102781510098D-12  0.20133272681135D-12  0.20163658246030D-12  0.20215715955317D-12  0.20312496100539D-12  0.20477443599419D-12
 0.86195000000000D+02  0.19904742174919D-12  0.20201292354409D-12  0.20429329009720D-12  0.20595124209304D-12  0.20708739623658D-12  0.20783831566093D-12  0.20837297613446D-12  0.20888764912163D-12  0.20959925416502D-12  0.21073745837039D-12
 0.86295000000000D+02  0.20093171642154D-12  0.20494627713221D-12  0.20824035492502D-12  0.21083489658625D-12  0.21278954119975D-12  0.21420229267079D-12  0.21520759740357D-12  0.21597276739159D-12  0.21669270501711D-12  0.21758316240324D-12
 0.86395000000000D+02  0.20186898569643D-12  0.20696547460440D-12  0.21134768577010D-12  0.21499458211434D-12  0.21792301899877D-12  0.22018903330020D-12  0.22188758861362D-12  0.22315065997616D-12  0.22414351473255D-12  0.22505936985241D-12
 0.86495000000000D+02  0.20182479340071D-12  0.20799585592939D-12  0.21350020158143D-12  0.21827616673865D-12  0.22229761304834D-12  0.22557676707652D-12  0.22816562682148D-12  0.23015576767451D-12  0.23167630498869D-12  0.23289013539758D-12
 0.86595000000000D+02  0.20080123223673D-12  0.20799953908360D-12  0.21461830478689D-12  0.22055811405961D-12  0.22575122976226D-12  0.23016585918499D-12  0.23380915358066D-12  0.23672873069681D-12  0.23901238194060D-12  0.24078602468695D-12
 0.86695000000000D+02  0.19883686576018D-12  0.20697685377863D-12  0.21466087087920D-12  0.22175603606780D-12  0.22815596214271D-12  0.23378627127428D-12  0.23860905970332D-12  0.24262606804359D-12  0.24588013079967D-12  0.24845490282023D-12
 0.86795000000000D+02  0.19600530973630D-12  0.20496635039585D-12  0.21362680432019D-12  0.22182586265153D-12  0.22942288146793D-12  0.23630392254154D-12  0.24238750052590D-12  0.24762927062348D-12  0.25202515311854D-12  0.25561283089645D-12
 0.86895000000000D+02  0.19241250514001D-12  0.20204338306440D-12  0.21155510193969D-12  0.22076550872113D-12  0.22950537753511D-12  0.23762571305620D-12  0.24500454947702D-12  0.25155296836463D-12  0.25721976825006D-12  0.26199466397112D-12
 0.86995000000000D+02  0.18819278392677D-12  0.19831731904086D-12  0.20852342068733D-12  0.21861497592868D-12  0.22840092199921D-12  0.23770302108797D-12  0.24636344094639D-12  0.25425186594518D-12  0.26127152395780D-12  0.26736395466464D-12
 0.87095000000000D+02  0.18350387380900D-12  0.19392747784966D-12  0.20464520242164D-12  0.21545488436235D-12  0.22615118814486D-12  0.23653354306529D-12  0.24641420597474D-12  0.25562618756054D-12  0.26403039793588D-12  0.27152179234616D-12
 0.87195000000000D+02  0.17852102794074D-12  0.18903795110367D-12  0.20006546230647D-12  0.21140348819569D-12  0.22284052174377D-12  0.23416140658660D-12  0.24515556417060D-12  0.25562542665554D-12  0.26539442068013D-12  0.27431424733388D-12
 0.87295000000000D+02  0.17343049815810D-12  0.18383149577306D-12  0.19495539731752D-12  0.20661228588710D-12  0.21859281919598D-12  0.23067555133281D-12  0.24263500027805D-12  0.25425025971010D-12  0.26531350892988D-12  0.27563814143523D-12
 0.87395000000000D+02  0.16842259501840D-12  0.17850272833939D-12  0.18950601547304D-12  0.20126038803665D-12  0.21356692863064D-12  0.22620643737996D-12  0.23894702154362D-12  0.25155255162295D-12  0.26379136557942D-12  0.27544492846824D-12
 0.87495000000000D+02  0.16368459340524D-12  0.17325087346535D-12  0.18392102304568D-12  0.19554785245491D-12  0.20795074483026D-12  0.22092120287300D-12  0.23422965993391D-12  0.24763345143530D-12  0.26088537405459D-12  0.27374253883666D-12
 0.87595000000000D+02  0.15939374833652D-12  0.16827233754586D-12  0.17840923481196D-12  0.18968823464289D-12  0.20195421767620D-12  0.21501745096011D-12  0.22865934880103D-12  0.24263964841786D-12  0.25670448997384D-12  0.27059511814992D-12
 0.87695000000000D+02  0.15571068160493D-12  0.16375338415432D-12  0.17317679031314D-12  0.18390063127810D-12  0.19580153446872D-12  0.20871589713706D-12  0.22244436433317D-12  0.23675792724784D-12  0.25140520767051D-12  0.26612066845270D-12
 0.87795000000000D+02  0.15277338614106D-12  0.15986318470756D-12  0.16841946646100D-12  0.17840151334659D-12  0.18972276742769D-12  0.20225215079537D-12  0.21581707579016D-12  0.23020822456121D-12  0.24518575105317D-12  0.26048667892431D-12
 0.87895000000000D+02  0.15069207202805D-12  0.15674750377691D-12  0.16431537334598D-12  0.17339665353954D-12  0.18394529777197D-12  0.19586793720998D-12  0.20902529310339D-12  0.22323544520252D-12  0.23827870463608D-12  0.25390390800133D-12
 0.87995000000000D+02  0.14954504676723D-12  0.15452325488646D-12  0.16101830591886D-12  0.16907344914267D-12  0.17868533625025D-12  0.18980208722620D-12  0.20232303424504D-12  0.21610034291490D-12  0.23094235890216D-12  0.24661854796193D-12
 0.88095000000000D+02  0.14937578386413D-12  0.15327413024108D-12  0.15865199984607D-12  0.16559392700986D-12  0.17413985653309D-12  0.18428163072094D-12  0.19596105657664D-12  0.20906980527696D-12  0.22345109228394D-12  0.23890306350399D-12
 0.88195000000000D+02  0.15019128950891D-12  0.15304746782047D-12  0.15730550618911D-12  0.16308869187065D-12  0.17047924259926D-12  0.17951332618663D-12  0.19017750535152D-12  0.20240690508861D-12  0.21608514816120D-12  0.23104604548838D-12
 0.88295000000000D+02  0.15196182871834D-12  0.15385247315604D-12  0.15702985788352D-12  0.16165204411719D-12  0.16784092472488D-12  0.17567594264979D-12  0.18518902832855D-12  0.19636108928963D-12  0.20912018802448D-12  0.22334145794405D-12
 0.88395000000000D+02  0.15462202159295D-12  0.15565986259151D-12  0.15783615284630D-12  0.16133844965724D-12  0.16632424189776D-12  0.17291358218981D-12  0.18118268820938D-12  0.19115887152841D-12  0.20281701048421D-12  0.21607767925902D-12
 0.88495000000000D+02  0.15807326921633D-12  0.15840294180338D-12  0.15969512571756D-12  0.16216049402883D-12  0.16598672280123D-12  0.17133029260360D-12  0.17830897497487D-12  0.18699537586103D-12  0.19741181979232D-12  0.20952674635097D-12
 0.88595000000000D+02  0.16218741909354D-12  0.16198007980150D-12  0.16253822471378D-12  0.16408839762907D-12  0.16684192464419D-12  0.17098617171242D-12  0.17667617927180D-12  0.18402704744363D-12  0.19310740720404D-12  0.20393420322262D-12
 0.88695000000000D+02  0.16681153374422D-12  0.16625848654325D-12  0.16626015390919D-12  0.16705111067935D-12  0.16885891102849D-12  0.17189510921729D-12  0.17634633731103D-12  0.18236580266015D-12  0.19006557459628D-12  0.19950993293034D-12
 0.88795000000000D+02  0.17177358486442D-12  0.17107915362230D-12  0.17072278656506D-12  0.17093894760407D-12  0.17196338890875D-12  0.17402425095302D-12  0.17733289917267D-12  0.18207483751786D-12  0.18840108353619D-12  0.19642031545747D-12
 0.88895000000000D+02  0.17688886088689D-12  0.17626277405334D-12  0.17576030393669D-12  0.17560766304278D-12  0.17604046279465D-12  0.17729520614588D-12  0.17960020815672D-12  0.18316625134471D-12  0.18817735617953D-12  0.19478200464592D-12
 0.88995000000000D+02  0.18196684909771D-12  0.18161642059027D-12  0.18118536821775D-12  0.18088381789017D-12  0.18093890398291D-12  0.18158695324393D-12  0.18306481126537D-12  0.18560057513802D-12  0.18940408909225D-12  0.19465755703800D-12
 0.89095000000000D+02  0.18681833570369D-12  0.18694073365594D-12  0.18679609964109D-12  0.18657123557692D-12  0.18647677604038D-12  0.18674033649015D-12  0.18759855257901D-12  0.18928822287020D-12  0.19203686976330D-12  0.19605307646183D-12
 0.89195000000000D+02  0.19126245905628D-12  0.19203735088595D-12  0.19238359768892D-12  0.19245830806673D-12  0.19244820710407D-12  0.19256398601514D-12  0.19303333474029D-12  0.19409281230489D-12  0.19597881087405D-12  0.19891796303291D-12
 0.89295000000000D+02  0.19513345293059D-12  0.19671630121308D-12  0.19773972599883D-12  0.19832587927482D-12  0.19863105671093D-12  0.19884144105629D-12  0.19916737147738D-12  0.19983623209513D-12  0.20108414209875D-12  0.20314677674516D-12
 0.89395000000000D+02  0.19828682827229D-12  0.20080308768256D-12  0.20266487064685D-12  0.20395541199825D-12  0.20479519142312D-12  0.20533921095208D-12  0.20577269840398D-12  0.20630526673077D-12  0.20716362614030D-12  0.20858314691739D-12
 0.89495000000000D+02  0.20060476273110D-12  0.20414519474705D-12  0.20697538241793D-12  0.20913713379881D-12  0.21071106072350D-12  0.21181547349346D-12  0.21260366231193D-12  0.21325953271073D-12  0.21399159758832D-12  0.21502558239182D-12
 0.89595000000000D+02  0.20200049681973D-12  0.20661777721375D-12  0.21051042540465D-12  0.21367785799497D-12  0.21615825337549D-12  0.21802908635191D-12  0.21940607258036D-12  0.22044043031233D-12  0.22131436256428D-12  0.22223496640263D-12
 0.89695000000000D+02  0.20242157256932D-12  0.20812831850688D-12  0.21313797637121D-12  0.21740818797538D-12  0.22093371509480D-12  0.22374857553896D-12  0.22592667353266D-12  0.22758077734701D-12  0.22885964625933D-12  0.22994345709662D-12
 0.89795000000000D+02  0.20185179371610D-12  0.20862008432937D-12  0.21475975095810D-12  0.22018883599622D-12  0.22485932094562D-12  0.22876076562703D-12  0.23192258450715D-12  0.23441476575042D-12  0.23634673627533D-12  0.23786446214727D-12
 0.89895000000000D+02  0.20031183413793D-12  0.20807424272492D-12  0.21531487280447D-12  0.22191582061186D-12  0.22778851988522D-12  0.23287872975031D-12  0.23717035552366D-12  0.24068786971235D-12  0.24349694361494D-12  0.24570331572291D-12
 0.89995000000000D+02  0.19785847168364D-12  0.20651057127994D-12  0.21478214853710D-12  0.22252434868432D-12  0.22961180344280D-12  0.23594876271347D-12  0.24147430068687D-12  0.24616633576426D-12  0.25004399121044D-12  0.25316825975315D-12
 0.90095000000000D+02  0.19458247582129D-12  0.20398672490687D-12  0.21318086356878D-12  0.22199123696205D-12  0.23026079434342D-12  0.23785611692291D-12  0.24467379833939D-12  0.25064590075024D-12  0.25574394248160D-12  0.25998131997149D-12
 0.90195000000000D+02  0.19060522775761D-12  0.20059609135016D-12  0.21057006882377D-12  0.22033578268319D-12  0.22971080234089D-12  0.23852928696333D-12  0.24664928546192D-12  0.25395941233256D-12  0.26038429947842D-12  0.26588867102823D-12
 0.90295000000000D+02  0.18607419897700D-12  0.19646431424785D-12  0.20704638480504D-12  0.21761905050958D-12  0.22798175168514D-12  0.23794268275214D-12  0.24732672248028D-12  0.25598306755896D-12  0.26379193105975D-12  0.27067010392763D-12
 0.90395000000000D+02  0.18115745674606D-12  0.19174461329905D-12  0.20274040473485D-12  0.21394160217659D-12  0.22513744538600D-12  0.23611759129694D-12  0.24668036166462D-12  0.25664103651922D-12  0.26583953513414D-12  0.27414724244232D-12
 0.90495000000000D+02  0.17603740144075D-12  0.18661207597338D-12  0.19781183077237D-12  0.20943975334437D-12  0.22128319348060D-12  0.23312139091391D-12  0.24473371556682D-12  0.25590829832385D-12  0.26645039362013D-12  0.27619020175320D-12
 0.90595000000000D+02  0.17090396922014D-12  0.18125713357832D-12  0.19244352458773D-12  0.20428049709021D-12  0.21656189354829D-12  0.22906504695552D-12  0.24155868907799D-12  0.25381158330215D-12  0.26560124243186D-12  0.27672244061594D-12
 0.90695000000000D+02  0.16594755352438D-12  0.17587846493896D-12  0.18683469408530D-12  0.19865528323603D-12  0.21114870946798D-12  0.22409898221097D-12  0.23727290719203D-12  0.25042838595106D-12  0.26332314908815D-12  0.27572362570302D-12
 0.90795000000000D+02  0.16135190936900D-12  0.17067559230811D-12  0.18119347030892D-12  0.19277288540423D-12  0.20524454672019D-12  0.21840747578796D-12  0.23203533787817D-12  0.24588408513584D-12  0.25970036485571D-12  0.27323040089752D-12
 0.90895000000000D+02  0.15728730505149D-12  0.16584144561285D-12  0.17572915132241D-12  0.18685162174200D-12  0.19906856744849D-12  0.21220179919643D-12  0.22604037307971D-12  0.24034727866064D-12  0.25486719389623D-12  0.26933503245854D-12
 0.90995000000000D+02  0.15390417665571D-12  0.16155517232925D-12  0.17064440229173D-12  0.18111121938025D-12  0.19285002433430D-12  0.20571234548307D-12  0.21951058839518D-12  0.23402350595541D-12  0.24900299587249D-12  0.26418198021810D-12
 0.91095000000000D+02  0.15132752197854D-12  0.15797546111480D-12  0.16612770263563D-12  0.17576462599508D-12  0.18681971776690D-12  0.19918004484915D-12  0.21268845131126D-12  0.22714759277867D-12  0.24232550811769D-12  0.25796252235085D-12
 0.91195000000000D+02  0.14965224291375D-12  0.15523462816059D-12  0.16234632189771D-12  0.17101007382214D-12  0.18120139485827D-12  0.19284738682189D-12  0.20582728710410D-12  0.21997490326529D-12  0.23508273618498D-12  0.25090763388980D-12
 0.91295000000000D+02  0.14893960993827D-12  0.15343368676824D-12  0.15944008626982D-12  0.16702369206239D-12  0.17620341103308D-12  0.18694938374374D-12  0.19918183924065D-12  0.21277182543646D-12  0.22754371502841D-12  0.24327938433214D-12
 0.91395000000000D+02  0.14921498047919D-12  0.15263858397203D-12  0.15751616819933D-12  0.16395294316289D-12  0.17201096513768D-12  0.18170481254825D-12  0.19299877625930D-12  0.20580584491002D-12  0.21998848522719D-12  0.23536117495624D-12
 0.91495000000000D+02  0.15046685615808D-12  0.15287774448482D-12  0.15664509334365D-12  0.16191112772198D-12  0.16877919762220D-12  0.17730806142078D-12  0.18750749912335D-12  0.19933557693563D-12  0.21269765797706D-12  0.22744717978847D-12
 0.91595000000000D+02  0.15264731395878D-12  0.15414101347214D-12  0.15685811371874D-12  0.16097316290258D-12  0.16662740915593D-12  0.17392188538571D-12  0.18291159184647D-12  0.19360112845495D-12  0.20594195794139D-12  0.21983138389961D-12
 0.91695000000000D+02  0.15567379511184D-12  0.15638003747401D-12  0.15814604491976D-12  0.16117279172701D-12  0.16563461523983D-12  0.17167134095979D-12  0.17938123420327D-12  0.18881514959337D-12  0.19997213390509D-12  0.21279662776356D-12
 0.91795000000000D+02  0.15943218484425D-12  0.15951006914565D-12  0.16045961067457D-12  0.16250132724738D-12  0.16583660254099D-12  0.17063912603001D-12  0.17704685945578D-12  0.18515490828498D-12  0.19500961347480D-12  0.20660406621333D-12
 0.91895000000000D+02  0.16378106799968D-12  0.16341312837952D-12  0.16371128176291D-12  0.16490797832804D-12  0.16722459665324D-12  0.17086249869504D-12  0.17599429358786D-12  0.18275568357541D-12  0.19123825032969D-12  0.20148343508722D-12
 0.91995000000000D+02  0.16855700168688D-12  0.16794240178404D-12  0.16777854059473D-12  0.16830174477915D-12  0.16974559087684D-12  0.17233188990907D-12  0.17626155727611D-12  0.18170572396292D-12  0.18879747178351D-12  0.19762448854803D-12
 0.92095000000000D+02  0.17358060819918D-12  0.17292771631707D-12  0.17250844957089D-12  0.17255481104514D-12  0.17330432365172D-12  0.17499126158419D-12  0.17783744980316D-12  0.18204295876114D-12  0.18777708219109D-12  0.19516992640280D-12
 0.92195000000000D+02  0.17866326088080D-12  0.17818188282690D-12  0.17772335273179D-12  0.17750731176293D-12  0.17776683078615D-12  0.17874019670031D-12  0.18066196764929D-12  0.18375358507709D-12  0.18821391597034D-12  0.19421007517948D-12
 0.92295000000000D+02  0.18361411353480D-12  0.18350767283540D-12  0.18322749794979D-12  0.18297329134840D-12  0.18296543989114D-12  0.18343764337102D-12  0.18462854206492D-12  0.18677258303641D-12  0.19009046501942D-12  0.19477952130448D-12
