 0.12800000000000D+01
 0.60095000000000D+02  0.30528285487702D-07  0.33572135595604D-07  0.37103624024260D-07  0.40985481983422D-07  0.45058204911968D-07  0.49147892473986D-07  0.53075125685018D-07  0.56664412165053D-07  0.59753682915199D-07  0.62203305316808D-07
 0.60195000000000D+02  0.28410010883594D-07  0.30886524539640D-07  0.33976548066176D-07  0.37571427174408D-07  0.41532950081471D-07  0.45699726948412D-07  0.49895048672636D-07  0.53935836054157D-07  0.57642213388987D-07  0.60847188080394D-07
 0.60295000000000D+02  0.26982267803596D-07  0.28778759502470D-07  0.31277567120185D-07  0.34405298425807D-07  0.38053638619002D-07  0.42083869206539D-07  0.46333196562011D-07  0.50622607101461D-07  0.54765867116751D-07  0.58579204650018D-07
 0.60395000000000D+02  0.26333075315747D-07  0.27382508986543D-07  0.29180462560273D-07  0.31692992459125D-07  0.34848154898179D-07  0.38538406627634D-07  0.42625013560890D-07  0.46944306161364D-07  0.51315508556264D-07  0.55549767262489D-07
 0.60495000000000D+02  0.26498508396028D-07  0.26783447103519D-07  0.27817900419187D-07  0.29608865898736D-07  0.32124711778688D-07  0.35295357085712D-07  0.39014517079017D-07  0.43143980386762D-07  0.47519768614336D-07  0.51959916707165D-07
 0.60595000000000D+02  0.27460925807707D-07  0.27014126746472D-07  0.27273059043176D-07  0.28284419605662D-07  0.30058083334569D-07  0.32565115143393D-07  0.35737766611974D-07  0.39471546715330D-07  0.43629345575379D-07  0.48047475530374D-07
 0.60695000000000D+02  0.29150768739929D-07  0.28052463966935D-07  0.27574698815659D-07  0.27800039426944D-07  0.28778297938496D-07  0.30522572616114D-07  0.33007066218352D-07  0.36166882174510D-07  0.39899900162663D-07  0.44070724445924D-07
 0.60795000000000D+02  0.31451720871132D-07  0.29823843428062D-07  0.28695921023923D-07  0.28180282881840D-07  0.28362513965562D-07  0.29295842489987D-07  0.30996993780496D-07  0.33443800688993D-07  0.36574780864917D-07  0.40290796559143D-07
 0.60895000000000D+02  0.34208808611543D-07  0.32206613588083D-07  0.30556604160529D-07  0.29392939649048D-07  0.28830552922513D-07  0.28958300394847D-07  0.29833186628583D-07  0.31476020468692D-07  0.33868801416709D-07  0.36954059273697D-07
 0.60995000000000D+02  0.37238847826311D-07  0.35040528362789D-07  0.33029262808258D-07  0.31351830785795D-07  0.30144296606202D-07  0.29524401447178D-07  0.29584587246011D-07  0.30386049704970D-07  0.31954183071398D-07  0.34275725935139D-07
 0.61095000000000D+02  0.40342517915098D-07  0.38137520883776D-07  0.35947862125020D-07  0.33923066320042D-07  0.32210887580635D-07  0.30949455261624D-07  0.30259587112000D-07  0.30237680898223D-07  0.30949584604355D-07  0.32425815591355D-07
 0.61195000000000D+02  0.43317269353022D-07  0.41294071844320D-07  0.39118950987115D-07  0.36934268383804D-07  0.34889424729946D-07  0.33133270135533D-07  0.31806224773204D-07  0.31032508991131D-07  0.30912893705530D-07  0.31518375711391D-07
 0.61295000000000D+02  0.45970246903973D-07  0.44304363124682D-07  0.42334355972432D-07  0.40186098264152D-07  0.38000632859792D-07  0.35927327688606D-07  0.34116318014204D-07  0.32710599585831D-07  0.31838168721330D-07  0.31604621364806D-07
 0.61395000000000D+02  0.48130435166225D-07  0.46973386881025D-07  0.45384609584819D-07  0.43465307218254D-07  0.41338817838878D-07  0.39144936325040D-07  0.37033158290095D-07  0.35155153079248D-07  0.33656824045297D-07  0.32670350199409D-07
 0.61495000000000D+02  0.49659301254671D-07  0.49129208340759D-07  0.48072269152412D-07  0.46558465338375D-07  0.44685302836439D-07  0.42573646006715D-07  0.40362182868293D-07  0.38200757211792D-07  0.36242868139365D-07  0.34637690437538D-07
 0.61595000000000D+02  0.50459315071167D-07  0.50633652387460D-07  0.50224314754922D-07  0.49265509618944D-07  0.47822479210551D-07  0.45989093866381D-07  0.43883876271414D-07  0.41644608463398D-07  0.39421748672812D-07  0.37370951389858D-07
 0.61695000000000D+02  0.50479863492722D-07  0.51390793349460D-07  0.51702890416220D-07  0.51412288542466D-07  0.50547596718824D-07  0.49169392202025D-07  0.47368043120146D-07  0.45259921425498D-07  0.42982148417468D-07  0.40686090909903D-07
 0.61795000000000D+02  0.49720232938375D-07  0.51352766878901D-07  0.52413766232413D-07  0.52861360869212D-07  0.52685458605384D-07  0.51909166267034D-07  0.50588541036857D-07  0.48810639818358D-07  0.46689917381925D-07  0.44363105205174D-07
 0.61895000000000D+02  0.48229506770906D-07  0.50522584370486D-07  0.52312042641781D-07  0.53520424343857D-07  0.54099272486504D-07  0.54032395407920D-07  0.53337563462031D-07  0.52066514519901D-07  0.50303225854535D-07  0.48160492057224D-07
 0.61995000000000D+02  0.46103401300756D-07  0.48953805553374D-07  0.51404783529194D-07  0.53347898143655D-07  0.54699031107870D-07  0.55403302015476D-07  0.55438614191301D-07  0.54817621063027D-07  0.53587980458456D-07  0.51830842965132D-07
 0.62095000000000D+02  0.43478238303243D-07  0.46747105054964D-07  0.49750443715731D-07  0.52355352805548D-07  0.54446950250050D-07  0.55934661558082D-07  0.56757412444452D-07  0.56887447390983D-07  0.56332558886226D-07  0.55136583491762D-07
 0.62195000000000D+02  0.40522414730857D-07  0.44043945291792D-07  0.47455139851886D-07  0.50606664367416D-07  0.53359665877168D-07  0.55593065751009D-07  0.57210102233870D-07  0.58143786267841D-07  0.58360984218860D-07  0.57864901675022D-07
 0.62295000000000D+02  0.37425873984402D-07  0.41017732669692D-07  0.44665993087001D-07  0.48213956628736D-07  0.51507080175009D-07  0.54400851064867D-07  0.56768304603310D-07  0.58506808301037D-07  0.59543770411878D-07  0.59840976992323D-07
 0.62395000000000D+02  0.34388200687808D-07  0.37862978938789D-07  0.41561938667867D-07  0.45330577897858D-07  0.49007937322108D-07  0.52434597219443D-07  0.55460737139398D-07  0.57953862722061D-07  0.59805819081570D-07  0.60938740522349D-07
 0.62495000000000D+02  0.31606046299000D-07  0.34783107524244D-07  0.38342543854446D-07  0.42141527727487D-07  0.46022395621889D-07  0.49820295764947D-07  0.53371322741637D-07  0.56520744853434D-07  0.59130925592351D-07  0.61088552810468D-07
 0.62595000000000D+02  0.29260641136031D-07  0.31977629554896D-07  0.35215493980210D-07  0.38851896823235D-07  0.42742034201920D-07  0.46725478068401D-07  0.50633909481296D-07  0.54299372068180D-07  0.57562650362678D-07  0.60281370709516D-07
 0.62695000000000D+02  0.27506155934489D-07  0.29629461125232D-07  0.32383490839230D-07  0.35674002158356D-07  0.39377881574142D-07  0.43348766020323D-07  0.47423916027799D-07  0.51432014312471D-07  0.55201519545803D-07  0.58569178626245D-07
 0.62795000000000D+02  0.26459640927411D-07  0.27893158455459D-07  0.30031352770891D-07  0.32813982947098D-07  0.36147172427221D-07  0.39907459108064D-07  0.43947393405373D-07  0.48102421244657D-07  0.52198727866766D-07  0.56061673190114D-07
 0.62895000000000D+02  0.26193192561727D-07  0.26884809132038D-07  0.28314108218643D-07  0.30458666375355D-07  0.33259621595362D-07  0.36623890514802D-07  0.40428145151669D-07  0.44524366385767D-07  0.48746715527801D-07  0.52919403210333D-07
 0.62995000000000D+02  0.26728879332153D-07  0.26674235509162D-07  0.27346832270669D-07  0.28763511234530D-07  0.30904045021658D-07  0.33711366014038D-07  0.37093666507070D-07  0.40928280609330D-07  0.45067171184620D-07  0.49343768806508D-07
 0.63095000000000D+02  0.28036803099283D-07  0.27280042779005D-07  0.27196888845117D-07  0.27842391018728D-07  0.29236153091451D-07  0.31360537409006D-07  0.34160742411260D-07  0.37546764931893D-07  0.41397165127152D-07  0.45564465060391D-07
 0.63195000000000D+02  0.30036487336387D-07  0.28667883676705D-07  0.27879112090237D-07  0.27759885856007D-07  0.28368290200357D-07  0.29727053530781D-07  0.31821578579980D-07  0.34599849187043D-07  0.37974232982104D-07  0.41825107383868D-07
 0.63295000000000D+02  0.32601578097016D-07  0.30752121249083D-07  0.29354293993150D-07  0.28526617396391D-07  0.28361796236082D-07  0.28921274717067D-07  0.30231326256167D-07  0.32280893544763D-07  0.35021303742606D-07  0.38367889961294D-07
 0.63395000000000D+02  0.35567628444103D-07  0.33400860032305D-07  0.31531148445589D-07  0.30097987536275D-07  0.29222523590503D-07  0.29000731838324D-07  0.29497797878680D-07  0.30744010541627D-07  0.32732391530970D-07  0.35418198341375D-07
 0.63495000000000D+02  0.38742525856093D-07  0.36444096106496D-07  0.34271704961064D-07  0.32376478320065D-07  0.30899862785409D-07  0.29965861409013D-07  0.29674058717073D-07  0.30093814997334D-07  0.31259944904689D-07  0.33170117401867D-07
 0.63595000000000D+02  0.41918929239440D-07  0.39684521498186D-07  0.37399860094366D-07  0.35217446842119D-07  0.33289418919574D-07  0.31759359912196D-07  0.30754421905625D-07  0.30378189012896D-07  0.30704669621158D-07  0.31773743337712D-07
 0.63695000000000D+02  0.44887922552575D-07  0.42910323232424D-07  0.40712595542113D-07  0.38438118200666D-07  0.36239250742550D-07  0.34269281775676D-07  0.32674177496037D-07  0.31584582973081D-07  0.31108512002142D-07  0.31325122183546D-07
 0.63795000000000D+02  0.47452979876374D-07  0.45909157292821D-07  0.43993174318787D-07  0.41829256216187D-07  0.39559347504241D-07  0.37335767825719D-07  0.35313159251685D-07  0.33640167804021D-07  0.32451314598882D-07  0.31859499451207D-07
 0.63895000000000D+02  0.49443284160876D-07  0.48482367281318D-07  0.47025466000275D-07  0.45168791632003D-07  0.43033791060931D-07  0.40761048365485D-07  0.38503007866992D-07  0.36415918338403D-07  0.34651440959500D-07  0.33348380415055D-07
 0.63995000000000D+02  0.50725457412376D-07  0.50458468879883D-07  0.49608443524227D-07  0.48236526969836D-07  0.46434848467479D-07  0.44322133105563D-07  0.42037740584807D-07  0.39734455073331D-07  0.37570422208485D-07  0.35700676171943D-07
 0.64095000000000D+02  0.51212847410579D-07  0.51704942751622D-07  0.51569849711427D-07  0.50828931099401D-07  0.49538079973633D-07  0.47785395972589D-07  0.45687001232509D-07  0.43381216984293D-07  0.41021418071362D-07  0.38767957734357D-07
 0.64195000000000D+02  0.50871672785729D-07  0.52137473560657D-07  0.52778059815351D-07  0.52772997232324D-07  0.52137444202403D-07  0.50922103273761D-07  0.49211158998719D-07  0.47118298431056D-07  0.44781024694665D-07  0.42353572967762D-07
 0.64295000000000D+02  0.49723545452860D-07  0.51725938351680D-07  0.53151269880521D-07  0.53938173556857D-07  0.54059348675552D-07  0.53523834258966D-07  0.52377266160057D-07  0.50700076584062D-07  0.48603718795102D-07  0.46225115612877D-07
 0.64395000000000D+02  0.47844151548643D-07  0.50496673814623D-07  0.52663315833986D-07  0.54245488472708D-07  0.55174637600097D-07  0.55416716129967D-07  0.54974790091568D-07  0.53889599920478D-07  0.52238020867607D-07  0.50129490235403D-07
 0.64495000000000D+02  0.45358158263182D-07  0.48530822595949D-07  0.51345664371548D-07  0.53673177956170D-07  0.55407631768491D-07  0.56473448510338D-07  0.56830015505435D-07  0.56474618981594D-07  0.55443307436607D-07  0.53809610761077D-07
 0.64595000000000D+02  0.42430699870377D-07  0.45958851996707D-07  0.49285396464262D-07  0.52258369348260D-07  0.54741532312344D-07  0.56622226502396D-07  0.57818076074583D-07  0.58282129848558D-07  0.58006119529415D-07  0.57021621624643D-07
 0.64695000000000D+02  0.39256056424702D-07  0.42951628892491D-07  0.46619304907563D-07  0.50094665375636D-07  0.53219758202526D-07  0.55851880552091D-07  0.57871720874685D-07  0.59190375310048D-07  0.59754813557556D-07  0.59551455388022D-07
 0.64795000000000D+02  0.36044349541665D-07  0.39708696579084D-07  0.43524522706240D-07  0.47325780647538D-07  0.50943087223202D-07  0.54212821600801D-07  0.56986143232478D-07  0.59137408102172D-07  0.60571487660301D-07  0.61229550523737D-07
 0.64895000000000D+02  0.33007222700552D-07  0.36444608844192D-07  0.40206362743396D-07  0.44135683295389D-07  0.48062786724844D-07  0.51813690617159D-07  0.55219482554598D-07  0.58125556590136D-07  0.60400290006386D-07  0.61942653284602D-07
 0.64995000000000D+02  0.30343536865641D-07  0.33374315387422D-07  0.36884257306363D-07  0.40735959791127D-07  0.44770225960369D-07  0.48813936483075D-07  0.52688931428532D-07  0.56221429473595D-07  0.59251466039571D-07  0.61641815872248D-07
 0.65095000000000D+02  0.28226092406787D-07  0.30698649586525D-07  0.33776820375278D-07  0.37351327335221D-07  0.41283728638260D-07  0.45412856625091D-07  0.49562713456225D-07  0.53551429076474D-07  0.57200811438447D-07  0.60345968639450D-07
 0.65195000000000D+02  0.26790290103787D-07  0.28590941849264D-07  0.31087105558983D-07  0.34204347570604D-07  0.37833628418063D-07  0.41835902619355D-07  0.46048512260892D-07  0.50293084032380D-07  0.54384541778317D-07  0.58140767597854D-07
 0.65295000000000D+02  0.26125479472880D-07  0.27185675126306D-07  0.28989096370183D-07  0.31500437862281D-07  0.34646613802033D-07  0.38319254136116D-07  0.42379200299417D-07  0.46662831166106D-07  0.50989938814357D-07  0.55172773751704D-07
 0.65395000000000D+02  0.26269529091603D-07  0.26569926525963D-07  0.27616349879532D-07  0.29414231100823D-07  0.31930483096002D-07  0.35093781834078D-07  0.38796913421838D-07  0.42901144078395D-07  0.47242455563641D-07  0.51639376807139D-07
 0.65495000000000D+02  0.27206911245533D-07  0.26778118440472D-07  0.27053533551343D-07  0.28078209694993D-07  0.29860374951698D-07  0.32369544859024D-07  0.35536626883178D-07  0.39256098391023D-07  0.43390228584489D-07  0.47775200430452D-07
 0.65595000000000D+02  0.28870342758406D-07  0.27790354887851D-07  0.27331367081804D-07  0.27574348974396D-07  0.28567404324689D-07  0.30321902675186D-07  0.32810403368843D-07  0.35966564785412D-07  0.39687132293402D-07  0.43835989837728D-07
 0.65695000000000D+02  0.31145784344477D-07  0.29534364800519D-07  0.28425227567545D-07  0.27929269263330D-07  0.28130433382506D-07  0.29080174107380D-07  0.30793405971036D-07  0.33246224568238D-07  0.36375601576884D-07  0.40081161707241D-07
 0.65795000000000D+02  0.33880388155984D-07  0.31890832784094D-07  0.30257418471800D-07  0.29113136174285D-07  0.28571462439796D-07  0.28719565679217D-07  0.29612610252942D-07  0.31269512247027D-07  0.33670440226017D-07  0.36756276872787D-07
 0.65895000000000D+02  0.36892809342452D-07  0.34701685146161D-07  0.32702859650020D-07  0.31042286590272D-07  0.29854859685402D-07  0.29256837914896D-07  0.29338927674108D-07  0.30160418127349D-07  0.31744728964565D-07  0.34076674158871D-07
 0.65995000000000D+02  0.39985170157088D-07  0.37780726406363D-07  0.35597742676412D-07  0.33585312375211D-07  0.31890381930162D-07  0.30649905079542D-07  0.29983189911969D-07  0.29984850533174D-07  0.30718762074486D-07  0.32213385658987D-07
 0.66095000000000D+02  0.42955888252066D-07  0.40925896475920D-07  0.38750524235945D-07  0.36572120411619D-07  0.34539690845248D-07  0.32801292729254D-07  0.31496163391042D-07  0.30746984964733D-07  0.30652696319264D-07  0.31282255191702D-07
 0.66195000000000D+02  0.45612554683005D-07  0.43932344737814D-07  0.41954507518241D-07  0.39805317180940D-07  0.37625855320601D-07  0.35565127395189D-07  0.33772487696645D-07  0.32389740252382D-07  0.31543313948890D-07  0.31336924267519D-07
 0.66295000000000D+02  0.47784069390220D-07  0.46605494493600D-07  0.45001190567291D-07  0.43073145554869D-07  0.40945161414769D-07  0.38757118656884D-07  0.36658179408707D-07  0.34799241788585D-07  0.33325007432412D-07  0.32366058421929D-07
 0.66395000000000D+02  0.49331307994202D-07  0.48773297071010D-07  0.47693541274016D-07  0.46163133646051D-07  0.44280433336960D-07  0.42166826208361D-07  0.39961128911291D-07  0.37812878022369D-07  0.35874809578083D-07  0.34294886041675D-07
 0.66495000000000D+02  0.50155697517147D-07  0.50296944623387D-07  0.49858388351033D-07  0.48875600082247D-07  0.47415004571846D-07  0.45571389377783D-07  0.43463852001499D-07  0.41230342956244D-07  0.39021037510467D-07  0.36990834272300D-07
 0.66595000000000D+02  0.50205212904521D-07  0.51079418081603D-07  0.51357191367336D-07  0.51036193914001D-07  0.50146466961509D-07  0.48749836164057D-07  0.46937646348689D-07  0.44826894092561D-07  0.42554906613296D-07  0.40272790674437D-07
 0.66695000000000D+02  0.49477463032581D-07  0.51071384548517D-07  0.52094564414123D-07  0.52506725543371D-07  0.52299364065483D-07  0.51497082242835D-07  0.50157246919437D-07  0.48367947436076D-07  0.46244310287155D-07  0.43923308639873D-07
 0.66795000000000D+02  0.48019705891974D-07  0.50274118645507D-07  0.52024069830026D-07  0.53193661103367D-07  0.53736078244491D-07  0.53636774092118D-07  0.52915073112341D-07  0.51624080266915D-07  0.49848858073269D-07  0.47702917990426D-07
 0.66895000000000D+02  0.45925809310231D-07  0.48739296494834D-07  0.51150962526785D-07  0.53053799108172D-07  0.54365282028663D-07  0.55032219001505D-07  0.55034209794854D-07  0.54385516844804D-07  0.53135219446620D-07  0.51365604055428D-07
 0.66995000000000D+02  0.43330347450980D-07  0.46565690535287D-07  0.49531743282413D-07  0.52096816699757D-07  0.54147475770047D-07  0.55594771446701D-07  0.56379359079532D-07  0.56475227959831D-07  0.55891831419807D-07  0.54674479516282D-07
 0.67095000000000D+02  0.40400186209468D-07  0.43892969651675D-07  0.47270562172860D-07  0.50384554759099D-07  0.53097306955958D-07  0.55289202289624D-07  0.56865132499834D-07  0.57759876435890D-07  0.57942090688415D-07  0.57416691084601D-07
 0.67195000000000D+02  0.37324054796816D-07  0.40892973841865D-07  0.44512692392938D-07  0.48027097647149D-07  0.51282553034667D-07  0.54135755940878D-07  0.56461216205009D-07  0.58157980074172D-07  0.59155259252564D-07  0.59416672991049D-07
 0.67295000000000D+02  0.34300719244840D-07  0.37758978016134D-07  0.41435461625306D-07  0.45175885533525D-07  0.48819840124124D-07  0.52208791971297D-07  0.55194126127197D-07  0.57644832837603D-07  0.59454458779716D-07  0.60546974890508D-07
 0.67395000000000D+02  0.31526460152354D-07  0.34693578387830D-07  0.38237174884137D-07  0.42014266553242D-07  0.45867355502668D-07  0.49632102438196D-07  0.53145466554192D-07  0.56253915343790D-07  0.58821304939978D-07  0.60736045393055D-07
 0.67495000000000D+02  0.29182606746470D-07  0.31895921060194D-07  0.35124682127835D-07  0.38746044283506D-07  0.42614983537438D-07  0.46571185172466D-07  0.50446804717663D-07  0.54074727508143D-07  0.57296929337731D-07  0.59972535274178D-07
 0.67595000000000D+02  0.27423888625039D-07  0.29549040787743D-07  0.32300329588426D-07  0.35582695859778D-07  0.39272444409947D-07  0.43222927490092D-07  0.47271466449481D-07  0.51247179792668D-07  0.54979343806842D-07  0.58305887051322D-07
 0.67695000000000D+02  0.26368333357348D-07  0.27808084838397D-07  0.29949080580549D-07  0.32730021033308D-07  0.36056135117489D-07  0.39803305798694D-07  0.43823734514049D-07  0.47952875331385D-07  0.52017309838846D-07  0.55843190123511D-07
 0.67795000000000D+02  0.26089362269750D-07  0.26790160402078D-07  0.28226595852125D-07  0.30375027422855D-07  0.33175456242924D-07  0.36533826699873D-07  0.40326083280313D-07  0.44403793876733D-07  0.48601074924926D-07  0.52742492934878D-07
 0.67895000000000D+02  0.26610620120580D-07  0.26566463982004D-07  0.27249023351359D-07  0.28673858440869D-07  0.30819450651565D-07  0.33627517828240D-07  0.37005203159359D-07  0.40829041271500D-07  0.44950518082918D-07  0.49202965580634D-07
 0.67995000000000D+02  0.27903921125682D-07  0.27157229703431D-07  0.27085162609031D-07  0.27741525959656D-07  0.29144577907834D-07  0.31275316538295D-07  0.34077649010096D-07  0.37460447087259D-07  0.41301399888057D-07  0.45452488213494D-07
 0.68095000000000D+02  0.29890510468799D-07  0.28529874853983D-07  0.27751541983159D-07  0.27644119850084D-07  0.28264398963007D-07  0.29633697994875D-07  0.31735983209907D-07  0.34517871429904D-07  0.37890529918533D-07  0.41733393468492D-07
 0.68195000000000D+02  0.32445635957618D-07  0.30600532063084D-07  0.29210782413723D-07  0.28394033494136D-07  0.28241849829799D-07  0.28814329504643D-07  0.30136272698544D-07  0.32195114405145D-07  0.34940739870290D-07  0.38287206807721D-07
 0.68295000000000D+02  0.35406210064101D-07  0.33238947637978D-07  0.31373426257034D-07  0.29948573165891D-07  0.29084643194472D-07  0.28876435517828D-07  0.29387738433208D-07  0.30647304845634D-07  0.32646578431360D-07  0.35339300382054D-07
 0.68395000000000D+02  0.38581131329369D-07  0.36276506315924D-07  0.34103193922545D-07  0.32212117340326D-07  0.30744158480621D-07  0.29822410580268D-07  0.29545246042787D-07  0.29980577200788D-07  0.31161620934451D-07  0.33084398516718D-07
 0.68495000000000D+02  0.41763640455494D-07  0.39516927624202D-07  0.37225406495744D-07  0.35041769686680D-07  0.33117971739365D-07  0.31597031261220D-07  0.30605171313836D-07  0.30244727950717D-07  0.30588211610455D-07  0.31673843001255D-07
 0.68595000000000D+02  0.44744925248653D-07  0.42748983033444D-07  0.40538093342238D-07  0.38256219312917D-07  0.36055947554202D-07  0.34090401156186D-07  0.32504979536107D-07  0.31429379168128D-07  0.30970330223922D-07  0.31205443032240D-07
 0.68695000000000D+02  0.47328074156654D-07  0.45760421423010D-07  0.43825105190410D-07  0.41647298315153D-07  0.39369579038525D-07  0.37144526658307D-07  0.35126632622462D-07  0.33463973436078D-07  0.32290102034819D-07  0.31716599547471D-07
 0.68795000000000D+02  0.49341422692049D-07  0.48352177552875D-07  0.46870391061259D-07  0.44993525688039D-07  0.42844034090938D-07  0.40563179010900D-07  0.38303694065137D-07  0.36221690724628D-07  0.34468257424063D-07  0.33181211305609D-07
 0.68895000000000D+02  0.50650349328578D-07  0.50351886587504D-07  0.49472486431504D-07  0.48074764262372D-07  0.46252162713695D-07  0.44124465901868D-07  0.41831753514428D-07  0.39527126415995D-07  0.37368605220154D-07  0.35510647976374D-07
 0.68995000000000D+02  0.51166661432335D-07  0.51625745908157D-07  0.51458212602696D-07  0.50687008604801D-07  0.49369557908782D-07  0.47595330427863D-07  0.45481556377373D-07  0.43167315403032D-07  0.40806324795091D-07  0.38558824413686D-07
 0.69095000000000D+02  0.50854865392319D-07  0.52087857052999D-07  0.52694611926256D-07  0.52656279233052D-07  0.51989656754908D-07  0.50747033577530D-07  0.49014016762742D-07  0.46905447000428D-07  0.44559621978409D-07  0.42131143882383D-07
 0.69195000000000D+02  0.49734829705697D-07  0.51706342993605D-07  0.53098243470094D-07  0.53850630405439D-07  0.53937831264559D-07  0.53370574007558D-07  0.52196131688003D-07  0.50496407269946D-07  0.48384050326277D-07  0.45996812593620D-07
 0.69295000000000D+02  0.47880610221966D-07  0.50505759649960D-07  0.52641135600874D-07  0.54189387839719D-07  0.55083458622039D-07  0.55290968331294D-07  0.54816716466250D-07  0.53703126999157D-07  0.52028590772681D-07  0.49903781656672D-07
 0.69395000000000D+02  0.45415492412803D-07  0.48565589512905D-07  0.51352925484791D-07  0.53648914964122D-07  0.55349079579782D-07  0.56379364202552D-07  0.56700858060562D-07  0.56312620899292D-07  0.55252427263279D-07  0.53595364475216D-07
 0.69495000000000D+02  0.42503592093051D-07  0.46014897910579D-07  0.49318993636585D-07  0.52264450440826D-07  0.54715947284988D-07  0.56562088708437D-07  0.57722042345175D-07  0.58150588924465D-07  0.57841269645419D-07  0.56827426094956D-07
 0.69595000000000D+02  0.39338618028540D-07  0.43023523704838D-07  0.46674701810901D-07  0.50127847620266D-07  0.53225524324523D-07  0.55825940220455D-07  0.57811053490680D-07  0.59093520911914D-07  0.59622069974783D-07  0.59384962101561D-07
 0.69695000000000D+02  0.36130613673334D-07  0.39790440044035D-07  0.43596138770637D-07  0.47381354674616D-07  0.50976784060296D-07  0.54219299470565D-07  0.56960962325741D-07  0.59077401038496D-07  0.60475060891757D-07  0.61096890195675D-07
 0.69795000000000D+02  0.33091641850561D-07  0.36530133378671D-07  0.40288044229638D-07  0.44207875579774D-07  0.48119488664587D-07  0.51848944745120D-07  0.55227800882707D-07  0.58102341010725D-07  0.60342213949297D-07  0.61847973270449D-07
 0.69895000000000D+02  0.30421443387341D-07  0.33457991425984D-07  0.36969792512405D-07  0.40818419741893D-07  0.44843922906183D-07  0.48872780851882D-07  0.52726840643823D-07  0.56232764512411D-07  0.59231462664668D-07  0.61586976807066D-07
 0.69995000000000D+02  0.28294084597473D-07  0.30775751558322D-07  0.33860455582860D-07  0.37437657690306D-07  0.41367831991196D-07  0.45489003238759D-07  0.49624725196915D-07  0.53593097104941D-07  0.57216342292786D-07  0.60330425314903D-07
 0.70095000000000D+02  0.26846513477393D-07  0.28658037062737D-07  0.31164019071035D-07  0.34288633531496D-07  0.37921519290060D-07  0.41922489088083D-07  0.46128024481486D-07  0.50359257212893D-07  0.54431041351401D-07  0.58161643590092D-07
 0.70195000000000D+02  0.26169782275715D-07  0.27240905214949D-07  0.29055792507173D-07  0.31577731435396D-07  0.34732187560938D-07  0.38409411964410D-07  0.42469048809965D-07  0.46746564516135D-07  0.51061209233779D-07  0.55225122777741D-07
 0.70295000000000D+02  0.26303481875457D-07  0.26613160774006D-07  0.27670942479376D-07  0.29480951967742D-07  0.32008645696256D-07  0.35181198042300D-07  0.38889961969815D-07  0.42994952810576D-07  0.47331188429408D-07  0.51716607835333D-07
 0.70395000000000D+02  0.27233691378072D-07  0.26810969248685D-07  0.27095898454825D-07  0.28132431953125D-07  0.29927451738379D-07  0.32448971291864D-07  0.35626346842468D-07  0.39352570869616D-07  0.43488609366767D-07  0.47869629790969D-07
 0.70495000000000D+02  0.28894495161533D-07  0.27816056809728D-07  0.27363154237844D-07  0.27615953336553D-07  0.28621430404084D-07  0.30389573012075D-07  0.32891396250907D-07  0.36058960549354D-07  0.39787476571734D-07  0.43939473322343D-07
 0.70595000000000D+02  0.31172878719369D-07  0.29557529024231D-07  0.28449734703153D-07  0.27959951707222D-07  0.28171305252057D-07  0.29134097429315D-07  0.30861828117570D-07  0.33329009512381D-07  0.36470970957788D-07  0.40185753852213D-07
 0.70695000000000D+02  0.33916599911043D-07  0.31917097880070D-07  0.30279338788512D-07  0.29136275521984D-07  0.28600942263581D-07  0.28759676442698D-07  0.29666468391279D-07  0.31338789736378D-07  0.33755188972898D-07  0.36854863697261D-07
 0.70795000000000D+02  0.36944456053796D-07  0.34737291793410D-07  0.32727924967419D-07  0.31062684122453D-07  0.29876435305232D-07  0.29284994205438D-07  0.29378225449419D-07  0.30214224669113D-07  0.31814939650072D-07  0.34163529446043D-07
 0.70895000000000D+02  0.40058237545242D-07  0.37832048336445D-07  0.35632290308286D-07  0.33608825590245D-07  0.31908996465155D-07  0.30669738966150D-07  0.30009917891062D-07  0.30023296533680D-07  0.30772538982921D-07  0.32284608784738D-07
 0.70995000000000D+02  0.43055579422570D-07  0.40998961931993D-07  0.38801020354862D-07  0.36605219903457D-07  0.34561364807835D-07  0.32817927463505D-07  0.31514137246877D-07  0.30772233858328D-07  0.30690297721931D-07  0.31336059521374D-07
 0.71095000000000D+02  0.45742893963839D-07  0.44032382417612D-07  0.42027061752785D-07  0.39854600045305D-07  0.37657231055541D-07  0.35584785355812D-07  0.33787050374740D-07  0.32405831777664D-07  0.31567117523399D-07  0.31373758043315D-07
 0.71195000000000D+02  0.47947587816124D-07  0.46736535446916D-07  0.45101096172080D-07  0.43144840664835D-07  0.40993004076606D-07  0.38786650837441D-07  0.36675792316420D-07  0.34811776447270D-07  0.33339315855247D-07  0.32388553596961D-07
 0.71295000000000D+02  0.49528831710336D-07  0.48937859666563D-07  0.47824872637973D-07  0.46262633662585D-07  0.44351124495954D-07  0.42213198422663D-07  0.39988884076835D-07  0.37828589066922D-07  0.35885514733391D-07  0.34307643529567D-07
 0.71395000000000D+02  0.50386253508312D-07  0.50495823858336D-07  0.50023683177856D-07  0.49007052408936D-07  0.47514063982978D-07  0.45641162162281D-07  0.43508941477643D-07  0.41256589147672D-07  0.39035171117612D-07  0.37000065623589D-07
 0.71495000000000D+02  0.50466058918743D-07  0.51311593582080D-07  0.51557238943733D-07  0.51202178282963D-07  0.50278135276335D-07  0.48848674701223D-07  0.47006826846804D-07  0.44871110722063D-07  0.42580111931606D-07  0.40285845568130D-07
 0.71595000000000D+02  0.49764240771648D-07  0.51334054014650D-07  0.52328314376216D-07  0.52708039900917D-07  0.52466274629102D-07  0.51629329749965D-07  0.50256336875351D-07  0.48437094688984D-07  0.46288273699079D-07  0.43948124359647D-07
 0.71695000000000D+02  0.48326708883718D-07  0.50562855639658D-07  0.52288668157330D-07  0.53429230348511D-07  0.53939039970396D-07  0.53805117335648D-07  0.53048516348031D-07  0.51724127058697D-07  0.49918740768940D-07  0.47747431050493D-07
 0.71795000000000D+02  0.46246349731020D-07  0.49048323753352D-07  0.51441913545456D-07  0.53320713435183D-07  0.54603188082961D-07  0.55237468280896D-07  0.55204734973291D-07  0.54520995026708D-07  0.53237128281123D-07  0.51437165360891D-07
 0.71895000000000D+02  0.43657199875306D-07  0.46888252777029D-07  0.49843188642635D-07  0.52390498217848D-07  0.54417344835954D-07  0.55835769947189D-07  0.56587757630601D-07  0.56648886605833D-07  0.56030364549592D-07  0.54779313049590D-07
 0.71995000000000D+02  0.40726081134117D-07  0.44221783507806D-07  0.47595660458240D-07  0.50699043109127D-07  0.53394455603553D-07  0.55562871546695D-07  0.57110170030787D-07  0.57972459164595D-07  0.58119988152535D-07  0.57559432375655D-07
 0.72095000000000D+02  0.37642191085704D-07  0.41220727353819D-07  0.44844076575858D-07  0.48355437891897D-07  0.51600889596236D-07  0.54437275710878D-07  0.56739684022656D-07  0.58408140442765D-07  0.59373181636018D-07  0.59600017900225D-07
 0.72195000000000D+02  0.34605262584866D-07  0.38078848414335D-07  0.41765746322045D-07  0.45510595026315D-07  0.49152262865048D-07  0.52531904476879D-07  0.55501030818915D-07  0.57929194200736D-07  0.59710908900516D-07  0.60771461907721D-07
 0.72295000000000D+02  0.31812994362138D-07  0.34999734797165D-07  0.38559481568185D-07  0.42347852120132D-07  0.46206231153384D-07  0.49969523156811D-07  0.53474347025406D-07  0.56567272636354D-07  0.59112698578407D-07  0.60999986160285D-07
 0.72395000000000D+02  0.29448506434953D-07  0.32183978547412D-07  0.35433148362055D-07  0.39071537178769D-07  0.42952676755955D-07  0.46915095443907D-07  0.50790158078531D-07  0.54410379623130D-07  0.57617811824074D-07  0.60272098822657D-07
 0.72495000000000D+02  0.27668585276347D-07  0.29816433872731D-07  0.32590568112599D-07  0.35894169815845D-07  0.39601864780299D-07  0.43565518590027D-07  0.47621257078269D-07  0.51597373010312D-07  0.55322740251466D-07  0.58635333767615D-07
 0.72595000000000D+02  0.26593452355975D-07  0.28054332259933D-07  0.30218555848162D-07  0.33023058509418D-07  0.36371266111782D-07  0.40137340075344D-07  0.44171954866767D-07  0.48309331021510D-07  0.52375188365770D-07  0.56195242182774D-07
 0.72695000000000D+02  0.26298715512199D-07  0.27016998493843D-07  0.28474889377152D-07  0.30647100975579D-07  0.33471830376794D-07  0.36853179166436D-07  0.40665330894120D-07  0.44758287822998D-07  0.48964894878578D-07  0.53108819318625D-07
 0.72795000000000D+02  0.26810047415114D-07  0.26777833309189D-07  0.27477964937042D-07  0.28924598025389D-07  0.31094536965112D-07  0.33927661446841D-07  0.37329236087989D-07  0.41173997794311D-07  0.45311829210278D-07  0.49574752265834D-07
 0.72895000000000D+02  0.28100983176489D-07  0.27359108355668D-07  0.27298812015147D-07  0.27972848857227D-07  0.29398051939301D-07  0.31553716447506D-07  0.34381881843996D-07  0.37789508958345D-07  0.41652454305946D-07  0.45821058084616D-07
 0.72995000000000D+02  0.30094046376789D-07  0.28729961589698D-07  0.27956014558110D-07  0.27860207627443D-07  0.28498271481721D-07  0.29890084155421D-07  0.32017888001171D-07  0.34826406593721D-07  0.38224866553585D-07  0.42090836325232D-07
 0.73095000000000D+02  0.32665208243962D-07  0.30807792839050D-07  0.29413922261545D-07  0.28601149635551D-07  0.28460438572993D-07  0.29050823592685D-07  0.30395653563050D-07  0.32480622882192D-07  0.35253701229948D-07  0.38626977820434D-07
 0.73195000000000D+02  0.35651469545789D-07  0.33463049312361D-07  0.31584341092837D-07  0.30154725349497D-07  0.29294381396362D-07  0.29097516186086D-07  0.29626855257933D-07  0.30909693919177D-07  0.32935722160408D-07  0.35656745709883D-07
 0.73295000000000D+02  0.38861142008492D-07  0.36527170772562D-07  0.34331676245870D-07  0.32426579200369D-07  0.30953244642846D-07  0.30034711103664D-07  0.29768771374893D-07  0.30222279989791D-07  0.31426993656512D-07  0.33377169680563D-07
 0.73395000000000D+02  0.42086210184188D-07  0.39803247468362D-07  0.37481275343556D-07  0.35274487638551D-07  0.33335876287055D-07  0.31808974614065D-07  0.30819974798848D-07  0.30470649520860D-07  0.30832459943761D-07  0.31942167010486D-07
 0.73495000000000D+02  0.45115990621738D-07  0.43078745594248D-07  0.40830498884727D-07  0.38517139853130D-07  0.36292803047866D-07  0.34311689120850D-07  0.32719745707101D-07  0.31646665054865D-07  0.31198633348630D-07  0.31452223082038D-07
 0.73595000000000D+02  0.47751187326420D-07  0.46139490374190D-07  0.44161844021407D-07  0.41945659328796D-07  0.39635490671650D-07  0.37385510904748D-07  0.35351329777936D-07  0.33681607320800D-07  0.32509921373703D-07  0.31947331063749D-07
 0.73695000000000D+02  0.49817383278510D-07  0.48783980489888D-07  0.47257282505154D-07  0.45337160895939D-07  0.43148355451250D-07  0.40834152380959D-07  0.38548923638779D-07  0.36449940339756D-07  0.34688911318466D-07  0.33403709785511D-07
 0.73795000000000D+02  0.51177016295855D-07  0.50837052067504D-07  0.49912858994009D-07  0.48469472297909D-07  0.46602787391500D-07  0.44434920504491D-07  0.42108019868224D-07  0.39776868748829D-07  0.37600689224165D-07  0.35734597857697D-07
 0.73895000000000D+02  0.51738968054106D-07  0.52161924773361D-07  0.51952544534380D-07  0.51136036775723D-07  0.49772279761330D-07  0.47953234744058D-07  0.45798505429555D-07  0.43449283016978D-07  0.41061010525156D-07  0.38795171351819D-07
 0.73995000000000D+02  0.51465045951298D-07  0.52669750688787D-07  0.53240360772001D-07  0.53159966507666D-07  0.52447649928085D-07  0.51158182834254D-07  0.49379697410712D-07  0.47229445851599D-07  0.44847878400845D-07  0.42391365430018D-07
 0.74095000000000D+02  0.50372850434341D-07  0.52325946280396D-07  0.53689886853290D-07  0.54406244617772D-07  0.54451295156246D-07  0.53838066053644D-07  0.52616335836627D-07  0.50870561858779D-07  0.48715839964215D-07  0.46292113385972D-07
 0.74195000000000D+02  0.48534780544821D-07  0.51152809873580D-07  0.53270430147010D-07  0.54791178984579D-07  0.55649462927687D-07  0.55814850876422D-07  0.55294451071746D-07  0.54133210281779D-07  0.52412098635539D-07  0.50244267794523D-07
 0.74295000000000D+02  0.46073217298330D-07  0.49228195801258D-07  0.52009373900692D-07  0.54288390612235D-07  0.55961630885966D-07  0.56956488679500D-07  0.57235995710867D-07  0.56801523545455D-07  0.55693381558505D-07  0.53989256918338D-07
 0.74395000000000D+02  0.43152213753258D-07  0.46680310407111D-07  0.49990492980678D-07  0.52930861980697D-07  0.55366282290842D-07  0.57186191736895D-07  0.58311185677346D-07  0.58697975035579D-07  0.58342409987920D-07  0.57280373737545D-07
 0.74495000000000D+02  0.39966286608763D-07  0.43678989181811D-07  0.47348330500251D-07  0.50808858735193D-07  0.53902616971808D-07  0.56487956671050D-07  0.58447633799764D-07  0.59695705408835D-07  0.60182810683553D-07  0.59899511279150D-07
 0.74595000000000D+02  0.36727122873390D-07  0.40424082290905D-07  0.44259027405633D-07  0.48063847818319D-07  0.51668036208392D-07  0.54907892816691D-07  0.57635575101011D-07  0.59727468264199D-07  0.61091384314022D-07  0.61672158527057D-07
 0.74695000000000D+02  0.33649167038091D-07  0.37131793370305D-07  0.40928267166550D-07  0.44878839780491D-07  0.48811558131824D-07  0.52551222379047D-07  0.55928762155536D-07  0.58790505796930D-07  0.61006812321081D-07  0.62479562286745D-07
 0.74795000000000D+02  0.30935126576300D-07  0.34019964363775D-07  0.37577214150289D-07  0.41465855131219D-07  0.45523630296593D-07  0.49575146053750D-07  0.53440929644597D-07  0.56946957548878D-07  0.59934128013993D-07  0.62267140581951D-07
 0.74895000000000D+02  0.28762422008975D-07  0.31293365199234D-07  0.34427467890657D-07  0.38051429565758D-07  0.42023080022915D-07  0.46178083130025D-07  0.50338062668517D-07  0.54319737691820D-07  0.57944583916752D-07  0.61048492582995D-07
 0.74995000000000D+02  0.27271516179981D-07  0.29130027585992D-07  0.31686114719353D-07  0.34861211808893D-07  0.38542156155081D-07  0.42586070457358D-07  0.46827023714433D-07  0.51084160190890D-07  0.55170891287355D-07  0.58904670308528D-07
 0.75095000000000D+02  0.26556897236208D-07  0.27669562072567D-07  0.29531930304416D-07  0.32104759723536D-07  0.35310749412179D-07  0.39037315107111D-07  0.43141369323649D-07  0.47455916006224D-07  0.51798159764822D-07  0.55978732655269D-07
 0.75195000000000D+02  0.26661278150262D-07  0.27004229108663D-07  0.28103677437886D-07  0.29961603356642D-07  0.32540922306524D-07  0.35766022885818D-07  0.39525394510633D-07  0.43676282615321D-07  0.48051193680110D-07  0.52465961934243D-07
 0.75295000000000D+02  0.27573332711165D-07  0.27173316029908D-07  0.27491266268336D-07  0.28569524686242D-07  0.30412832792555D-07  0.32986659644620D-07  0.36217563120116D-07  0.39995648691818D-07  0.44179076696364D-07  0.48600454572879D-07
 0.75395000000000D+02  0.29229034703501D-07  0.28161123408979D-07  0.27730317705601D-07  0.28015817334760D-07  0.29063006449880D-07  0.30879744791999D-07  0.33434507072545D-07  0.36656548618567D-07  0.40438173406141D-07  0.44639070670553D-07
 0.75495000000000D+02  0.31516423009231D-07  0.29898607310458D-07  0.28800416258657D-07  0.28332054875381D-07  0.28575715501666D-07  0.29580135812462D-07  0.31356708243914D-07  0.33877415177778D-07  0.37074778889398D-07  0.40843917246098D-07
 0.75595000000000D+02  0.34283397070252D-07  0.32268478163429D-07  0.30627077586350D-07  0.29492635466247D-07  0.28977979634222D-07  0.29168555437906D-07  0.30116824081795D-07  0.31838176942854D-07  0.34308648712391D-07  0.37464631723929D-07
 0.75695000000000D+02  0.37347967060900D-07  0.35113338508260D-07  0.33087208068782D-07  0.31417105156291D-07  0.30238435877630D-07  0.29666860609877D-07  0.29791399652703D-07  0.30668661467867D-07  0.32318546509978D-07  0.34721720431486D-07
 0.75795000000000D+02  0.40510249515105D-07  0.38246262996880D-07  0.36017614846562D-07  0.33976011853057D-07  0.32270054757891D-07  0.31037277554474D-07  0.30396446753011D-07  0.30440535210143D-07  0.31230767424680D-07  0.32792097195456D-07
 0.75895000000000D+02  0.43565416269827D-07  0.41463092664619D-07  0.39225946947275D-07  0.36999822548088D-07  0.34936427079917D-07  0.33185552457466D-07  0.31887088618312D-07  0.31163239249928D-07  0.31111353382469D-07  0.31797774274220D-07
 0.75995000000000D+02  0.46316773128926D-07  0.44555635560059D-07  0.42503318926983D-07  0.40290259587715D-07  0.38061125778378D-07  0.35967711903982D-07  0.34161189165332D-07  0.32784090468152D-07  0.31962434395219D-07  0.31798403197630D-07
 0.76095000000000D+02  0.48588162437554D-07  0.47324937751340D-07  0.45637791498476D-07  0.43633284828228D-07  0.41439471604957D-07  0.39199906953662D-07  0.37066628081540D-07  0.35192433645091D-07  0.33722833496365D-07  0.32788071413608D-07
 0.76195000000000D+02  0.50234946374528D-07  0.49593810135228D-07  0.48427859065279D-07  0.46812886706996D-07  0.44851906935806D-07  0.42670640459579D-07  0.40411662715736D-07  0.38227470349527D-07  0.36272784433739D-07  0.34696457144552D-07
 0.76295000000000D+02  0.51152929166999D-07  0.51217862801015D-07  0.50695119336407D-07  0.49624804492189D-07  0.48078111637262D-07  0.46154555576502D-07  0.43977645265881D-07  0.41689170490419D-07  0.39442350125000D-07  0.37394152528128D-07
 0.76395000000000D+02  0.51284709405734D-07  0.52094403790727D-07  0.52295370548779D-07  0.51889353431724D-07  0.50910978334619D-07  0.49426896951299D-07  0.47533245390783D-07  0.45351502260080D-07  0.43022910785678D-07  0.40701703024936D-07
 0.76495000000000D+02  0.50623110229260D-07  0.52168695670443D-07  0.53127491000016D-07  0.53462589324016D-07  0.53169598543236D-07  0.52277744157318D-07  0.50849266332738D-07  0.48977101675798D-07  0.46780923398057D-07  0.44401693496202D-07
 0.76595000000000D+02  0.49211506942926D-07  0.51437223353570D-07  0.53139596215215D-07  0.54245164768697D-07  0.54710490871192D-07  0.54525156228171D-07  0.53713135917797D-07  0.52332445876611D-07  0.50473044120567D-07  0.48253047649935D-07
 0.76695000000000D+02  0.47141050048867D-07  0.49947801612321D-07  0.52332133010089D-07  0.54188374522141D-07  0.55436421315906D-07  0.56026451380792D-07  0.55942198828820D-07  0.55202593398787D-07  0.53861653777025D-07  0.52006602567185D-07
 0.76795000000000D+02  0.44544958129406D-07  0.47796531995283D-07  0.50757748382583D-07  0.53297055729802D-07  0.55302315901916D-07  0.56686970435930D-07  0.57395027807298D-07  0.57404605974182D-07  0.56729831994936D-07  0.55420974748796D-07
 0.76895000000000D+02  0.41590221248769D-07  0.45121797780418D-07  0.48517955766243D-07  0.51629191616322D-07  0.54317939142535D-07  0.56465828220251D-07  0.57980101968965D-07  0.58798864201686D-07  0.58894883708984D-07  0.58277746469937D-07
 0.76995000000000D+02  0.38467203679542D-07  0.42095653722088D-07  0.45756802926557D-07  0.49292255542015D-07  0.52547199177500D-07  0.55378335792743D-07  0.57661362192966D-07  0.59297626542359D-07  0.60219626572774D-07  0.60395066697719D-07
 0.77095000000000D+02  0.35377757659316D-07  0.38913116746067D-07  0.42651916128288D-07  0.46436517242903D-07  0.50104132831149D-07  0.53494968620640D-07  0.56460337793398D-07  0.58870349246033D-07  0.60620791895355D-07  0.61638873097937D-07
 0.77195000000000D+02  0.32522551267630D-07  0.35779987135971D-07  0.39403446060430D-07  0.43245705856658D-07  0.47145812139524D-07  0.50936952538012D-07  0.54454736146609D-07  0.57545475045794D-07  0.60074066570407D-07  0.61931093041306D-07
 0.77295000000000D+02  0.30088368222504D-07  0.32899920770117D-07  0.36221564978128D-07  0.39925576760292D-07  0.43862589233300D-07  0.47868731151819D-07  0.51773588124942D-07  0.55408601282449D-07  0.58615499882181D-07  0.61254363305530D-07
 0.77395000000000D+02  0.28236151610109D-07  0.30461526377886D-07  0.33313255134428D-07  0.36691053774094D-07  0.40466250436713D-07  0.44487756255459D-07  0.48589237574977D-07  0.52597143825469D-07  0.56339207351470D-07  0.59653010904951D-07
 0.77495000000000D+02  0.27090535040119D-07  0.28626273734808D-07  0.30869180523944D-07  0.33752708338319D-07  0.37176775378145D-07  0.41012198202396D-07  0.45106643426066D-07  0.49291812029131D-07  0.53391513985217D-07  0.57230251226258D-07
 0.77595000000000D+02  0.26731533043507D-07  0.27517966978490D-07  0.29051443360530D-07  0.31303387469264D-07  0.34208486117960D-07  0.37667298271565D-07  0.41550619590381D-07  0.45705392561816D-07  0.49961881492344D-07  0.54141774236348D-07
 0.77695000000000D+02  0.27188949331794D-07  0.27214461454465D-07  0.27982991359058D-07  0.29505808745378D-07  0.31756419348282D-07  0.34671173036974D-07  0.38151762676538D-07  0.42069497377719D-07  0.46271148595665D-07  0.50586094821565D-07
 0.77795000000000D+02  0.28439910702219D-07  0.27742184463287D-07  0.27739361528723D-07  0.28481901101616D-07  0.29983757700595D-07  0.32220926155501D-07  0.35131903815582D-07  0.38620055300342D-07  0.42557771456086D-07  0.46792229501547D-07
 0.77895000000000D+02  0.30409752177904D-07  0.29073864075145D-07  0.28343322747886D-07  0.28304584678221D-07  0.29011112016564D-07  0.30479921921846D-07  0.32689963084384D-07  0.35582410718400D-07  0.39062874259293D-07  0.43005419641324D-07
 0.77995000000000D+02  0.32976274117346D-07  0.31129682369688D-07  0.29762817221044D-07  0.28992553511051D-07  0.28908355097896D-07  0.29567025408513D-07  0.30989079264728D-07  0.33156931248129D-07  0.36015001211084D-07  0.39471742599686D-07
 0.78095000000000D+02  0.35977175525812D-07  0.33781859106339D-07  0.31912406906796D-07  0.30508456090110D-07  0.29689571317684D-07  0.29548516193945D-07  0.30145832123085D-07  0.31506015122149D-07  0.33615495058552D-07  0.36422529987449D-07
 0.78195000000000D+02  0.39220252662370D-07  0.36862450361305D-07  0.34658214611545D-07  0.32760668008474D-07  0.31311510497598D-07  0.30433239220456D-07  0.30222269434880D-07  0.30743326810474D-07  0.32025410135630D-07  0.34059540929975D-07
 0.78295000000000D+02  0.42495752711056D-07  0.40173927538567D-07  0.37826122551703D-07  0.35608627978749D-07  0.33675726300845D-07  0.32171372529798D-07  0.31221299556788D-07  0.30925976616856D-07  0.31354798305149D-07  0.32541814406621D-07
 0.78395000000000D+02  0.45590103836793D-07  0.43501900266944D-07  0.41212767741428D-07  0.38871475793368D-07  0.36634349450701D-07  0.34656975621294D-07  0.33085818193921D-07  0.32050200025608D-07  0.31655084982603D-07  0.31975047091485D-07
 0.78495000000000D+02  0.48300119952301D-07  0.46629177490489D-07  0.44598668934408D-07  0.42339502817721D-07  0.39999207284299D-07  0.37734244885494D-07  0.35701713736537D-07  0.34050891574138D-07  0.32915083376854D-07  0.32404212927109D-07
 0.78595000000000D+02  0.50446713740243D-07  0.49350239409432D-07  0.47762649910303D-07  0.45787718209601D-07  0.43553768520366D-07  0.41207157489872D-07  0.38904650642831D-07  0.36805115154474D-07  0.35060984837040D-07  0.33809962061132D-07
 0.78695000000000D+02  0.51887154383313D-07  0.51485131719982D-07  0.50496603812007D-07  0.48990663562296D-07  0.47067182067130D-07  0.44851947850694D-07  0.42490278938080D-07  0.40139460000141D-07  0.37960421491663D-07  0.36109116966681D-07
 0.78795000000000D+02  0.52524981813859D-07  0.52891802228732D-07  0.52619586015308D-07  0.51737490533771D-07  0.50309507973538D-07  0.48431648374040D-07  0.46227276217106D-07  0.43840853952193D-07  0.41430436942771D-07  0.39159332904627D-07
 0.78895000000000D+02  0.52316835945230D-07  0.53475982814805D-07  0.53990237933362D-07  0.53846263359068D-07  0.53067122985332D-07  0.51711755683926D-07  0.49872414091436D-07  0.47670199781467D-07  0.45248937060148D-07  0.42767721776518D-07
 0.78995000000000D+02  0.51275669490818D-07  0.53197875147961D-07  0.54516635286828D-07  0.55176470084293D-07  0.55157235787404D-07  0.54475971098632D-07  0.53186671443500D-07  0.51377984445416D-07  0.49168943408296D-07  0.46702968968030D-07
 0.79095000000000D+02  0.49470072162472D-07  0.52075117958280D-07  0.54162819339921D-07  0.55638826541190D-07  0.56440476832841D-07  0.56540922878327D-07  0.55951308399958D-07  0.54720843221273D-07  0.52934755153944D-07  0.50710220135056D-07
 0.79195000000000D+02  0.47019722016374D-07  0.50181781616537D-07  0.52951498970747D-07  0.55201632428050D-07  0.56830637810831D-07  0.57768816422986D-07  0.57982780802407D-07  0.57477957143107D-07  0.56298959873334D-07  0.54527798189934D-07
 0.79295000000000D+02  0.44087272178836D-07  0.47643431122961D-07  0.50962688839533D-07  0.53893178996992D-07  0.56300822427663D-07  0.58077079703757D-07  0.59145423475539D-07  0.59466136179538D-07  0.59039136112698D-07  0.57904648778455D-07
 0.79395000000000D+02  0.40867252284264D-07  0.44628596172524D-07  0.48328352127924D-07  0.51799995325767D-07  0.54885521865779D-07  0.57444270020559D-07  0.59360963655454D-07  0.60552500041281D-07  0.60973073792591D-07  0.60617321988793D-07
 0.79495000000000D+02  0.37572789229151D-07  0.41337260317001D-07  0.45223419319084D-07  0.49061031686757D-07  0.52678426449945D-07  0.55911772177973D-07  0.58614137824263D-07  0.60663814522279D-07  0.61971409995767D-07  0.62485291598798D-07
 0.79595000000000D+02  0.34421111139512D-07  0.37987205662269D-07  0.41853830203854D-07  0.45858187164506D-07  0.49826105263503D-07  0.53581127533870D-07  0.56953962178295D-07  0.59791767057515D-07  0.61966737590288D-07  0.63383497648234D-07
 0.79695000000000D+02  0.31618878347064D-07  0.34799205015981D-07  0.38442469771073D-07  0.42403866718794D-07  0.46517999811408D-07  0.50607162485551D-07  0.54490527902655D-07  0.57993755703051D-07  0.60958484539300D-07  0.63251172798302D-07
 0.79795000000000D+02  0.29348380474570D-07  0.31982127033450D-07  0.35214020033142D-07  0.38926475152909D-07  0.42973457993927D-07  0.47187404926257D-07  0.51387530481348D-07  0.55389098500535D-07  0.59013166230247D-07  0.62096268561570D-07
 0.79895000000000D+02  0.27755552777985D-07  0.29719007300977D-07  0.32379816807714D-07  0.35654902302960D-07  0.39426755250599D-07  0.43548559090753D-07  0.47851067561575D-07  0.52150917054908D-07  0.56259957777857D-07  0.59995116184227D-07
 0.79995000000000D+02  0.26940608673993D-07  0.28155043728084D-07  0.30123779475289D-07  0.32803113488888D-07  0.36111191408768D-07  0.39931027483688D-07  0.44115522892785D-07  0.48494278273474D-07  0.52881888603673D-07  0.57087313321895D-07
 0.80095000000000D+02  0.26951875709111D-07  0.27388310024679D-07  0.28590378037072D-07  0.30555929228127D-07  0.33243403494322D-07  0.36572604251406D-07  0.40427568974281D-07  0.44661461539891D-07  0.49103295863729D-07  0.53566190968491D-07
 0.80195000000000D+02  0.27783179333501D-07  0.27463764023820D-07  0.27875428317204D-07  0.29056964739079D-07  0.31008994894503D-07  0.33692507173258D-07  0.37029449721019D-07  0.40905429543332D-07  0.45174455984048D-07  0.49665552666202D-07
 0.80295000000000D+02  0.29374863869212D-07  0.28370878963107D-07  0.28020281317255D-07  0.28399516788840D-07  0.29550457258763D-07  0.31476864857789D-07  0.34142737346246D-07  0.37472701564470D-07  0.41354519210979D-07  0.45643658979482D-07
 0.80395000000000D+02  0.31618292838678D-07  0.30044966976871D-07  0.29009717897331D-07  0.28620952249752D-07  0.28958168397549D-07  0.30066640388954D-07  0.31953695392072D-07  0.34586849897317D-07  0.37893983390207D-07  0.41765629343097D-07
 0.80495000000000D+02  0.34363448214652D-07  0.32372014828212D-07  0.30773596834400D-07  0.29700891270014D-07  0.29265007358891D-07  0.29548768725616D-07  0.30601232353430D-07  0.32433765179069D-07  0.35017952950145D-07  0.38285534213885D-07
 0.80595000000000D+02  0.37429063105200D-07  0.35196629016514D-07  0.33192052773105D-07  0.31563210237410D-07  0.30444859380496D-07  0.29951033698570D-07  0.30168214969542D-07  0.31149676005369D-07  0.32911340593815D-07  0.35429447022058D-07
 0.80695000000000D+02  0.40614583570822D-07  0.38332503471206D-07  0.36103817158660D-07  0.34081635630261D-07  0.32415010829998D-07  0.31240934636240D-07  0.30676649022336D-07  0.30812680885628D-07  0.31706995221596D-07  0.33380622530288D-07
 0.80795000000000D+02  0.43713167266001D-07  0.41574686416401D-07  0.39317052274296D-07  0.37088475756619D-07  0.35042177488903D-07  0.33328515070211D-07  0.32086952153296D-07  0.31438279310938D-07  0.31477499932570D-07  0.32267780075207D-07
 0.80895000000000D+02  0.46524890385482D-07  0.44712837915447D-07  0.42621953993177D-07  0.40385855339998D-07  0.38151684776290D-07  0.36072866560214D-07  0.34301260642528D-07  0.32979097824955D-07  0.32231102493968D-07  0.32157217876520D-07
 0.80995000000000D+02  0.48869348001964D-07  0.47544636782851D-07  0.45804296728070D-07  0.43758685579511D-07  0.41539137504228D-07  0.39291795402487D-07  0.37170450195858D-07  0.35328719590615D-07  0.33911942342334D-07  0.33049192982632D-07
 0.81095000000000D+02  0.50596892039862D-07  0.49888512796563D-07  0.48659064752069D-07  0.46988523303301D-07  0.44983786825365D-07  0.42773960281534D-07  0.40504325290411D-07  0.38329261874555D-07  0.36404446254917D-07  0.34878695904965D-07
 0.81195000000000D+02  0.51597849879403D-07  0.51594943037856D-07  0.51003335169740D-07  0.49867447299775D-07  0.48262726450715D-07  0.46292661746650D-07  0.44084253620868D-07  0.41782120583557D-07  0.39541499027729D-07  0.37520452969514D-07
 0.81295000000000D+02  0.51809197773191D-07  0.52555653662738D-07  0.52687644761858D-07  0.52211105227645D-07  0.51165028845113D-07  0.49620392666834D-07  0.47677398231022D-07  0.45461125180013D-07  0.43115770950927D-07  0.40797722427376D-07
 0.81395000000000D+02  0.51218318937052D-07  0.52710203235191D-07  0.53605179520929D-07  0.53870155919915D-07  0.53504962086759D-07  0.52543242095577D-07  0.51051632560773D-07  0.49127227120118D-07  0.46893410851562D-07  0.44494227173654D-07
 0.81495000000000D+02  0.49863647927555D-07  0.52049582911299D-07  0.53698264605332D-07  0.54739443079782D-07  0.55133504458093D-07  0.54874280139822D-07  0.53990212112800D-07  0.52543782553401D-07  0.50629197670955D-07  0.48368397326378D-07
 0.81595000000000D+02  0.47832182108661D-07  0.50616643758509D-07  0.52961795553418D-07  0.54764379859037D-07  0.55947490124798D-07  0.56465133312079D-07  0.56305317346431D-07  0.55491484270512D-07  0.54082186690709D-07  0.52168985125096D-07
 0.81695000000000D+02  0.45254019028382D-07  0.48503343607562D-07  0.51443430316007D-07  0.53944191374604D-07  0.55895867848227D-07  0.57215081770154D-07  0.57849670338868D-07  0.57782045090000D-07  0.57030887122797D-07  0.55651063910035D-07
 0.81795000000000D+02  0.42294246999282D-07  0.45844986354738D-07  0.49240547152343D-07  0.52331845125482D-07  0.54982727176244D-07  0.57077164030214D-07  0.58525555824900D-07  0.59269829378016D-07  0.59287061821823D-07  0.58591430455903D-07
 0.81895000000000D+02  0.39142667177996D-07  0.42811797074091D-07  0.46494156851569D-07  0.50030688543540D-07  0.53266934079691D-07  0.56060952612959D-07  0.58290737453005D-07  0.59860764077634D-07  0.60707341432817D-07  0.60802491316530D-07
 0.81995000000000D+02  0.36001951702300D-07  0.39598328622082D-07  0.43380130468700D-07  0.47187999555440D-07  0.50858411401887D-07  0.54231856579790D-07  0.57160943718720D-07  0.59518027287253D-07  0.61201986990778D-07  0.62143822873545D-07
 0.82095000000000D+02  0.33074937578018D-07  0.36411322242809D-07  0.40098257623557D-07  0.43985831272198D-07  0.47911289601183D-07  0.51707004703544D-07  0.55208795785000D-07  0.58264202096741D-07  0.60740308407023D-07  0.62530743851090D-07
 0.82195000000000D+02  0.30551814716656D-07  0.33456739521689D-07  0.36859777899037D-07  0.40629687428563D-07  0.44614331141430D-07  0.48647956740954D-07  0.52559251737460D-07  0.56179786578872D-07  0.59352442209856D-07  0.61939419482850D-07
 0.82295000000000D+02  0.28597984838588D-07  0.30926740520237D-07  0.33874122394818D-07  0.37335693324941D-07  0.41179189030503D-07  0.45250670797074D-07  0.49381839192464D-07  0.53398157789942D-07  0.57127400638578D-07  0.60408218855014D-07
 0.82395000000000D+02  0.27343343470434D-07  0.28987399046972D-07  0.31335658599123D-07  0.34317021072892D-07  0.37827188639894D-07  0.41733313435548D-07  0.45880131252817D-07  0.50097288590186D-07  0.54207515743473D-07  0.58035261247400D-07
 0.82495000000000D+02  0.26873669379218D-07  0.27767918382419D-07  0.29411245392703D-07  0.31770382392790D-07  0.34775415242936D-07  0.38322628069641D-07  0.42279080761011D-07  0.46488701534160D-07  0.50779606540253D-07  0.54972303347910D-07
 0.82595000000000D+02  0.27224695939545D-07  0.27352038845908D-07  0.28229373818502D-07  0.29863412993558D-07  0.32222942103005D-07  0.35239669350432D-07  0.38810956575853D-07  0.42804305010253D-07  0.47063384796000D-07  0.51415326828248D-07
 0.82695000000000D+02  0.28379290807174D-07  0.27772213940433D-07  0.27871592788055D-07  0.28723737339701D-07  0.30338041353315D-07  0.32685761118967D-07  0.35700716189552D-07  0.39281885044842D-07  0.43297776534402D-07  0.47592375044501D-07
 0.82795000000000D+02  0.30267989946307D-07  0.29006978329443D-07  0.28366798882287D-07  0.28430421039868D-07  0.29247180057477D-07  0.30829538949479D-07  0.33151695746987D-07  0.36150114652738D-07  0.39725963546947D-07  0.43749349266042D-07
 0.82895000000000D+02  0.32772928038108D-07  0.30981744941195D-07  0.29688809968835D-07  0.29008392094772D-07  0.29026516523848D-07  0.29795893190464D-07  0.31332497407175D-07  0.33613985641157D-07  0.36580034953103D-07  0.40134600450220D-07
 0.82995000000000D+02  0.35734990431002D-07  0.33573058925366D-07  0.31757450175515D-07  0.30426246225146D-07  0.29696479313437D-07  0.29657534681142D-07  0.30365902927709D-07  0.31841561407237D-07  0.34066177512708D-07  0.36983235006066D-07
 0.83095000000000D+02  0.38963794968732D-07  0.36616114261076D-07  0.34443158088171D-07  0.32597652499164D-07  0.31219838151616D-07  0.30429765393468D-07  0.30320541536871D-07  0.30952891590562D-07  0.32351321103251D-07  0.34502086618347D-07
 0.83195000000000D+02  0.42249909648758D-07  0.39915117871779D-07  0.37574902593682D-07  0.35386353190015D-07  0.33503469569340D-07  0.32068855203290D-07  0.31205892300282D-07  0.31011820880018D-07  0.31552090803337D-07  0.32856287309609D-07
 0.83295000000000D+02  0.45378539224680D-07  0.43255880985764D-07  0.40950965388876D-07  0.38614518428122D-07  0.36403790738724D-07  0.34474211717958D-07  0.32971011769133D-07  0.32021267889031D-07  0.31726800085355D-07  0.32158297998397D-07
 0.83395000000000D+02  0.48143785300761D-07  0.46419843695701D-07  0.44351941150533D-07  0.42073986118576D-07  0.39735595379396D-07  0.37494293285066D-07  0.35507155095917D-07  0.33922351728491D-07  0.32871054163500D-07  0.32460132907680D-07
 0.83495000000000D+02  0.50362513212870D-07  0.49198611246895D-07  0.47555131640595D-07  0.45539706611599D-07  0.43283790706669D-07  0.40935969303817D-07  0.38654214289836D-07  0.36597512635900D-07  0.34917324977395D-07  0.33749337167135D-07
 0.83595000000000D+02  0.51886854935977D-07  0.51408012705590D-07  0.50349383947088D-07  0.48784536116983D-07  0.46817320546456D-07  0.44576792258797D-07  0.42210644795195D-07  0.39877520634648D-07  0.37738619103144D-07  0.35949059773311D-07
 0.83695000000000D+02  0.52614445687705D-07  0.52900694151790D-07  0.52549358958325D-07  0.51594398500146D-07  0.50104383784442D-07  0.48179429427188D-07  0.45946307230172D-07  0.43552007277680D-07  0.41156099582343D-07  0.38922314819745D-07
 0.83795000000000D+02  0.52495632254739D-07  0.53576334385877D-07  0.54008223774655D-07  0.53782775333400D-07  0.52927935213541D-07  0.51507326260909D-07  0.49617432417836D-07  0.47382906827838D-07  0.44950257490305D-07  0.42480255761368D-07
 0.83895000000000D+02  0.51537096179885D-07  0.53388720226298D-07  0.54627845711065D-07  0.55203498516176D-07  0.55100401133910D-07  0.54340554269287D-07  0.52982742511306D-07  0.51119972807950D-07  0.48874976425212D-07  0.46394016362857D-07
 0.83995000000000D+02  0.49801590931331D-07  0.52349132860453D-07  0.54365724113855D-07  0.55760912650486D-07  0.56476564185181D-07  0.56490747420110D-07  0.55819645575818D-07  0.54517361884229D-07  0.52673611616123D-07  0.50409415944251D-07
 0.84095000000000D+02  0.47403779215048D-07  0.50525761592714D-07  0.53238120617364D-07  0.55416643257066D-07  0.56963674606380D-07  0.57814061843605D-07  0.57939379039711D-07  0.57350166262750D-07  0.56096033590305D-07  0.54263604748938D-07
 0.84195000000000D+02  0.44502450604400D-07  0.48039155938825D-07  0.51319122912200D-07  0.54192442134210D-07  0.56528025253134D-07  0.58221207168365D-07  0.59200017863295D-07  0.59429741719598D-07  0.58915481215841D-07  0.57702556655344D-07
 0.84295000000000D+02  0.41289674750290D-07  0.45054026403464D-07  0.48735679791575D-07  0.52168865837116D-07  0.55197474536722D-07  0.57683790111230D-07  0.59516388661629D-07  0.60616729560460D-07  0.60944043851538D-07  0.60498218050812D-07
 0.84395000000000D+02  0.37977676809732D-07  0.41767981922135D-07  0.45658950340880D-07  0.49479854513562D-07  0.53059696978504D-07  0.56236470167058D-07  0.58866136371019D-07  0.60830809040529D-07  0.62045655322905D-07  0.62464106679730D-07
 0.84495000000000D+02  0.34784388661339D-07  0.38398022770143D-07  0.42292590462021D-07  0.46303589377340D-07  0.50256261271339D-07  0.53974734162445D-07  0.57291462358040D-07  0.60056436032181D-07  0.62145634487476D-07  0.63468230122058D-07
