%!PS-Adobe-3.0 EPSF-3.0
%%Title: S075h07HO.eps
%%Creator: matplotlib version 2.2.3, http://matplotlib.org/
%%CreationDate: Fri Dec 28 18:23:00 2018
%%Orientation: portrait
%%BoundingBox: 75 223 536 568
%%EndComments
%%BeginProlog
/mpldict 9 dict def
mpldict begin
/m { moveto } bind def
/l { lineto } bind def
/r { rlineto } bind def
/c { curveto } bind def
/cl { closepath } bind def
/box {
m
1 index 0 r
0 exch r
neg 0 r
cl
} bind def
/clipbox {
box
clip
newpath
} bind def
%!PS-Adobe-3.0 Resource-Font
%%Title: DejaVu Sans Oblique
%%Copyright: Copyright (c) 2003 by Bitstream, Inc. All Rights Reserved. Copyright (c) 2006 by Tavmjong Bah. All Rights Reserved. DejaVu changes are in public domain 
%%Creator: Converted from TrueType to type 3 by PPR
25 dict begin
/_d{bind def}bind def
/_m{moveto}_d
/_l{lineto}_d
/_cl{closepath eofill}_d
/_c{curveto}_d
/_sc{7 -1 roll{setcachedevice}{pop pop pop pop pop pop}ifelse}_d
/_e{exec}_d
/FontName /DejaVuSans-Oblique def
/PaintType 0 def
/FontMatrix[.001 0 0 .001 0 0]def
/FontBBox[-1016 -350 1659 1068]def
/FontType 3 def
/Encoding [ /i /r /alpha ] def
/FontInfo 10 dict dup begin
/FamilyName (DejaVu Sans) def
/FullName (DejaVu Sans Oblique) def
/Notice (Copyright (c) 2003 by Bitstream, Inc. All Rights Reserved. Copyright (c) 2006 by Tavmjong Bah. All Rights Reserved. DejaVu changes are in public domain ) def
/Weight (Oblique) def
/Version (Version 2.35) def
/ItalicAngle -11.0 def
/isFixedPitch false def
/UnderlinePosition -130 def
/UnderlineThickness 90 def
end readonly def
/CharStrings 4 dict dup begin
/.notdef 0 def
/i{278 0 35 0 273 760 _sc
183 760 _m
273 760 _l
251 646 _l
161 646 _l
183 760 _l
142 547 _m
232 547 _l
125 0 _l
35 0 _l
142 547 _l
_cl}_d
/r{411 0 35 0 463 560 _sc
446 464 _m
436 468 426 472 414 475 _c
402 477 390 479 377 479 _c
329 479 287 460 251 424 _c
215 388 192 339 180 279 _c
125 0 _l
35 0 _l
142 547 _l
232 547 _l
215 462 _l
238 493 266 517 300 534 _c
333 551 368 560 406 560 _c
415 560 424 559 434 558 _c
444 557 453 555 463 553 _c
446 464 _l
_cl}_d
/alpha{{659 0 55 -11 645 559 _sc
409 254 _m
410 367 _l
410 443 381 482 323 483 _c
279 483 244 465 218 429 _c
184 384 161 332 150 273 _c
136 201 137 148 155 114 _c
173 79 202 62 242 62 _c
285 62 325 96 362 166 _c
409 254 _l
338 559 _m
440 561 490 509 489 404 _c
489 404 514 451 565 547 _c
645 547 _l
487 250 _l
486 144 _l
486 128 490 113 499 100 _c
509 84 519 76 530 76 _c
}_e{573 76 _l
559 0 _l
504 0 _l
473 0 447 13 425 41 _c
415 55 409 76 409 104 _c
387 69 359 37 323 8 _c
305 -5 273 -11 227 -11 _c
151 -10 99 14 71 62 _c
43 112 37 183 55 273 _c
73 369 108 440 158 484 _c
213 533 273 558 338 559 _c
_cl}_e}_d
end readonly def

/BuildGlyph
 {exch begin
 CharStrings exch
 2 copy known not{pop /.notdef}if
 true 3 1 roll get exec
 end}_d

/BuildChar {
 1 index /Encoding get exch get
 1 index /BuildGlyph get exec
}_d

FontName currentdict end definefont pop
%!PS-Adobe-3.0 Resource-Font
%%Title: DejaVu Serif
%%Copyright: Copyright (c) 2003 by Bitstream, Inc. All Rights Reserved. DejaVu changes are in public domain 
%%Creator: Converted from TrueType to type 3 by PPR
25 dict begin
/_d{bind def}bind def
/_m{moveto}_d
/_l{lineto}_d
/_cl{closepath eofill}_d
/_c{curveto}_d
/_sc{7 -1 roll{setcachedevice}{pop pop pop pop pop pop}ifelse}_d
/_e{exec}_d
/FontName /DejaVuSerif def
/PaintType 0 def
/FontMatrix[.001 0 0 .001 0 0]def
/FontBBox[-770 -347 2105 1109]def
/FontType 3 def
/Encoding [ /hyphen /period /zero /one /two /three /four /five /six ] def
/FontInfo 10 dict dup begin
/FamilyName (DejaVu Serif) def
/FullName (DejaVu Serif) def
/Notice (Copyright (c) 2003 by Bitstream, Inc. All Rights Reserved. DejaVu changes are in public domain ) def
/Weight (Book) def
/Version (Version 2.35) def
/ItalicAngle 0.0 def
/isFixedPitch false def
/UnderlinePosition -130 def
/UnderlineThickness 90 def
end readonly def
/CharStrings 10 dict dup begin
/.notdef 0 def
/hyphen{338 0 44 230 294 306 _sc
44 306 _m
294 306 _l
294 230 _l
44 230 _l
44 306 _l
_cl}_d
/period{318 0 94 -13 224 116 _sc
94 51 _m
94 69 100 84 112 97 _c
124 109 140 116 159 116 _c
177 116 192 109 205 97 _c
217 84 224 69 224 51 _c
224 33 217 17 205 5 _c
192 -7 177 -13 159 -13 _c
140 -13 124 -7 112 5 _c
100 17 94 32 94 51 _c
_cl}_d
/zero{636 0 66 -13 570 742 _sc
318 34 _m
368 34 405 61 430 116 _c
454 170 467 253 467 364 _c
467 474 454 557 430 612 _c
405 666 368 694 318 694 _c
268 694 230 666 206 612 _c
181 557 169 474 169 364 _c
169 253 181 170 206 116 _c
230 61 268 34 318 34 _c
318 -13 _m
238 -13 176 20 132 86 _c
88 152 66 244 66 364 _c
66 483 88 576 132 642 _c
176 708 238 742 318 742 _c
397 742 459 708 503 642 _c
547 576 570 483 570 364 _c
570 244 547 152 503 86 _c
459 20 397 -13 318 -13 _c
_cl}_d
/one{636 0 122 0 494 742 _sc
142 0 _m
142 52 _l
269 52 _l
269 658 _l
122 563 _l
122 627 _l
300 742 _l
367 742 _l
367 52 _l
494 52 _l
494 0 _l
142 0 _l
_cl}_d
/two{{636 0 68 0 538 742 _sc
128 555 _m
73 555 _l
73 685 _l
107 703 142 717 178 727 _c
213 737 248 742 282 742 _c
358 742 418 723 462 687 _c
506 650 528 600 528 537 _c
528 465 478 380 378 281 _c
370 273 365 268 361 264 _c
177 80 _l
481 80 _l
481 170 _l
538 170 _l
538 0 _l
68 0 _l
68 53 _l
289 274 _l
337 322 372 367 393 408 _c
414 449 425 492 425 537 _c
}_e{425 586 412 624 386 652 _c
360 680 325 694 281 694 _c
234 694 198 682 173 659 _c
147 636 132 601 128 555 _c
_cl}_e}_d
/three{{636 0 76 -13 562 742 _sc
97 698 _m
135 712 171 723 206 731 _c
241 738 274 742 305 742 _c
376 742 432 726 472 696 _c
512 665 532 622 532 568 _c
532 524 518 487 490 458 _c
462 428 423 408 373 398 _c
433 389 479 367 512 332 _c
545 297 562 252 562 197 _c
562 129 539 77 493 41 _c
447 5 382 -13 296 -13 _c
258 -13 220 -9 184 -1 _c
148 6 112 18 76 35 _c
76 177 _l
}_e{131 177 _l
134 129 150 94 178 70 _c
206 46 246 34 298 34 _c
348 34 387 48 416 77 _c
444 106 459 146 459 196 _c
459 253 444 296 414 326 _c
384 355 341 370 284 370 _c
238 370 _l
238 420 _l
262 420 _l
319 420 362 431 390 455 _c
418 479 433 514 433 562 _c
433 604 421 637 398 660 _c
374 682 341 694 297 694 _c
253 694 218 683 194 662 _c
170 641 156 610 152 570 _c
}_e{97 570 _l
97 698 _l
_cl}_e}_d
/four{636 0 31 0 586 742 _sc
349 247 _m
349 635 _l
100 247 _l
349 247 _l
564 0 _m
232 0 _l
232 52 _l
349 52 _l
349 195 _l
31 195 _l
31 248 _l
350 742 _l
447 742 _l
447 247 _l
586 247 _l
586 195 _l
447 195 _l
447 52 _l
564 52 _l
564 0 _l
_cl}_d
/five{{636 0 85 -13 559 729 _sc
503 729 _m
503 649 _l
169 649 _l
169 440 _l
185 452 205 460 228 466 _c
250 472 276 475 304 475 _c
382 475 444 453 490 409 _c
536 365 559 306 559 231 _c
559 153 536 93 490 51 _c
444 8 379 -13 296 -13 _c
262 -13 228 -9 193 -1 _c
157 6 121 18 85 35 _c
85 177 _l
140 177 _l
143 130 158 94 184 70 _c
210 46 248 34 296 34 _c
}_e{347 34 386 51 414 85 _c
442 119 456 167 456 231 _c
456 294 442 342 415 376 _c
387 410 348 427 296 427 _c
266 427 240 421 218 411 _c
196 401 176 385 159 363 _c
117 363 _l
117 729 _l
503 729 _l
_cl}_e}_d
/six{{636 0 67 -13 573 742 _sc
327 34 _m
373 34 408 50 433 84 _c
457 118 470 166 470 230 _c
470 293 457 341 433 375 _c
408 409 373 426 327 426 _c
280 426 244 409 220 377 _c
196 344 184 297 184 236 _c
184 171 196 121 221 86 _c
245 51 281 34 327 34 _c
168 401 _m
190 425 215 444 243 456 _c
271 468 302 474 338 474 _c
410 474 468 452 510 408 _c
552 364 573 305 573 230 _c
}_e{573 156 550 97 505 53 _c
459 9 399 -13 323 -13 _c
241 -13 177 17 133 78 _c
89 139 67 227 67 341 _c
67 468 93 567 145 637 _c
197 707 271 742 367 742 _c
393 742 420 739 448 735 _c
476 730 505 723 535 713 _c
535 593 _l
480 593 _l
476 625 463 650 442 668 _c
421 685 393 694 357 694 _c
293 694 246 670 215 622 _c
184 574 168 500 168 401 _c
_cl}_e}_d
end readonly def

/BuildGlyph
 {exch begin
 CharStrings exch
 2 copy known not{pop /.notdef}if
 true 3 1 roll get exec
 end}_d

/BuildChar {
 1 index /Encoding get exch get
 1 index /BuildGlyph get exec
}_d

FontName currentdict end definefont pop
end
%%EndProlog
mpldict begin
75.6 223.2 translate
460.8 345.6 0 0 clipbox
gsave
0 0 m
460.8 0 l
460.8 345.6 l
0 345.6 l
cl
1.000 setgray
fill
grestore
gsave
57.6 38.016 m
414.72 38.016 l
414.72 304.128 l
57.6 304.128 l
cl
1.000 setgray
fill
grestore
0.800 setlinewidth
1 setlinejoin
0 setlinecap
[] 0 setdash
0.000 setgray
gsave
/o {
gsave
newpath
translate
0.8 setlinewidth
1 setlinejoin
0 setlinecap
0 0 m
0 -3.5 l

gsave
0.000 setgray
fill
grestore
stroke
grestore
} bind def
127.443 38.016 o
grestore
/DejaVuSerif findfont
15.000 scalefont
setfont
gsave
122.669227 19.625375 translate
0.000000 rotate
0.000000 0.000000 m /one glyphshow
grestore
gsave
/o {
gsave
newpath
translate
0.8 setlinewidth
1 setlinejoin
0 setlinecap
0 0 m
0 -3.5 l

gsave
0.000 setgray
fill
grestore
stroke
grestore
} bind def
204.993 38.016 o
grestore
gsave
200.219690 19.625375 translate
0.000000 rotate
0.000000 0.000000 m /two glyphshow
grestore
gsave
/o {
gsave
newpath
translate
0.8 setlinewidth
1 setlinejoin
0 setlinecap
0 0 m
0 -3.5 l

gsave
0.000 setgray
fill
grestore
stroke
grestore
} bind def
282.544 38.016 o
grestore
gsave
277.770154 19.625375 translate
0.000000 rotate
0.000000 0.000000 m /three glyphshow
grestore
gsave
/o {
gsave
newpath
translate
0.8 setlinewidth
1 setlinejoin
0 setlinecap
0 0 m
0 -3.5 l

gsave
0.000 setgray
fill
grestore
stroke
grestore
} bind def
360.094 38.016 o
grestore
gsave
355.320617 19.625375 translate
0.000000 rotate
0.000000 0.000000 m /four glyphshow
grestore
gsave
226.160000 -2.702750 translate
0.000000 rotate
/DejaVuSans-Oblique findfont
20.0 scalefont
setfont
0.000000 0.765625 moveto
/alpha glyphshow

/DejaVuSans-Oblique findfont
14.0 scalefont
setfont
13.183594 -2.515625 moveto
/r glyphshow


grestore
gsave
/o {
gsave
newpath
translate
0.8 setlinewidth
1 setlinejoin
0 setlinecap
0 0 m
-3.5 0 l

gsave
0.000 setgray
fill
grestore
stroke
grestore
} bind def
57.6 47.4291 o
grestore
gsave
26.740625 41.733740 translate
0.000000 rotate
0.000000 0.000000 m /zero glyphshow
9.543457 0.000000 m /period glyphshow
14.311523 0.000000 m /zero glyphshow
grestore
gsave
/o {
gsave
newpath
translate
0.8 setlinewidth
1 setlinejoin
0 setlinecap
0 0 m
-3.5 0 l

gsave
0.000 setgray
fill
grestore
stroke
grestore
} bind def
57.6 87.0766 o
grestore
gsave
26.740625 81.381252 translate
0.000000 rotate
0.000000 0.000000 m /zero glyphshow
9.543457 0.000000 m /period glyphshow
14.311523 0.000000 m /one glyphshow
grestore
gsave
/o {
gsave
newpath
translate
0.8 setlinewidth
1 setlinejoin
0 setlinecap
0 0 m
-3.5 0 l

gsave
0.000 setgray
fill
grestore
stroke
grestore
} bind def
57.6 126.724 o
grestore
gsave
26.740625 121.028765 translate
0.000000 rotate
0.000000 0.000000 m /zero glyphshow
9.543457 0.000000 m /period glyphshow
14.311523 0.000000 m /two glyphshow
grestore
gsave
/o {
gsave
newpath
translate
0.8 setlinewidth
1 setlinejoin
0 setlinecap
0 0 m
-3.5 0 l

gsave
0.000 setgray
fill
grestore
stroke
grestore
} bind def
57.6 166.372 o
grestore
gsave
26.740625 160.676277 translate
0.000000 rotate
0.000000 0.000000 m /zero glyphshow
9.543457 0.000000 m /period glyphshow
14.311523 0.000000 m /three glyphshow
grestore
gsave
/o {
gsave
newpath
translate
0.8 setlinewidth
1 setlinejoin
0 setlinecap
0 0 m
-3.5 0 l

gsave
0.000 setgray
fill
grestore
stroke
grestore
} bind def
57.6 206.019 o
grestore
gsave
26.740625 200.323789 translate
0.000000 rotate
0.000000 0.000000 m /zero glyphshow
9.543457 0.000000 m /period glyphshow
14.311523 0.000000 m /four glyphshow
grestore
gsave
/o {
gsave
newpath
translate
0.8 setlinewidth
1 setlinejoin
0 setlinecap
0 0 m
-3.5 0 l

gsave
0.000 setgray
fill
grestore
stroke
grestore
} bind def
57.6 245.667 o
grestore
gsave
26.740625 239.971301 translate
0.000000 rotate
0.000000 0.000000 m /zero glyphshow
9.543457 0.000000 m /period glyphshow
14.311523 0.000000 m /five glyphshow
grestore
gsave
/o {
gsave
newpath
translate
0.8 setlinewidth
1 setlinejoin
0 setlinecap
0 0 m
-3.5 0 l

gsave
0.000 setgray
fill
grestore
stroke
grestore
} bind def
57.6 285.314 o
grestore
gsave
26.740625 279.618813 translate
0.000000 rotate
0.000000 0.000000 m /zero glyphshow
9.543457 0.000000 m /period glyphshow
14.311523 0.000000 m /six glyphshow
grestore
gsave
18.584375 158.572000 translate
90.000000 rotate
/DejaVuSerif findfont
20.0 scalefont
setfont
0.000000 0.765625 moveto
/hyphen glyphshow

/DejaVuSans-Oblique findfont
20.0 scalefont
setfont
6.757812 0.765625 moveto
/alpha glyphshow

/DejaVuSans-Oblique findfont
14.0 scalefont
setfont
19.941406 -2.515625 moveto
/i glyphshow


grestore
2.000 setlinewidth
2 setlinecap
1.000 0.000 0.000 setrgbcolor
gsave
357.1 266.1 57.6 38.02 clipbox
112.706603 63.190921 m
115.18341 64.003299 l
117.664249 64.811712 l
120.149121 65.615763 l
122.637871 66.414661 l
125.130498 67.207214 l
127.627002 67.993028 l
130.127229 68.770912 l
132.631256 69.54047 l
135.138928 70.300513 l
137.650167 71.050644 l
140.164973 71.79007 l
142.683269 72.517999 l
145.205055 73.233636 l
147.730098 73.936587 l
150.258554 74.626057 l
152.790189 75.301254 l
155.324926 75.962178 l
157.862764 76.607243 l
160.40355 77.236845 l
162.947283 77.849796 l
165.493885 78.445698 l
168.043124 79.024155 l
170.595 79.584375 l
173.149512 80.126356 l
175.706351 80.649703 l
178.265593 81.153227 l
180.827085 81.637323 l
183.390671 82.101199 l
185.95635 82.544458 l
188.523969 82.9671 l
191.093371 83.368333 l
193.664479 83.748553 l
196.237215 84.107363 l
198.811503 84.44397 l
201.387187 84.758771 l
203.964111 85.050974 l
206.542276 85.320973 l
209.121449 85.568374 l
211.701631 85.793571 l
214.282665 85.995377 l
216.864475 86.174981 l
219.446906 86.331192 l
222.029879 86.464804 l
224.61324 86.57542 l
227.196989 86.663438 l
229.78097 86.728063 l
232.365107 86.77009 l
234.949243 86.789517 l
237.533302 86.785949 l
240.117206 86.759781 l
242.700878 86.711411 l
245.284161 86.640442 l
247.866979 86.547271 l
250.449332 86.431896 l
253.031065 86.29432 l
255.612099 86.135333 l
258.192281 85.95454 l
260.771609 85.752338 l
263.350007 85.529123 l
265.927396 85.284497 l
268.503623 85.019256 l
271.078686 84.733793 l
273.652508 84.427715 l
276.225012 84.101416 l
278.79612 83.755293 l
281.365755 83.389743 l
283.933838 83.005162 l
286.500371 82.601154 l
289.065198 82.178511 l
291.628395 81.737631 l
294.189732 81.278513 l
296.749285 80.801157 l
299.306977 80.306356 l
301.86273 79.794506 l
304.416467 79.265609 l
306.968187 78.719662 l
309.517814 78.157857 l
312.065347 77.579796 l
314.610785 76.985877 l
317.153898 76.376494 l
319.694839 75.752046 l
323.501946 74.787819 l
326.037071 74.126895 l
328.569869 73.452094 l
331.100263 72.763417 l
333.628253 72.061656 l
336.153761 71.346811 l
338.676788 70.619279 l
341.197256 69.87906 l
343.715242 69.126947 l
346.230669 68.362939 l
348.743459 67.58783 l
351.25369 66.801224 l
353.761361 66.003912 l
356.266319 65.196292 l
358.76864 64.378364 l
361.268324 63.550524 l
363.765294 62.713169 l
366.259627 61.866694 l
368.751323 61.011498 l
371.240383 60.147182 l
373.726806 59.274937 l
376.210825 58.393572 l
378.692439 57.503089 l
381.171805 56.601108 l
383.648922 55.684458 l
386.123635 54.745605 l
388.594781 53.772258 l
391.067632 52.873053 l
393.536761 51.825169 l
396.010388 51.034201 l
398.487273 50.112 l
stroke
grestore
0 setlinecap
[12.8 3.2 2 3.2] 0 setdash
0.000 0.000 1.000 setrgbcolor
gsave
357.1 266.1 57.6 38.02 clipbox
73.832727 60.431851 m
78.755863 67.816597 l
83.746779 76.919665 l
88.830289 87.814802 l
94.041835 100.611433 l
99.430817 115.461012 l
105.068115 132.564156 l
111.058888 152.168264 l
117.566458 174.534615 l
124.85372 199.808319 l
133.340067 227.552458 l
143.577194 255.503558 l
155.778363 278.19819 l
169.083929 290.283545 l
182.251455 292.032 l
194.697451 286.772361 l
206.340955 277.22524 l
217.258277 265.027683 l
227.549068 251.130437 l
237.302435 236.105219 l
246.591739 220.309651 l
255.475843 203.9721 l
stroke
grestore
0.800 setlinewidth
0 setlinejoin
2 setlinecap
[] 0 setdash
0.000 setgray
gsave
57.6 38.016 m
57.6 304.128 l
stroke
grestore
gsave
414.72 38.016 m
414.72 304.128 l
stroke
grestore
gsave
57.6 38.016 m
414.72 38.016 l
stroke
grestore
gsave
57.6 304.128 m
414.72 304.128 l
stroke
grestore

end
showpage
