 0.13000000000000D+01
 0.60122500000000D+02  0.72704673663699D-07  0.72973997030137D-07  0.72989391897785D-07  0.72752180887768D-07  0.72266857786762D-07  0.71540677892967D-07  0.70583477786004D-07  0.69407739011982D-07  0.68028844438022D-07  0.66465423408454D-07
 0.60247500000000D+02  0.70630247605055D-07  0.71530951908195D-07  0.72196510957105D-07  0.72618841923429D-07  0.72793152900630D-07  0.72717523323690D-07  0.72392674621160D-07  0.71821985779469D-07  0.71011741816699D-07  0.69971540879328D-07
 0.60372500000000D+02  0.67113811439847D-07  0.68545250531450D-07  0.69783062905344D-07  0.70810839747850D-07  0.71615345757378D-07  0.72186111043189D-07  0.72515153421956D-07  0.72596922455066D-07  0.72428494801423D-07  0.72009983865624D-07
 0.60497500000000D+02  0.62516940865736D-07  0.64329663650711D-07  0.66008207714592D-07  0.67529457574321D-07  0.68873155568872D-07  0.70021539541633D-07  0.70959034082512D-07  0.71672115816374D-07  0.72149421969731D-07  0.72382106467002D-07
 0.60622500000000D+02  0.57294825754761D-07  0.59306035196818D-07  0.61254704063787D-07  0.63113012800513D-07  0.64855501491919D-07  0.66458796967999D-07  0.67901307332646D-07  0.69163022650972D-07  0.70225524465918D-07  0.71072249267960D-07
 0.60747500000000D+02  0.51953376591900D-07  0.53963622606556D-07  0.55988858488894D-07  0.57998850571558D-07  0.59965048125785D-07  0.61860442531067D-07  0.63659308703062D-07  0.65336972863712D-07  0.66869733078731D-07  0.68235013922698D-07
 0.60872500000000D+02  0.47005536644149D-07  0.48815854937185D-07  0.50717977500075D-07  0.52681753071663D-07  0.54677872609992D-07  0.56677889876635D-07  0.58654050362008D-07  0.60579064817417D-07  0.62425965861318D-07  0.64168157329095D-07
 0.60997500000000D+02  0.42928231169712D-07  0.44357118008905D-07  0.45947254249941D-07  0.47671154477880D-07  0.49501215105561D-07  0.51409903741036D-07  0.53369702106562D-07  0.55352919091687D-07  0.57331512265543D-07  0.59277045916220D-07
 0.61122500000000D+02  0.40121476975053D-07  0.41020905064038D-07  0.42137354498271D-07  0.43448489423363D-07  0.44930855164743D-07  0.46560220038834D-07  0.48311639313831D-07  0.50159328680225D-07  0.52076473975353D-07  0.54035112924471D-07
 0.61247500000000D+02  0.38871995433979D-07  0.39141329431577D-07  0.39664365198124D-07  0.40426060083146D-07  0.41409314994103D-07  0.42595433477941D-07  0.43964295855932D-07  0.45494299748240D-07  0.47162172154848D-07  0.48942785836671D-07
 0.61372500000000D+02  0.39324512510219D-07  0.38920948124558D-07  0.38784734235646D-07  0.38909676844079D-07  0.39286756988647D-07  0.39904661224358D-07  0.40750043174177D-07  0.41807527447486D-07  0.43059531269595D-07  0.44486023240943D-07
 0.61497500000000D+02  0.41464156723368D-07  0.40408371813256D-07  0.39608608203895D-07  0.39068285583654D-07  0.38787487644714D-07  0.38763514838021D-07  0.38991205239937D-07  0.39462993559473D-07  0.40168747563979D-07  0.41095478451246D-07
 0.61622500000000D+02  0.45112735017473D-07  0.43488822876631D-07  0.42084998337181D-07  0.40914150566089D-07  0.39985637700508D-07  0.39305814146030D-07  0.38878381428374D-07  0.38704493115026D-07  0.38782613207281D-07  0.39108193367902D-07
 0.61747500000000D+02  0.49940356479988D-07  0.47889689018608D-07  0.46001347056289D-07  0.44296612051602D-07  0.42793381242676D-07  0.41506625463308D-07  0.40448740778898D-07  0.39629689890616D-07  0.39056892049187D-07  0.38734889545048D-07
 0.61872500000000D+02  0.55492281085630D-07  0.53201564228197D-07  0.50998606918073D-07  0.48911137270673D-07  0.46963982954521D-07  0.45179421338830D-07  0.43577503335477D-07  0.42176220416981D-07  0.40991435618208D-07  0.40036566200042D-07
 0.61997500000000D+02  0.61229334793467D-07  0.58913670616970D-07  0.56601308131721D-07  0.54323750246070D-07  0.52110385594722D-07  0.49988702307362D-07  0.47984557994060D-07  0.46122359668585D-07  0.44425042736282D-07  0.42913796890624D-07
 0.62122500000000D+02  0.66578884873941D-07  0.64461133838157D-07  0.62260589364287D-07  0.60009346550074D-07  0.57738408537445D-07  0.55477749606338D-07  0.53256511782711D-07  0.51103185143751D-07  0.49045638447656D-07  0.47110912302589D-07
 0.62247500000000D+02  0.70992176210515D-07  0.69280351474607D-07  0.67406879061707D-07  0.65401041254426D-07  0.63292186744542D-07  0.61109647325632D-07  0.58882852882609D-07  0.56641503680911D-07  0.54415655101669D-07  0.52235598658531D-07
 0.62372500000000D+02  0.74002756426886D-07  0.72867584916473D-07  0.71507777046220D-07  0.69946527932647D-07  0.68208262882068D-07  0.66318431293724D-07  0.64303545877340D-07  0.62191346197508D-07  0.60010941803213D-07  0.57792799720364D-07
 0.62497500000000D+02  0.75279876086237D-07  0.74834958612436D-07  0.74125673075103D-07  0.73166373647979D-07  0.71973665679071D-07  0.70566115709131D-07  0.68964233597342D-07  0.67190634861619D-07  0.65270249678448D-07  0.63230434641261D-07
 0.62622500000000D+02  0.74670413082545D-07  0.74957481204976D-07  0.74968892605478D-07  0.74708303412116D-07  0.74182355571311D-07  0.73400349000163D-07  0.72374192549973D-07  0.71118577479238D-07  0.69651260875821D-07  0.67993317075486D-07
 0.62747500000000D+02  0.72223354383764D-07  0.73204831864336D-07  0.73929976537182D-07  0.74391083866462D-07  0.74583770951277D-07  0.74506654101322D-07  0.74161293689683D-07  0.73552389335279D-07  0.72688141954784D-07  0.71580652990516D-07
 0.62872500000000D+02  0.68192360817084D-07  0.69752742692200D-07  0.71105390002383D-07  0.72231927971165D-07  0.73117182029397D-07  0.73748892899572D-07  0.74117671729496D-07  0.74217218723191D-07  0.74044757024957D-07  0.73601573976467D-07
 0.62997500000000D+02  0.63014377855280D-07  0.64970899806636D-07  0.66792662287427D-07  0.68452643056467D-07  0.69926450235364D-07  0.71192090919550D-07  0.72229939474782D-07  0.73022967713247D-07  0.73557227759755D-07  0.73822509857268D-07
 0.63122500000000D+02  0.57265313729870D-07  0.59387154589359D-07  0.61463566910805D-07  0.63462027696659D-07  0.65351702472301D-07  0.67103266845822D-07  0.68688876665537D-07  0.70082383419327D-07  0.71259825975830D-07  0.72200157527062D-07
 0.63247500000000D+02  0.51596996359538D-07  0.53631041862104D-07  0.55715088097016D-07  0.57815009700701D-07  0.59897188433050D-07  0.61928373632195D-07  0.63875631942504D-07  0.65706510608814D-07  0.67389484080927D-07  0.68894683394800D-07
 0.63372500000000D+02  0.46662423782379D-07  0.48362618144721D-07  0.50203076758595D-07  0.52152235416884D-07  0.54177784455861D-07  0.56246545937784D-07  0.58324375404397D-07  0.60376231184266D-07  0.62366515031026D-07  0.64259725134329D-07
 0.63497500000000D+02  0.43038302444584D-07  0.44194979427926D-07  0.45566161674266D-07  0.47126739129401D-07  0.48849712359835D-07  0.50706062409966D-07  0.52664578498331D-07  0.54691794708178D-07  0.56752166119892D-07  0.58808564669688D-07
 0.63622500000000D+02  0.41154722433819D-07  0.41620135070970D-07  0.42349234873580D-07  0.43326475151978D-07  0.44533550350376D-07  0.45949238789162D-07  0.47549138181770D-07  0.49305441987709D-07  0.51186904133526D-07  0.53159106079042D-07
 0.63747500000000D+02  0.41241385209591D-07  0.40947985493572D-07  0.40936399951267D-07  0.41202550306058D-07  0.41739131985202D-07  0.42535419726581D-07  0.43576906315913D-07  0.44844908312650D-07  0.46316292335735D-07  0.47963461237514D-07
 0.63872500000000D+02  0.43298040261639D-07  0.42266890548755D-07  0.41502521511132D-07  0.41012759652491D-07  0.40802208806097D-07  0.40872022661986D-07  0.41219459762396D-07  0.41837330526050D-07  0.42713484280243D-07  0.43830490513457D-07
 0.63997500000000D+02  0.47093799294254D-07  0.45431765855701D-07  0.43990434898758D-07  0.42788444425769D-07  0.41841680847581D-07  0.41163038791014D-07  0.40761925014995D-07  0.40643583323601D-07  0.40808371498459D-07  0.41251147545374D-07
 0.64122500000000D+02  0.52196051342653D-07  0.50082006449671D-07  0.48117603990568D-07  0.46329835279926D-07  0.44743798617062D-07  0.43382481954161D-07  0.42266266840405D-07  0.41412191715764D-07  0.40833078289127D-07  0.40536669060419D-07
 0.64247500000000D+02  0.58025296051514D-07  0.55687220352163D-07  0.53411877982381D-07  0.51231166539710D-07  0.49176190517953D-07  0.47277112152000D-07  0.45562719490653D-07  0.44059707418489D-07  0.42791739458161D-07  0.41778417174656D-07
 0.64372500000000D+02  0.63928076208335D-07  0.61614409760644D-07  0.59271559707934D-07  0.56932423614043D-07  0.54630260343195D-07  0.52398654163876D-07  0.50271213896914D-07  0.48280959864713D-07  0.46459424331080D-07  0.44835560203585D-07
 0.64497500000000D+02  0.69257200022043D-07  0.67206709132051D-07  0.65041048040572D-07  0.62790334396224D-07  0.60486066290300D-07  0.58161231762580D-07  0.55850195129422D-07  0.53588272567914D-07  0.51410977330334D-07  0.49352988662404D-07
 0.64622500000000D+02  0.73447399402994D-07  0.71861943405651D-07  0.70090747256306D-07  0.68158019588652D-07  0.66090081876929D-07  0.63915630797433D-07  0.61665842951563D-07  0.59374200206911D-07  0.57075971272028D-07  0.54807357428293D-07
 0.64747500000000D+02  0.76075892443781D-07  0.75099706516887D-07  0.73889487580031D-07  0.72461414718145D-07  0.70834144198813D-07  0.69029201219997D-07  0.67071299521642D-07  0.64988442547792D-07  0.62811701739730D-07  0.60574632399265D-07
 0.64872500000000D+02  0.76900779478630D-07  0.76608412946415D-07  0.76059647003040D-07  0.75261652547726D-07  0.74224073831201D-07  0.72959497807743D-07  0.71483948947628D-07  0.69817251091536D-07  0.67983120697815D-07  0.66008907718908D-07
 0.64997500000000D+02  0.75874874059997D-07  0.76268156017625D-07  0.76409081003532D-07  0.76295894182419D-07  0.75929008877783D-07  0.75311484916757D-07  0.74449631151435D-07  0.73353575680606D-07  0.72037648960208D-07  0.70520459514105D-07
 0.65122500000000D+02  0.73137087250419D-07  0.74149953240176D-07  0.74938757780988D-07  0.75493741320917D-07  0.75806806350096D-07  0.75871935739968D-07  0.75685823344860D-07  0.75248576210693D-07  0.74564328245177D-07  0.73641619591820D-07
 0.65247500000000D+02  0.68986565702520D-07  0.70495684280581D-07  0.71829246304432D-07  0.72970984188878D-07  0.73905681923313D-07  0.74619479129022D-07  0.75100455129314D-07  0.75339380146078D-07  0.75330481928711D-07  0.75072069447905D-07
 0.65372500000000D+02  0.63845776580247D-07  0.65684793609728D-07  0.67411742984503D-07  0.69005703321861D-07  0.70446157268934D-07  0.71713149913646D-07  0.72787769027641D-07  0.73652870781719D-07  0.74293919855015D-07  0.74699785986927D-07
 0.65497500000000D+02  0.58217867120275D-07  0.60193544472051D-07  0.62129725094347D-07  0.64002907246167D-07  0.65789342439487D-07  0.67465038976845D-07  0.69006102147000D-07  0.70389376339423D-07  0.71593288207001D-07  0.72598745312496D-07
 0.65622500000000D+02  0.52641844304190D-07  0.54551010147778D-07  0.56496055189175D-07  0.58453110216414D-07  0.60397420622397D-07  0.62303200589714D-07  0.64143814025694D-07  0.65892290778720D-07  0.67522114243775D-07  0.69008157489869D-07
 0.65747500000000D+02  0.47647551446957D-07  0.49294214115324D-07  0.51048500967244D-07  0.52888452312483D-07  0.54790615748637D-07  0.56729762398591D-07  0.58678898843149D-07  0.60609625303367D-07  0.62492817282552D-07  0.64299539015875D-07
 0.65872500000000D+02  0.43711816989578D-07  0.44923835208735D-07  0.46305274914335D-07  0.47838306130921D-07  0.49503068916640D-07  0.51277263513929D-07  0.53135987312350D-07  0.55051907517663D-07  0.56995789507895D-07  0.58937327128156D-07
 0.65997500000000D+02  0.41217583936271D-07  0.41862006294370D-07  0.42721926765997D-07  0.43785626044497D-07  0.45038946473558D-07  0.46464768463687D-07  0.48042669662708D-07  0.49748888163184D-07  0.51556651640992D-07  0.53436861158673D-07
 0.66122500000000D+02  0.40418764589868D-07  0.40414602094627D-07  0.40651612367921D-07  0.41125709686200D-07  0.41830155764257D-07  0.42754939210026D-07  0.43886261253513D-07  0.45206273201492D-07  0.46693165731510D-07  0.48321643107379D-07
 0.66247500000000D+02  0.41414258904386D-07  0.40741301212157D-07  0.40311760808213D-07  0.40130045328747D-07  0.40197942517375D-07  0.40513928016984D-07  0.41072494537588D-07  0.41863661688490D-07  0.42872798033920D-07  0.44080831283064D-07
 0.66372500000000D+02  0.44134496677898D-07  0.42836959575609D-07  0.41760720724101D-07  0.40918734516215D-07  0.40321640641646D-07  0.39977035083793D-07  0.39888674978514D-07  0.40055778632494D-07  0.40472574052811D-07  0.41128209487117D-07
 0.66497500000000D+02  0.48342930579204D-07  0.46527189781664D-07  0.44887653800066D-07  0.43445015559214D-07  0.42218225043643D-07  0.41223765137645D-07  0.40474778231939D-07  0.39980194693706D-07  0.39744026628699D-07  0.39764969379517D-07
 0.66622500000000D+02  0.53653415758071D-07  0.51479689841433D-07  0.49417798369859D-07  0.47494536828755D-07  0.45735762343431D-07  0.44165717944236D-07  0.42806135783938D-07  0.41675248946509D-07  0.40786872853915D-07  0.40149716573688D-07
 0.66747500000000D+02  0.59562778335267D-07  0.57231222970601D-07  0.54933624420347D-07  0.52700527871622D-07  0.50562522000987D-07  0.48549653121814D-07  0.46690563019606D-07  0.45011449505983D-07  0.43534996340558D-07  0.42279438445352D-07
 0.66872500000000D+02  0.65496379125541D-07  0.63228577851274D-07  0.60910764022274D-07  0.58574340174985D-07  0.56251837122926D-07  0.53976455686847D-07  0.51781296413828D-07  0.49698339331635D-07  0.47757295696661D-07  0.45984491099815D-07
 0.66997500000000D+02  0.70863178133825D-07  0.68880475743800D-07  0.66766161249701D-07  0.64549304114972D-07  0.62261196114865D-07  0.59935054894706D-07  0.57605400465566D-07  0.55307126251030D-07  0.53074353791142D-07  0.50939212634699D-07
 0.67122500000000D+02  0.75115638068099D-07  0.73616194547252D-07  0.71914649878259D-07  0.70034556494810D-07  0.68002679404547D-07  0.65848892448945D-07  0.63605753142523D-07  0.61307736587116D-07  0.58990178937190D-07  0.56688044257321D-07
 0.67247500000000D+02  0.77808771187659D-07  0.76945598694760D-07  0.75829056583172D-07  0.74474357696344D-07  0.72900687885753D-07  0.71131320159657D-07  0.69193433525955D-07  0.67117577768424D-07  0.64936792703052D-07  0.62685459985770D-07
 0.67372500000000D+02  0.78651907145448D-07  0.78514394189349D-07  0.78097962506600D-07  0.77407394855898D-07  0.76451854019337D-07  0.75245228966963D-07  0.73806231936848D-07  0.72158152707747D-07  0.70328236029945D-07  0.68346718642691D-07
 0.67497500000000D+02  0.77546653606113D-07  0.78148041872447D-07  0.78474645098645D-07  0.78519788253582D-07  0.78281131450469D-07  0.77761244135880D-07  0.76967995440731D-07  0.75914638686169D-07  0.74619515676765D-07  0.73105372462615D-07
 0.67622500000000D+02  0.74605336616084D-07  0.75878189156243D-07  0.76910794529189D-07  0.77685281737278D-07  0.78187568320958D-07  0.78408134423088D-07  0.78342694634676D-07  0.77992626235096D-07  0.77365044450802D-07  0.76472471897006D-07
 0.67747500000000D+02  0.70146060505206D-07  0.71946929817269D-07  0.73569635385699D-07  0.74986730413023D-07  0.76173524096174D-07  0.77109000883349D-07  0.77776730700292D-07  0.78165620066693D-07  0.78270368007700D-07  0.78091533298838D-07
 0.67872500000000D+02  0.64663261102991D-07  0.66786628879074D-07  0.68815152213964D-07  0.70714669875057D-07  0.72452344722254D-07  0.73997649619654D-07  0.75323442181205D-07  0.76406981261507D-07  0.77230733099598D-07  0.77782840468308D-07
 0.67997500000000D+02  0.58775842707720D-07  0.60976140878752D-07  0.63177003794188D-07  0.65341360309316D-07  0.67431781518573D-07  0.69411438381210D-07  0.71245242470328D-07  0.72901037386072D-07  0.74350684973032D-07  0.75570896890671D-07
 0.68122500000000D+02  0.53158166483619D-07  0.55177512310141D-07  0.57293976483125D-07  0.59471882502168D-07  0.61673457751521D-07  0.63859662175647D-07  0.65991282287915D-07  0.68030183181999D-07  0.69940571500528D-07  0.71690109430485D-07
 0.68247500000000D+02  0.48461786868431D-07  0.50060161085648D-07  0.51841935930408D-07  0.53777103831583D-07  0.55831978327836D-07  0.57969799330247D-07  0.60151666194413D-07  0.62337724807970D-07  0.64488482228220D-07  0.66566091537600D-07
 0.68372500000000D+02  0.45237512276024D-07  0.46221614087198D-07  0.47454691261482D-07  0.48916101397451D-07  0.50580298880211D-07  0.52417139931189D-07  0.54392552235012D-07  0.56469534523441D-07  0.58609390172078D-07  0.60773052729037D-07
 0.68497500000000D+02  0.43867837447153D-07  0.44114841042261D-07  0.44647610266822D-07  0.45457493614712D-07  0.46530237095348D-07  0.47845939780358D-07  0.49379381172720D-07  0.51100727445449D-07  0.52976558485803D-07  0.54971100112547D-07
 0.68622500000000D+02  0.44518931950056D-07  0.43991872730175D-07  0.43753986697420D-07  0.43809800337414D-07  0.44158169820586D-07  0.44791872725069D-07  0.45697547898283D-07  0.46856031406218D-07  0.48243072662049D-07  0.49830350455029D-07
 0.68747500000000D+02  0.47119172586443D-07  0.45871685733726D-07  0.44882964005847D-07  0.44170275340924D-07  0.43745808682021D-07  0.43615926816614D-07  0.43780713913237D-07  0.44233902663502D-07  0.44963208182503D-07  0.45951029709064D-07
 0.68872500000000D+02  0.51367821960767D-07  0.49537361317962D-07  0.47905296526471D-07  0.46499614795998D-07  0.45344414014830D-07  0.44458880971486D-07  0.43856485009838D-07  0.43544502105002D-07  0.43523937011128D-07  0.43789848401685D-07
 0.68997500000000D+02  0.56773221367655D-07  0.54563544581427D-07  0.52469570136210D-07  0.50526667757244D-07  0.48767959242199D-07  0.47223120300945D-07  0.45917299556214D-07  0.44870290379541D-07  0.44096057788576D-07  0.43602668083445D-07
 0.69122500000000D+02  0.62715365218798D-07  0.60370732950256D-07  0.58047112579448D-07  0.55783078831274D-07  0.53616837505986D-07  0.51584971686562D-07  0.49721197296293D-07  0.48055273149340D-07  0.46612193407463D-07  0.45411748082849D-07
 0.69247500000000D+02  0.68523764954993D-07  0.66298646295003D-07  0.63999350655304D-07  0.61663241061354D-07  0.59329180765596D-07  0.57036350281766D-07  0.54822967678169D-07  0.52725054704753D-07  0.50775391275141D-07  0.49002773840183D-07
 0.69372500000000D+02  0.73558995658256D-07  0.71687770812144D-07  0.69657677260435D-07  0.67500828853139D-07  0.65252462793970D-07  0.62949940380623D-07  0.60631558018719D-07  0.58335296957392D-07  0.56097656775710D-07  0.53952707587730D-07
 0.69497500000000D+02  0.77285984235153D-07  0.75956963934936D-07  0.74403874457571D-07  0.72650435356384D-07  0.70724685970131D-07  0.68658252096938D-07  0.66485352407431D-07  0.64241649208838D-07  0.61963079403376D-07  0.59684808451849D-07
 0.69622500000000D+02  0.79329192944212D-07  0.78666224035338D-07  0.77739445122146D-07  0.76562239182660D-07  0.75152983731550D-07  0.73534625172154D-07  0.71733950151075D-07  0.69780627929417D-07  0.67706140504679D-07  0.65542739856223D-07
 0.69747500000000D+02  0.79503912953222D-07  0.79557176792206D-07  0.79334911111135D-07  0.78839491460431D-07  0.78078437367448D-07  0.77064296031551D-07  0.75814208581241D-07  0.74349198976908D-07  0.72693275949228D-07  0.70872474131042D-07
 0.69872500000000D+02  0.77822773089264D-07  0.78568589416658D-07  0.79054573307898D-07  0.79272552867507D-07  0.79219191740581D-07  0.78896153491005D-07  0.78309958814929D-07  0.77471541578985D-07  0.76395563410374D-07  0.75099592142150D-07
 0.69997500000000D+02  0.74480849286568D-07  0.75828897204989D-07  0.76957117717494D-07  0.77848121508777D-07  0.78488690351252D-07  0.78870177510942D-07  0.78988630408686D-07  0.78844609644658D-07  0.78442731651461D-07  0.77791013920651D-07
 0.70122500000000D+02  0.69825263751681D-07  0.71630971920487D-07  0.73276350548552D-07  0.74736716846872D-07  0.75990638620472D-07  0.77020522507806D-07  0.77812967865842D-07  0.78358832236497D-07  0.78653003265624D-07  0.78693925912462D-07
 0.70247500000000D+02  0.64315492689524D-07  0.66395458684426D-07  0.68388247299852D-07  0.70264183895240D-07  0.71995745364006D-07  0.73558290257361D-07  0.74930608561575D-07  0.76095213553127D-07  0.77038339681875D-07  0.77749662898492D-07
 0.70372500000000D+02  0.58479265757344D-07  0.60628153342476D-07  0.62770262760851D-07  0.64873468599454D-07  0.66906575541490D-07  0.68840145065366D-07  0.70647204732083D-07  0.72303744521663D-07  0.73788936105855D-07  0.75085058239594D-07
 0.70497500000000D+02  0.52867038392101D-07  0.54875038330646D-07  0.56957200980448D-07  0.59081635437247D-07  0.61216089265735D-07  0.63328821561886D-07  0.65389428985316D-07  0.67369517900669D-07  0.69243135015746D-07  0.70986907627907D-07
 0.70622500000000D+02  0.48006652301228D-07  0.49676924834344D-07  0.51496068846683D-07  0.53435147450027D-07  0.55463568339472D-07  0.57549943977463D-07  0.59662979608635D-07  0.61772278733667D-07  0.63848961483665D-07  0.65866018630214D-07
 0.70747500000000D+02  0.44359544225804D-07  0.45524979438219D-07  0.46901251135465D-07  0.48464963556851D-07  0.50189861929908D-07  0.52047612847032D-07  0.54008686561249D-07  0.56043235895756D-07  0.58121858645759D-07  0.60216144251166D-07
 0.70872500000000D+02  0.42280568149442D-07  0.42818852467263D-07  0.43611431347542D-07  0.44642680074085D-07  0.45893111058727D-07  0.47340007134890D-07  0.48958223206234D-07  0.50721064426246D-07  0.52601128654052D-07  0.54571000680099D-07
 0.70997500000000D+02  0.41984490988928D-07  0.41830138621170D-07  0.41950602870778D-07  0.42339657847303D-07  0.42986516877724D-07  0.43876261434856D-07  0.44990490451540D-07  0.46308118763854D-07  0.47806222541259D-07  0.49460815733764D-07
 0.71122500000000D+02  0.43522759528911D-07  0.42674702116035D-07  0.42096507806383D-07  0.41792165480384D-07  0.41760792188168D-07  0.41996819326559D-07  0.42490432045531D-07  0.43228216008084D-07  0.44193927298678D-07  0.45369275655958D-07
 0.71247500000000D+02  0.46773797680659D-07  0.45297406769819D-07  0.44060194059922D-07  0.43076237962641D-07  0.42354862241201D-07  0.41900564281178D-07  0.41713208368911D-07  0.41788465646160D-07  0.42118440071528D-07  0.42692384973805D-07
 0.71372500000000D+02  0.51448932044118D-07  0.49471889388168D-07  0.47679792912245D-07  0.46095713840080D-07  0.44738513065617D-07  0.43622519146558D-07  0.42757462712359D-07  0.42148676232371D-07  0.41797525187420D-07  0.41701995967228D-07
 0.71497500000000D+02  0.57114439230914D-07  0.54816500949936D-07  0.52630263428529D-07  0.50585785962046D-07  0.48709850287443D-07  0.47025415704044D-07  0.45551303787254D-07  0.44302146754604D-07  0.43288593251604D-07  0.42517721937249D-07
 0.71622500000000D+02  0.63228571176650D-07  0.60825859257450D-07  0.58449165158379D-07  0.56132766294460D-07  0.53908913446991D-07  0.51807107293186D-07  0.49853562037902D-07  0.48070911753802D-07  0.46478180122569D-07  0.45090991481309D-07
 0.71747500000000D+02  0.69190962707090D-07  0.66915921421416D-07  0.64576902389282D-07  0.62209078747023D-07  0.59847066856070D-07  0.57524083739720D-07  0.55271236157064D-07  0.53117013742944D-07  0.51087031403863D-07  0.49204027073251D-07
 0.71872500000000D+02  0.74400558689374D-07  0.72479166061274D-07  0.70408494656826D-07  0.68221019583989D-07  0.65950220168549D-07  0.63629691535464D-07  0.61292322714877D-07  0.58969624704245D-07  0.56691274096390D-07  0.54484905310101D-07
 0.71997500000000D+02  0.78317045314106D-07  0.76945299133945D-07  0.75352723872654D-07  0.73565577459761D-07  0.71612620908055D-07  0.69524267461365D-07  0.67331728181640D-07  0.65066241613681D-07  0.62758467809670D-07  0.60438103259807D-07
 0.72122500000000D+02  0.80519772035579D-07  0.79841836230878D-07  0.78893412017144D-07  0.77691487029255D-07  0.76256821245773D-07  0.74613219985890D-07  0.72786734548261D-07  0.70804874970117D-07  0.68695922687620D-07  0.66488417568053D-07
 0.72247500000000D+02  0.80757536261108D-07  0.80848120294442D-07  0.80646664327824D-07  0.80158692444540D-07  0.79394379943187D-07  0.78368028463547D-07  0.77097408470572D-07  0.75603043216562D-07  0.73907521505379D-07  0.72034924328255D-07
 0.72372500000000D+02  0.78982710674283D-07  0.79836120705737D-07  0.80407433067765D-07  0.80689708958914D-07  0.80681022024265D-07  0.80384193757832D-07  0.79806351356494D-07  0.78958365670705D-07  0.77854248335761D-07  0.76510595541235D-07
 0.72497500000000D+02  0.75364296137653D-07  0.76892051828014D-07  0.78179061603770D-07  0.79206327079778D-07  0.79959637608629D-07  0.80429593854018D-07  0.80611429307172D-07  0.80504666691776D-07  0.80112673500885D-07  0.79442198494121D-07
 0.72622500000000D+02  0.70276628242833D-07  0.72314598975118D-07  0.74180800226063D-07  0.75846013386417D-07  0.77285004118973D-07  0.78476826413446D-07  0.79404922618986D-07  0.80057033834594D-07  0.80424965421607D-07  0.80504277016291D-07
 0.72747500000000D+02  0.64263416272040D-07  0.66588222362601D-07  0.68830635561301D-07  0.70954330474046D-07  0.72925669598209D-07  0.74714245267423D-07  0.76293237164532D-07  0.77639577748148D-07  0.78733948574408D-07  0.79560659502229D-07
 0.72872500000000D+02  0.57980093861531D-07  0.60333240869925D-07  0.62703853122555D-07  0.65052542706704D-07  0.67340974383474D-07  0.69532574104821D-07  0.71593090594729D-07  0.73490982905126D-07  0.75197635144693D-07  0.76687430202184D-07
 0.72997500000000D+02  0.52120571498536D-07  0.54237650960112D-07  0.56471068201222D-07  0.58782866943252D-07  0.61134370920548D-07  0.63486968928097D-07  0.65802802893705D-07  0.68045316593517D-07  0.70179646406829D-07  0.72172865093955D-07
 0.73122500000000D+02  0.47336911745432D-07  0.48978386283765D-07  0.50822469602404D-07  0.52837025646088D-07  0.54987510035206D-07  0.57237734752986D-07  0.59550591965604D-07  0.61888684417016D-07  0.64214827506168D-07  0.66492414371643D-07
 0.73247500000000D+02  0.44161836028212D-07  0.45141549988833D-07  0.46387250721420D-07  0.47876347921260D-07  0.49582452196787D-07  0.51476027794238D-07  0.53525060257571D-07  0.55695681846674D-07  0.57952708112040D-07  0.60260059990863D-07
 0.73372500000000D+02  0.42944099031949D-07  0.43151779390262D-07  0.43658317706221D-07  0.44453245873887D-07  0.45521380393246D-07  0.46843288107849D-07  0.48395816324966D-07  0.50152631049119D-07  0.52084710209782D-07  0.54160753154952D-07
 0.73497500000000D+02  0.43805545732146D-07  0.43220194797384D-07  0.42932174955109D-07  0.42944221290353D-07  0.43254027628825D-07  0.43854476392317D-07  0.44733970758908D-07  0.45876818804505D-07  0.47263615335686D-07  0.48871574243491D-07
 0.73622500000000D+02  0.46626134478093D-07  0.45318329824545D-07  0.44272334267324D-07  0.43503520828318D-07  0.43022522332400D-07  0.42835209379671D-07  0.42942793272028D-07  0.43342013601036D-07  0.44025360037894D-07  0.44981277694020D-07
 0.73747500000000D+02  0.51059558305072D-07  0.49182168082278D-07  0.47501747615786D-07  0.46044175679122D-07  0.44831466645970D-07  0.43881516064616D-07  0.43207976870277D-07  0.42820238661535D-07  0.42723467538936D-07  0.42918657186185D-07
 0.73872500000000D+02  0.56577724058466D-07  0.54346236616968D-07  0.52225864971520D-07  0.50249605730966D-07  0.48447905049496D-07  0.46848223765162D-07  0.45474722805191D-07  0.44348054975699D-07  0.43485231362030D-07  0.42899518332641D-07
 0.73997500000000D+02  0.62537898189369D-07  0.60203183446216D-07  0.57883431424258D-07  0.55614615342966D-07  0.53431709631833D-07  0.51368149766569D-07  0.49455389595778D-07  0.47722555168080D-07  0.46196175143220D-07  0.44899951858983D-07
 0.74122500000000D+02  0.68262647361068D-07  0.66080182655606D-07  0.63817773075868D-07  0.61510082832872D-07  0.59192338325875D-07  0.56899766373810D-07  0.54667100525884D-07  0.52528165105673D-07  0.50515528470615D-07  0.48660198975150D-07
 0.74247500000000D+02  0.73120677743020D-07  0.71320770424998D-07  0.69357967453560D-07  0.67261793307527D-07  0.65063693072894D-07  0.62796524609338D-07  0.60494089188087D-07  0.58190717881700D-07  0.55920914982495D-07  0.53719041444149D-07
 0.74372500000000D+02  0.76596947656689D-07  0.75360091179371D-07  0.73897813663218D-07  0.72231594547880D-07  0.70385835621511D-07  0.68387460490379D-07  0.66265527907639D-07  0.64050880906901D-07  0.61775840770874D-07  0.59473937690613D-07
 0.74497500000000D+02  0.78343073527699D-07  0.77783343436058D-07  0.76961435829823D-07  0.75889061522886D-07  0.74581426936378D-07  0.73056965407520D-07  0.71337065102930D-07  0.69445817880523D-07  0.67409804076980D-07  0.65257913167895D-07
 0.74622500000000D+02  0.78203419076340D-07  0.78361079816919D-07  0.78247563267853D-07  0.77864289931695D-07  0.77216330457725D-07  0.76312267312089D-07  0.75164042273845D-07  0.73786815084445D-07  0.72198852909419D-07  0.70421458134678D-07
 0.74747500000000D+02  0.76217097890829D-07  0.77059860693398D-07  0.77649186464374D-07  0.77976718137831D-07  0.78037551214461D-07  0.77830208708981D-07  0.77356594591698D-07  0.76621951102935D-07  0.75634843349348D-07  0.74407185926438D-07
 0.74872500000000D+02  0.72600011779255D-07  0.74031154453007D-07  0.75250022645639D-07  0.76239769709525D-07  0.76986538422165D-07  0.77479529192617D-07  0.77711039803621D-07  0.77676501046275D-07  0.77374534243545D-07  0.76807051926604D-07
 0.74997500000000D+02  0.67712991719840D-07  0.69584096742973D-07  0.71302662021339D-07  0.72845163572309D-07  0.74190412611336D-07  0.75319702859319D-07  0.76216921660726D-07  0.76868646593032D-07  0.77264254239943D-07  0.77396067267774D-07
 0.75122500000000D+02  0.62021944815779D-07  0.64148272290244D-07  0.66194598099278D-07  0.68132875959954D-07  0.69936598107058D-07  0.71581014601496D-07  0.73043309496702D-07  0.74302750707367D-07  0.75340838201508D-07  0.76141478705958D-07
 0.75247500000000D+02  0.56054336060898D-07  0.58231482762415D-07  0.60407667671622D-07  0.62552710794672D-07  0.64637061872812D-07  0.66632085851926D-07  0.68510302361572D-07  0.70245589150157D-07  0.71813369019880D-07  0.73190806867014D-07
 0.75372500000000D+02  0.50354495677655D-07  0.52375571067327D-07  0.54474626600851D-07  0.56621889342044D-07  0.58787227871241D-07  0.60940490886632D-07  0.63051804229664D-07  0.65091828234637D-07  0.67031987429695D-07  0.68844694044028D-07
 0.75497500000000D+02  0.45439141637556D-07  0.47111916579343D-07  0.48934852247917D-07  0.50881164875309D-07  0.52922698908627D-07  0.55030292876342D-07  0.57174116442916D-07  0.59323972835238D-07  0.61449570103052D-07  0.63520775008856D-07
 0.75622500000000D+02  0.41754535497971D-07  0.42917847745248D-07  0.44290373169262D-07  0.45850766443513D-07  0.47575354301648D-07  0.49438490589060D-07  0.51412901861817D-07  0.53470011800582D-07  0.55580239984362D-07  0.57713280333285D-07
 0.75747500000000D+02  0.39637541616167D-07  0.40175867943398D-07  0.40963775951087D-07  0.41987446032181D-07  0.43229931369769D-07  0.44671458528585D-07  0.46289740670947D-07  0.48060288437757D-07  0.49956708130354D-07  0.51950984853497D-07
 0.75872500000000D+02  0.39283811423822D-07  0.39138626964242D-07  0.39260554123979D-07  0.39644784074253D-07  0.40282834747206D-07  0.41162756996462D-07  0.42269373862365D-07  0.43584537493379D-07  0.45087390051267D-07  0.46754620527141D-07
 0.75997500000000D+02  0.40726676851419D-07  0.39903229612008D-07  0.39339363289122D-07  0.39039966121474D-07  0.39006032620666D-07  0.39234746582737D-07  0.39719612935389D-07  0.40450624611004D-07  0.41414449883648D-07  0.42594628572539D-07
 0.76122500000000D+02  0.43829805683232D-07  0.42398277726580D-07  0.41193801061314D-07  0.40230735396583D-07  0.39519688114313D-07  0.39067460073003D-07  0.38877049880258D-07  0.38947705777113D-07  0.39275011508362D-07  0.39850992997474D-07
 0.76247500000000D+02  0.48295395925999D-07  0.46385987792110D-07  0.44648558559645D-07  0.43105785161538D-07  0.41777094561269D-07  0.40678472554453D-07  0.39822334552199D-07  0.39217451152618D-07  0.38868917082922D-07  0.38778150296791D-07
 0.76372500000000D+02  0.53688072629822D-07  0.51480167382905D-07  0.49371348700250D-07  0.47390599459093D-07  0.45564482399372D-07  0.43916824559536D-07  0.42468461383707D-07  0.41237037404809D-07  0.40236855289033D-07  0.39478761353780D-07
 0.76497500000000D+02  0.59473073466625D-07  0.57179197614442D-07  0.54900351699551D-07  0.52669102847872D-07  0.50516693731661D-07  0.48472626718224D-07  0.46564299483482D-07  0.44816693387520D-07  0.43252110495441D-07  0.41889950065352D-07
 0.76622500000000D+02  0.65065930539317D-07  0.62911711198909D-07  0.60685376160937D-07  0.58419859378321D-07  0.56148043057494D-07  0.53902277388150D-07  0.51713937331240D-07  0.49613022136231D-07  0.47627798240422D-07  0.45784480425999D-07
 0.76747500000000D+02  0.69889645395168D-07  0.68091402470732D-07  0.66139620811015D-07  0.64064170078391D-07  0.61896201428855D-07  0.59667650622910D-07  0.57410757874422D-07  0.55157613812383D-07  0.52939737056008D-07  0.50787683269758D-07
 0.76872500000000D+02  0.73434254827625D-07  0.72176279687980D-07  0.70697770676281D-07  0.69022232060120D-07  0.67175702822537D-07  0.65186300478979D-07  0.63083757151498D-07  0.60898959432322D-07  0.58663501509015D-07  0.56409256463478D-07
 0.76997500000000D+02  0.75312775550175D-07  0.74726676818114D-07  0.73875118850272D-07  0.72772451177865D-07  0.71436578968606D-07  0.69888608027142D-07  0.68152456902465D-07  0.66254447476895D-07  0.64222885572265D-07  0.62087640423189D-07
 0.77122500000000D+02  0.75307051671095D-07  0.75455670720057D-07  0.75321581605275D-07  0.74908074611635D-07  0.74222641716507D-07  0.73276776670925D-07  0.72085720988614D-07  0.70668164445809D-07  0.69045911071428D-07  0.67243521258909D-07
 0.77247500000000D+02  0.73397337519028D-07  0.74265519982375D-07  0.74864154270337D-07  0.75184753627352D-07  0.75223197296532D-07  0.74979722373425D-07  0.74458848827775D-07  0.73669241266464D-07  0.72623515149892D-07  0.71337997168904D-07
 0.77372500000000D+02  0.69770753197042D-07  0.71264641974000D-07  0.72531863983966D-07  0.73552793393983D-07  0.74311804753036D-07  0.74797467736581D-07  0.75002673868217D-07  0.74924692440022D-07  0.74565157945569D-07  0.73929995234207D-07
 0.77497500000000D+02  0.64806032684473D-07  0.66761564532413D-07  0.68558800098519D-07  0.70168961651501D-07  0.71566400140651D-07  0.72728974681031D-07  0.73638375220149D-07  0.74280379172004D-07  0.74645037862077D-07  0.74726793649177D-07
 0.77622500000000D+02  0.59034956227631D-07  0.61235042402011D-07  0.63363269605833D-07  0.65384850501310D-07  0.67266844602798D-07  0.68978676881006D-07  0.70492621649547D-07  0.71784237204837D-07  0.72832740737868D-07  0.73621318258446D-07
 0.77747500000000D+02  0.53084045778858D-07  0.55282698790652D-07  0.57504195351298D-07  0.59711675142636D-07  0.61868588322482D-07  0.63939286671083D-07  0.65889609681621D-07  0.67687447791361D-07  0.69303267175965D-07  0.70710585028244D-07
 0.77872500000000D+02  0.47602980553001D-07  0.49553615706248D-07  0.51619048188300D-07  0.53764595793041D-07  0.55954289423769D-07  0.58151458790699D-07  0.60319345893094D-07  0.62421727778549D-07  0.64423529916349D-07  0.66291414494054D-07
 0.77997500000000D+02  0.43188306670883D-07  0.44672758488926D-07  0.46350357807030D-07  0.48192631326186D-07  0.50168365622519D-07  0.52244108748538D-07  0.54384730963514D-07  0.56554028109892D-07  0.58715348342803D-07  0.60832223748956D-07
 0.78122500000000D+02  0.40312051969007D-07  0.41166603346995D-07  0.42269748398351D-07  0.43602514529496D-07  0.45142069203383D-07  0.46862068710019D-07  0.48733091502110D-07  0.50723144221187D-07  0.52798223098932D-07  0.54922911714952D-07
 0.78247500000000D+02  0.39264638708087D-07  0.39399610420192D-07  0.39809204087462D-07  0.40486067976324D-07  0.41418351800586D-07  0.42589853253115D-07  0.43980264866209D-07  0.45565516122626D-07  0.47318197990224D-07  0.49208052688585D-07
 0.78372500000000D+02  0.40119966625278D-07  0.39530153656870D-07  0.39208737734243D-07  0.39160652517327D-07  0.39386260388743D-07  0.39881274098917D-07  0.40636782068046D-07  0.41639380608987D-07  0.42871406898116D-07  0.44311259665624D-07
 0.78497500000000D+02  0.42727800375158D-07  0.41492215417150D-07  0.40487798251204D-07  0.39730889625429D-07  0.39233758783468D-07  0.39004308770340D-07  0.39045874959617D-07  0.39357129045189D-07  0.39932090515397D-07  0.40760238776615D-07
 0.78622500000000D+02  0.46734885018172D-07  0.45005759243144D-07  0.43444727503850D-07  0.42077250295306D-07  0.40925712612032D-07  0.40008952817522D-07  0.39341861135370D-07  0.38935068466541D-07  0.38794736339958D-07  0.38922448772172D-07
 0.78747500000000D+02  0.51631985633928D-07  0.49614582833226D-07  0.47684666171925D-07  0.45873464452237D-07  0.44210472856728D-07  0.42722871400574D-07  0.41434979117754D-07  0.40367771349321D-07  0.39538479143374D-07  0.38960279627003D-07
 0.78872500000000D+02  0.56819980440651D-07  0.54746225390404D-07  0.52672026863687D-07  0.50630471429428D-07  0.48654399393677D-07  0.46775794148562D-07  0.45025168114760D-07  0.43430976359114D-07  0.42019083272185D-07  0.40812298593147D-07
 0.78997500000000D+02  0.61685058766244D-07  0.59784951017809D-07  0.57799737756573D-07  0.55760468891341D-07  0.53699367246435D-07  0.51649270574572D-07  0.49643032124304D-07  0.47712910905639D-07  0.45889980597781D-07  0.44203579082968D-07
 0.79122500000000D+02  0.65671769236865D-07  0.64146786224514D-07  0.62464759183590D-07  0.60651356443645D-07  0.58734585023460D-07  0.56744352176838D-07  0.54711954704698D-07  0.52669523595788D-07  0.50649453252372D-07  0.48683840553711D-07
 0.79247500000000D+02  0.68343585215346D-07  0.67345669180178D-07  0.66138623124402D-07  0.64740325362095D-07  0.63171783170890D-07  0.61456854549644D-07  0.59621878414004D-07  0.57695234313326D-07  0.55706858259120D-07  0.53687740657086D-07
 0.79372500000000D+02  0.69423671100829D-07  0.69042077720236D-07  0.68423266398475D-07  0.67576030251063D-07  0.66512663394178D-07  0.65248853903658D-07  0.63803478441449D-07  0.62198311460540D-07  0.60457670751297D-07  0.58608023994362D-07
 0.79497500000000D+02  0.68812844217554D-07  0.69069476055055D-07  0.69085906470104D-07  0.68861627141212D-07  0.68399613473120D-07  0.67706375226057D-07  0.66791912642640D-07  0.65669582295831D-07  0.64355888389323D-07  0.62870221494283D-07
 0.79622500000000D+02  0.66586077711960D-07  0.67438418873237D-07  0.68071179059933D-07  0.68475225818191D-07  0.68644577126641D-07  0.68576582664394D-07  0.68272021357851D-07  0.67735110946128D-07  0.66973438697001D-07  0.65997831727271D-07
 0.79747500000000D+02  0.62972038800347D-07  0.64321860269136D-07  0.65492901804461D-07  0.66468734002070D-07  0.67235512195730D-07  0.67782259349655D-07  0.68101079622773D-07  0.68187290200121D-07  0.68039473440688D-07  0.67659463398763D-07
 0.79872500000000D+02  0.58321390859494D-07  0.60027173362406D-07  0.61610492458582D-07  0.63049381147607D-07  0.64323727463353D-07  0.65415634827260D-07  0.66309729611952D-07  0.66993395517785D-07  0.67456928935138D-07  0.67693623586040D-07
 0.79997500000000D+02  0.53069007628432D-07  0.54960390213090D-07  0.56795745268158D-07  0.58549609513149D-07  0.60197526884148D-07  0.61716466877847D-07  0.63085209472243D-07  0.64284668357168D-07  0.65298137729502D-07  0.66111463240966D-07
 0.80122500000000D+02  0.47693655040288D-07  0.49586811004569D-07  0.51494682041956D-07  0.53390538210224D-07  0.55247724847229D-07  0.57040118618993D-07  0.58742574065444D-07  0.60331325152951D-07  0.61784317424940D-07  0.63081461581401D-07
 0.80247500000000D+02  0.42677145285026D-07  0.44390440880818D-07  0.46187484319967D-07  0.48042614026245D-07  0.49929268585174D-07  0.51820452943452D-07  0.53689224569469D-07  0.55509158626197D-07  0.57254758379208D-07  0.58901790574130D-07
 0.80372500000000D+02  0.38464233420774D-07  0.39833629242460D-07  0.41348122285706D-07  0.42985440142746D-07  0.44721454403192D-07  0.46530619346240D-07  0.48386464447331D-07  0.50262097434178D-07  0.52130676611373D-07  0.53965821236185D-07
 0.80497500000000D+02  0.35424776622633D-07  0.36318216128525D-07  0.37404860709425D-07  0.38667957402592D-07  0.40088044250212D-07  0.41643316652179D-07  0.43310082258726D-07  0.45063263039663D-07  0.46876899182185D-07  0.48724614609245D-07
 0.80622500000000D+02  0.33820496345771D-07  0.34150201483687D-07  0.34703329594869D-07  0.35470371911164D-07  0.36438454223956D-07  0.37591586406452D-07  0.38911031216886D-07  0.40375757461726D-07  0.41962932554283D-07  0.43648408779098D-07
 0.80747500000000D+02  0.33779399505669D-07  0.33510809194305D-07  0.33474757769104D-07  0.33670090450414D-07  0.34091909976213D-07  0.34731673745999D-07  0.35577432436427D-07  0.36614185603102D-07  0.37824314299828D-07  0.39188043887112D-07
 0.80872500000000D+02  0.35280988834770D-07  0.34437181304215D-07  0.33812587732417D-07  0.33414745305537D-07  0.33247406469885D-07  0.33310463260041D-07  0.33600023757807D-07  0.34108629462460D-07  0.34825582614125D-07  0.35737339885106D-07
 0.80997500000000D+02  0.38154671735873D-07  0.36815498471725D-07  0.35660558633861D-07  0.34705572774672D-07  0.33962788983467D-07  0.33440731251077D-07  0.33144098036882D-07  0.33073814569057D-07  0.33227219952501D-07  0.33598352625625D-07
 0.81122500000000D+02  0.42092478105697D-07  0.40388182416423D-07  0.38814419955721D-07  0.37393752911031D-07  0.36145922461947D-07  0.35087434400605D-07  0.34231280760882D-07  0.33586816019895D-07  0.33159782982151D-07  0.32952462230655D-07
 0.81247500000000D+02  0.46675694453737D-07  0.44775350268943D-07  0.42938019355353D-07  0.41191023273625D-07  0.39559807237575D-07  0.38067390704702D-07  0.36733928398761D-07  0.35576414646999D-07  0.34608541280034D-07  0.33840695917327D-07
 0.81372500000000D+02  0.51413605129183D-07  0.49509211739934D-07  0.47592984791253D-07  0.45694343285638D-07  0.43841994648706D-07  0.42063291272546D-07  0.40383661568668D-07  0.38826161067729D-07  0.37411169154629D-07  0.36156233160347D-07
 0.81497500000000D+02  0.55791300286221D-07  0.54078802714993D-07  0.52279849561940D-07  0.50422939495684D-07  0.48537145358410D-07  0.46651430215624D-07  0.44793993123332D-07  0.42991700049993D-07  0.41269639973331D-07  0.39650823848558D-07
 0.81622500000000D+02  0.59322432850813D-07  0.57981331298931D-07  0.56487301179964D-07  0.54864830889619D-07  0.53140266151193D-07  0.51341149916972D-07  0.49495540933061D-07  0.47631372310950D-07  0.45775902227707D-07  0.43955290187157D-07
 0.81747500000000D+02  0.61601873910971D-07  0.60775431270091D-07  0.59745217166444D-07  0.58528879453841D-07  0.57147062668794D-07  0.55622842242672D-07  0.53981084315451D-07  0.52247793241630D-07  0.50449507104266D-07  0.48612788460973D-07
 0.81872500000000D+02  0.62352554919569D-07  0.62130835577699D-07  0.61676285099541D-07  0.60997490322028D-07  0.60106886508446D-07  0.59020354257407D-07  0.57756692689166D-07  0.56337025860687D-07  0.54784205632476D-07  0.53122268265038D-07
 0.81997500000000D+02  0.61460652856589D-07  0.61868612959592D-07  0.62040445718684D-07  0.61974385849802D-07  0.61672956171254D-07  0.61142783051083D-07  0.60394248870564D-07  0.59441027449049D-07  0.58299562485066D-07  0.56988551152046D-07
 0.82122500000000D+02  0.58993938262593D-07  0.59986437331053D-07  0.60766419997023D-07  0.61321638105793D-07  0.61644077804434D-07  0.61730026665972D-07  0.61579954204604D-07  0.61198235725858D-07  0.60592770368660D-07  0.59774554379786D-07
 0.82247500000000D+02  0.55199691251008D-07  0.56664582299074D-07  0.57965438149582D-07  0.59080648530589D-07  0.59992270455705D-07  0.60686350409487D-07  0.61153055535883D-07  0.61386624361695D-07  0.61385173561678D-07  0.61150414814366D-07
 0.82372500000000D+02  0.50480986824860D-07  0.52250441216864D-07  0.53924065553041D-07  0.55473181554124D-07  0.56871748119716D-07  0.58096910100497D-07  0.59129371870727D-07  0.59953585402530D-07  0.60557771342545D-07  0.60933815054061D-07
 0.82497500000000D+02  0.45353021055891D-07  0.47222111421852D-07  0.49075556808096D-07  0.50880831344264D-07  0.52606668880148D-07  0.54223781187358D-07  0.55705435227515D-07  0.57027859002883D-07  0.58170474639793D-07  0.59115984778870D-07
 0.82622500000000D+02  0.40384025298405D-07  0.42134516836649D-07  0.43952088332376D-07  0.45804126744179D-07  0.47657720013239D-07  0.49480466340252D-07  0.51241191383261D-07  0.52910525227583D-07  0.54461317936990D-07  0.55868901594278D-07
 0.82747500000000D+02  0.36127719920103D-07  0.37554186134900D-07  0.39123037363439D-07  0.40805400130332D-07  0.42570555568499D-07  0.44386750392878D-07  0.46221973913206D-07  0.48044639336357D-07  0.49824130054514D-07  0.51531199960403D-07
 0.82872500000000D+02  0.33055803564883D-07  0.33990720442030D-07  0.35126721798738D-07  0.36442070242956D-07  0.37911843937977D-07  0.39508660104325D-07  0.41203425875551D-07  0.42966046371067D-07  0.44766035794718D-07  0.46573002561752D-07
 0.82997500000000D+02  0.31499402992658D-07  0.31833863465114D-07  0.32404324633046D-07  0.33198700358745D-07  0.34200758260945D-07  0.35390677781518D-07  0.36745693898316D-07  0.38240753893024D-07  0.39849122543542D-07  0.41542890965897D-07
 0.83122500000000D+02  0.31607603710168D-07  0.31304756183357D-07  0.31244870857708D-07  0.31426805513085D-07  0.31844808317732D-07  0.32488853422467D-07  0.33345111630850D-07  0.34396487271868D-07  0.35623151534610D-07  0.37003015247270D-07
 0.83247500000000D+02  0.33329157937874D-07  0.32428381407567D-07  0.31749014544205D-07  0.31300751863614D-07  0.31088767209037D-07  0.31113798169801D-07  0.31372401257577D-07  0.31857318545898D-07  0.32557886689410D-07  0.33460423606164D-07
 0.83372500000000D+02  0.36420386152448D-07  0.35031484861666D-07  0.33817078293504D-07  0.32796212223007D-07  0.31984029242088D-07  0.31391605507102D-07  0.31025976897722D-07  0.30890309830717D-07  0.30984153960560D-07  0.31303709499789D-07
 0.83497500000000D+02  0.40478494937204D-07  0.38766671704465D-07  0.37163472559498D-07  0.35694658075074D-07  0.34383131512008D-07  0.33248562691900D-07  0.32307201849232D-07  0.31571856754437D-07  0.31051981616157D-07  0.30753813180270D-07
 0.83622500000000D+02  0.44995578430086D-07  0.43159396128459D-07  0.41355707947317D-07  0.39613605358081D-07  0.37960635418245D-07  0.36422271430667D-07  0.35021557546633D-07  0.33778920352472D-07  0.32712110978451D-07  0.31836220617018D-07
 0.83747500000000D+02  0.49425182931378D-07  0.47670862571613D-07  0.45872309115208D-07  0.44058325378613D-07  0.42257555957102D-07  0.40497877835380D-07  0.38805936052205D-07  0.37206837045541D-07  0.35723980512360D-07  0.34378984059771D-07
 0.83872500000000D+02  0.53251272885318D-07  0.51767226598382D-07  0.50170811588542D-07  0.48487209655308D-07  0.46742715139729D-07  0.44964118231779D-07  0.43178196616622D-07  0.41411345942402D-07  0.39689348041715D-07  0.38037245456935D-07
 0.83997500000000D+02  0.56049337262563D-07  0.54984619741837D-07  0.53755436972883D-07  0.52380734629941D-07  0.50881578952303D-07  0.49280592445030D-07  0.47601458215814D-07  0.45868538502687D-07  0.44106624052545D-07  0.42340799104900D-07
 0.84122500000000D+02  0.57531365317528D-07  0.56980767251702D-07  0.56234505022203D-07  0.55303647727720D-07  0.54202048542866D-07  0.52945872106380D-07  0.51553151146419D-07  0.50043429627866D-07  0.48437525622291D-07  0.46757416038800D-07
