0.100000	0.101578	0.006869
0.120000	0.122374	0.009275
0.140000	0.143388	0.011946
0.160000	0.164607	0.014667
0.180000	0.186027	0.017481
0.200000	0.207640	0.020323
0.220000	0.229418	0.023125
0.240000	0.251334	0.025877
0.260000	0.273358	0.028578
0.280000	0.295471	0.031178
0.300000	0.317643	0.033725
0.320000	0.339865	0.036197
0.340000	0.362119	0.038608
0.360000	0.384396	0.040962
0.380000	0.406692	0.043265
0.400000	0.429004	0.045526
0.420000	0.451326	0.047747
0.440000	0.473662	0.049931
0.460000	0.496007	0.052085
0.480000	0.518381	0.054201
0.500000	0.540730	0.056302
0.520000	0.563110	0.058372
0.540000	0.585501	0.060418
0.560000	0.607905	0.062438
0.580000	0.630322	0.064438
0.600000	0.652753	0.066416
0.620000	0.675198	0.068352
0.640000	0.697660	0.070306
0.660000	0.720136	0.072219
0.680000	0.742628	0.074114
0.700000	0.765135	0.075978
0.720000	0.787659	0.077827
0.740000	0.810199	0.079654
0.760000	0.832756	0.081458
0.780000	0.855330	0.083241
0.800000	0.877923	0.085002
0.820000	0.900538	0.086738
0.840000	0.923149	0.088448
0.860000	0.945789	0.090137
0.880000	0.968448	0.091808
0.900000	0.991122	0.093446
0.920000	1.013810	0.095061
0.940000	1.036516	0.096657
0.960000	1.059239	0.098225
0.980000	1.081976	0.099767
1.000000	1.104726	0.101284

1.020000	1.127497	0.102777
1.040000	1.150282	0.104242
1.060000	1.173083	0.105680
1.080000	1.195895	0.107095
1.100000	1.218725	0.108485
1.120000	1.241560	0.109847
1.140000	1.264423	0.111202
1.160000	1.287288	0.112478
1.180000	1.310165	0.113756
1.200000	1.333063	0.115000
1.220000	1.355968	0.116231
1.240000	1.378882	0.117419
1.260000	1.401815	0.118589
1.280000	1.424755	0.119730
1.300000	1.447707	0.120834
1.320000	1.470667	0.121916
1.340000	1.493647	0.122987
1.360000	1.516620	0.123992
1.380000	1.539612	0.124995
1.400000	1.562611	0.125957
1.420000	1.585635	0.126901
1.440000	1.608634	0.127804
1.460000	1.631657	0.128684
1.480000	1.654693	0.129537
1.500000	1.677733	0.130355
1.520000	1.700775	0.131167
1.540000	1.723823	0.131926
1.560000	1.746889	0.132661
1.580000	1.769953	0.133374
1.600000	1.793043	0.134031
1.620000	1.816095	0.134705
1.640000	1.839178	0.135322
1.660000	1.862262	0.135921
1.680000	1.885350	0.136486
1.700000	1.908436	0.137021
1.720000	1.931541	0.137534
1.740000	1.954627	0.138020
1.760000	1.977731	0.138463
1.780000	2.000837	0.138893
1.800000	2.023957	0.139296
1.820000	2.047064	0.139664
1.840000	2.070177	0.140003
1.860000	2.093288	0.140322
1.880000	2.116410	0.140607
1.900000	2.139522	0.140865
1.920000	2.162630	0.141094
1.940000	2.185758	0.141303
1.960000	2.208881	0.141474
1.980000	2.232005	0.141628
2.000000	2.255117	0.141760
2.020000	2.278209	0.141845
2.040000	2.301368	0.141901
2.060000	2.324469	0.141980
2.080000	2.347598	0.141978
2.100000	2.370717	0.141963
2.120000	2.393866	0.141939
2.140000	2.416927	0.141878
2.160000	2.440070	0.141792
2.180000	2.463172	0.141679
2.200000	2.486295	0.141542
2.220000	2.509390	0.141380
2.240000	2.532491	0.141176
2.260000	2.555609	0.140963
2.280000	2.578703	0.140731
2.300000	2.601800	0.140446
2.320000	2.624914	0.140153
2.340000	2.647997	0.139852
2.360000	2.671097	0.139502
2.380000	2.694164	0.139108
2.400000	2.717226	0.138767
2.420000	2.740352	0.138376
2.440000	2.763444	0.137936
2.460000	2.786496	0.137453
2.480000	2.809554	0.136961
2.500000	2.832626	0.136445
2.520000	2.855713	0.135904
2.540000	2.878783	0.135366
2.560000	2.901809	0.134772
2.580000	2.924872	0.134214
2.600000	2.947889	0.133539
2.620000	2.970966	0.132908
2.640000	2.993977	0.132222
2.660000	3.017011	0.131545
2.680000	3.040063	0.130812
2.700000	3.063098	0.130049
2.720000	3.086136	0.129265
2.740000	3.109145	0.128520
2.760000	3.132110	0.127698
2.780000	3.155120	0.126892
2.800000	3.178130	0.126051
2.820000	3.201121	0.125154
2.840000	3.224120	0.124256
2.860000	3.247105	0.123343
2.880000	3.270066	0.122394
2.900000	3.292991	0.121422
2.920000	3.316054	0.120460
2.940000	3.338971	0.119490
2.960000	3.361956	0.118410
2.980000	3.384868	0.117383
3.000000	3.407796	0.116314
3.020000	3.430754	0.115225
3.040000	3.453686	0.114120
3.060000	3.476643	0.112997
3.080000	3.499559	0.111860
3.100000	3.522437	0.110673
3.120000	3.545306	0.109487
3.140000	3.568226	0.108303
3.160000	3.591137	0.107014
3.180000	3.614037	0.105806
3.200000	3.636909	0.104515
3.220000	3.659782	0.103248
3.240000	3.682647	0.101922
3.260000	3.705454	0.100591
3.280000	3.728334	0.099226
3.300000	3.751203	0.097911
3.320000	3.773990	0.096412
3.340000	3.796873	0.095052
3.360000	3.819728	0.093624
3.380000	3.842549	0.092192
3.400000	3.865381	0.090750
3.420000	3.888115	0.089205
3.440000	3.910925	0.087753
3.460000	3.933804	0.086227
3.480000	3.956500	0.084847
3.500000	3.979300	0.083200
3.520000	4.002054	0.081511
3.540000	4.024783	0.080085
3.560000	4.047661	0.078362
3.580000	4.070332	0.076751
3.600000	4.093186	0.075256
3.620000	4.115743	0.073416
3.640000	4.138360	0.071693
3.660000	4.161235	0.070031
3.680000	4.183977	0.068486
3.700000	4.206690	0.066592
3.720000	4.229382	0.065038
3.740000	4.252024	0.063205
3.760000	4.274741	0.061326
3.780000	4.297413	0.059484
3.800000	4.320044	0.057660
3.820000	4.342753	0.055830
3.840000	4.365350	0.053896
3.860000	4.387969	0.052133
3.880000	4.410604	0.050241
3.900000	4.433235	0.048368
3.920000	4.455972	0.046722
3.940000	4.478511	0.044520
3.960000	4.500929	0.042567
3.980000	4.523615	0.040605
4.000000	4.546086	0.038650
4.020000	4.568620	0.036721
4.040000	4.591607	0.034416
4.060000	4.614273	0.032962
4.080000	4.636754	0.030924
4.100000	4.658602	0.028473
4.120000	4.681520	0.026362
4.140000	4.704211	0.024112
4.160000	4.727138	0.023065
4.180000	4.749308	0.020023
4.200000	4.771185	0.016420
4.220000	4.793967	0.015622
