0.690000	2.251557	0.562401
0.710000	2.314893	0.543556
0.730000	2.376955	0.523988
0.750000	2.437763	0.503809
0.770000	2.497347	0.483136
0.790000	2.555754	0.462096
0.810000	2.614640	0.440447
0.830000	2.671373	0.418214
0.850000	2.727037	0.395514
0.870000	2.781561	0.372384
0.890000	2.835596	0.351344
0.910000	2.889070	0.328312
0.930000	2.941959	0.304838
0.950000	2.990779	0.281789
0.970000	3.041439	0.259137
0.990000	3.091052	0.232407
