0.010000	0.015359	0.001017
0.015000	0.023069	0.002354
0.020000	0.030753	0.004230
0.025000	0.038380	0.006616
0.030000	0.045916	0.009484
0.035000	0.053325	0.012811
0.040000	0.060577	0.016580
0.045000	0.067647	0.020775
0.050000	0.074517	0.025380
0.055000	0.081170	0.030380
0.060000	0.087592	0.035756
0.065000	0.093769	0.041490
0.070000	0.099685	0.047567
0.075000	0.105327	0.053969
0.080000	0.110681	0.060683
0.085000	0.115733	0.067692
0.090000	0.120469	0.074983
0.095000	0.124877	0.082540
0.100000	0.128943	0.090347
0.105000	0.132652	0.098388
0.110000	0.135992	0.106645
0.115000	0.138948	0.115101
0.120000	0.141507	0.123735
0.125000	0.143657	0.132527
0.130000	0.145383	0.141453
0.135000	0.146675	0.150490
0.140000	0.147522	0.159611
0.145000	0.147915	0.168786
0.150000	0.147847	0.177987
0.155000	0.147314	0.187181
0.160000	0.146313	0.196333
0.165000	0.144848	0.205410
0.170000	0.142922	0.214375
0.175000	0.140547	0.223192
0.180000	0.137736	0.231826
0.185000	0.134508	0.240243
0.190000	0.130884	0.248411
0.195000	0.126892	0.256300
0.200000	0.122561	0.263885
0.205000	0.117925	0.271144
0.210000	0.113017	0.278060
0.215000	0.107873	0.284621
0.220000	0.102528	0.290820
0.225000	0.097020	0.296656
0.230000	0.091389	0.302127
0.235000	0.085664	0.307227
0.240000	0.079859	0.311959
0.245000	0.073970	0.316354
0.250000	0.068075	0.320587
0.255000	0.062374	0.324510
0.260000	0.056944	0.327939
0.265000	0.050596	0.331360
0.270000	0.044636	0.334457
0.275000	0.040419	0.336205
