0.000001	0.655800	1.000000	0.062999	1467.090765	1.000000	0.000000
0.001965	0.655800	1.000000	0.062999	1467.090765	1.000000	0.000000
0.007759	0.655800	1.000000	0.062999	1467.090765	1.000000	0.000000
0.017089	0.655800	1.000000	0.062999	1467.090765	1.000000	0.000000
0.029507	0.655800	1.000000	0.062999	1467.090765	1.000000	0.000000
0.044462	0.655800	1.000000	0.062999	1467.090765	1.000000	0.000000
0.061357	0.655800	1.000000	0.062999	1467.090765	1.000000	0.000000
0.079596	0.655800	1.000000	0.062999	1467.090765	1.000000	0.000000
0.098629	0.655800	1.000000	0.062999	1467.090765	1.000000	0.000000
0.117978	0.655800	1.000000	0.062999	1467.090765	1.000000	0.000000
0.137246	0.655800	1.000000	0.062999	1467.090765	1.000000	0.000000
0.156125	0.655800	1.000000	0.062999	1467.090765	1.000000	0.000000
0.174387	0.655800	1.000000	0.062999	1467.090765	1.000000	0.000000
0.191873	0.655800	1.000000	0.062999	1467.090765	1.000000	0.000000
0.208487	0.655800	1.000000	0.062999	1467.090764	1.000000	0.000000
0.224175	0.655800	1.000000	0.062999	1467.090764	1.000000	0.000000
0.238923	0.655800	1.000000	0.062999	1467.090763	1.000000	0.000000
0.252742	0.655800	1.000000	0.062999	1467.090758	1.000000	0.000000
0.265661	0.655800	1.000000	0.062999	1467.090747	1.000000	0.000000
0.277722	0.655800	1.000000	0.062999	1467.090721	1.000000	0.000000
0.288974	0.655800	1.000000	0.062999	1467.090673	1.000000	0.000000
0.299472	0.655800	1.000000	0.062999	1467.090587	1.000000	0.000000
0.309269	0.655800	1.000000	0.062999	1467.090448	1.000000	0.000000
0.318421	0.655800	1.000000	0.062999	1467.090237	0.999999	0.000001
0.326980	0.655800	1.000000	0.062999	1467.089934	0.999999	0.000001
0.334996	0.655800	1.000000	0.062999	1467.089519	0.999998	0.000002
0.342517	0.655800	1.000000	0.062999	1467.088969	0.999997	0.000003
0.349587	0.655799	1.000000	0.062999	1467.088266	0.999996	0.000004
0.356247	0.655799	1.000000	0.062999	1467.087390	0.999995	0.000005
0.362535	0.655799	1.000000	0.062999	1467.086322	0.999994	0.000006
0.368486	0.655798	1.000000	0.062999	1467.085046	0.999992	0.000008
0.374131	0.655798	1.000000	0.062999	1467.083546	0.999990	0.000010
0.379500	0.655798	1.000000	0.062999	1467.081806	0.999987	0.000013
0.384619	0.655797	1.000000	0.063000	1467.079813	0.999985	0.000015
0.389513	0.655796	1.000000	0.063000	1467.077550	0.999981	0.000019
0.394203	0.655796	1.000000	0.063000	1467.075004	0.999978	0.000022
0.398711	0.655795	1.000000	0.063000	1467.072160	0.999974	0.000026
0.403053	0.655794	1.000000	0.063000	1467.069001	0.999969	0.000031
0.407248	0.655793	1.000000	0.063001	1467.065511	0.999964	0.000036
0.411310	0.655792	1.000000	0.063001	1467.061671	0.999959	0.000041
0.415254	0.655791	1.000000	0.063001	1467.057460	0.999953	0.000047
0.419092	0.655789	1.000000	0.063002	1467.052856	0.999946	0.000054
0.422837	0.655788	1.000000	0.063002	1467.047836	0.999939	0.000061
0.426499	0.655787	1.000000	0.063003	1467.042371	0.999932	0.000068
0.430088	0.655785	1.000000	0.063003	1467.036431	0.999923	0.000077
0.433613	0.655783	1.000000	0.063004	1467.029984	0.999914	0.000086
0.437083	0.655781	1.000000	0.063004	1467.022991	0.999904	0.000096
0.440506	0.655779	1.000000	0.063005	1467.015414	0.999894	0.000106
0.443888	0.655777	1.000000	0.063006	1467.007205	0.999882	0.000118
0.447238	0.655774	1.000000	0.063006	1466.998317	0.999869	0.000131
0.450560	0.655772	1.000000	0.063007	1466.988693	0.999856	0.000144
0.453860	0.655769	1.000000	0.063008	1466.978274	0.999841	0.000159
0.457145	0.655766	1.000000	0.063009	1466.966992	0.999825	0.000175
0.460419	0.655762	1.000000	0.063010	1466.954775	0.999808	0.000192
0.463687	0.655759	1.000000	0.063011	1466.941541	0.999789	0.000211
0.466954	0.655755	1.000000	0.063012	1466.927202	0.999769	0.000231
0.470223	0.655750	1.000000	0.063014	1466.911660	0.999747	0.000253
0.473499	0.655746	1.000000	0.063015	1466.894807	0.999723	0.000277
0.476786	0.655740	1.000000	0.063016	1466.876524	0.999697	0.000303
0.480086	0.655735	1.000000	0.063018	1466.856680	0.999669	0.000331
0.483405	0.655729	1.000000	0.063020	1466.835133	0.999639	0.000361
0.486744	0.655722	1.000000	0.063022	1466.811722	0.999606	0.000394
0.490107	0.655715	1.000000	0.063024	1466.786273	0.999570	0.000430
0.493497	0.655708	1.000000	0.063026	1466.758594	0.999531	0.000469
0.496917	0.655699	1.000000	0.063029	1466.728473	0.999488	0.000512
0.500370	0.655690	1.000000	0.063032	1466.695674	0.999442	0.000558
0.503859	0.655680	1.000000	0.063035	1466.659939	0.999392	0.000608
0.507385	0.655669	1.000000	0.063038	1466.620982	0.999337	0.000663
0.510953	0.655658	1.000000	0.063041	1466.578487	0.999277	0.000723
0.514564	0.655645	1.000000	0.063045	1466.532106	0.999211	0.000789
0.518220	0.655631	1.000000	0.063049	1466.481452	0.999140	0.000860
0.521925	0.655615	1.000000	0.063054	1466.426097	0.999062	0.000938
0.525681	0.655599	1.000000	0.063059	1466.365569	0.998976	0.001024
0.529489	0.655580	1.000000	0.063065	1466.299343	0.998883	0.001117
0.533354	0.655560	1.000000	0.063071	1466.226838	0.998780	0.001220
0.537275	0.655538	1.000000	0.063077	1466.147408	0.998668	0.001332
0.541258	0.655514	1.000000	0.063085	1466.060339	0.998545	0.001455
0.545302	0.655487	1.000000	0.063093	1465.964836	0.998410	0.001590
0.549411	0.655458	1.000000	0.063101	1465.860016	0.998263	0.001737
0.553588	0.655426	1.000000	0.063111	1465.744896	0.998100	0.001900
0.557834	0.655391	1.000000	0.063122	1465.618386	0.997922	0.002078
0.562151	0.655352	1.000000	0.063133	1465.479268	0.997725	0.002275
0.566543	0.655310	1.000000	0.063146	1465.326188	0.997509	0.002491
0.571012	0.655263	1.000000	0.063160	1465.157638	0.997272	0.002728
0.575560	0.655212	1.000000	0.063176	1464.971934	0.997010	0.002990
0.580189	0.655155	1.000000	0.063193	1464.767199	0.996721	0.003279
0.584902	0.655092	1.000000	0.063212	1464.541334	0.996403	0.003597
0.589702	0.655023	1.000000	0.063233	1464.291999	0.996051	0.003949
0.594591	0.654947	1.000000	0.063256	1464.016573	0.995663	0.004337
0.599571	0.654862	1.000000	0.063281	1463.712130	0.995234	0.004766
0.604647	0.654769	1.000000	0.063309	1463.375391	0.994759	0.005241
0.609819	0.654666	1.000000	0.063341	1463.002687	0.994234	0.005766
0.615091	0.654551	1.000000	0.063376	1462.589908	0.993653	0.006347
0.620466	0.654425	1.000000	0.063414	1462.132446	0.993009	0.006991
0.625946	0.654284	1.000000	0.063457	1461.625133	0.992295	0.007705
0.631536	0.654128	1.000000	0.063504	1461.062174	0.991503	0.008497
0.637237	0.653955	1.000000	0.063557	1460.437060	0.990624	0.009376
0.643052	0.653763	1.000000	0.063616	1459.742486	0.989648	0.010352
0.648986	0.653550	1.000000	0.063681	1458.970245	0.988563	0.011437
0.655042	0.653313	1.000000	0.063754	1458.111114	0.987357	0.012643
0.661222	0.653048	1.000000	0.063835	1457.154728	0.986015	0.013985
0.667530	0.652755	1.000000	0.063926	1456.089435	0.984521	0.015479
0.673970	0.652427	1.000000	0.064027	1454.902133	0.982857	0.017143
0.680546	0.652063	1.000000	0.064140	1453.578094	0.981003	0.018997
0.687261	0.651656	1.000000	0.064267	1452.100754	0.978937	0.021063
0.694120	0.651203	1.000000	0.064409	1450.451498	0.976633	0.023367
0.701126	0.650697	1.000000	0.064568	1448.609404	0.974062	0.025938
0.708283	0.650133	1.000000	0.064746	1446.550973	0.971193	0.028807
0.715596	0.649503	1.000000	0.064947	1444.249824	0.967991	0.032009
0.723069	0.648799	1.000000	0.065172	1441.676369	0.964416	0.035584
0.730708	0.648014	1.000000	0.065425	1438.797457	0.960424	0.039576
0.738516	0.647137	1.000000	0.065710	1435.575992	0.955966	0.044034
0.746498	0.646157	1.000000	0.066031	1431.970536	0.950989	0.049011
0.754660	0.645064	1.000000	0.066393	1427.934893	0.945432	0.054568
0.763007	0.643844	1.000000	0.066802	1423.417684	0.939231	0.060769
0.771544	0.642483	1.000000	0.067265	1418.361940	0.932314	0.067686
0.780277	0.640966	1.000000	0.067788	1412.704709	0.924603	0.075397
0.789212	0.639276	1.000000	0.068380	1406.376721	0.916013	0.083987
0.798355	0.637396	1.000000	0.069051	1399.302137	0.906456	0.093544
0.807711	0.635306	1.000000	0.069813	1391.398411	0.895834	0.104166
0.817288	0.632988	1.000000	0.070677	1382.576338	0.884049	0.115951
0.827093	0.630420	1.000000	0.071661	1372.740328	0.870997	0.129003
0.837131	0.627582	1.000000	0.072779	1361.788987	0.856574	0.143426
0.847411	0.624454	1.000000	0.074054	1349.616073	0.840676	0.159324
0.857940	0.621017	1.000000	0.075507	1336.111932	0.823205	0.176795
0.868726	0.617252	1.000000	0.077165	1321.165464	0.804070	0.195930
0.879776	0.613145	1.000000	0.079059	1304.666721	0.783194	0.216806
0.891100	0.608684	1.000000	0.081225	1286.510171	0.760521	0.239479
0.902706	0.603863	1.000000	0.083703	1266.598656	0.736017	0.263983
0.914603	0.598681	1.000000	0.086540	1244.847997	0.709681	0.290319
0.926801	0.593145	1.000000	0.089791	1221.192148	0.681549	0.318451
0.939309	0.587272	1.000000	0.093519	1195.588709	0.651700	0.348300
0.952138	0.581086	1.000000	0.097796	1168.024518	0.620261	0.379739
0.965298	0.574621	1.000000	0.102704	1138.520960	0.587408	0.412592
0.978800	0.567923	1.000000	0.108337	1107.138560	0.553369	0.446631
0.992657	0.561044	1.000000	0.114803	1073.980399	0.518416	0.481584
1.006880	0.554047	1.000000	0.122222	1039.193913	0.482865	0.517135
1.021482	0.546999	1.000000	0.130732	1002.970724	0.447058	0.552942
1.036476	0.539972	1.000000	0.140483	965.544272	0.411361	0.588639
1.051875	0.533037	1.000000	0.151642	927.185233	0.376141	0.623859
1.067695	0.526265	1.000000	0.164392	888.194899	0.341754	0.658246
1.083949	0.519719	1.000000	0.178925	848.896884	0.308534	0.691466
1.100654	0.513459	1.000000	0.195443	809.627688	0.276775	0.723225
1.117826	0.507531	1.000000	0.214150	770.726714	0.246724	0.753276
1.135481	0.501972	1.000000	0.235241	732.526339	0.218576	0.781424
1.153639	0.496807	1.000000	0.258894	695.342574	0.192464	0.807536
1.172316	0.492050	1.000000	0.285250	659.466715	0.168468	0.831532
1.191534	0.487704	1.000000	0.314400	625.158283	0.146615	0.853385
1.211312	0.483761	1.000000	0.346359	592.639391	0.126883	0.873117
1.231672	0.480203	1.000000	0.381052	562.090629	0.109210	0.890790
1.252637	0.477007	1.000000	0.418288	533.648472	0.093502	0.906498
1.274229	0.474142	1.000000	0.457757	507.404212	0.079643	0.920357
1.296473	0.471570	1.000000	0.499016	483.404402	0.067499	0.932501
1.319397	0.469248	1.000000	0.541507	461.652751	0.056927	0.943073
1.343026	0.467129	1.000000	0.584574	442.113393	0.047780	0.952220
1.367389	0.465159	1.000000	0.627498	424.715357	0.039912	0.960088
1.392516	0.463276	1.000000	0.669546	409.357991	0.033183	0.966817
1.418440	0.461407	1.000000	0.710018	395.917035	0.027460	0.972540
1.445192	0.459467	1.000000	0.748291	384.250963	0.022616	0.977384
1.472809	0.457353	1.000000	0.783861	374.207239	0.018539	0.981461
1.501326	0.454936	1.000000	0.816365	365.628145	0.015124	0.984876
1.530783	0.452052	1.000000	0.845586	358.355926	0.012278	0.987722
1.561220	0.448496	1.000000	0.871454	352.237065	0.009918	0.990082
1.592681	0.444004	1.000000	0.894020	347.125620	0.007970	0.992030
1.625211	0.438245	1.000000	0.913438	342.885621	0.006371	0.993629
1.658858	0.430802	1.000000	0.929934	339.392597	0.005066	0.994934
1.693673	0.421171	1.000000	0.943781	336.534364	0.004005	0.995995
1.729708	0.408766	1.000000	0.955275	334.211188	0.003148	0.996852
1.767022	0.392950	1.000000	0.964715	332.335494	0.002459	0.997541
1.805673	0.373110	1.000000	0.972392	330.831228	0.001909	0.998091
1.845725	0.348785	1.000000	0.978575	329.633010	0.001472	0.998528
1.887245	0.319837	1.000000	0.983511	328.685157	0.001127	0.998873
1.930305	0.286649	1.000000	0.987415	327.940653	0.000857	0.999143
1.974979	0.250242	1.000000	0.990475	327.360130	0.000647	0.999353
2.021349	0.212250	1.000000	0.992854	326.910882	0.000484	0.999516
2.069499	0.174672	1.000000	0.994687	326.565946	0.000359	0.999641
2.119520	0.139478	1.000000	0.996086	326.303267	0.000264	0.999736
2.171507	0.108216	1.000000	0.997144	326.104941	0.000193	0.999807
2.225563	0.081769	1.000000	0.997937	325.956546	0.000139	0.999861
2.281798	0.060345	1.000000	0.998526	325.846558	0.000099	0.999901
2.340326	0.043621	1.000000	0.998958	325.765848	0.000070	0.999930
2.401273	0.030967	1.000000	0.999272	325.707244	0.000049	0.999951
2.464770	0.021638	1.000000	0.999498	325.665161	0.000034	0.999966
2.530958	0.014906	1.000000	0.999658	325.635297	0.000023	0.999977
2.599988	0.010135	1.000000	0.999770	325.614366	0.000015	0.999985
2.672022	0.006807	1.000000	0.999848	325.599889	0.000010	0.999990
2.747232	0.004518	1.000000	0.999901	325.590016	0.000007	0.999993
2.825803	0.002963	1.000000	0.999936	325.583381	0.000004	0.999996
2.907934	0.001920	1.000000	0.999960	325.578993	0.000003	0.999997
2.993838	0.001229	1.000000	0.999975	325.576140	0.000002	0.999998
3.083744	0.000776	1.000000	0.999985	325.574316	0.000001	0.999999
3.177897	0.000484	1.000000	0.999991	325.573174	0.000001	0.999999
3.276563	0.000297	1.000000	0.999995	325.572472	0.000000	1.000000
3.380025	0.000180	1.000000	0.999997	325.572050	0.000000	1.000000
3.488593	0.000107	1.000000	0.999998	325.571802	0.000000	1.000000
3.602596	0.000063	1.000000	0.999999	325.571660	0.000000	1.000000
3.722394	0.000036	1.000000	1.000000	325.571581	0.000000	1.000000
3.848373	0.000020	1.000000	1.000000	325.571538	0.000000	1.000000
3.980952	0.000011	1.000000	1.000000	325.571515	0.000000	1.000000
4.120584	0.000006	1.000000	1.000000	325.571504	0.000000	1.000000
4.267763	0.000003	1.000000	1.000000	325.571498	0.000000	1.000000
4.423021	0.000002	1.000000	1.000000	325.571495	0.000000	1.000000
4.586938	0.000001	1.000000	1.000000	325.571494	0.000000	1.000000
4.760146	0.000000	1.000000	1.000000	325.571494	0.000000	1.000000
4.943330	0.000000	1.000000	1.000000	325.571493	0.000000	1.000000
5.137239	0.000000	1.000000	1.000000	325.571493	0.000000	1.000000
5.342688	0.000000	1.000000	1.000000	325.571493	0.000000	1.000000
5.560569	0.000000	1.000000	1.000000	325.571493	0.000000	1.000000
5.791853	0.000000	1.000000	1.000000	325.571493	0.000000	1.000000
6.037607	0.000000	1.000000	1.000000	325.571493	0.000000	1.000000
6.298994	0.000000	1.000000	1.000000	325.571493	0.000000	1.000000
6.577293	0.000000	1.000000	1.000000	325.571493	0.000000	1.000000
6.873904	0.000000	1.000000	1.000000	325.571493	0.000000	1.000000
7.190362	0.000000	1.000000	1.000000	325.571493	0.000000	1.000000
7.528354	0.000000	1.000000	1.000000	325.571493	0.000000	1.000000
7.889733	0.000000	1.000000	1.000000	325.571493	0.000000	1.000000
8.276536	0.000000	1.000000	1.000000	325.571493	0.000000	1.000000
8.690999	0.000000	1.000000	1.000000	325.571493	0.000000	1.000000
9.135582	0.000000	1.000000	1.000000	325.571493	0.000000	1.000000
9.612987	0.000000	1.000000	1.000000	325.571493	0.000000	1.000000
10.126181	0.000000	1.000000	1.000000	325.571493	0.000000	1.000000
10.678416	0.000000	1.000000	1.000000	325.571493	0.000000	1.000000
11.273256	0.000000	1.000000	1.000000	325.571493	0.000000	1.000000
11.914596	0.000000	1.000000	1.000000	325.571493	0.000000	1.000000
12.606676	0.000000	1.000000	1.000000	325.571493	0.000000	1.000000
13.354101	0.000000	1.000000	1.000000	325.571493	0.000000	1.000000
14.161842	0.000000	1.000000	1.000000	325.571493	0.000000	1.000000
15.035227	0.000000	1.000000	1.000000	325.571493	0.000000	1.000000
15.979917	0.000000	1.000000	1.000000	325.571493	0.000000	1.000000
17.001850	0.000000	1.000000	1.000000	325.571493	0.000000	1.000000
18.107157	0.000000	1.000000	1.000000	325.571493	0.000000	1.000000
19.302016	0.000000	1.000000	1.000000	325.571493	0.000000	1.000000
20.592448	0.000000	1.000000	1.000000	325.571493	0.000000	1.000000
21.984026	0.000000	1.000000	1.000000	325.571493	0.000000	1.000000
23.481468	0.000000	1.000000	1.000000	325.571493	0.000000	1.000000
25.088095	0.000000	1.000000	1.000000	325.571493	0.000000	1.000000
26.805126	0.000000	1.000000	1.000000	325.571493	0.000000	1.000000
28.630794	0.000000	1.000000	1.000000	325.571493	0.000000	1.000000
30.559263	0.000000	1.000000	1.000000	325.571493	0.000000	1.000000
32.579383	0.000000	1.000000	1.000000	325.571493	0.000000	1.000000
34.673333	0.000000	1.000000	1.000000	325.571493	0.000000	1.000000
36.815279	0.000000	1.000000	1.000000	325.571493	0.000000	1.000000
38.970252	0.000000	1.000000	1.000000	325.571493	0.000000	1.000000
41.093534	0.000000	1.000000	1.000000	325.571493	0.000000	1.000000
43.130909	0.000000	1.000000	1.000000	325.571493	0.000000	1.000000
45.020150	0.000000	1.000000	1.000000	325.571493	0.000000	1.000000
46.694017	0.000000	1.000000	1.000000	325.571493	0.000000	1.000000
48.084823	0.000000	1.000000	1.000000	325.571493	0.000000	1.000000
49.130249	0.000000	1.000000	1.000000	325.571493	0.000000	1.000000
49.779679	0.000000	1.000000	1.000000	325.571493	0.000000	1.000000
50.000000	0.000000	1.000000	1.000000	325.571493	0.000000	1.000000
