 0.12000000000000D+01
 0.80095000000000D+02  0.69057363233452D-08  0.68089034339206D-08  0.66817063618628D-08  0.65307360979429D-08  0.63636260458916D-08  0.61888089574640D-08  0.60152300328626D-08  0.58520341589250D-08  0.57082264403269D-08  0.55923230626614D-08
 0.80195000000000D+02  0.71393942963276D-08  0.70977213550119D-08  0.70178817601673D-08  0.69046574909446D-08  0.67641495665098D-08  0.66035976703118D-08  0.64311452397023D-08  0.62555662314020D-08  0.60859525995143D-08  0.59313728824399D-08
 0.80295000000000D+02  0.72944350126202D-08  0.73163449695997D-08  0.72948484875335D-08  0.72326166077316D-08  0.71338309057465D-08  0.70040765071809D-08  0.68501730162748D-08  0.66799570566519D-08  0.65020154905498D-08  0.63253718623180D-08
 0.80395000000000D+02  0.73619318201164D-08  0.74522291987160D-08  0.74967503086628D-08  0.74958717665142D-08  0.74515756419312D-08  0.73674225814345D-08  0.72484588980560D-08  0.71010681921385D-08  0.69327667277622D-08  0.67519364810465D-08
 0.80495000000000D+02  0.73379539174930D-08  0.74975381116122D-08  0.76119914644305D-08  0.76793424512466D-08  0.76992172013623D-08  0.76728950239816D-08  0.76032978310195D-08  0.74949204291827D-08  0.73537011669452D-08  0.71868179173933D-08
 0.80595000000000D+02  0.72238083340865D-08  0.74496086118371D-08  0.76339124736852D-08  0.77724804259545D-08  0.78625597072845D-08  0.79030198841778D-08  0.78944262177774D-08  0.78390539173554D-08  0.77408431021847D-08  0.76052707043922D-08
 0.80695000000000D+02  0.70259828610028D-08  0.73111205957944D-08  0.75611875881559D-08  0.77698869765117D-08  0.79322000498180D-08  0.80445950012556D-08  0.81051811183975D-08  0.81138076201569D-08  0.80721073456566D-08  0.79834534522362D-08
 0.80795000000000D+02  0.67557908162525D-08  0.70899615057370D-08  0.73979190388329D-08  0.76716392321269D-08  0.79040809404995D-08  0.80894567860193D-08  0.82234604095875D-08  0.83034457272776D-08  0.83285588032561D-08  0.82997835476359D-08
 0.80895000000000D+02  0.64287357416162D-08  0.67987906031506D-08  0.71534202436100D-08  0.74833046306448D-08  0.77797413925956D-08  0.80349636291437D-08  0.82424281770911D-08  0.83970664833817D-08  0.84954991083203D-08  0.85361696412489D-08
 0.80995000000000D+02  0.60636305991847D-08  0.64543256978208D-08  0.68416979316279D-08  0.72156401807172D-08  0.75662478968521D-08  0.78841661844295D-08  0.81609233602050D-08  0.83892404173998D-08  0.85633178195434D-08  0.86790518197728D-08
 0.81095000000000D+02  0.56815207689505D-08  0.60763914649848D-08  0.64806606708217D-08  0.68839912724829D-08  0.72758076455159D-08  0.76456522638405D-08  0.79835460047252D-08  0.82803396269581D-08  0.85280582339003D-08  0.87201893888496D-08
 0.81195000000000D+02  0.53044722203379D-08  0.56867828707141D-08  0.60910975276103D-08  0.65074223607527D-08  0.69250834914168D-08  0.73330725854729D-08  0.77204135619045D-08  0.80765368552136D-08  0.83916634104025D-08  0.86571497146158D-08
 0.81295000000000D+02  0.49542948444530D-08  0.53080086907116D-08  0.56954845439632D-08  0.61076278446387D-08  0.65342478547002D-08  0.69643720990226D-08  0.73865985143159D-08  0.77894716946032D-08  0.81618857582836D-08  0.84934679287719D-08
 0.81395000000000D+02  0.46512754822672D-08  0.49619878832653D-08  0.53166874907915D-08  0.57076849022367D-08  0.61258284539085D-08  0.65607689982636D-08  0.70012771492858D-08  0.74356003443669D-08  0.78518625714699D-08  0.82384656565495D-08
 0.81495000000000D+02  0.44129952964238D-08  0.46687751006188D-08  0.49766362152991D-08  0.53307200343449D-08  0.57234115577930D-08  0.61455387609196D-08  0.65866364455561D-08  0.70352638463242D-08  0.74793791369009D-08  0.79067362953486D-08
 0.81595000000000D+02  0.42533017137218D-08  0.44453905835328D-08  0.46950483315480D-08  0.49985669347157D-08  0.53502775836140D-08  0.57426726662448D-08  0.61666007370013D-08  0.66115265266985D-08  0.70658593982363D-08  0.75173236719543D-08
 0.81695000000000D+02  0.41814964060593D-08  0.43048240545778D-08  0.44882777613753D-08  0.47304945798361D-08  0.50280486598441D-08  0.53754884178410D-08  0.57654511235462D-08  0.61888504381457D-08  0.66351405163931D-08  0.70926390147778D-08
 0.81795000000000D+02  0.42017881635143D-08  0.42552722779615D-08  0.43683567644272D-08  0.45420809409332D-08  0.47754278310732D-08  0.50652741481692D-08  0.54064177422064D-08  0.57916820084257D-08  0.62121010068991D-08  0.66571769951027D-08
 0.81895000000000D+02  0.43130437932678D-08  0.42996562490993D-08  0.43422889520593D-08  0.44442995900883D-08  0.46071048060615D-08  0.48300458730110D-08  0.51103274517798D-08  0.54430331346566D-08  0.58212215679839D-08  0.62361041117983D-08
 0.81995000000000D+02  0.45088523209153D-08  0.44354473378078D-08  0.44116360007370D-08  0.44428741331462D-08  0.45328937425320D-08  0.46834923716741D-08  0.48943869652477D-08  0.51631401383803D-08  0.54851625685929D-08  0.58538010738293D-08
 0.82095000000000D+02  0.47778989007879D-08  0.46548131664551D-08  0.45724232610208D-08  0.45379395744492D-08  0.45571550396602D-08  0.46341707818278D-08  0.47711740381620D-08  0.49682801341234D-08  0.52234420327418D-08  0.55324444569345D-08
 0.82195000000000D+02  0.51046261616016D-08  0.49450747305273D-08  0.48153702902760D-08  0.47240313682667D-08  0.46785362704745D-08  0.46850015157427D-08  0.47478973645246D-08  0.48698156002637D-08  0.50512927321794D-08  0.52907114371492D-08
 0.82295000000000D+02  0.54701434179725D-08  0.52894474944365D-08  0.51264327363926D-08  0.49904031886563D-08  0.48900482667006D-08  0.48330933048253D-08  0.48259700273323D-08  0.48735247378899D-08  0.49787669066457D-08  0.51426848127130D-08
 0.82395000000000D+02  0.58533293688512D-08  0.56680221214097D-08  0.54876232196140D-08  0.53216546079153D-08  0.51794721712657D-08  0.50699093632922D-08  0.50009226529477D-08  0.49792583278166D-08  0.50101427192449D-08  0.50970241281030D-08
 0.82495000000000D+02  0.62320625106946D-08  0.60589262089854D-08  0.58780621019224D-08  0.56986311845402D-08  0.55300732869531D-08  0.53817650820426D-08  0.52626619911132D-08  0.51809442756822D-08  0.51436686723081D-08  0.51564531451730D-08
 0.82595000000000D+02  0.65845062096790D-08  0.64395977942350D-08  0.62751953621208D-08  0.60995431204835D-08  0.59215790551755D-08  0.57506276362403D-08  0.55960597819384D-08  0.54669400926145D-08  0.53716619544861D-08  0.53175950946938D-08
 0.82695000000000D+02  0.68903726150887D-08  0.67880951041798D-08  0.66561070599584D-08  0.65012356892349D-08  0.63313626791106D-08  0.61551697001790D-08  0.59818368145421D-08  0.58207125281184D-08  0.56809553380005D-08  0.55711662506812D-08
 0.82795000000000D+02  0.71320914623119D-08  0.70843654005657D-08  0.69988486528769D-08  0.68805358614661D-08  0.67357617591376D-08  0.65720142726808D-08  0.63976893108767D-08  0.62218038033049D-08  0.60536661606145D-08  0.59025167217544D-08
 0.82895000000000D+02  0.72958161125787D-08  0.73113988353297D-08  0.72837069950780D-08  0.72155954760998D-08  0.71114535800378D-08  0.69770963807272D-08  0.68195903162293D-08  0.66470266563489D-08  0.64682414665451D-08  0.62924863364406D-08
 0.82995000000000D+02  0.73722094322926D-08  0.74562007196310D-08  0.74943371524893D-08  0.74871521153784D-08  0.74368058195542D-08  0.73470608298819D-08  0.72231885493312D-08  0.70718168054883D-08  0.69007167944435D-08  0.67185244672060D-08
 0.83095000000000D+02  0.73569656160894D-08  0.75105269654710D-08  0.76186948549763D-08  0.76796344124826D-08  0.76931235489914D-08  0.76606135711540D-08  0.75852217724174D-08  0.74716623042572D-08  0.73261134419176D-08  0.71560068132291D-08
 0.83195000000000D+02  0.72510399148476D-08  0.74713419076456D-08  0.76497158545813D-08  0.77820484146090D-08  0.78657202535724D-08  0.78997476825289D-08  0.78848614668578D-08  0.78235251463056D-08  0.77198910861451D-08  0.75796705459493D-08
 0.83295000000000D+02  0.70605754411612D-08  0.73409743124811D-08  0.75857048244624D-08  0.77885951449589D-08  0.79447516967521D-08  0.80507731179936D-08  0.81049103822880D-08  0.81071715687826D-08  0.80593698556229D-08  0.79650825240166D-08
 0.83395000000000D+02  0.67965337461453D-08  0.71269650896091D-08  0.74304137248913D-08  0.76989857504263D-08  0.79257660175378D-08  0.81050916594164D-08  0.82327839774080D-08  0.83063336525413D-08  0.83250384348974D-08  0.82900538767408D-08
 0.83495000000000D+02  0.64740526728399D-08  0.68416179793463D-08  0.71928077076998D-08  0.75184385485009D-08  0.78099405202358D-08  0.80596740750414D-08  0.82612202100653D-08  0.84096355474545D-08  0.85016722990322D-08  0.85359181509234D-08
 0.83595000000000D+02  0.61115701563827D-08  0.65012812673871D-08  0.68865345482910D-08  0.72573607952723D-08  0.76039941097250D-08  0.79172143237771D-08  0.81886786525664D-08  0.84112322043573D-08  0.85791981536338D-08  0.86885990795356D-08
 0.83695000000000D+02  0.57297653554975D-08  0.61254034560442D-08  0.65291302621788D-08  0.69307359945975D-08  0.73197831161686D-08  0.76859546265018D-08  0.80194084347216D-08  0.83111258965757D-08  0.85532562658729D-08  0.87394072128713D-08
 0.83795000000000D+02  0.53503781286582D-08  0.57354180187963D-08  0.61410080732797D-08  0.65572540400772D-08  0.69736062433286D-08  0.73791942091230D-08  0.77631838987262D-08  0.81151449462621D-08  0.84254305770000D-08  0.86855212476996D-08
 0.83895000000000D+02  0.49949739691324D-08  0.53535212841211D-08  0.57442895055888D-08  0.61582355404682D-08  0.65852605595279D-08  0.70145124093226D-08  0.74347259284242D-08  0.78345887538298D-08  0.82031361290069D-08  0.85301288076742D-08
 0.83995000000000D+02  0.46837238471689D-08  0.50014127378352D-08  0.53615445107053D-08  0.57564126119491D-08  0.61769039707120D-08  0.66127526423305D-08  0.70528445991136D-08  0.74855622978953D-08  0.78991732170613D-08  0.82822214760246D-08
 0.84095000000000D+02  0.44342669394543D-08  0.46990684115293D-08  0.50145118713129D-08  0.53746357140753D-08  0.57717897967056D-08  0.61968266138050D-08  0.66393541186270D-08  0.70880406491962D-08  0.75309766306770D-08  0.79560588458384D-08
 0.84195000000000D+02  0.42607191137348D-08  0.44636155548946D-08  0.47228714986188D-08  0.50345794618992D-08  0.53929454499237D-08  0.57904075196193D-08  0.62178232066579D-08  0.66647187900410D-08  0.71196053102981D-08  0.75703350769113D-08
 0.84295000000000D+02  0.41728816143636D-08  0.43083706818206D-08  0.45031367405461D-08  0.47555196827973D-08  0.50618695463385D-08  0.54165863706028D-08  0.58122325053561D-08  0.62397134045256D-08  0.66885318224668D-08  0.71470978969627D-08
 0.84395000000000D+02  0.41756931494508D-08  0.42420937177288D-08  0.43677277000152D-08  0.45532494290515D-08  0.47973200364981D-08  0.50965668379619D-08  0.54456149733626D-08  0.58371907749250D-08  0.62623015474114D-08  0.67104833003380D-08
 0.84495000000000D+02  0.42689551244682D-08  0.42684988907815D-08  0.43242762622195D-08  0.44391935225608D-08  0.46142603124407D-08  0.48484711659609D-08  0.51387553601170D-08  0.54799981884838D-08  0.58651379052263D-08  0.62853387330052D-08
 0.84595000000000D+02  0.44473448077339D-08  0.43860488539321D-08  0.43752006231490D-08  0.44197699790079D-08  0.45230210946550D-08  0.46863229824318D-08  0.49090208811484D-08  0.51883752601261D-08  0.55195720844266D-08  0.58958128960092D-08
 0.84695000000000D+02  0.47007155199866D-08  0.45880430376793D-08  0.45175722884859D-08  0.44960329559285D-08  0.45287237635962D-08  0.46192626786808D-08  0.47693874157558D-08  0.49788164647938D-08  0.52451735760539D-08  0.55639912775007D-08
 0.84795000000000D+02  0.50146673124763D-08  0.48629952090011D-08  0.47432825424577D-08  0.46636164189013D-08  0.46309963357760D-08  0.46510380081503D-08  0.47277144028206D-08  0.48631473030774D-08  0.50574515728723D-08  0.53086531957264D-08
 0.84895000000000D+02  0.53713568305356D-08  0.51952794650675D-08  0.50394990865476D-08  0.49129813211107D-08  0.48239972563603D-08  0.47797973716445D-08  0.47863077446769D-08  0.48478644239752D-08  0.49669873776388D-08  0.51442187772127D-08
 0.84995000000000D+02  0.57505019093284D-08  0.55660092221574D-08  0.53893877459150D-08  0.52299525796886D-08  0.50967454132243D-08  0.49981967096658D-08  0.49417941853019D-08  0.49337753694339D-08  0.49788449549973D-08  0.50799433713332D-08
 0.85095000000000D+02  0.61305256013651D-08  0.59541009242765D-08  0.57730596415044D-08  0.55965163453318D-08  0.54337381240246D-08  0.52938138572744D-08  0.51853136307026D-08  0.51159571646985D-08  0.50922913701333D-08  0.51194030395198D-08
 0.85195000000000D+02  0.64897763750182D-08  0.63374638652189D-08  0.61686917751486D-08  0.59918338043310D-08  0.58158231525634D-08  0.56498474996135D-08  0.55030185937906D-08  0.53840356055841D-08  0.53008418940088D-08  0.52602987045230D-08
 0.85295000000000D+02  0.68077566018883D-08  0.66942502531742D-08  0.65537592299834D-08  0.63934157613555D-08  0.62212768746725D-08  0.60460623444179D-08  0.58768532485611D-08  0.57227696720473D-08  0.55926268911594D-08  0.54945891407751D-08
 0.85395000000000D+02  0.70662904639736D-08  0.70040958689979D-08  0.69063106841131D-08  0.67783931635857D-08  0.66270292602900D-08  0.64599285951783D-08  0.62855693156351D-08  0.61129089076324D-08  0.59510601369252D-08  0.58089451204600D-08
 0.85495000000000D+02  0.72505651775789D-08  0.72492816335130D-08  0.72062160571886D-08  0.71248130474073D-08  0.70099679800689D-08  0.68678929708093D-08  0.67059229555480D-08  0.65322766880357D-08  0.63557718185940D-08  0.61854996041043D-08
 0.85595000000000D+02  0.73499858772546D-08  0.74157501773237D-08  0.74363160699829D-08  0.74128874649442D-08  0.73482491538213D-08  0.72467109597438D-08  0.71139867015194D-08  0.69570198259742D-08  0.67837549914588D-08  0.66028527582857D-08
 0.85695000000000D+02  0.73587943604862D-08  0.74939189741496D-08  0.75834083182946D-08  0.76261249457520D-08  0.76225413396640D-08  0.75747661536095D-08  0.74865037735021D-08  0.73629555820920D-08  0.72106624334429D-08  0.70372766151430D-08
 0.85795000000000D+02  0.72764146999007D-08  0.74792424315662D-08  0.76390129660906D-08  0.77522799390955D-08  0.78171324344317D-08  0.78333026382932D-08  0.78022092750055D-08  0.77269413914038D-08  0.76121822996348D-08  0.74640530825304D-08
 0.85895000000000D+02  0.71075038429020D-08  0.73724890137740D-08  0.75998729684339D-08  0.77840652299280D-08  0.79208361334396D-08  0.80075005941277D-08  0.80430439957773D-08  0.80281908231557D-08  0.79654162010169D-08  0.78588713659437D-08
 0.85995000000000D+02  0.68617019435251D-08  0.71797153058313D-08  0.74681582693507D-08  0.77195850893919D-08  0.79276451890135D-08  0.80873333314343D-08  0.81951918387642D-08  0.82494616306516D-08  0.82501826249456D-08  0.81992071126567D-08
 0.86095000000000D+02  0.65530943950225D-08  0.69119360759354D-08  0.72513599377221D-08  0.75624622795426D-08  0.78370924167837D-08  0.80681556120567D-08  0.82498810602190D-08  0.83780481725222D-08  0.84501720875244D-08  0.84656059913400D-08
 0.86195000000000D+02  0.61994143703446D-08  0.65845069016901D-08  0.69618778189023D-08  0.73216491854243D-08  0.76542965423300D-08  0.79509877281008D-08  0.82039021474491D-08  0.84065207405791D-08  0.85538879587162D-08  0.86427990315386D-08
 0.86295000000000D+02  0.58210301312488D-08  0.62162527887013D-08  0.66163230061349D-08  0.70109313660054D-08  0.73896877121810D-08  0.77424766871390D-08  0.80598106480598D-08  0.83331679425741D-08  0.85553182130561D-08  0.87205857077291D-08
 0.86395000000000D+02  0.54397744797895D-08  0.58283914146463D-08  0.62345732431215D-08  0.66481496821626D-08  0.70584258424119D-08  0.74545340949372D-08  0.78258008159818D-08  0.81621145927830D-08  0.84542979042692D-08  0.86944330863785D-08
 0.86495000000000D+02  0.50776836500878D-08  0.54433122293541D-08  0.58386342402994D-08  0.62541838263072D-08  0.66795429003629D-08  0.71036689250466D-08  0.75152546144925D-08  0.79031057168873D-08  0.82565392178803D-08  0.85657547761892D-08
 0.86595000000000D+02  0.47557189927728D-08  0.50832818058962D-08  0.54513718833610D-08  0.58517545259044D-08  0.62748566485443D-08  0.67100512505890D-08  0.71459893740194D-08  0.75709662999038D-08  0.79733246314924D-08  0.83418511556419D-08
 0.86695000000000D+02  0.44925465292563D-08  0.47691509280295D-08  0.50951886359215D-08  0.54641129988958D-08  0.58677173098857D-08  0.62963591173092D-08  0.67392451546312D-08  0.71847652267561D-08  0.76208779896712D-08  0.80355114626957D-08
 0.86795000000000D+02  0.43034466500461D-08  0.45191395102149D-08  0.47907214927537D-08  0.51136936392894D-08  0.54816591386812D-08  0.58864740531078D-08  0.63184685370648D-08  0.67667293821116D-08  0.72194470844544D-08  0.76642977671418D-08
 0.86895000000000D+02  0.41994189896794D-08  0.43477714468156D-08  0.45556382800256D-08  0.48208088600391D-08  0.51390352777976D-08  0.55041003639932D-08  0.59079621717777D-08  0.63409690195237D-08  0.67921485121508D-08  0.72495494920617D-08
 0.86995000000000D+02  0.41865362120191D-08  0.42650230410389D-08  0.44036038645966D-08  0.46024632368107D-08  0.48597160599214D-08  0.51713886809783D-08  0.55314781127112D-08  0.59320873108847D-08  0.63636400912741D-08  0.68151638924921D-08
 0.87095000000000D+02  0.42655857411788D-08  0.42757362312767D-08  0.43434781678606D-08  0.44713575955397D-08  0.46599278572184D-08  0.49076447681013D-08  0.52108371235969D-08  0.55637546451825D-08  0.59586970336133D-08  0.63862216903546D-08
 0.87195000000000D+02  0.44320212709278D-08  0.43793321457466D-08  0.43787943200937D-08  0.44351427918227D-08  0.45513017937499D-08  0.47282002406888D-08  0.49646554072736D-08  0.52573311896584D-08  0.56007746054952D-08  0.59875369965539D-08
 0.87295000000000D+02  0.46762272552067D-08  0.45698425385898D-08  0.45075486472913D-08  0.44959682612083D-08  0.45401895142967D-08  0.46435127511202D-08  0.48072545126608D-08  0.50306191652410D-08  0.53106416902183D-08  0.56422160197291D-08
 0.87395000000000D+02  0.49840807074585D-08  0.48362575214289D-08  0.47223154823101D-08  0.46503528596856D-08  0.46272874532295D-08  0.46585498671835D-08  0.47478197801568D-08  0.48968192429143D-08  0.51051662491644D-08  0.53703094240146D-08
 0.87495000000000D+02  0.53377767235486D-08  0.51631689223817D-08  0.50106802154932D-08  0.48893861543949D-08  0.48075926245202D-08  0.47724940779783D-08  0.47898581701193D-08  0.48637537851839D-08  0.49963252835937D-08  0.51876384177580D-08
 0.87595000000000D+02  0.57168683359940D-08  0.55316708007994D-08  0.53559647960959D-08  0.51992483916052D-08  0.50706930100448D-08  0.49787871423170D-08  0.49309885429794D-08  0.49334039981687D-08  0.49904989556708D-08  0.51048649228545D-08
 0.87695000000000D+02  0.60994586051695D-08  0.59204632566021D-08  0.57382022945297D-08  0.55620181368776D-08  0.54013754250873D-08  0.52655115516856D-08  0.51630775198210D-08  0.51017893652395D-08  0.50880917813959D-08  0.51268620117665D-08
 0.87795000000000D+02  0.64634740401449D-08  0.63070936677059D-08  0.61353022585569D-08  0.59567192831187D-08  0.57805145812022D-08  0.56160865169220D-08  0.54727132069372D-08  0.53591971632588D-08  0.52835042750451D-08  0.52524230345942D-08
 0.87895000000000D+02  0.67879440339737D-08  0.66692616030603D-08  0.65243373778776D-08  0.63605448568230D-08  0.61861901748109D-08  0.60102369111385D-08  0.58419886493146D-08  0.56907487208308D-08  0.55654573247704D-08  0.54743275782384D-08
 0.87995000000000D+02  0.70542112128757D-08  0.69861103446040D-08  0.68828750918236D-08  0.67501847123714D-08  0.65949652778315D-08  0.64251772266067D-08  0.62495481977071D-08  0.60772687194036D-08  0.59176502547226D-08  0.57797608781335D-08
 0.88095000000000D+02  0.72470023469393D-08  0.72394293524777D-08  0.71902756175475D-08  0.71031784088786D-08  0.69832499360180D-08  0.68369398674905D-08  0.66718342277987D-08  0.64964055715608D-08  0.63197133503284D-08  0.61510619148817D-08
 0.88195000000000D+02  0.73552983726909D-08  0.74146979572500D-08  0.74288805070891D-08  0.73992136233540D-08  0.73286692448607D-08  0.72217687888637D-08  0.70844598319365D-08  0.69239359045857D-08  0.67483978885124D-08  0.65667555503593D-08
 0.88295000000000D+02  0.73729545028027D-08  0.75019106054037D-08  0.75850230138782D-08  0.76212943526709D-08  0.76113555029327D-08  0.75574960861942D-08  0.74636259363179D-08  0.73351753747028D-08  0.71789325561787D-08  0.70028069699425D-08
 0.88395000000000D+02  0.72990365127282D-08  0.74961374182855D-08  0.76498027303222D-08  0.77567115657740D-08  0.78150892390498D-08  0.78248207865975D-08  0.77874991821168D-08  0.77064120909123D-08  0.75864654434485D-08  0.74340234882356D-08
 0.88495000000000D+02  0.71378561293823D-08  0.73977897597789D-08  0.76195813781610D-08  0.77977612773418D-08  0.79282235599100D-08  0.80084156075213D-08  0.80374699093673D-08  0.80162781568306D-08  0.79475061398764D-08  0.78355202653767D-08
 0.88595000000000D+02  0.68987059669658D-08  0.72125779322383D-08  0.74961733464130D-08  0.77421703878922D-08  0.79443396830281D-08  0.80977983334958D-08  0.81992174228250D-08  0.82469792162290D-08  0.82412830746596D-08  0.81841631654034D-08
 0.88695000000000D+02  0.65953116243584D-08  0.69511659710103D-08  0.72867225264257D-08  0.75932080746662D-08  0.78625978042168D-08  0.80879189558552D-08  0.82635218190509D-08  0.83853110488640D-08  0.84509370055714D-08  0.84599040090782D-08
 0.88795000000000D+02  0.62450344050338D-08  0.66285457402475D-08  0.70032751047249D-08  0.73594789352849D-08  0.76877655521195D-08  0.79794308605532D-08  0.82267771790736D-08  0.84234055445802D-08  0.85644820223118D-08  0.86469306176967D-08
 0.88895000000000D+02  0.58678717882526D-08  0.62631681811788D-08  0.66620751921438D-08  0.70544123794191D-08  0.74299250860036D-08  0.77786330431139D-08  0.80911788597754D-08  0.83591648807642D-08  0.85754798444251D-08  0.87345657695320D-08
 0.88995000000000D+02  0.54853135707210D-08  0.58758827936575D-08  0.62826255379673D-08  0.66954798827711D-08  0.71038782819830D-08  0.74970894330743D-08  0.78645768175698D-08  0.81963613661622D-08  0.84833905908356D-08  0.87178646754729D-08
 0.89095000000000D+02  0.51191189978267D-08  0.54887465770843D-08  0.58865682912659D-08  0.63031867247713D-08  0.67282863828210D-08  0.71509498010601D-08  0.75600062055848D-08  0.79444000267133D-08  0.82935824544392D-08  0.85978787925893D-08
 0.89195000000000D+02  0.47900839007720D-08  0.51237702467711D-08  0.54964501998147D-08  0.58998969476227D-08  0.63245950414034D-08  0.67600133669704D-08  0.71949247779045D-08  0.76177604182153D-08  0.80170026371874D-08  0.83815735689089D-08
 0.89295000000000D+02  0.45168667427329D-08  0.48016723126269D-08  0.51344423547761D-08  0.55085589126280D-08  0.59158071241516D-08  0.63465902387849D-08  0.67902028959375D-08  0.72351522397232D-08  0.76695313035745D-08  0.80814078349038D-08
 0.89395000000000D+02  0.43149386438392D-08  0.45407105026869D-08  0.48210863839865D-08  0.51514036140711D-08  0.55251734165732D-08  0.59342264846542D-08  0.63689253066303D-08  0.68184350986849D-08  0.72710580894339D-08  0.77146018420515D-08
 0.89495000000000D+02  0.41957151745462D-08  0.43556551769812D-08  0.45741368658405D-08  0.48486886824339D-08  0.51748751653377D-08  0.55463654843593D-08  0.59550736914365D-08  0.63913654263106D-08  0.68443358964223D-08  0.73021383118407D-08
 0.89595000000000D+02  0.41659174147117D-08  0.42569611313649D-08  0.44075638754243D-08  0.46175578204897D-08  0.48847720971349D-08  0.52050209521688D-08  0.55721648303975D-08  0.59782424505668D-08  0.64136785366726D-08  0.68675553736317D-08
 0.89695000000000D+02  0.42271970417134D-08  0.42501830179414D-08  0.43307703595327D-08  0.44710785182784D-08  0.46712852841927D-08  0.49295356274188D-08  0.52419208781742D-08  0.56025299233165D-08  0.60035767117325D-08  0.64356012117553D-08
 0.89795000000000D+02  0.43760457115769D-08  0.43356661204911D-08  0.43480669958806D-08  0.44175107121453D-08  0.45464762852253D-08  0.47354942599971D-08  0.49830457243754D-08  0.52855308191519D-08  0.56373104940552D-08  0.60308271137133D-08
 0.89895000000000D+02  0.46039934830468D-08  0.45085291311515D-08  0.44584329767346D-08  0.44598461633035D-08  0.45173728556907D-08  0.46338505360907D-08  0.48101749360202D-08  0.50451885536789D-08  0.53356358422451D-08  0.56761981537753D-08
 0.89995000000000D+02  0.48980852979621D-08  0.47589396564836D-08  0.46555755131019D-08  0.45956434247172D-08  0.45855778119830D-08  0.46303155222236D-08  0.47330567710846D-08  0.48950806941638D-08  0.51156178620624D-08  0.53917989375717D-08
 0.90095000000000D+02  0.52416093721350D-08  0.50726672479422D-08  0.49282845857840D-08  0.48171671178435D-08  0.47471820802077D-08  0.47250407156988D-08  0.47560087849276D-08  0.48436601250448D-08  0.49896748677421D-08  0.51937058740388D-08
 0.90195000000000D+02  0.56150375431745D-08  0.54318836132628D-08  0.52610634013170D-08  0.51118236790805D-08  0.49929863671541D-08  0.49126126422162D-08  0.48776793303501D-08  0.48937848080129D-08  0.49648853241565D-08  0.50930877318667D-08
 0.90295000000000D+02  0.59971258801664D-08  0.58161660955688D-08  0.56349999605534D-08  0.54628696004372D-08  0.53090191052202D-08  0.51823589688619D-08  0.50911265750637D-08  0.50425613843647D-08  0.50425951274530D-08  0.50955833499208D-08
 0.90395000000000D+02  0.63661148083816D-08  0.62036492113273D-08  0.60288318866000D-08  0.58503533001429D-08  0.56773221954907D-08  0.55189491659499D-08  0.53842103828994D-08  0.52815107336407D-08  0.52183461888230D-08  0.52009900140556D-08
 0.90495000000000D+02  0.67009621425820D-08  0.65722606210109D-08  0.64201458793988D-08  0.62522388814721D-08  0.60769614242628D-08  0.59032567122184D-08  0.57402754035235D-08  0.55970461022553D-08  0.54821297763783D-08  0.54032789970005D-08
 0.90595000000000D+02  0.69825401093098D-08  0.69009728412555D-08  0.67866454481286D-08  0.66456498479163D-08  0.64852060128161D-08  0.63134355113564D-08  0.61390878504297D-08  0.59712374344991D-08  0.58189504343592D-08  0.56909369587474D-08
 0.90695000000000D+02  0.71947288557297D-08  0.71710006116593D-08  0.71074163617400D-08  0.70081638954775D-08  0.68788122338588D-08  0.67261513145459D-08  0.65579745276292D-08  0.63828199353318D-08  0.62096694277066D-08  0.60476142240139D-08
 0.90795000000000D+02  0.73253440873231D-08  0.73668762425709D-08  0.73641188292561D-08  0.73190866048567D-08  0.72353399164330D-08  0.71179001552713D-08  0.69731014145040D-08  0.68083914670465D-08  0.66320814072219D-08  0.64530442822529D-08
 0.90895000000000D+02  0.73668451506168D-08  0.74773414391682D-08  0.75420388670310D-08  0.75606324411173D-08  0.75344283318465D-08  0.74663405910310D-08  0.73608211393652D-08  0.72237328308574D-08  0.70621651374109D-08  0.68841840383801D-08
 0.90995000000000D+02  0.73167816861838D-08  0.74960037693678D-08  0.76309385242101D-08  0.77189459779709D-08  0.77589595932808D-08  0.77515652372578D-08  0.76990144200724D-08  0.76051778815998D-08  0.74754393503878D-08  0.73165121402693D-08
 0.91095000000000D+02  0.71779513420833D-08  0.74217186694087D-08  0.76256553119724D-08  0.77849045375624D-08  0.78960433003738D-08  0.79572398090914D-08  0.79683503046810D-08  0.79309571831233D-08  0.78483486214649D-08  0.77254137672844D-08
 0.91195000000000D+02  0.69582572152510D-08  0.72586730283766D-08  0.75264148113699D-08  0.77546551091813D-08  0.79377654999851D-08  0.80715445909601D-08  0.81533938918034D-08  0.81824397654261D-08  0.81596019757389D-08  0.80875750808349D-08
 0.91295000000000D+02  0.66702708028656D-08  0.70161631691761D-08  0.73388363322053D-08  0.76298529196366D-08  0.78816576920169D-08  0.80878636567546D-08  0.82434980267038D-08  0.83452025232011D-08  0.83913889113104D-08  0.83823094374742D-08
 0.91395000000000D+02  0.63305233333569D-08  0.67080775323573D-08  0.70736288212951D-08  0.74175856345165D-08  0.77308569658287D-08  0.80051807825277D-08  0.82334269205377D-08  0.84098657186799D-08  0.85304036390286D-08  0.85927405762112D-08
 0.91495000000000D+02  0.59585644067762D-08  0.63521115768521D-08  0.67459920177316D-08  0.71299849868955D-08  0.74939456168149D-08  0.78281571541917D-08  0.81236741857619D-08  0.83726455253976D-08  0.85686183514195D-08  0.87067752329328D-08
 0.91595000000000D+02  0.55758409283071D-08  0.59687583212184D-08  0.63747551047360D-08  0.67835456671926D-08  0.71844768337236D-08  0.75668838325651D-08  0.79204546905999D-08  0.82355899749911D-08  0.85037597914760D-08  0.87178087078078D-08
 0.91695000000000D+02  0.52044604729768D-08  0.55801315816533D-08  0.59813007834540D-08  0.63981885211491D-08  0.68202112413410D-08  0.72363205256298D-08  0.76353680193443D-08  0.80064822630942D-08  0.83394596397686D-08  0.86251213046113D-08
 0.91795000000000D+02  0.48659107267146D-08  0.52086894416612D-08  0.55883358192326D-08  0.59961204557912D-08  0.64221061677264D-08  0.68554504799723D-08  0.72847501735061D-08  0.76984141972922D-08  0.80850674416717D-08  0.84339405637776D-08
 0.91895000000000D+02  0.45798099640551D-08  0.48759320990956D-08  0.52185788302446D-08  0.56005559810648D-08  0.60131144412515D-08  0.64461981634462D-08  0.68887483836101D-08  0.73290515861410D-08  0.77551339779407D-08  0.81551629413639D-08
 0.91995000000000D+02  0.43627623500784D-08  0.46011504841610D-08  0.48934417271040D-08  0.52343741897172D-08  0.56168613607819D-08  0.60321708330453D-08  0.64701704371746D-08  0.69196314756930D-08  0.73685920678389D-08  0.78047480284325D-08
 0.92095000000000D+02  0.42273861778339D-08  0.44002996939067D-08  0.46317823298695D-08  0.49187895698601D-08  0.52562764277662D-08  0.56372961373441D-08  0.60531737377199D-08  0.64937472497833D-08  0.69476796719512D-08  0.74028174609697D-08
 0.92195000000000D+02  0.41815732495869D-08  0.42850644016723D-08  0.44488021201135D-08  0.46721149729125D-08  0.49522599019689D-08  0.52844348361420D-08  0.56618694911061D-08  0.60759907097004D-08  0.65166657449586D-08  0.69725082173132D-08
 0.92295000000000D+02  0.42280240422897D-08  0.42621723285464D-08  0.43551549636348D-08  0.45086902306744D-08  0.47224629274215D-08  0.49940500071418D-08  0.53189232586622D-08  0.56905294695408D-08  0.61004515848041D-08  0.65386449594572D-08
 0.92395000000000D+02  0.43640868804387D-08  0.43329972467956D-08  0.43563203983915D-08  0.44380405416168D-08  0.45802538542422D-08  0.47830115047127D-08  0.50442341586517D-08  0.53597026858540D-08  0.57231286046235D-08  0.61263074808548D-08
 0.92495000000000D+02  0.45819110918212D-08  0.44934757089203D-08  0.44522794386418D-08  0.44643153440524D-08  0.45339327498764D-08  0.46636070010111D-08  0.48537710669540D-08  0.51027178876323D-08  0.54065769141576D-08  0.57593763919373D-08
 0.92595000000000D+02  0.48689051973554D-08  0.47343428383443D-08  0.46375127562848D-08  0.45860417566754D-08  0.45862415486136D-08  0.46428190538198D-08  0.47586354091302D-08  0.49345263917625D-08  0.51691875124575D-08  0.54591423634176D-08
 0.92695000000000D+02  0.52084727933023D-08  0.50416732748826D-08  0.49013216980410D-08  0.47962078191244D-08  0.47341997019302D-08  0.47219119900207D-08  0.47644070139093D-08  0.48649447096233D-08  0.50247842514747D-08  0.52430613057532D-08
 0.92795000000000D+02  0.55809820987478D-08  0.53976949703051D-08  0.52284531166028D-08  0.50826708934814D-08  0.49692756537595D-08  0.48963539150945D-08  0.48708127767560D-08  0.48980750236152D-08  0.49818103473429D-08  0.51237298628596D-08
 0.92895000000000D+02  0.59649112232897D-08  0.57818271529119D-08  0.55999906822635D-08  0.54288669593031D-08  0.52778842094256D-08  0.51560790089590D-08  0.50717385811972D-08  0.50320600835657D-08  0.50428287300724D-08  0.51081429437714D-08
 0.92995000000000D+02  0.63381009276499D-08  0.61718804630710D-08  0.59944593691630D-08  0.58147784076544D-08  0.56421801895069D-08  0.54860747254738D-08  0.53555842543038D-08  0.52591878317042D-08  0.52043668576636D-08  0.51972784298440D-08
 0.93095000000000D+02  0.66790406205672D-08  0.65453478303438D-08  0.63890771868445D-08  0.62181024713226D-08  0.60411009221312D-08  0.58672588929983D-08  0.57059406074821D-08  0.55663399733529D-08  0.54571159326555D-08  0.53860346780680D-08
 0.93195000000000D+02  0.69681118854902D-08  0.68807096753546D-08  0.67610797311585D-08  0.66155505934878D-08  0.64515952669737D-08  0.62775942751523D-08  0.61025481645680D-08  0.59357579160830D-08  0.57864730569370D-08  0.56635252093602D-08
 0.93295000000000D+02  0.71887169806939D-08  0.71586767317789D-08  0.70890392525238D-08  0.69842015587659D-08  0.68499659139127D-08  0.66933740049440D-08  0.65224802540533D-08  0.63460803394763D-08  0.61733941156680D-08  0.60137133738281D-08
 0.93395000000000D+02  0.73282272284318D-08  0.73632981389824D-08  0.73541008648418D-08  0.73028285128067D-08  0.72132453209839D-08  0.70906013347200D-08  0.69414798166042D-08  0.67735903599669D-08  0.65955064286680D-08  0.64163492107134D-08
 0.93495000000000D+02  0.73786974558941D-08  0.74828710983355D-08  0.75410641082048D-08  0.75531221809832D-08  0.75205241990442D-08  0.74463819437330D-08  0.73353703794500D-08  0.71935978532120D-08  0.70284146498624D-08  0.68481524946904D-08
 0.93595000000000D+02  0.73373069054764D-08  0.75106006969597D-08  0.76392478985139D-08  0.77207394439166D-08  0.77541549329560D-08  0.77402468836710D-08  0.76814576971183D-08  0.75818747532422D-08  0.74471220145836D-08  0.72841712496361D-08
 0.93695000000000D+02  0.72065033665039D-08  0.74449736516875D-08  0.76430902561099D-08  0.77961174236481D-08  0.79007604474722D-08  0.79553290526930D-08  0.79598397382200D-08  0.79160585057020D-08  0.78274825238525D-08  0.76992347402946D-08
 0.93795000000000D+02  0.69938446751593D-08  0.72898267370206D-08  0.75524502130610D-08  0.77750076169910D-08  0.79519911866463D-08  0.80793254809680D-08  0.81545488543071D-08  0.81769414085634D-08  0.81475983727698D-08  0.80694147385464D-08
 0.93895000000000D+02  0.67115491407487D-08  0.70541084812506D-08  0.73725969328814D-08  0.76587014333667D-08  0.79049882467972D-08  0.81051910126377D-08  0.82544606236167D-08  0.83495710811372D-08  0.83890808824480D-08  0.83734089747100D-08
 0.93995000000000D+02  0.63757828831415D-08  0.67513502858258D-08  0.71138892559386D-08  0.74539366893284D-08  0.77625282811974D-08  0.80315252816486D-08  0.82539182693186D-08  0.84240991995239D-08  0.85381020436947D-08  0.85937660379277D-08
 0.94095000000000D+02  0.60057266052067D-08  0.63988794439640D-08  0.67911665386295D-08  0.71724930755465D-08  0.75328444780502D-08  0.78626331471841D-08  0.81530387458815D-08  0.83963310980855D-08  0.85861768798790D-08  0.87178811544199D-08
 0.94195000000000D+02  0.56224762163032D-08  0.60168207185139D-08  0.64228877897258D-08  0.68305022680882D-08  0.72291365773735D-08  0.76082578439871D-08  0.79576854669004D-08  0.82679468393515D-08  0.85306332883479D-08  0.87387065200379D-08
 0.94295000000000D+02  0.52478403862180D-08  0.56269444561753D-08  0.60300698569519D-08  0.64475142202876D-08  0.68688004601305D-08  0.72830048754739D-08  0.76791120514312D-08  0.80463837562768D-08  0.83747447466952D-08  0.86551372286839D-08
 0.94395000000000D+02  0.49031031580455D-08  0.52514271225069D-08  0.56350860842443D-08  0.60453744038594D-08  0.64724233464288D-08  0.69054920612784D-08  0.73333002478497D-08  0.77443900880986D-08  0.81275210941959D-08  0.84720531938106D-08
 0.94495000000000D+02  0.46078210025471D-08  0.49115943008590D-08  0.52603939453485D-08  0.56469767093019D-08  0.60626032690365D-08  0.64972761996050D-08  0.69400322937085D-08  0.73792780175035D-08  0.78031723225907D-08  0.82000175999499D-08
 0.94595000000000D+02  0.43787211760443D-08  0.46267164784132D-08  0.49272633731606D-08  0.52749629129006D-08  0.56626606271866D-08  0.60816187445612D-08  0.65217524685364D-08  0.69719211291770D-08  0.74202787932456D-08  0.78546521405156D-08
 0.94695000000000D+02  0.42287621586254D-08  0.44129244167865D-08  0.46545767695662D-08  0.49504418340380D-08  0.52953148709595D-08  0.56821611595006D-08  0.61022837610638D-08  0.65455551630705D-08  0.70007175203213D-08  0.74557274688774D-08
 0.94795000000000D+02  0.41664076790141D-08  0.42823038342972D-08  0.44577671241661D-08  0.46917995202605D-08  0.49814005369678D-08  0.53215848405480D-08  0.57054728838801D-08  0.61244512429692D-08  0.65684072761487D-08  0.70260229230952D-08
 0.94895000000000D+02  0.41951539017901D-08  0.42422189400548D-08  0.43479526055239D-08  0.45136661904892D-08  0.47386939869641D-08  0.50203305862866D-08  0.53538400354322D-08  0.57325370579521D-08  0.61479446493443D-08  0.65900218795284D-08
 0.94995000000000D+02  0.43133354035782D-08  0.42949016251072D-08  0.43313148918793D-08  0.44260966047573D-08  0.45809155301738D-08  0.47954486139433D-08  0.50673087678680D-08  0.53920435294411D-08  0.57632084124196D-08  0.61725174655425D-08
 0.95095000000000D+02  0.45142203250576D-08  0.44373285122240D-08  0.44087549911975D-08  0.44340085364881D-08  0.45169615562135D-08  0.46596423837194D-08  0.48620862229974D-08  0.51222523075976D-08  0.54360104642413D-08  0.57972074720506D-08
 0.95195000000000D+02  0.47863893362948D-08  0.46613923514178D-08  0.45758450784381D-08  0.45369097540569D-08  0.45504084402433D-08  0.46205584620093D-08  0.47497551985265D-08  0.49384132213174D-08  0.51848682639997D-08  0.54853570467837D-08
 0.95295000000000D+02  0.51143775949589D-08  0.49543582260240D-08  0.48230787372316D-08  0.47289281222312D-08  0.46793149995183D-08  0.46803609490934D-08  0.47366275248327D-08  0.48508909628491D-08  0.50239663405542D-08  0.52546032419254D-08
 0.95395000000000D+02  0.54795444975977D-08  0.52995795181051D-08  0.51364057564035D-08  0.49991429233488D-08  0.48963339631511D-08  0.48356133499942D-08  0.48233937311701D-08  0.48645873929179D-08  0.49623636055701D-08  0.51179670670062D-08
 0.95495000000000D+02  0.58611234631380D-08  0.56774343629066D-08  0.54980221233446D-08  0.53321991124098D-08  0.51891261004997D-08  0.50774739908197D-08  0.50050877278538D-08  0.49786706093911D-08  0.50034894399891D-08  0.50831268736636D-08
 0.95595000000000D+02  0.62373939050277D-08  0.60664311338211D-08  0.58873718674567D-08  0.57091707912247D-08  0.55410541916331D-08  0.53921940333014D-08  0.52713680667427D-08  0.51866251334839D-08  0.51449556042533D-08  0.51519923368602D-08
 0.95695000000000D+02  0.65869104930957D-08  0.64444219859503D-08  0.62823056622710D-08  0.61086265030263D-08  0.59321187512913D-08  0.57618906812889D-08  0.56071001393280D-08  0.54766200945969D-08  0.53786937742752D-08  0.53206017760003D-08
 0.95795000000000D+02  0.68897211885710D-08  0.67898571717935D-08  0.66603322192965D-08  0.65078377221156D-08  0.63400841178856D-08  0.61655531402701D-08  0.59932073004698D-08  0.58321750242231D-08  0.56914108090656D-08  0.55793479355296D-08
 0.95895000000000D+02  0.71285056031291D-08  0.70830101030181D-08  0.69998929954814D-08  0.68840637454040D-08  0.67417328864058D-08  0.65802260565484D-08  0.64077441980023D-08  0.62330866739865D-08  0.60653366071413D-08  0.59135195147793D-08
 0.95995000000000D+02  0.72895690510720D-08  0.73071041730523D-08  0.72815889281455D-08  0.72158415472032D-08  0.71141792743300D-08  0.69823052009993D-08  0.68271333017092D-08  0.66565659764159D-08  0.64792234786136D-08  0.63041286004958D-08
 0.96095000000000D+02  0.73636351051626D-08  0.74492771936917D-08  0.74892899667528D-08  0.74842083334173D-08  0.74361682901109D-08  0.73488736188192D-08  0.72274964095796D-08  0.70785226087480D-08  0.69095421595819D-08  0.67289785779257D-08
 0.96195000000000D+02  0.73463902069378D-08  0.75013277544437D-08  0.76110640562528D-08  0.76737876388321D-08  0.76892877786630D-08  0.76590037293924D-08  0.75860072761994D-08  0.74749262215437D-08  0.73318086419310D-08  0.71639138725719D-08
 0.96295000000000D+02  0.72387474069674D-08  0.74601995064996D-08  0.76398717064280D-08  0.77736767644176D-08  0.78590246092282D-08  0.78949521364233D-08  0.78821898030391D-08  0.78231687290355D-08  0.77219684744557D-08  0.75841826954052D-08
 0.96395000000000D+02  0.70468119319340D-08  0.73281737349239D-08  0.75739849199524D-08  0.77780838583246D-08  0.79356043054476D-08  0.80431792062854D-08  0.80990886104431D-08  0.81033514266499D-08  0.80577615434982D-08  0.79658373836873D-08
 0.96495000000000D+02  0.67815481612996D-08  0.71127568743400D-08  0.74171044247178D-08  0.76866765115982D-08  0.79145649453161D-08  0.80951345922306D-08  0.82242452294461D-08  0.82994242079565D-08  0.83199908144264D-08  0.82870943371819D-08
 0.96595000000000D+02  0.64581648090185D-08  0.68262669686762D-08  0.71781660746355D-08  0.75046196888188D-08  0.77970306293998D-08  0.80477624147570D-08  0.82504233496484D-08  0.84001116945357D-08  0.84936231600294D-08  0.85295771464968D-08
 0.96695000000000D+02  0.60952516512271D-08  0.64851405025207D-08  0.68708450287614D-08  0.72422983070759D-08  0.75896664964084D-08  0.79036951460268D-08  0.81760400691934D-08  0.83995723501558D-08  0.85686590563780D-08  0.86793722918356D-08
 0.96795000000000D+02  0.57137160255751D-08  0.61089975249679D-08  0.65127838879632D-08  0.69147378549329D-08  0.73043152707765D-08  0.76711226030701D-08  0.80052762496755D-08  0.82977510982286D-08  0.85407202136980D-08  0.87278365362111D-08
 0.96895000000000D+02  0.53355796203891D-08  0.57195175467298D-08  0.61245873284446D-08  0.65407540750400D-08  0.69573336611083D-08  0.73633409004412D-08  0.77478570458231D-08  0.81004028786953D-08  0.84113195443970D-08  0.86721084110561D-08
 0.96995000000000D+02  0.49827049652448D-08  0.53391903967372D-08  0.57286399208200D-08  0.61418788734107D-08  0.65686645356476D-08  0.69980047179798D-08  0.74185124848922D-08  0.78187830819701D-08  0.81877954790948D-08  0.85152923527701D-08
 0.97095000000000D+02  0.46755259051675D-08  0.49900142960977D-08  0.53478148566323D-08  0.57411232669871D-08  0.61606966263838D-08  0.65961237280466D-08  0.70361465539641D-08  0.74690198726611D-08  0.78829115934705D-08  0.82663022716918D-08
 0.97195000000000D+02  0.44318567986908D-08  0.46922172655871D-08  0.50041484748427D-08  0.53616484545277D-08  0.57569765675899D-08  0.61808594406892D-08  0.66227605245767D-08  0.70712019792476D-08  0.75141417587801D-08  0.79393706473561D-08
 0.97295000000000D+02  0.42658511063277D-08  0.44630772964315D-08  0.47175582587050D-08  0.50254222862682D-08  0.53808474998516D-08  0.57761910897171D-08  0.62021911471278D-08  0.66482324779089D-08  0.71026794712906D-08  0.75532485703998D-08
 0.97395000000000D+02  0.41871716022186D-08  0.43159114336293D-08  0.45046800904822D-08  0.47519400397231D-08  0.50540936035039D-08  0.54055276726685D-08  0.57987359277819D-08  0.62245133910623D-08  0.66722265467139D-08  0.71301403710245D-08
 0.97495000000000D+02  0.42004221094008D-08  0.42592942944868D-08  0.43778940319152D-08  0.45570852823540D-08  0.47956703503648D-08  0.50903472597482D-08  0.54357451719386D-08  0.58245366258923D-08  0.62476299507610D-08  0.66944324842020D-08
 0.97595000000000D+02  0.43048751574536D-08  0.42965531119105D-08  0.43445970693550D-08  0.44521988181029D-08  0.46205958521499D-08  0.48489438506610D-08  0.51342632829995D-08  0.54714631535917D-08  0.58534452806354D-08  0.62712889883797D-08
 0.97695000000000D+02  0.44945122431132D-08  0.44255699552030D-08  0.44067667426880D-08  0.44434116825615D-08  0.45390696199963D-08  0.46953563329085D-08  0.49117996628465D-08  0.51857738795824D-08  0.55125106233426D-08  0.58851949600838D-08
 0.97795000000000D+02  0.47583745539002D-08  0.46389033573708D-08  0.45608422427113D-08  0.45312825692003D-08  0.45558718237975D-08  0.46385437458401D-08  0.47813025004397D-08  0.49840721726549D-08  0.52446147644724D-08  0.55585327758147D-08
 0.97895000000000D+02  0.50812032902163D-08  0.49242223301614D-08  0.47979304908346D-08  0.47107618848486D-08  0.46700795306860D-08  0.46818566574202D-08  0.47503971078898D-08  0.48781096193823D-08  0.50653388778429D-08  0.53102754047688D-08
 0.97995000000000D+02  0.54443312904006D-08  0.52650269043654D-08  0.51043251158433D-08  0.49714849836088D-08  0.48751174274260D-08  0.48228368723406D-08  0.48209349295989D-08  0.48740936866382D-08  0.49851410902736D-08  0.51548745247606D-08
 0.98095000000000D+02  0.58267726369853D-08  0.56416120992482D-08  0.54623073678169D-08  0.52983772631635D-08  0.51591403839328D-08  0.50533579967280D-08  0.49888808439217D-08  0.49723193538517D-08  0.50087392113076D-08  0.51014102445285D-08
 0.98195000000000D+02  0.62064452459455D-08  0.60322176983819D-08  0.58511810673197D-08  0.56725349978560D-08  0.55057251785749D-08  0.53600988291641D-08  0.52445460481921D-08  0.51671474268044D-08  0.51348292716472D-08  0.51530539397614D-08
 0.98295000000000D+02  0.65614538273192D-08  0.64142952995886D-08  0.62484797552528D-08  0.60723292328707D-08  0.58948300648606D-08  0.57253214434869D-08  0.55731529551853D-08  0.54473313758177D-08  0.53561574067734D-08  0.53068771145187D-08
 0.98395000000000D+02  0.68713574894386D-08  0.67658174740320D-08  0.66312741537034D-08  0.64746668225988D-08  0.63039648061325D-08  0.61279074661036D-08  0.59556984684382D-08  0.57966734807089D-08  0.56599413174906D-08  0.55540184316292D-08
 0.98495000000000D+02  0.71183477711028D-08  0.70665518808256D-08  0.69775024714685D-08  0.68563335841758D-08  0.67095013548524D-08  0.65445906031405D-08  0.63700640337798D-08  0.61949711648644D-08  0.60286163972283D-08  0.58801994272975D-08
 0.98595000000000D+02  0.72882688532947D-08  0.72992258942203D-08  0.72672452848403D-08  0.71953400899995D-08  0.70880472715153D-08  0.69513119137643D-08  0.67923061322462D-08  0.66191969399446D-08  0.64408619966753D-08  0.62665583220868D-08
 0.98695000000000D+02  0.73714216697698D-08  0.74505144593816D-08  0.74838706711273D-08  0.74721910594319D-08  0.74178007303214D-08  0.73246173595800D-08  0.71980503091691D-08  0.70448414739932D-08  0.68728464606524D-08  0.66907521223295D-08
 0.98795000000000D+02  0.73631069093904D-08  0.75117949703710D-08  0.76149836381926D-08  0.76710045242404D-08  0.76798076823119D-08  0.76430151751810D-08  0.75639060618674D-08  0.74473398064536D-08  0.72996165905884D-08  0.71282611077090D-08
 0.98895000000000D+02  0.72638776047511D-08  0.74796271991414D-08  0.76531260733716D-08  0.77804165222801D-08  0.78590482514915D-08  0.78882136549149D-08  0.78688192419574D-08  0.78034962259979D-08  0.76965488623717D-08  0.75538178427237D-08
 0.98995000000000D+02  0.70794891366213D-08  0.73559327655105D-08  0.75961886032674D-08  0.77942203400827D-08  0.79452902310688D-08  0.80461677588475D-08  0.80952830331429D-08  0.80928240234630D-08  0.80407765462659D-08  0.79428757656631D-08
 0.99095000000000D+02  0.68205520093236D-08  0.71478662917762D-08  0.74475129291990D-08  0.77117053879448D-08  0.79336618722234D-08  0.81078749301630D-08  0.82303376766914D-08  0.82987221074915D-08  0.83125089659775D-08  0.82730305966235D-08
 0.99195000000000D+02  0.65019096447928D-08  0.68673881674001D-08  0.72156813131611D-08  0.75376786198119D-08  0.78249130666588D-08  0.80698758617082D-08  0.82663022766462D-08  0.84094208716664D-08  0.84961662807803D-08  0.85253113067519D-08
 0.99295000000000D+02  0.61417787583373D-08  0.65305657304866D-08  0.69140078541238D-08  0.72821699057106D-08  0.76253524414281D-08  0.79344336436534D-08  0.82011983306339D-08  0.84186439912718D-08  0.85812648371478D-08  0.86852658946893D-08
 0.99395000000000D+02  0.57607028016729D-08  0.61566447201117D-08  0.65597629856059D-08  0.69598408321432D-08  0.73464666852034D-08  0.77093836524914D-08  0.80388430393091D-08  0.83259500448477D-08  0.85630034997594D-08  0.87437800963364D-08
 0.99495000000000D+02  0.53803788398344D-08  0.57669452762382D-08  0.61731773247873D-08  0.65891330218590D-08  0.70042465074638D-08  0.74076655583752D-08  0.77886097988449D-08  0.81367368916026D-08  0.84425194140629D-08  0.86975835222650D-08
 0.99595000000000D+02  0.50224246104047D-08  0.53836459490977D-08  0.57762828494342D-08  0.61912063313898D-08  0.66182599824109D-08  0.70465668297556D-08  0.74648724164266D-08  0.78619114128903D-08  0.82268012224130D-08  0.85494164950967D-08
 0.99695000000000D+02  0.47071551415517D-08  0.50285247141070D-08  0.53916577986122D-08  0.57887284749101D-08  0.62105277762307D-08  0.66467231038672D-08  0.70861674097136D-08  0.75172463762174D-08  0.79282676536672D-08  0.83078508594782D-08
 0.99795000000000D+02  0.44524371286816D-08  0.47217276665817D-08  0.50411463206513D-08  0.54045852072375D-08  0.58042652102669D-08  0.62309339284485D-08  0.66741242822014D-08  0.71224637160484D-08  0.75640384625833D-08  0.79867780454917D-08
 0.99895000000000D+02  0.42726844316500D-08  0.44806338938631D-08  0.47446245742449D-08  0.50605838620300D-08  0.54225627925072D-08  0.58228620179740D-08  0.62522261035131D-08  0.67000984995924D-08  0.71549418406148D-08  0.76045965188127D-08
 0.99995000000000D+02  0.41780498765423D-08  0.43188791865344D-08  0.45188817809015D-08  0.47762226851876D-08  0.50870794943541D-08  0.54456898771176D-08  0.58444714684880D-08  0.62742094959191D-08  0.67243167404599D-08  0.71831474022490D-08
 0.10009500000000D+03  0.41738575038089D-08  0.42455921260058D-08  0.43766778778020D-08  0.45675941385375D-08  0.48168216174345D-08  0.51208092208085D-08  0.54740135873131D-08  0.58690100468680D-08  0.62966793381213D-08  0.67464606300956D-08
 0.10019500000000D+03  0.42603061012544D-08  0.42648841942076D-08  0.43260293502516D-08  0.44464824774283D-08  0.46270747533484D-08  0.48666160812070D-08  0.51618527258580D-08  0.55074965326483D-08  0.58963296080616D-08  0.63193838358582D-08
 0.10029500000000D+03  0.44324599965632D-08  0.43756215355175D-08  0.43697620987597D-08  0.44197048985665D-08  0.45285474442191D-08  0.46974780619487D-08  0.49256545480064D-08  0.52101510501086D-08  0.55459764548544D-08  0.59261718445132D-08
 0.10039500000000D+03  0.46805274254264D-08  0.45714905947966D-08  0.45053554991890D-08  0.44887320220505D-08  0.45267732238383D-08  0.46229302895619D-08  0.47787593927658D-08  0.49937901154687D-08  0.52654580076081D-08  0.55891159513519D-08
 0.10049500000000D+03  0.49904111356765D-08  0.48413538492308D-08  0.47250859100536D-08  0.46496081332469D-08  0.46218034119555D-08  0.46471437897341D-08  0.47294366121852D-08  0.48706226061307D-08  0.50706277405048D-08  0.53272891630394D-08
 0.10059500000000D+03  0.53445010311562D-08  0.51698760596283D-08  0.50164615824900D-08  0.48931752598331D-08  0.48082071024336D-08  0.47686949773148D-08  0.47804244172752D-08  0.48475682840729D-08  0.49724674310057D-08  0.51554765123572D-08
 0.10069500000000D+03  0.57226653620440D-08  0.55383866919995D-08  0.53629250634410D-08  0.52055886308885D-08  0.50753780503012D-08  0.49806484812834D-08  0.49287799625850D-08  0.49258737568149D-08  0.49764751728973D-08  0.50833488881376D-08
 0.10079500000000D+03  0.61033859233510D-08  0.59259311607807D-08  0.57447845584171D-08  0.55690951969261D-08  0.54081314744662D-08  0.52709484739833D-08  0.51660474637356D-08  0.51010464017204D-08  0.50823614270677D-08  0.51149251600075D-08
 0.10089500000000D+03  0.64649745227081D-08  0.63104530010096D-08  0.61403230892241D-08  0.59630324903272D-08  0.57875579980831D-08  0.56230969030742D-08  0.54787348511591D-08  0.53631094502002D-08  0.52840692223661D-08  0.52483514652514D-08
 0.10099500000000D+03  0.67868030856757D-08  0.66700415586592D-08  0.65270243086902D-08  0.63649929179706D-08  0.61920878527189D-08  0.60170813848030D-08  0.58490726932395D-08  0.56971639820489D-08  0.55701169798474D-08  0.54760091951752D-08
 0.10109500000000D+03  0.70504784901022D-08  0.69841757284672D-08  0.68828470639267D-08  0.67520892471117D-08  0.65987068057873D-08  0.64305018072357D-08  0.62560137228052D-08  0.60842268986922D-08  0.59242449206499D-08  0.57849453574028D-08
 0.10119500000000D+03  0.72408956933882D-08  0.72348939361431D-08  0.71874776299618D-08  0.71022510881557D-08  0.69842566554170D-08  0.68398336254091D-08  0.66764180607905D-08  0.65022988730769D-08  0.63263295147202D-08  0.61576015014187D-08
 0.10129500000000D+03  0.73471088807285D-08  0.74078240433487D-08  0.74234891934507D-08  0.73954799540657D-08  0.73267480568557D-08  0.72217580023035D-08  0.70863588423608D-08  0.69276035868723D-08  0.67535157716573D-08  0.65728011591601D-08
 0.10139500000000D+03  0.73629699647628D-08  0.74930140405921D-08  0.75773426891138D-08  0.76149921669990D-08  0.76066122187131D-08  0.75544848078349D-08  0.74624759785645D-08  0.73359299302074D-08  0.71815051208159D-08  0.70069415949776D-08
 0.10149500000000D+03  0.72874963601291D-08  0.74855149767703D-08  0.76401713170719D-08  0.77481844742390D-08  0.78078207685825D-08  0.78189943072798D-08  0.77833026386806D-08  0.77040027856547D-08  0.75859278144679D-08  0.74353243118454D-08
 0.10159500000000D+03  0.71249449121846D-08  0.73856810519715D-08  0.76083026328159D-08  0.77873665093312D-08  0.79188097676552D-08  0.80001272322442D-08  0.80304899419925D-08  0.80108059117240D-08  0.79437237078334D-08  0.78335508301463D-08
 0.10169500000000D+03  0.68845853934852D-08  0.71991674917168D-08  0.74834864448576D-08  0.77302167687084D-08  0.79331541772152D-08  0.80874607071531D-08  0.81898603306678D-08  0.82387824587557D-08  0.82344542425198D-08  0.81789061935207D-08
 0.10179500000000D+03  0.65801841895753D-08  0.69366238949575D-08  0.72728131452646D-08  0.75799339546996D-08  0.78499525664833D-08  0.80759188680263D-08  0.82522289757419D-08  0.83748447641947D-08  0.84414716101128D-08  0.84516527344515D-08
 0.10189500000000D+03  0.62292256972963D-08  0.66130982618181D-08  0.69883246585889D-08  0.73450725782916D-08  0.76738978311194D-08  0.79660814198283D-08  0.82139449523633D-08  0.84111350439918D-08  0.85528783157957D-08  0.86361609213200D-08
 0.10199500000000D+03  0.58519145535478D-08  0.62471838540665D-08  0.66463379464158D-08  0.70390696989229D-08  0.74150273302971D-08  0.77641701089785D-08  0.80771192123007D-08  0.83454919694196D-08  0.85622213979382D-08  0.87218124664210D-08
 0.10209500000000D+03  0.54700151391851D-08  0.58599564090736D-08  0.62665179188031D-08  0.66794875924745D-08  0.70881641859393D-08  0.74817112559901D-08  0.78495238028257D-08  0.81815942407482D-08  0.84688798768439D-08  0.87036229417719D-08
 0.10219500000000D+03  0.51055950026759D-08  0.54737620598648D-08  0.58707516601119D-08  0.62870139344513D-08  0.67120794797592D-08  0.71348910997659D-08  0.75441654031193D-08  0.79287703111927D-08  0.82781208956938D-08  0.85825463570504D-08
 0.10229500000000D+03  0.47797452253067D-08  0.51109257723558D-08  0.54818881276746D-08  0.58842757401381D-08  0.63084216697016D-08  0.67436386839875D-08  0.71785550378510D-08  0.76014824054719D-08  0.80008186006235D-08  0.83654417397852D-08
 0.10239500000000D+03  0.45113528250457D-08  0.47924555383448D-08  0.51224161167608D-08  0.54945348843873D-08  0.59004737065828D-08  0.63304872952920D-08  0.67737136961268D-08  0.72185118523167D-08  0.76528490751155D-08  0.80647007978355D-08
 0.10249500000000D+03  0.43159978498001D-08  0.45368185338244D-08  0.48131576903717D-08  0.51403407523598D-08  0.55118091515720D-08  0.59192790298035D-08  0.63529694564643D-08  0.68018904074013D-08  0.72541935057674D-08  0.76975551937643D-08
 0.10259500000000D+03  0.42050409086590D-08  0.43588618129681D-08  0.45720540806835D-08  0.48422188841455D-08  0.51649253355158D-08  0.55337870326864D-08  0.59406145958836D-08  0.63756376077887D-08  0.68277990998348D-08  0.72851007082489D-08
 0.10269500000000D+03  0.41849558904072D-08  0.42689419992217D-08  0.44131161971381D-08  0.46174730674865D-08  0.48799337517669D-08  0.51963356285544D-08  0.55605001894143D-08  0.59643762919562D-08  0.63982620324448D-08  0.68510924983068D-08
 0.10279500000000D+03  0.42569481589024D-08  0.42723162929450D-08  0.43456025424924D-08  0.44791721949873D-08  0.46733852003678D-08  0.49264994887081D-08  0.52346502389871D-08  0.55919064248262D-08  0.59904079197181D-08  0.64205797117030D-08
 0.10289500000000D+03  0.44168814735110D-08  0.43688316526884D-08  0.43734740590135D-08  0.44353826339792D-08  0.45572997725246D-08  0.47399590024901D-08  0.49819770229579D-08  0.52798206940847D-08  0.56278522213087D-08  0.60184579798476D-08
 0.10299500000000D+03  0.46555183239528D-08  0.45529311711380D-08  0.44951589911951D-08  0.44886924561122D-08  0.45384599619095D-08  0.46475802853971D-08  0.48171740447073D-08  0.50462436775992D-08  0.53316250418911D-08  0.56680240554600D-08
 0.10309500000000D+03  0.49590594701413D-08  0.48139775760329D-08  0.47036422719536D-08  0.46360565040391D-08  0.46180096926150D-08  0.46547752321697D-08  0.47498529159308D-08  0.49047697179385D-08  0.51189417853425D-08  0.53896176235638D-08
 0.10319500000000D+03  0.53099504468379D-08  0.51368746554923D-08  0.49868743868152D-08  0.48689720115028D-08  0.47913838011202D-08  0.47611804695598D-08  0.47839762890709D-08  0.48636633000634D-08  0.50021930973522D-08  0.51994309323613D-08
 0.10329500000000D+03  0.56879067820415D-08  0.55029494602886D-08  0.53284753920209D-08  0.51739745589144D-08  0.50485726398495D-08  0.49606749917627D-08  0.49176213951164D-08  0.49253703495358D-08  0.49882149204618D-08  0.51085575294609D-08
 0.10339500000000D+03  0.60710967002996D-08  0.58910425185063D-08  0.57086919923325D-08  0.55334248130840D-08  0.53747062439014D-08  0.52417358672866D-08  0.51430889280347D-08  0.50863703711367D-08  0.50778830023880D-08  0.51223375449882D-08
 0.10349500000000D+03  0.64374109407346D-08  0.62787409962274D-08  0.61055504560551D-08  0.59265390058755D-08  0.57509232153666D-08  0.55881109879437D-08  0.54473511937111D-08  0.53373788775750D-08  0.52660568399862D-08  0.52400394418785D-08
 0.10359500000000D+03  0.67657445532438D-08  0.66436815073319D-08  0.64961366096551D-08  0.63306015664831D-08  0.61554723674031D-08  0.59797686981780D-08  0.58128129394044D-08  0.56638884104355D-08  0.55418770144051D-08  0.54548980236614D-08
 0.10369500000000D+03  0.70372153865076D-08  0.69648455921541D-08  0.68579269149785D-08  0.67222876460250D-08  0.65649813208341D-08  0.63940675221554D-08  0.62183394160797D-08  0.60470159850760D-08  0.58893985142033D-08  0.57545070139918D-08
 0.10379500000000D+03  0.72362483830810D-08  0.72237719168246D-08  0.71700920964856D-08  0.70790171044362D-08  0.69558165218634D-08  0.68070761511076D-08  0.66404902088957D-08  0.64646063140091D-08  0.62885223238441D-08  0.61215430703801D-08
 0.10389500000000D+03  0.73514633927507D-08  0.74056148497766D-08  0.74146970452164D-08  0.73802602032156D-08  0.73054541282465D-08  0.71949651718558D-08  0.70548852133706D-08  0.68925248620239D-08  0.67161695826746D-08  0.65347780476010D-08
 0.10399500000000D+03  0.73763163913628D-08  0.74999888152330D-08  0.75777275572218D-08  0.76087187737708D-08  0.75937811500440D-08  0.75353882154715D-08  0.74376215821303D-08  0.73060636246867D-08  0.71476281430265D-08  0.69703189748639D-08
 0.10409500000000D+03  0.73094589294303D-08  0.75015510213801D-08  0.76498853556378D-08  0.77513147044902D-08  0.78042510562708D-08  0.78087714574716D-08  0.77666579487848D-08  0.76813761773469D-08  0.75579912828091D-08  0.74030016620305D-08
 0.10419500000000D+03  0.71547973724431D-08  0.74102909355016D-08  0.76271070440637D-08  0.77999296212140D-08  0.79248273811849D-08  0.79994365474598D-08  0.80230848399685D-08  0.79968573612968D-08  0.79236032607788D-08  0.78078549478291D-08
 0.10429500000000D+03  0.69212509995265D-08  0.72315122246766D-08  0.75107792099225D-08  0.77518548042418D-08  0.79486620172579D-08  0.80964926131047D-08  0.81922076649154D-08  0.82343869564114D-08  0.82234266018765D-08  0.81615488699294D-08
 0.10439500000000D+03  0.66222252611270D-08  0.69755107374159D-08  0.73076397941105D-08  0.76099277020378D-08  0.78744709789642D-08  0.80944472281493D-08  0.82643804660712D-08  0.83803654966077D-08  0.84402513728591D-08  0.84437416429534D-08
 0.10449500000000D+03  0.62748324805320D-08  0.66569694200956D-08  0.70293739823958D-08  0.73823497843306D-08  0.77065884236378D-08  0.79935032066852D-08  0.82355439072579D-08  0.84264833742754D-08  0.85616768261035D-08  0.86382470899687D-08
 0.10459500000000D+03  0.58989061514717D-08  0.62941068683906D-08  0.66919301996581D-08  0.70821988211706D-08  0.74546985071396D-08  0.77995267011738D-08  0.81074387582794D-08  0.83701806641005D-08  0.85808099288265D-08  0.87339555677705D-08
 0.10469500000000D+03  0.55158660225560D-08  0.59076296613291D-08  0.63145973364594D-08  0.67266659233766D-08  0.71332631148233D-08  0.75236911965565D-08  0.78874852802506D-08  0.82147736109705D-08  0.84966425000771D-08  0.87254566545634D-08
 0.10479500000000D+03  0.51474988404088D-08  0.55195490340437D-08  0.59188972863691D-08  0.63360628851273D-08  0.67606805901184D-08  0.71818204808810D-08  0.75883382595248D-08  0.79692433088558D-08  0.83140878345948D-08  0.86133299116558D-08
 0.10489500000000D+03  0.48147236187570D-08  0.51519293278943D-08  0.55273565782625D-08  0.59326577383654D-08  0.63582253559300D-08  0.67934704919755D-08  0.72271458514060D-08  0.76477015675262D-08  0.80436776095438D-08  0.84040897307505D-08
 0.10499500000000D+03  0.45364104867828D-08  0.48256387330781D-08  0.51622269087346D-08  0.55394053580907D-08  0.59488300293692D-08  0.63808041878502D-08  0.68245568516890D-08  0.72685671975784D-08  0.77009393584170D-08  0.81097904213399D-08
 0.10509500000000D+03  0.43283186218712D-08  0.45591720369639D-08  0.48442264863367D-08  0.51786450544872D-08  0.55557797098566D-08  0.59673245463013D-08  0.64035346442245D-08  0.68535019376992D-08  0.73054927431458D-08  0.77473170882944D-08
 0.10519500000000D+03  0.42022117490674D-08  0.43676105386278D-08  0.45913722729643D-08  0.48708381762461D-08  0.52013922334728D-08  0.55765379574820D-08  0.59880462009188D-08  0.64261681684489D-08  0.68799182854121D-08  0.73374054030520D-08
 0.10529500000000D+03  0.41651996151382D-08  0.42617762967826D-08  0.44179676294248D-08  0.46334158662482D-08  0.49057582127630D-08  0.52306233464461D-08  0.56017006807188D-08  0.60108797777869D-08  0.64484643412535D-08  0.69034481423784D-08
 0.10539500000000D+03  0.42193412798002D-08  0.42476269147424D-08  0.43338009036415D-08  0.44798004916334D-08  0.46856107149321D-08  0.49491812894010D-08  0.52664141589576D-08  0.56312226656108D-08  0.60356663462002D-08  0.64701576143011D-08
 0.10549500000000D+03  0.43615316795538D-08  0.43259237350111D-08  0.43435986584114D-08  0.44186543283469D-08  0.45533867634690D-08  0.47481323198027D-08  0.50011748166445D-08  0.53087222312406D-08  0.56649563817128D-08  0.60621602955399D-08
 0.10559500000000D+03  0.45836774566688D-08  0.44921913221352D-08  0.44467631650756D-08  0.44533963793496D-08  0.45165319432172D-08  0.46388249050211D-08  0.48209767420164D-08  0.50616318391444D-08  0.53573408136938D-08  0.57026028911771D-08
 0.10569500000000D+03  0.48731522972826D-08  0.47369702295979D-08  0.46374082285726D-08  0.45820134297194D-08  0.45770858561494D-08  0.46274017263162D-08  0.47359807457710D-08  0.49039089745525D-08  0.51302192524175D-08  0.54118475552063D-08
 0.10579500000000D+03  0.52135067888125D-08  0.50463490843087D-08  0.49046911580527D-08  0.47971753618079D-08  0.47315707368414D-08  0.47144585677735D-08  0.47509478315511D-08  0.48444350381007D-08  0.49964097091461D-08  0.52063283638872D-08
 0.10589500000000D+03  0.55853938651755D-08  0.54027467916224D-08  0.52334225821714D-08  0.50866481929832D-08  0.49711889938342D-08  0.48950140720960D-08  0.48649758900665D-08  0.48865210996715D-08  0.49634330869263D-08  0.50976316985011D-08
 0.10599500000000D+03  0.59676589792914D-08  0.57859019429713D-08  0.56049206479326D-08  0.54339820982002D-08  0.52823186401091D-08  0.51587916809649D-08  0.50715535906660D-08  0.50277261712739D-08  0.50330956991477D-08  0.50918505295394D-08
 0.10609500000000D+03  0.63385348578684D-08  0.61740150089594D-08  0.59980627125199D-08  0.58194366627639D-08  0.56472793647821D-08  0.54907981070958D-08  0.53589281805315D-08  0.52599974894239D-08  0.52013921309032D-08  0.51892474002646D-08
